strict digraph grafo3 {
	graph [bb="0,0,1583,81",
		id=grafo3,
		overlap=False
	];
	node [fontsize=8,
		label="\N",
		shape=rectangle,
		style=filled
	];
	0	 [URL="http://lattes.cnpq.br/6504389569181140",
		color="#17272B",
		fontcolor="#FFFFFF",
		height=0.23611,
		label="Mauri Fortes [0]",
		pos="34.5,72.5",
		width=0.95833];
	1	 [URL="http://lattes.cnpq.br/2582725571935270",
		color="#17272B",
		fontcolor="#FFFFFF",
		height=0.23611,
		label="José Helvecio Martins [2]",
		pos="136.5,72.5",
		width=1.375];
	9	 [URL="http://lattes.cnpq.br/0989160531231200",
		color="#17272B",
		fontcolor="#FFFFFF",
		height=0.23611,
		label="Paulo M. de Barros Monteiro [2]",
		pos="136.5,8.5",
		width=1.6944];
	1 -> 9	 [arrowhead=normal,
		arrowsize=0.75,
		fontsize=8,
		label=1.0,
		lp="126,40.5",
		penwidth=3.5,
		pos="e,129.54,17.264 130.22,63.847 126.6,58.934 122.41,52.232 120.5,45.5 118.39,38.057 121.27,30.165 125.14,23.672"];
	9 -> 1	 [arrowhead=normal,
		arrowsize=0.75,
		fontsize=8,
		label=1.0,
		lp="142,40.5",
		penwidth=3.5,
		pos="e,136.5,63.898 136.5,17.165 136.5,26.864 136.5,43.797 136.5,56.189"];
	2	 [URL="http://lattes.cnpq.br/2803066379015505",
		color="#17272B",
		fontcolor="#FFFFFF",
		height=0.23611,
		label="George Leal Jamil [0]",
		pos="247.5,72.5",
		width=1.2083];
	3	 [URL="http://lattes.cnpq.br/9268849440017927",
		color="#17272B",
		fontcolor="#FFFFFF",
		height=0.23611,
		label="Bruno Santos Pimentel [0]",
		pos="360.5,72.5",
		width=1.4167];
	4	 [URL="http://lattes.cnpq.br/8535313996764809",
		color="#17272B",
		fontcolor="#FFFFFF",
		height=0.23611,
		label="Aline P. Leite Nunes [0]",
		pos="477.5,72.5",
		width=1.3194];
	5	 [URL="http://lattes.cnpq.br/7226474162395383",
		color="#17272B",
		fontcolor="#FFFFFF",
		height=0.23611,
		label="José L. Braga Guimarães [0]",
		pos="597.5,72.5",
		width=1.5];
	6	 [URL="http://lattes.cnpq.br/4064024662560135",
		color="#17272B",
		fontcolor="#FFFFFF",
		height=0.23611,
		label="Juliana C. Ferreira Mendonça [0]",
		pos="731.5,72.5",
		width=1.7083];
	7	 [URL="http://lattes.cnpq.br/0162244851289477",
		color="#17272B",
		fontcolor="#FFFFFF",
		height=0.23611,
		label="Mario E. R. Moreira Cavalcanti-Mata [0]",
		pos="885.5,72.5",
		width=2.0694];
	8	 [URL="http://lattes.cnpq.br/5287040686973900",
		color="#17272B",
		fontcolor="#FFFFFF",
		height=0.23611,
		label="Wanyr Romero Ferreira [0]",
		pos="1030.5,72.5",
		width=1.4583];
	10	 [URL="http://lattes.cnpq.br/9668558620603206",
		color="#17272B",
		fontcolor="#FFFFFF",
		height=0.23611,
		label="Eduardo Trindade Bahia [0]",
		pos="1154.5,72.5",
		width=1.4722];
	11	 [URL="http://lattes.cnpq.br/0859590825273621",
		color="#17272B",
		fontcolor="#FFFFFF",
		height=0.23611,
		label="Rafael Pinheiro Amantéa [0]",
		pos="1280.5,72.5",
		width=1.5139];
	12	 [URL="http://lattes.cnpq.br/1156912706212227",
		color="#17272B",
		fontcolor="#FFFFFF",
		height=0.23611,
		label="Gisele Tessari Santos [0]",
		pos="1401.5,72.5",
		width=1.3472];
	13	 [URL="http://lattes.cnpq.br/2161118329998992",
		color="#17272B",
		fontcolor="#FFFFFF",
		height=0.23611,
		label="Wéderley Mendes Miranda [0]",
		pos="1525.5,72.5",
		width=1.5972];
}
