strict graph grafo2 {
	graph [bb="0,0,1347.5,273",
		id=grafo2,
		overlap=False
	];
	node [fontsize=8,
		label="\N",
		shape=rectangle,
		style=filled
	];
	0	 [URL="http://lattes.cnpq.br/2044930391817209",
		color="#17272B",
		fontcolor="#FFFFFF",
		height=0.23611,
		label="Ivan C. da Cunha Lima [0]",
		pos="51.5,264.5",
		width=1.4306];
	1	 [URL="http://lattes.cnpq.br/6857465661707002",
		color="#17272B",
		fontcolor="#FFFFFF",
		height=0.23611,
		label="Pablo Vaveliuk [0]",
		pos="159.5,264.5",
		width=1.0694];
	2	 [URL="http://lattes.cnpq.br/1706259684834362",
		color="#17272B",
		fontcolor="#FFFFFF",
		height=0.23611,
		label="Hernane B. de Barros Pereira [6]",
		pos="277.5,264.5",
		width=1.6944];
	7	 [URL="http://lattes.cnpq.br/1594166432902815",
		color="#17272B",
		fontcolor="#FFFFFF",
		height=0.23611,
		label="Alex Á. Bandeira Santos [3]",
		pos="359.5,200.5",
		width=1.4861];
	2 -- 7	 [fontsize=8,
		label=1.0,
		lp="328,232.5",
		pos="287.55,255.9 303.29,244 333.57,221.1 349.36,209.16"];
	12	 [URL="http://lattes.cnpq.br/6903653527541008",
		color="#17272B",
		fontcolor="#FFFFFF",
		height=0.23611,
		label="Marcelo A. M. Simões Gonçalves [6]",
		pos="305.5,72.5",
		width=1.9028];
	2 -- 12	 [fontsize=8,
		label=3.0,
		lp="296,168.5",
		pos="278.5,255.82 281.22,235.09 289.03,176.28 296.5,127.5 299.03,110.97 302.34,91.642 304.15,81.18"];
	15	 [URL="http://lattes.cnpq.br/4168723811261149",
		color="#17272B",
		fontcolor="#FFFFFF",
		height=0.23611,
		label="Roberto L. Souza Monteiro [2]",
		pos="191.5,200.5",
		width=1.6111];
	2 -- 15	 [fontsize=8,
		label=2.0,
		lp="245,232.5",
		pos="266.95,255.9 250.45,244 218.69,221.1 202.13,209.16"];
	10	 [URL="http://lattes.cnpq.br/5635972225700254",
		color="#17272B",
		fontcolor="#FFFFFF",
		height=0.23611,
		label="Lílian L. Nani Guarieiro [3]",
		pos="358.5,136.5",
		width=1.4722];
	7 -- 10	 [fontsize=8,
		label=1.0,
		lp="364,168.5",
		pos="359.38,191.9 359.19,180 358.82,157.1 358.62,145.16"];
	13	 [URL="http://lattes.cnpq.br/2331953711858907",
		color="#17272B",
		fontcolor="#FFFFFF",
		height=0.23611,
		label="Davidson Martins Moreira [1]",
		pos="305.5,8.5",
		width=1.5694];
	12 -- 13	 [fontsize=8,
		label=1.0,
		lp="311,40.5",
		pos="305.5,63.898 305.5,51.998 305.5,29.102 305.5,17.165"];
	10 -- 12	 [fontsize=8,
		label=2.0,
		lp="340,104.5",
		pos="352,127.9 341.83,116 322.26,93.102 312.05,81.165"];
	3	 [URL="http://lattes.cnpq.br/6681901233106761",
		color="#17272B",
		fontcolor="#FFFFFF",
		height=0.23611,
		label="Francisco Uchoa Passos [0]",
		pos="576.5,264.5",
		width=1.4583];
	4	 [URL="http://lattes.cnpq.br/2000229988155180",
		color="#17272B",
		fontcolor="#FFFFFF",
		height=0.23611,
		label="Camila de Sousa Pereira-Guizzo [3]",
		pos="439.5,264.5",
		width=1.8333];
	4 -- 7	 [fontsize=8,
		label=1.0,
		lp="409,232.5",
		pos="429.69,255.9 414.34,244 384.79,221.1 369.39,209.16"];
	5	 [URL="http://lattes.cnpq.br/2226174429595901",
		color="#17272B",
		fontcolor="#FFFFFF",
		height=0.23611,
		label="Lynn R. Gama Alves [3]",
		pos="484.5,200.5",
		width=1.3333];
	4 -- 5	 [fontsize=8,
		label=2.0,
		lp="470,232.5",
		pos="445.02,255.9 453.65,244 470.27,221.1 478.94,209.16"];
	6	 [URL="http://lattes.cnpq.br/5463076295727564",
		color="#17272B",
		fontcolor="#FFFFFF",
		height=0.23611,
		label="Josemar Rodrigues de Souza [1]",
		pos="489.5,136.5",
		width=1.6667];
	5 -- 6	 [fontsize=8,
		label=1.0,
		lp="492,168.5",
		pos="485.11,191.9 486.07,180 487.92,157.1 488.88,145.16"];
	8	 [URL="http://lattes.cnpq.br/1232912658971080",
		color="#17272B",
		fontcolor="#FFFFFF",
		height=0.23611,
		label="Renelson Ribeiro Sampaio [0]",
		pos="704.5,264.5",
		width=1.5833];
	9	 [URL="http://lattes.cnpq.br/5262883034261875",
		color="#17272B",
		fontcolor="#FFFFFF",
		height=0.23611,
		label="Valeria Loureiro da Silva [0]",
		pos="834.5,264.5",
		width=1.5139];
	11	 [URL="http://lattes.cnpq.br/6534155964288521",
		color="#17272B",
		fontcolor="#FFFFFF",
		height=0.23611,
		label="Paulo Soares Figueiredo [0]",
		pos="960.5,264.5",
		width=1.4722];
	14	 [URL="http://lattes.cnpq.br/2464685002862801",
		color="#17272B",
		fontcolor="#FFFFFF",
		height=0.23611,
		label="Gilney Figueira Zebende [0]",
		pos="1085.5,264.5",
		width=1.5];
	16	 [URL="http://lattes.cnpq.br/4790550301143806",
		color="#17272B",
		fontcolor="#FFFFFF",
		height=0.23611,
		label="Valter de Senna [0]",
		pos="1197.5,264.5",
		width=1.0972];
	17	 [URL="http://lattes.cnpq.br/1079662152082050",
		color="#17272B",
		fontcolor="#FFFFFF",
		height=0.23611,
		label="Valter Estevão Beal [0]",
		pos="1301.5,264.5",
		width=1.2778];
}
