strict graph grafo1 {
	graph [bb="0,0,2761,179",
		id=grafo1,
		overlap=False
	];
	node [fontsize=8,
		label="\N",
		shape=rectangle,
		style=filled
	];
	0	 [URL="http://lattes.cnpq.br/3306639576480361",
		color="#17272B",
		fontcolor="#FFFFFF",
		height=0.23611,
		label="Luis A. Martinez Riascos [0]",
		pos="55,170.5",
		width=1.5278];
	1	 [URL="http://lattes.cnpq.br/5891290481492220",
		color="#17272B",
		fontcolor="#FFFFFF",
		height=0.23611,
		label="Paulo H. de Mello Sant'Ana [0]",
		pos="187,170.5",
		width=1.625];
	2	 [URL="http://lattes.cnpq.br/5742286307682505",
		color="#17272B",
		fontcolor="#FFFFFF",
		height=0.23611,
		label="Patricia T. Leite Asano [2]",
		pos="315,170.5",
		width=1.4167];
	4	 [URL="http://lattes.cnpq.br/5356631364526373",
		color="#17272B",
		fontcolor="#FFFFFF",
		height=0.23611,
		label="Julio Carlos Teixeira [2]",
		pos="529,116.5",
		width=1.3194];
	2 -- 4	 [pos="346.12,161.94 386.69,152.08 457.25,134.93 497.85,125.07"];
	5	 [URL="http://lattes.cnpq.br/5566869997738091",
		color="#17272B",
		fontcolor="#FFFFFF",
		height=0.23611,
		label="José Rubens Maiorino [3]",
		pos="217,116.5",
		width=1.375];
	2 -- 5	 [pos="300.54,161.83 281.9,151.94 249.71,134.86 231.2,125.04"];
	12	 [URL="http://lattes.cnpq.br/5883532047220320",
		color="#17272B",
		fontcolor="#FFFFFF",
		height=0.23611,
		label="Graziella Colato Antonio [3]",
		pos="338,62.5",
		width=1.5139];
	2 -- 12	 [pos="316.65,161.88 320.9,142.32 332.13,90.536 336.36,71.054"];
	23	 [URL="http://lattes.cnpq.br/2488515249747169",
		color="#17272B",
		fontcolor="#FFFFFF",
		height=0.23611,
		label="Ahda P. Grilo Pavani [3]",
		pos="539,62.5",
		width=1.3333];
	4 -- 23	 [pos="530.48,107.83 532.37,97.996 535.62,81.051 537.52,71.204"];
	5 -- 12	 [pos="234.59,107.94 257.54,98.08 297.43,80.934 320.38,71.07"];
	6	 [URL="http://lattes.cnpq.br/5209245987326574",
		color="#17272B",
		fontcolor="#FFFFFF",
		height=0.23611,
		label="Joao M. Losada Moreira [1]",
		pos="212,62.5",
		width=1.4722];
	5 -- 6	 [pos="216.26,107.83 215.32,97.996 213.69,81.051 212.74,71.204"];
	17	 [URL="http://lattes.cnpq.br/0193783578688625",
		color="#17272B",
		fontcolor="#FFFFFF",
		height=0.23611,
		label="Antonio Garrido Gallego [1]",
		pos="87,62.5",
		width=1.5];
	5 -- 17	 [pos="198.1,107.94 173.45,98.08 130.58,80.934 105.93,71.07"];
	21	 [URL="http://lattes.cnpq.br/3367851356455715",
		color="#17272B",
		fontcolor="#FFFFFF",
		height=0.23611,
		label="Ana M. Pereira Neto [2]",
		pos="377,8.5",
		width=1.3056];
	12 -- 21	 [pos="343.75,53.827 351.13,43.996 363.84,27.051 371.22,17.204"];
	34	 [URL="http://lattes.cnpq.br/1277989540271729",
		color="#17272B",
		fontcolor="#FFFFFF",
		height=0.23611,
		label="Ricardo Caneloi dos Santos [1]",
		pos="539,8.5",
		width=1.6111];
	23 -- 34	 [pos="539,53.827 539,43.996 539,27.051 539,17.204"];
	3	 [URL="http://lattes.cnpq.br/1843587196655459",
		color="#17272B",
		fontcolor="#FFFFFF",
		height=0.23611,
		label="Marat Rafikov [0]",
		pos="753,170.5",
		width=1.0278];
	7	 [URL="http://lattes.cnpq.br/1495307371508861",
		color="#17272B",
		fontcolor="#FFFFFF",
		height=0.23611,
		label="Jesus F. Andrade Romero [0]",
		pos="863,170.5",
		width=1.5278];
	8	 [URL="http://lattes.cnpq.br/3350119903495479",
		color="#17272B",
		fontcolor="#FFFFFF",
		height=0.23611,
		label="Ivan R. Santana Casella [6]",
		pos="646,170.5",
		width=1.4444];
	22	 [URL="http://lattes.cnpq.br/6603067354811112",
		color="#17272B",
		fontcolor="#FFFFFF",
		height=0.23611,
		label="Alfeu J. Sguarezi Filho [7]",
		pos="646,116.5",
		width=1.4167];
	8 -- 22	 [pos="646,161.83 646,152 646,135.05 646,125.2"];
	22 -- 23	 [pos="630.21,107.83 609.87,97.939 574.71,80.856 554.51,71.035"];
	9	 [URL="http://lattes.cnpq.br/5360039693866307",
		color="#17272B",
		fontcolor="#FFFFFF",
		height=0.23611,
		label="Igor Fuser [0]",
		pos="967,170.5",
		width=0.84722];
	10	 [URL="http://lattes.cnpq.br/8304507282532636",
		color="#17272B",
		fontcolor="#FFFFFF",
		height=0.23611,
		label="Herlander da M. Fernandes Lima [0]",
		pos="1083,170.5",
		width=1.8611];
	11	 [URL="http://lattes.cnpq.br/3966520672292193",
		color="#17272B",
		fontcolor="#FFFFFF",
		height=0.23611,
		label="Juliana T. de C. Leite Toneli [3]",
		pos="403,116.5",
		width=1.6667];
	11 -- 12	 [pos="393.41,107.83 381.12,97.996 359.94,81.051 347.63,71.204"];
	11 -- 21	 [pos="403.89,107.69 404.99,95.77 406.15,72.412 401,53.5 397.25,39.731 388.46,25.546 382.62,17.129"];
	13	 [URL="http://lattes.cnpq.br/5816066197029925",
		color="#17272B",
		fontcolor="#FFFFFF",
		height=0.23611,
		label="Gilberto Martins [0]",
		pos="1209,170.5",
		width=1.125];
	14	 [URL="http://lattes.cnpq.br/5365980970949716",
		color="#17272B",
		fontcolor="#FFFFFF",
		height=0.23611,
		label="Francisco de Assis Comarú [1]",
		pos="1326,170.5",
		width=1.6111];
	33	 [URL="http://lattes.cnpq.br/7819421851048499",
		color="#17272B",
		fontcolor="#FFFFFF",
		height=0.23611,
		label="Ricardo de Sousa Moretti [1]",
		pos="1326,116.5",
		width=1.5278];
	14 -- 33	 [pos="1326,161.83 1326,152 1326,135.05 1326,125.2"];
	15	 [URL="http://lattes.cnpq.br/0036766179644104",
		color="#17272B",
		fontcolor="#FFFFFF",
		height=0.23611,
		label="Claudio L. de Camargo Penteado [0]",
		pos="1469,170.5",
		width=1.8611];
	16	 [URL="http://lattes.cnpq.br/8302799021512210",
		color="#17272B",
		fontcolor="#FFFFFF",
		height=0.23611,
		label="Arilson da Silva Favareto [0]",
		pos="1609,170.5",
		width=1.5278];
	18	 [URL="http://lattes.cnpq.br/8247613218944551",
		color="#17272B",
		fontcolor="#FFFFFF",
		height=0.23611,
		label="Fernando Gasi [2]",
		pos="1720,170.5",
		width=1.0417];
	20	 [URL="http://lattes.cnpq.br/1987040329676323",
		color="#17272B",
		fontcolor="#FFFFFF",
		height=0.23611,
		label="Douglas Alves Cassiano [1]",
		pos="1679,116.5",
		width=1.4722];
	18 -- 20	 [pos="1714,161.83 1706.2,152 1692.8,135.05 1685.1,125.2"];
	27	 [URL="http://lattes.cnpq.br/7066276230059704",
		color="#17272B",
		fontcolor="#FFFFFF",
		height=0.23611,
		label="Sérgio Ricardo Lourenço [2]",
		pos="1719,62.5",
		width=1.5139];
	18 -- 27	 [pos="1725.4,162 1733.1,150.47 1745.8,127.63 1741,107.5 1737.8,93.868 1729.7,79.645 1724.2,71.182"];
	20 -- 27	 [pos="1684.9,107.83 1692.5,97.996 1705.5,81.051 1713.1,71.204"];
	19	 [URL="http://lattes.cnpq.br/0149421197228356",
		color="#17272B",
		fontcolor="#FFFFFF",
		height=0.23611,
		label="Federico B. Morante Trigoso [0]",
		pos="1836,170.5",
		width=1.6806];
	24	 [URL="http://lattes.cnpq.br/3109765375187879",
		color="#17272B",
		fontcolor="#FFFFFF",
		height=0.23611,
		label="Adriano Viana Ensinas [2]",
		pos="1966,170.5",
		width=1.4167];
	26	 [URL="http://lattes.cnpq.br/2146827739602504",
		color="#17272B",
		fontcolor="#FFFFFF",
		height=0.23611,
		label="Silvia A. Nebra de Pérez [3]",
		pos="1925,116.5",
		width=1.4861];
	24 -- 26	 [pos="1960,161.83 1952.2,152 1938.8,135.05 1931.1,125.2"];
	29	 [URL="http://lattes.cnpq.br/4511646102728382",
		color="#17272B",
		fontcolor="#FFFFFF",
		height=0.23611,
		label="Reynaldo Palacios Bereche [4]",
		pos="1966,62.5",
		width=1.5972];
	24 -- 29	 [pos="1971,161.78 1976.2,153.29 1983.9,139.04 1987,125.5 1991.5,105.55 1979.3,83.002 1971.6,71.373"];
	26 -- 29	 [pos="1931,107.83 1938.8,97.996 1952.2,81.051 1959.9,71.204"];
	25	 [URL="http://lattes.cnpq.br/3761082063391085",
		color="#17272B",
		fontcolor="#FFFFFF",
		height=0.23611,
		label="Sinclair Mallet Guy Guerra [0]",
		pos="2093,170.5",
		width=1.6111];
	28	 [URL="http://lattes.cnpq.br/2457201378390160",
		color="#17272B",
		fontcolor="#FFFFFF",
		height=0.23611,
		label="Marcelo Modesto da Silva [0]",
		pos="2225,170.5",
		width=1.5556];
	30	 [URL="http://lattes.cnpq.br/7694775159640361",
		color="#17272B",
		fontcolor="#FFFFFF",
		height=0.23611,
		label="Sergio H. Ferreira de Oliveira [0]",
		pos="2361,170.5",
		width=1.7222];
	31	 [URL="http://lattes.cnpq.br/8679123716738439",
		color="#17272B",
		fontcolor="#FFFFFF",
		height=0.23611,
		label="Sergio Brochsztain [0]",
		pos="2486,170.5",
		width=1.2361];
	32	 [URL="http://lattes.cnpq.br/6198722804410996",
		color="#17272B",
		fontcolor="#FFFFFF",
		height=0.23611,
		label="Roseli Frederigi Benassi [0]",
		pos="2602,170.5",
		width=1.4722];
	35	 [URL="http://lattes.cnpq.br/5144761239802060",
		color="#17272B",
		fontcolor="#FFFFFF",
		height=0.23611,
		label="Pedro Carajilescov [0]",
		pos="2717,170.5",
		width=1.2222];
}
