strict digraph grafo3 {
	graph [bb="0,0,2454,273",
		id=grafo3,
		overlap=False
	];
	node [fontsize=8,
		label="\N",
		shape=rectangle,
		style=filled
	];
	0	 [URL="http://lattes.cnpq.br/3306639576480361",
		color="#17272B",
		fontcolor="#FFFFFF",
		height=0.23611,
		label="Luis A. Martinez Riascos [0]",
		pos="80,264.5",
		width=1.5278];
	1	 [URL="http://lattes.cnpq.br/5891290481492220",
		color="#17272B",
		fontcolor="#FFFFFF",
		height=0.23611,
		label="Paulo H. de Mello Sant'Ana [0]",
		pos="212,264.5",
		width=1.625];
	2	 [URL="http://lattes.cnpq.br/5742286307682505",
		color="#17272B",
		fontcolor="#FFFFFF",
		height=0.23611,
		label="Patricia T. Leite Asano [2]",
		pos="340,264.5",
		width=1.4167];
	4	 [URL="http://lattes.cnpq.br/5356631364526373",
		color="#17272B",
		fontcolor="#FFFFFF",
		height=0.23611,
		label="Julio Carlos Teixeira [2]",
		pos="189,200.5",
		width=1.3194];
	2 -> 4	 [arrowhead=normal,
		arrowsize=0.75,
		fontsize=8,
		label=0.5,
		lp="226.5,232.5",
		penwidth=2.0,
		pos="e,193.64,209.12 291.14,255.96 263.83,251.14 232.95,244.5 221,237.5 211.83,232.13 203.88,223.22 198.19,215.61"];
	5	 [URL="http://lattes.cnpq.br/5566869997738091",
		color="#17272B",
		fontcolor="#FFFFFF",
		height=0.23611,
		label="José Rubens Maiorino [3]",
		pos="340,200.5",
		width=1.375];
	2 -> 5	 [arrowhead=normal,
		arrowsize=0.75,
		fontsize=8,
		label=0.25,
		lp="329.5,232.5",
		penwidth=1.25,
		pos="e,332.94,209.02 332.18,255.8 325.96,248.71 318.79,237.77 322,227.5 323.35,223.18 325.7,218.94 328.26,215.18"];
	12	 [URL="http://lattes.cnpq.br/5883532047220320",
		color="#17272B",
		fontcolor="#FFFFFF",
		height=0.23611,
		label="Graziella Colato Antonio [3]",
		pos="487,136.5",
		width=1.5139];
	2 -> 12	 [arrowhead=normal,
		arrowsize=0.75,
		fontsize=8,
		label=0.25,
		lp="434.5,200.5",
		penwidth=1.25,
		pos="e,478.8,145.03 349.25,255.9 367.9,240.53 411.29,204.57 447,173.5 455.7,165.93 465.31,157.29 472.93,150.37"];
	4 -> 2	 [arrowhead=normal,
		arrowsize=0.75,
		fontsize=8,
		label=0.5,
		lp="279.5,232.5",
		penwidth=2.0,
		pos="e,321.48,255.9 207.67,209.16 234.47,220.17 283.95,240.49 314.23,252.92"];
	23	 [URL="http://lattes.cnpq.br/2488515249747169",
		color="#17272B",
		fontcolor="#FFFFFF",
		height=0.23611,
		label="Ahda P. Grilo Pavani [3]",
		pos="116,136.5",
		width=1.3333];
	4 -> 23	 [arrowhead=normal,
		arrowsize=0.75,
		fontsize=8,
		label=0.5,
		lp="148.5,168.5",
		penwidth=2.0,
		pos="e,120.4,145.12 171.74,191.88 162.6,187.34 151.55,181.01 143,173.5 135.87,167.23 129.43,158.81 124.62,151.68"];
	5 -> 2	 [arrowhead=normal,
		arrowsize=0.75,
		fontsize=8,
		label=0.17,
		lp="347.5,232.5",
		penwidth=1.01,
		pos="e,340,255.9 340,209.16 340,218.86 340,235.8 340,248.19"];
	5 -> 12	 [arrowhead=normal,
		arrowsize=0.75,
		fontsize=8,
		label=0.17,
		lp="401.5,168.5",
		penwidth=1.01,
		pos="e,449.84,145.04 349.4,191.88 359.77,183.81 377.21,171.21 394,163.5 409.19,156.53 426.65,151.04 442.31,146.95"];
	6	 [URL="http://lattes.cnpq.br/5209245987326574",
		color="#17272B",
		fontcolor="#FFFFFF",
		height=0.23611,
		label="Joao M. Losada Moreira [1]",
		pos="361,136.5",
		width=1.4722];
	5 -> 6	 [arrowhead=normal,
		arrowsize=0.75,
		fontsize=8,
		label=0.33,
		lp="329.5,168.5",
		penwidth=1.49,
		pos="e,342.35,145.07 331.82,191.99 324.87,184.67 316.79,173.23 322,163.5 325.15,157.62 330.27,152.84 335.79,149.06"];
	17	 [URL="http://lattes.cnpq.br/0193783578688625",
		color="#17272B",
		fontcolor="#FFFFFF",
		height=0.23611,
		label="Antonio Garrido Gallego [1]",
		pos="236,136.5",
		width=1.5];
	5 -> 17	 [arrowhead=normal,
		arrowsize=0.75,
		fontsize=8,
		label=0.33,
		lp="253.5,168.5",
		penwidth=1.49,
		pos="e,236.03,145.19 290.68,195.52 274.6,191.92 257.86,185.35 246,173.5 240.59,168.1 238.04,160.04 236.87,152.91"];
	12 -> 2	 [arrowhead=normal,
		arrowsize=0.75,
		fontsize=8,
		label=0.17,
		lp="468.5,200.5",
		penwidth=1.01,
		pos="e,363.88,255.87 484.35,145.18 479.07,159.48 466.01,190.46 446,209.5 424.53,229.93 393.83,244.42 370.99,253.21"];
	12 -> 5	 [arrowhead=normal,
		arrowsize=0.75,
		fontsize=8,
		label=0.17,
		lp="438.5,168.5",
		penwidth=1.01,
		pos="e,361.29,191.93 471.61,145 455.98,152.53 431.01,164.29 409,173.5 395.77,179.04 380.91,184.71 368.38,189.33"];
	11	 [URL="http://lattes.cnpq.br/3966520672292193",
		color="#17272B",
		fontcolor="#FFFFFF",
		height=0.23611,
		label="Juliana T. de C. Leite Toneli [3]",
		pos="487,8.5",
		width=1.6667];
	12 -> 11	 [arrowhead=normal,
		arrowsize=0.75,
		fontsize=8,
		label=0.5,
		lp="425.5,72.5",
		penwidth=2.0,
		pos="e,470.08,17.043 471.06,128 454.8,119.35 430.51,103.47 420,81.5 407.79,55.985 439.44,33.344 463.29,20.54"];
	21	 [URL="http://lattes.cnpq.br/3367851356455715",
		color="#17272B",
		fontcolor="#FFFFFF",
		height=0.23611,
		label="Ana M. Pereira Neto [2]",
		pos="487,72.5",
		width=1.3056];
	12 -> 21	 [arrowhead=normal,
		arrowsize=0.75,
		fontsize=8,
		label=0.17,
		lp="476.5,104.5",
		penwidth=1.01,
		pos="e,479.94,81.022 479.18,127.8 472.96,120.71 465.79,109.77 469,99.5 470.35,95.177 472.7,90.94 475.26,87.182"];
	23 -> 4	 [arrowhead=normal,
		arrowsize=0.75,
		fontsize=8,
		label=0.33,
		lp="172.5,168.5",
		penwidth=1.49,
		pos="e,182.43,191.9 128.43,145.11 136.08,150 145.93,156.7 154,163.5 162.17,170.38 170.53,178.92 177.04,185.95"];
	22	 [URL="http://lattes.cnpq.br/6603067354811112",
		color="#17272B",
		fontcolor="#FFFFFF",
		height=0.23611,
		label="Alfeu J. Sguarezi Filho [7]",
		pos="52,72.5",
		width=1.4167];
	23 -> 22	 [arrowhead=normal,
		arrowsize=0.75,
		fontsize=8,
		label=0.33,
		lp="69.5,104.5",
		penwidth=1.49,
		pos="e,52.328,81.236 89.396,127.9 79.55,123.87 69.076,117.96 62,109.5 57.154,103.71 54.648,95.735 53.355,88.767"];
	34	 [URL="http://lattes.cnpq.br/1277989540271729",
		color="#17272B",
		fontcolor="#FFFFFF",
		height=0.23611,
		label="Ricardo Caneloi dos Santos [1]",
		pos="179,72.5",
		width=1.6111];
	23 -> 34	 [arrowhead=normal,
		arrowsize=0.75,
		fontsize=8,
		label=0.33,
		lp="146.5,104.5",
		penwidth=1.49,
		pos="e,164.22,81.073 119.6,127.95 123.57,120.18 130.54,108.03 139,99.5 144.4,94.06 151.12,89.155 157.5,85.11"];
	6 -> 5	 [arrowhead=normal,
		arrowsize=0.75,
		fontsize=8,
		label=1.0,
		lp="357.5,168.5",
		penwidth=3.5,
		pos="e,342.58,191.9 358.4,145.16 355.09,154.96 349.27,172.12 345.07,184.55"];
	17 -> 5	 [arrowhead=normal,
		arrowsize=0.75,
		fontsize=8,
		label=1.0,
		lp="300.5,168.5",
		penwidth=3.5,
		pos="e,327.25,191.9 248.86,145.16 266.85,155.89 299.68,175.46 320.63,187.95"];
	11 -> 12	 [arrowhead=normal,
		arrowsize=0.75,
		fontsize=8,
		label=0.5,
		lp="551.5,72.5",
		penwidth=2.0,
		pos="e,500.5,127.98 499.65,17.179 513.29,26.286 534.23,42.865 543,63.5 553.24,87.594 526.9,110.59 506.96,123.87"];
	11 -> 21	 [arrowhead=normal,
		arrowsize=0.75,
		fontsize=8,
		label=0.5,
		lp="492.5,40.5",
		penwidth=2.0,
		pos="e,487,63.898 487,17.165 487,26.864 487,43.797 487,56.189"];
	21 -> 12	 [arrowhead=normal,
		arrowsize=0.75,
		fontsize=8,
		label=0.25,
		lp="494.5,104.5",
		penwidth=1.25,
		pos="e,487,127.9 487,81.165 487,90.864 487,107.8 487,120.19"];
	21 -> 11	 [arrowhead=normal,
		arrowsize=0.75,
		fontsize=8,
		label=0.75,
		lp="475.5,40.5",
		penwidth=2.75,
		pos="e,478.75,17.164 479.17,63.602 474.97,58.803 470.22,52.303 468,45.5 465.47,37.741 469.09,29.655 473.82,23.117"];
	22 -> 23	 [arrowhead=normal,
		arrowsize=0.75,
		fontsize=8,
		label=0.14,
		lp="95.5,104.5",
		penwidth=0.92,
		pos="e,108.15,127.9 59.912,81.165 70.598,91.517 89.791,110.11 102.71,122.63"];
	8	 [URL="http://lattes.cnpq.br/3350119903495479",
		color="#17272B",
		fontcolor="#FFFFFF",
		height=0.23611,
		label="Ivan R. Santana Casella [6]",
		pos="52,8.5",
		width=1.4444];
	22 -> 8	 [arrowhead=normal,
		arrowsize=0.75,
		fontsize=8,
		label=0.86,
		lp="40.5,40.5",
		penwidth=3.08,
		pos="e,43.746,17.164 44.166,63.602 39.971,58.803 35.221,52.303 33,45.5 30.467,37.741 34.087,29.655 38.824,23.117"];
	34 -> 23	 [arrowhead=normal,
		arrowsize=0.75,
		fontsize=8,
		label=1.0,
		lp="168.5,104.5",
		penwidth=3.5,
		pos="e,129.55,127.91 174.73,81.271 170.24,89.003 162.64,100.92 154,109.5 148.67,114.79 142.13,119.71 135.99,123.8"];
	3	 [URL="http://lattes.cnpq.br/1843587196655459",
		color="#17272B",
		fontcolor="#FFFFFF",
		height=0.23611,
		label="Marat Rafikov [0]",
		pos="446,264.5",
		width=1.0278];
	8 -> 22	 [arrowhead=normal,
		arrowsize=0.75,
		fontsize=8,
		label=1.0,
		lp="57.5,40.5",
		penwidth=3.5,
		pos="e,52,63.898 52,17.165 52,26.864 52,43.797 52,56.189"];
	7	 [URL="http://lattes.cnpq.br/1495307371508861",
		color="#17272B",
		fontcolor="#FFFFFF",
		height=0.23611,
		label="Jesus F. Andrade Romero [0]",
		pos="556,264.5",
		width=1.5278];
	9	 [URL="http://lattes.cnpq.br/5360039693866307",
		color="#17272B",
		fontcolor="#FFFFFF",
		height=0.23611,
		label="Igor Fuser [0]",
		pos="660,264.5",
		width=0.84722];
	10	 [URL="http://lattes.cnpq.br/8304507282532636",
		color="#17272B",
		fontcolor="#FFFFFF",
		height=0.23611,
		label="Herlander da M. Fernandes Lima [0]",
		pos="776,264.5",
		width=1.8611];
	13	 [URL="http://lattes.cnpq.br/5816066197029925",
		color="#17272B",
		fontcolor="#FFFFFF",
		height=0.23611,
		label="Gilberto Martins [0]",
		pos="902,264.5",
		width=1.125];
	14	 [URL="http://lattes.cnpq.br/5365980970949716",
		color="#17272B",
		fontcolor="#FFFFFF",
		height=0.23611,
		label="Francisco de Assis Comarú [1]",
		pos="1019,264.5",
		width=1.6111];
	33	 [URL="http://lattes.cnpq.br/7819421851048499",
		color="#17272B",
		fontcolor="#FFFFFF",
		height=0.23611,
		label="Ricardo de Sousa Moretti [1]",
		pos="1019,200.5",
		width=1.5278];
	14 -> 33	 [arrowhead=normal,
		arrowsize=0.75,
		fontsize=8,
		label=1.0,
		lp="1008.5,232.5",
		penwidth=3.5,
		pos="e,1012,209.26 1012.7,255.85 1009.1,250.93 1004.9,244.23 1003,237.5 1000.9,230.06 1003.8,222.16 1007.6,215.67"];
	33 -> 14	 [arrowhead=normal,
		arrowsize=0.75,
		fontsize=8,
		label=1.0,
		lp="1024.5,232.5",
		penwidth=3.5,
		pos="e,1019,255.9 1019,209.16 1019,218.86 1019,235.8 1019,248.19"];
	15	 [URL="http://lattes.cnpq.br/0036766179644104",
		color="#17272B",
		fontcolor="#FFFFFF",
		height=0.23611,
		label="Claudio L. de Camargo Penteado [0]",
		pos="1162,264.5",
		width=1.8611];
	16	 [URL="http://lattes.cnpq.br/8302799021512210",
		color="#17272B",
		fontcolor="#FFFFFF",
		height=0.23611,
		label="Arilson da Silva Favareto [0]",
		pos="1302,264.5",
		width=1.5278];
	18	 [URL="http://lattes.cnpq.br/8247613218944551",
		color="#17272B",
		fontcolor="#FFFFFF",
		height=0.23611,
		label="Fernando Gasi [2]",
		pos="1413,264.5",
		width=1.0417];
	20	 [URL="http://lattes.cnpq.br/1987040329676323",
		color="#17272B",
		fontcolor="#FFFFFF",
		height=0.23611,
		label="Douglas Alves Cassiano [1]",
		pos="1340,200.5",
		width=1.4722];
	18 -> 20	 [arrowhead=normal,
		arrowsize=0.75,
		fontsize=8,
		label=0.25,
		lp="1366.5,232.5",
		penwidth=1.25,
		pos="e,1342.5,209.28 1389.5,255.97 1379.2,251.79 1367.5,245.73 1359,237.5 1352.9,231.67 1348.4,223.48 1345.3,216.39"];
	27	 [URL="http://lattes.cnpq.br/7066276230059704",
		color="#17272B",
		fontcolor="#FFFFFF",
		height=0.23611,
		label="Sérgio Ricardo Lourenço [2]",
		pos="1408,136.5",
		width=1.5139];
	18 -> 27	 [arrowhead=normal,
		arrowsize=0.75,
		fontsize=8,
		label=0.75,
		lp="1417.5,200.5",
		penwidth=2.75,
		pos="e,1408.3,145.12 1412.7,256 1411.9,235.82 1409.7,180.11 1408.6,152.88"];
	20 -> 18	 [arrowhead=normal,
		arrowsize=0.75,
		fontsize=8,
		label=0.5,
		lp="1389.5,232.5",
		penwidth=2.0,
		pos="e,1405.1,255.83 1350.6,209.22 1357.4,214.27 1366.4,221.09 1374,227.5 1382.7,234.82 1392.1,243.45 1399.5,250.43"];
	20 -> 27	 [arrowhead=normal,
		arrowsize=0.75,
		fontsize=8,
		label=0.5,
		lp="1359.5,168.5",
		penwidth=2.0,
		pos="e,1382.9,145.03 1341.3,191.73 1343,183.77 1346.6,171.47 1354,163.5 1360,157.07 1367.8,152.05 1375.7,148.22"];
	27 -> 18	 [arrowhead=normal,
		arrowsize=0.75,
		fontsize=8,
		label=0.75,
		lp="1437.5,200.5",
		penwidth=2.75,
		pos="e,1417.2,255.99 1413.4,145.37 1416.6,150.37 1420.5,157.08 1423,163.5 1427.6,175.38 1427.7,178.84 1429,191.5 1431.2,211.91 1430.8,\
217.82 1425,237.5 1423.9,241.35 1422.2,245.36 1420.6,249.04"];
	27 -> 20	 [arrowhead=normal,
		arrowsize=0.75,
		fontsize=8,
		label=0.25,
		lp="1385.5,168.5",
		penwidth=1.25,
		pos="e,1348.3,191.9 1399.6,145.16 1388.2,155.52 1367.8,174.11 1354.1,186.63"];
	19	 [URL="http://lattes.cnpq.br/0149421197228356",
		color="#17272B",
		fontcolor="#FFFFFF",
		height=0.23611,
		label="Federico B. Morante Trigoso [0]",
		pos="1529,264.5",
		width=1.6806];
	24	 [URL="http://lattes.cnpq.br/3109765375187879",
		color="#17272B",
		fontcolor="#FFFFFF",
		height=0.23611,
		label="Adriano Viana Ensinas [2]",
		pos="1659,264.5",
		width=1.4167];
	26	 [URL="http://lattes.cnpq.br/2146827739602504",
		color="#17272B",
		fontcolor="#FFFFFF",
		height=0.23611,
		label="Silvia A. Nebra de Pérez [3]",
		pos="1595,200.5",
		width=1.4861];
	24 -> 26	 [arrowhead=normal,
		arrowsize=0.75,
		fontsize=8,
		label=0.25,
		lp="1619.5,232.5",
		penwidth=1.25,
		pos="e,1597.1,209.19 1639.3,255.98 1630.1,251.68 1619.5,245.53 1612,237.5 1606.5,231.63 1602.5,223.65 1599.7,216.7"];
	29	 [URL="http://lattes.cnpq.br/4511646102728382",
		color="#17272B",
		fontcolor="#FFFFFF",
		height=0.23611,
		label="Reynaldo Palacios Bereche [4]",
		pos="1659,136.5",
		width=1.5972];
	24 -> 29	 [arrowhead=normal,
		arrowsize=0.75,
		fontsize=8,
		label=0.75,
		lp="1666.5,200.5",
		penwidth=2.75,
		pos="e,1659,145.12 1659,256 1659,235.82 1659,180.11 1659,152.88"];
	26 -> 24	 [arrowhead=normal,
		arrowsize=0.75,
		fontsize=8,
		label=0.17,
		lp="1643.5,232.5",
		penwidth=1.01,
		pos="e,1652.7,255.73 1605.2,209.07 1611.6,214.06 1620.1,220.87 1627,227.5 1634.3,234.49 1641.9,242.92 1647.8,249.85"];
	26 -> 29	 [arrowhead=normal,
		arrowsize=0.75,
		fontsize=8,
		label=0.83,
		lp="1614.5,168.5",
		penwidth=2.99,
		pos="e,1634.7,145.04 1595.8,191.76 1597.1,183.84 1600,171.56 1607,163.5 1612.6,157.08 1620.1,152.07 1627.7,148.24"];
	29 -> 24	 [arrowhead=normal,
		arrowsize=0.75,
		fontsize=8,
		label=0.38,
		lp="1686.5,200.5",
		penwidth=1.64,
		pos="e,1664.1,255.61 1664.1,145.39 1667.1,150.4 1670.8,157.11 1673,163.5 1677.2,175.44 1676.9,178.91 1678,191.5 1679.8,211.98 1679.8,\
218.08 1673,237.5 1671.6,241.39 1669.8,245.41 1667.8,249.08"];
	29 -> 26	 [arrowhead=normal,
		arrowsize=0.75,
		fontsize=8,
		label=0.63,
		lp="1639.5,168.5",
		penwidth=2.39,
		pos="e,1603,191.77 1651.1,145.24 1643.6,152.53 1632,163.78 1622,173.5 1617.6,177.73 1612.8,182.34 1608.5,186.49"];
	25	 [URL="http://lattes.cnpq.br/3761082063391085",
		color="#17272B",
		fontcolor="#FFFFFF",
		height=0.23611,
		label="Sinclair Mallet Guy Guerra [0]",
		pos="1786,264.5",
		width=1.6111];
	28	 [URL="http://lattes.cnpq.br/2457201378390160",
		color="#17272B",
		fontcolor="#FFFFFF",
		height=0.23611,
		label="Marcelo Modesto da Silva [0]",
		pos="1918,264.5",
		width=1.5556];
	30	 [URL="http://lattes.cnpq.br/7694775159640361",
		color="#17272B",
		fontcolor="#FFFFFF",
		height=0.23611,
		label="Sergio H. Ferreira de Oliveira [0]",
		pos="2054,264.5",
		width=1.7222];
	31	 [URL="http://lattes.cnpq.br/8679123716738439",
		color="#17272B",
		fontcolor="#FFFFFF",
		height=0.23611,
		label="Sergio Brochsztain [0]",
		pos="2179,264.5",
		width=1.2361];
	32	 [URL="http://lattes.cnpq.br/6198722804410996",
		color="#17272B",
		fontcolor="#FFFFFF",
		height=0.23611,
		label="Roseli Frederigi Benassi [0]",
		pos="2295,264.5",
		width=1.4722];
	35	 [URL="http://lattes.cnpq.br/5144761239802060",
		color="#17272B",
		fontcolor="#FFFFFF",
		height=0.23611,
		label="Pedro Carajilescov [0]",
		pos="2410,264.5",
		width=1.2222];
}
