artigoEmPeriodico	Nandamudi Lankalapalli Vijaykumar	2015		Social Network Analysis to Monitor Interactions in Virtual Learning Environment	Revista IEEE América Latina	Aleksandra do Socorro da Silva ; Silvana Rossy de Brito ; VIJAYKUMAR, N. L. ; ROCHA, C. A. J. ; Costa, J.C.W.A. ; Carlos Renato Lisboa Francês	B1	
artigoEmPeriodico	Nandamudi Lankalapalli Vijaykumar	2015	http://dx.doi.org/10.1016/j.infsof.2014.05.016	Knowledge management initiatives in software testing: A mapping study	Information and Software Technology	DE SOUZA, ÉRICA FERREIRA ; FALBO, RICARDO DE ALMEIDA ; VIJAYKUMAR, NANDAMUDI L.	B1	
trabalhoCompletoEmCongresso	Nandamudi Lankalapalli Vijaykumar	2015		Using the findings of a Mapping Study to conduct a Research Project: A Case in Knowledge Management in Software Testing	41st Euromicro Conference on Software Engineering and Advanced Applications - SEAA	Souza, E.F. ; Ricardo de Almeida Falbo ; VIJAYKUMAR, N. L.		
trabalhoCompletoEmCongresso	Nandamudi Lankalapalli Vijaykumar	2015	http://dx.doi.org/10.1109/QRS-C.2015.29	On Proposing a Test Oracle Generator Based on Static and Dynamic Source Code Analysis	2015 International Conference on Software Quality	ARANTES, ALESSANDRO OLIVEIRA ; SANTIAGO, VALDIVINO ALEXANDRE DE ; VIJAYKUMAR, NANDAMUDI LANKALAPALLI		
trabalhoCompletoEmCongresso	Nandamudi Lankalapalli Vijaykumar	2015		Estimatio of UAV Position with use of Infrared Images	The 9th International Conference on Sensing Technologies-ICST	Wanessa da Silva ; Elcio Hideti Shiguemori ; VIJAYKUMAR, N. L. ; Haroldo Fraga de Campos Velho		
artigoEmPeriodico	Margarete Oliveira Domingues	2015	http://dx.doi.org/10.1063/1.4906814	The Discrete Complex Wavelet Approach to phase assignment and a new test bed for related methods	Chaos (Woodbury, N.Y.)	FERREIRA, M. T. ; FREITAS, C. B. N. ; DOMINGUES, M. O. ; MACAU, E. E. N.	A2	
artigoEmPeriodico	Margarete Oliveira Domingues	2015	http://dx.doi.org/10.1016/j.apnum.2015.01.007	An adaptive multiresolution method for ideal magnetohydrodynamics using divergence cleaning with parabolic-hyperbolic correction	Applied Numerical Mathematics	GOMES, ANNA KARINA FONTES ; DOMINGUES, MARGARETE OLIVEIRA ; Schneider, Kai ; MENDES, ODIM ; DEITERDING, RALF	A2	
artigoEmPeriodico	Margarete Oliveira Domingues	2015		Plasma Structure Extraction from LASCO Images by the Dual-Tree Complex Wavelet Transform	Revista Brasileira de Geofísica (Impresso)	MOURA, V. C. S. S ; DOMINGUES, M. O. ; MENDES, ODIM ; PAGAMISSE, A.	B1	
artigoEmPeriodico	Margarete Oliveira Domingues	2015	http://dx.doi.org/10.1007/s13538-015-0349-4	Enhancement of Space Plasma Images by Complex Wavelets	Brazilian Journal of Physics (Impresso)	SOUZA, V. M. ; DOMINGUES, MARGARETE OLIVEIRA ; MENDES, ODIM ; PAGAMISSE, A. ; STENBORG, G.	B1	
artigoEmPeriodico	Margarete Oliveira Domingues	2015	http://dx.doi.org/10.5196/physicae.v0i11.321	Main patterns of the geomagnetic field: A case study using principal component analysis	Physicae (APGF)	KLAUSNER, VIRGINIA ; MENDES, ODIM ; DOMINGUES, MARGARETE OLIVEIRA ; PAPA, ANDRES R. R.	B3	
artigoEmPeriodico	Margarete Oliveira Domingues	2015	http://dx.doi.org/10.1007/s13538-015-0342-y	Grad-Shafranov Reconstruction: Overview and Improvement of the Numerical Solution Used in Space Physics	Brazilian Journal of Physics (Impresso)	GONZÁLEZ, A. OJEDA ; DOMINGUES, M. O. ; MENDES, O. ; KAIBARA, M. K. ; PRESTES, A.	B1	
trabalhoCompletoEmCongresso	Margarete Oliveira Domingues	2015	http://dx.doi.org/10.5540/03.2015.003.01.0313	Implementação de método adaptativo no tempo para equações diferenciais parciais evolutivas	XXXV CNMAC #45; Congresso Nacional de Matemática Aplicada e Computacional	LOPES, MULLER M. S. ; Domingues, Margarete O. ; MENDES, ODIM		
trabalhoCompletoEmCongresso	Margarete Oliveira Domingues	2015		Three-dimensional Resistive Magnetohydrodynamics Simulations During High-intensity, Long-duration, Continuous Auroral Electrojet Activity Events and a Quiet Period: First results	DINCON ?Conferência Brasileira de Dinâmica	SIERRA, M. L. ; MECÍAS, A. L. ; DOMINGUES, M. O. ; MENDES, ODIM ; ECHER, E. ; JAUER, P.		
trabalhoCompletoEmCongresso	Margarete Oliveira Domingues	2015		Simulações de Problemas em Magneto-hidrodinâmica Usando o Código FLASH	DINCON ?Conferência Brasileira de Dinâmica	EVANGELHISTA, E. F. D. ; DOMINGUES, M. O. ; MENDES, O. ; MIRANDA, O. D.		
trabalhoCompletoEmCongresso	Margarete Oliveira Domingues	2015		Transformada Wavelet Contínua Bidimensional: Explorando a Variabilidade Direcional e em Escala para a Análise de Sinais Espaciais	DINCON ?Conferência Brasileira de Dinâmica	BERNARDES, E. ; DOMINGUES, M. O. ; MENDES, O.		
trabalhoCompletoEmCongresso	Margarete Oliveira Domingues	2015		Uso de Transformada Wavelet Discreta Ortogonal e Gráfico de Recorrência para Caracterização de Sistemas Dinâmicos Não-lineares	DINCON ?Conferência Brasileira de Dinâmica	REIS, B. M. F. ; MACAU, E. E. N. ; QUILES, M. G. ; DOMINGUES, M. O.		
trabalhoCompletoEmCongresso	Margarete Oliveira Domingues	2015		Detecting Phase Synchronization in Chaotic Non-Coherent Rossler Systems Using Discrete Complex Wavelet Approach (DCWA): Preliminaries Results	DINCON ?Conferência Brasileira de Dinâmica	FERREIRA, M. T. ; DOMINGUES, M. O. ; MACAU, E. E. N.		
trabalhoCompletoEmCongresso	Margarete Oliveira Domingues	2015		Análise_e_comparação _preliminar _de fluxos numéricos usuais em sistemas de magnetohidrodinâmica	III CMAC-Sudeste. Congresso de matemática aplicada e computacional.	PEREIRA DA SILVA, D. ; DOMINGUES, M. O. ; VASCONCELLOS, J. F. ; EVANGELHISTA, E. F. D.		
artigoEmPeriodico	Marcos Gonçalves Quiles	2015	http://dx.doi.org/10.1016/j.neucom.2014.08.082	Particle Competition and Cooperation for Semi-Supervised Learning with Label Noise	Neurocomputing (Amsterdam)	BREVE, F. A. ; ZHAO, L. ; QUILES, M. G.	A2	
trabalhoCompletoEmCongresso	Marcos Gonçalves Quiles	2015		Community Detection, with Lower Time Complexity, Using Coupled Kuramoto Oscillators	The 30th ACM/SIGAPP Symposium On Applied Computing (SAC'2015)	OLIVEIRA, J. E. M. ; QUILES, M. G. ; MAIA, M. D. N. ; Macau, Elbert E.N.		
trabalhoCompletoEmCongresso	Marcos Gonçalves Quiles	2015		#Worldcup2014 on Twitter	The 15th International Conference on Computational Science and Its Applications (ICCSA 2015)	SERON, W. ; ZORZAL, E. R. ; QUILES, M.G. ; BASGALUPP, M. P. ; BREVE, F. A.		
trabalhoCompletoEmCongresso	Marcos Gonçalves Quiles	2015		Interactive Image Segmentation of Non-contiguous Classes Using Particle Competition and Cooperation	15th International Conference on Computational Science and Its Applications	BREVE, F. A. ; QUILES, M.G. ; ZHAO, L.		
trabalhoCompletoEmCongresso	Marcos Gonçalves Quiles	2015		Interactive Image Segmentation using Particle Competition and Cooperation	The International Joint Conference on Neural Networks (IJCNN)	BREVE, F. A. ; QUILES, M.G. ; ZHAO, L.		
trabalhoCompletoEmCongresso	Marcos Gonçalves Quiles	2015		Using Growing Neural Gas in Prototype Generation for Nearest Neighbor Classifiers	International Conference on Neural Information Processing (ICONIP2015)	DIAS, J. ; QUILES, M. G. ; LORENA, A. C.		
trabalhoCompletoEmCongresso	Marcos Gonçalves Quiles	2015		Inferring MicroRNA-Disease Associations using Self-Organizing Maps	Encontro Nacional de Inteligência Artificial e Computacional (ENIAC)	SANTANA, A. F. ; QUILES, M. G.		
trabalhoCompletoEmCongresso	Marcos Gonçalves Quiles	2015		Uso de transformada wavelet discreta ortogonal e gráfico de recorrência para caracterização de sistemas dinâmicos não-lineares	DINCON ?Conferência Brasileira de Dinâmica	REIS, B. M. F. ; MACAU, E. E. N. ; QUILES, M. G. ; DOMINGUES, M. O.		
artigoEmPeriodico	Luiz Antonio Nogueira Lorena	2015	http://dx.doi.org/10.1016/j.cor.2014.12.001	A Hybrid Method for the Probabilistic Maximal Covering Location-Allocation Problem	Computers & Operations Research	PEREIRA, Marcos Antonio ; COELHO, L. C. ; LORENA, L. A. N. ; SOUZA, L. C.	A1	
artigoEmPeriodico	Luiz Antonio Nogueira Lorena	2015	http://dx.doi.org/10.1016/j.eswa.2014.08.040	Clustering Search and Variable Mesh Algorithms for continuous optimization	Expert Systems with Applications	COSTA SALAS, YASEL J. ; MARTÍNEZ PÉREZ, CARLOS A. ; BELLO, RAFAEL ; OLIVEIRA, ALEXANDRE C. ; CHAVES, ANTONIO A. ; Lorena, Luiz A.	A1	
trabalhoCompletoEmCongresso	Luiz Antonio Nogueira Lorena	2015		Novo modelo de dispersão para o Problema de localização de rótulos cartográficos	XLVII Simpósio Brasileiro de Pesquisa Operacional	ARAUJO, E. J. ; CHAVES, Antonio Augusto ; LORENA, L. A. N.		
trabalhoCompletoEmCongresso	Luiz Antonio Nogueira Lorena	2015		Aplicacção da heurística híbrida geração de colunas com path-reliking para problemas de agrupamentos	XLVII Simpósio Brasileiro de Pesquisa Operacional	Oliveira, R. M. ; CHAVES, Antonio Augusto ; LORENA, L. A. N. ; MAURI, Geraldo Regis		
trabalhoCompletoEmCongresso	Luiz Antonio Nogueira Lorena	2015		Decomposição Lagrangeana Desbalanceada para o Problema de Rotulação Cartográfica de Pontos	XLVII Simpósio Brasileiro de Pesquisa Operacional	GOMES, SÓSTENES PEREIRA ; LORENA, L. A. N. ; RIBEIRO, Glaydston Mattos ; MAURI, Geraldo Regis		
trabalhoCompletoEmCongresso	Luiz Antonio Nogueira Lorena	2015		Algoritmo híbrido com BRKGA e CS aplicado ao problema de Job Shop	XLVII Simpósio Brasileiro de Pesquisa Operacional	RIZZI, M. M. ; CHAVES, Antonio Augusto ; SENNE, Edson Luis França ; LORENA, L. A. N.		
artigoEmPeriodico	Leonardo Bacelar Lima Santos	2015		Abordagem computacional livre para classificação de Strahler em hidrografias brasileiras relacionadas a desastres naturais	Modelling in Science Education and Learning (MSEL)	SOUZA, A. ; CRUZ, A. C. S. ; ANAYA, L. M. ; RODRIGUES, J. ; Santos, Leonardo B.L.	Qualis nao identificado	Modelling in Science Education and Learning (MSEL)
artigoEmPeriodico	Leonardo Bacelar Lima Santos	2015		HydroC - Biblioteca hidrológica aberta com fins educacionais	MODELLING IN SCIENCE EDUCATION AND LEARNING	Santos, Leonardo B.L.; MIRANDA, T. N. S. ; FRATARI, J. C. D. ; BACELAR, R. B. ; MEDINA, C. B. ; CARVALHO, S. V.	Qualis nao identificado	MODELLING IN SCIENCE EDUCATION AND LEARNING
artigoEmPeriodico	Leonardo Bacelar Lima Santos	2015		Potential flood-related daily urban mobility problems in Rio de Janeiro (Brazil)	REVISTA DO DEPARTAMENTO DE GEOGRAFIA	Santos, L. B. L.; LONDE, L. R. ; SORIANO, E. ; SOUZA, A. ; COELHO, A. F.	B2	
artigoEmPeriodico	Leonardo Bacelar Lima Santos	2015		Instrumentos de planejamento e preparo dos municípios brasileiros à política de proteção e defesa civil	URBE. REVISTA BRASILEIRA DE GESTÃO URBANA	COUTINHO, M. P. ; LONDE, L. R. ; Santos, L. B. L. ; LEAL, P. J. V.	B2	
trabalhoCompletoEmCongresso	Leonardo Bacelar Lima Santos	2015		Integração de dados de chuva, queimadas e modelo digital de terreno para caracterização de áreas complexas com fins de monitoramento operacional	XVII Simpósio Brasileiro de Sensoriamento Remoto	ANDERSON, L. O. ; Santos, L. B. L. ; RUDORFF, C. ; SILVA JUNIOR, C. H. L.		
trabalhoCompletoEmCongresso	Leonardo Bacelar Lima Santos	2015		IMPACTOS POTENCIAIS DE INUNDAÇÕES EM MOBILIDADE URBANA - MODELAGENS GEO-COMPUTACIONAIS	Encontro Nacional de Modelagem Computacional	SANTOS, L. B. L.; CARVALHO, T. ; SOUZA JORGE, A. A. ; LONDE, L. R.		
trabalhoCompletoEmCongresso	Leonardo Bacelar Lima Santos	2015		Urban mobility data to support the assesment of dynamic vulnerability to disasters	II International Conference on Information and Communication Technologies for Disaster Management (ICT-DM)	LONDE, L. R. ; SANTOS, L. B. L. ; SORIANO, E. ; TOMAS, L. R. ; CARVALHO, T.		
trabalhoCompletoEmCongresso	Leonardo Bacelar Lima Santos	2015		Desastres naturais de origem hidrológica e impactos no setor de transportes - o caso de março de 2015 em São José dos Campos-SP	XXI Simpósio Brasileiro de Recursos Hídricos	SANTOS, L. B. L.; VALERIO, L. ; JUREMA, M. C. B. ; LONDE, L. R. ; SOUZA, D. O. ; BARDINI, V. ; REANI, R. T. ; BACELAR, R. B. ; CARVALHO, T. ; SORIANO, E. ; TOMAS, L. R.		
trabalhoCompletoEmCongresso	Leonardo Bacelar Lima Santos	2015		An Operational Open Source Approach for Watersheds Delimitation and Characterization Based on Digital Images and Geographical Databases	II International Conference on Information and Communication Technologies for Disaster Management (ICT-DM)	CARVALHO, T. ; SANTOS, L. B. L. ; LUZ, E. F. P. ; ISHIBASHI, R. ; SOUZA JORGE, A. A. ; LONDE, L. R.		
artigoEmPeriodico	Leila Maria Garcia Fonseca	2015	http://dx.doi.org/10.1080/01431161.2015.1121301	Urban population estimation based on residential buildings volume using IKONOS-2 images and lidar data	International Journal of Remote Sensing (Print)	TOMÁS, LÍVIA ; FONSECA, LEILA ; ALMEIDA, CLÁUDIA ; LEONARDI, FERNANDO ; PEREIRA, MADALENA	A2	
artigoEmPeriodico	Leila Maria Garcia Fonseca	2015	http://dx.doi.org/10.1590/s1982-21702015000400038	MELHORIA DO PROCESSO DE CORREÇÃO GEOMÉTRICA DE IMAGENS CBERS-CCD PELO USO DE AMOSTRAS GEORREFERENCIADAS CLASSIFICADAS	Boletim de Ciências Geodésicas (Online)	CASTEJON, EMILIANO FERREIRA ; FONSECA, L. M. G. ; FORSTER, Carlos Henrique Quartucci	Qualis nao identificado	Boletim de Ciências Geodésicas (Online)
trabalhoCompletoEmCongresso	Leila Maria Garcia Fonseca	2015		Object-based Image Analysis for Urban Kand Cover Classification in the City of Campinas	Joint Urban Remote Sensing Event	FRANCA, D. G. M. ; NEVES, B. V. ; CAMPHORA, V. P. ; KORTING, T. S. ; FONSECA, L. M. G. ; SILVA, L. T.		
trabalhoCompletoEmCongresso	Leila Maria Garcia Fonseca	2015		Classificação de pastagens cultivadas e formações campestres nativas no Cerrado brasileiro a partir da análise de séries temporais extraídas de índices EVI do sensor MODIS	XVII Simpósio Brasileiro de Sensoriamento Remoto - SBSR	Costa, Wanderson ; FONSECA, LEILA ; Korting. T.S.		
trabalhoCompletoEmCongresso	Leila Maria Garcia Fonseca	2015		Inteligência Artificial como ferramenta para direcionar a expansão sustentável da cana-de-açúcar no Estado de São Paulo	XVII Simpósio Brasileiro de Sensoriamento Remoto - SBSR	SILVA, A. C. O. ; Mello, M.P. ; FONSECA, LEILA		
trabalhoCompletoEmCongresso	Leila Maria Garcia Fonseca	2015		Redes Bayesianas no mapeamento de culturas de verão no Estado do Paraná. In: XVII Simpósio Brasileiro de Sensoriamento Remoto	XVII Simpósio Brasileiro de Sensoriamento Remoto	SILVA, A. C. O. ; FONSECA, LEILA ; Mello, M.P.		
trabalhoCompletoEmCongresso	Leila Maria Garcia Fonseca	2015		Spectral indices and multi-temporal change image detection algorithms for burned area extraction in the Brazilian Cerrado	XVII Simpósio Brasileiro de Sensoriamento Remoto	MELCHIORI, A. E. ; CANDIDO, P. A. ; LIBONATI, R. ; MORELLI, F. ; SETZER, A. ; JESUS, S. C. ; FONSECA, LEILA ; Korting. T.S.		
trabalhoCompletoEmCongresso	Leila Maria Garcia Fonseca	2015		Classificação automática de áreas cafeeiras utilizando imagens de sensoriamento remoto e técnicas de mineração de dados	XVII Simpósio Brasileiro de Sensoriamento Remoto	GIROLAMO NETO, C. ; FONSECA, LEILA ; Korting. T.S. ; SANCHES, I. ; EBERHARDT, I. D. R. ; MARUJO, R. B. ; TRANBAQUINI, K.		
trabalhoCompletoEmCongresso	Leila Maria Garcia Fonseca	2015		Um Estudo Experimental com Classificadores baseados em Regiões e Perfis EVI	XVII Simpósio Brasileiro de Sensoriamento Remoto - SBSR	BARBOSA, D. P. ; NOMA, A. ; Korting. T.S. ; FONSECA, LEILA		
trabalhoCompletoEmCongresso	Leila Maria Garcia Fonseca	2015		Effects of Image Fusion Methods on Sugarcane Classification with Landsat-8 Imagery	Simposio Brasileiro de Sensoriamento Remoto	Bendini, H.N. ; Girolamo Neto ; KÖRTING, THALES ; MARUJO, R. F. B. ; TRANBAQUINI, K. ; EBERHARDT, I. D. R ; SANCHES, I. ; FONSECA, L. M. G.		
trabalhoCompletoEmCongresso	Leila Maria Garcia Fonseca	2015		Object-Based Image Analysis For Urban Land Cover Classification In The City Of Campinas - SP	Joint Urban Remote Sensing Event	ALMEIDA, CLÁUDIA ; FRANCA, D. ; LOTTE, R. ; SIANI, S. ; Korting. T.S. ; Fonseca, Leila M.G. ; SILVA, L.		
artigoEmPeriodico	Lamartine Nogueira Frutuoso Guimarães	2015	http://dx.doi.org/10.1016/j.applthermaleng.2015.06.093	Thermodynamic analysis and optimization of a Closed Regenerative Brayton Cycle for nuclear space power systems	Applied Thermal Engineering	RIBEIRO, GUILHERME B. ; BRAZ FILHO, FRANCISCO A. ; GUIMARÃES, LAMARTINE N.F.	A1	
artigoEmPeriodico	Lamartine Nogueira Frutuoso Guimarães	2015	http://dx.doi.org/10.1016/j.jastp.2015.10.015	Automatically identification of Equatorial Spread-F occurrence on ionograms	Journal of Atmospheric and Solar-Terrestrial Physics	Pillat, Valdir Gil ; Fagundes, Paulo Roberto ; Guimarães, Lamartine Nogueira Frutuoso	B1	
trabalhoCompletoEmCongresso	Lamartine Nogueira Frutuoso Guimarães	2015		DEMOCRITOS Demonstrators for Realization of Nuclear Electric Propulsion of the European Roadmaps MEGAHIT DiPoP IEPC-2015-91079	Joint Conference of 30th International Symposium on Space Technology and Science 34th International Electric Propulsion Conference and 6th Nano-satellite Symposium	Jansen, Frank ; Bauer, Waldemar ; Masson, F. ; Ruault, Jean-Marc ; Worms, Jean-Claude ; Detsis, Emmanouil ; Lassoudiere, Francois ; Granjon, Richard ; Gaia, Enrico ; Tosi, Maria Cristina ; KOROTEEV, Anatoly S. ; SEMANKIN, Alexander V. ; Tinsley, Tim ; Hodgson, Zara ; Koppel, Christoph ; Guimarães, Lamartine Nogueira Frutuoso		
trabalhoCompletoEmCongresso	Lamartine Nogueira Frutuoso Guimarães	2015		TECHNOLOGY DEVELOPMENT FOR NUCLEAR POWER GENERATION FOR SPACE APPLICATION	2015 International Nuclear Atlantic Conference - INAC 2015	Guimarães, Lamartine Nogueira Frutuoso; RIBEIRO, GUILHERME B. ; BRAZ FILHO, Francisco Antonio ; Nascimento, Jamil Alves do ; Placco, G.M. ; de Faria, Saulo Moraes		
trabalhoCompletoEmCongresso	Lamartine Nogueira Frutuoso Guimarães	2015		MODERATOR CONFIGURATION OPTIONS FOR A LOW-ENRICHED URANIUM FUELED KILOWATT-CLASS SPACE NUCLEAR REACTOR	2015 International Nuclear Atlantic Conference - INAC 2015	KING, J. C. ; Mencarini, Leonardo de Holanda ; GUIMARÃES, L. N. F.		
trabalhoCompletoEmCongresso	Lamartine Nogueira Frutuoso Guimarães	2015		HEAT EXCHANGER OPTIMIZATION OF A CLOSED BRAYTON CYCLE FOR NUCLEAR SPACE PROPULSION	2015 International Nuclear Atlantic Conference - INAC 2015	RIBEIRO, GUILHERME B. ; BRAZ FILHO, Francisco Antonio ; Guimarães, Lamartine Nogueira Frutuoso		
trabalhoCompletoEmCongresso	Lamartine Nogueira Frutuoso Guimarães	2015		STEP-BY-STEP REALIZATION OF THE INTERNATIONAL NUCLEAR POWER AND PROPULSION SYSTEM (INPPS) MISSION	66th International Astronautical Congress	Jansen, Frank ; Bauer, Waldemar ; Masson, F. ; Ruault, Jean-Marc ; Worms, Jean-Claude ; Detsis, Emmanouil ; Lassoudiere, Francois ; Granjon, Richard ; Gaia, Enrico ; Ferraris, Simona ; Tosi, Maria Cristina ; KOROTEEV, A. S. ; SEMENKIN, A. V. ; Solodukhin, Alexander ; Tinsley, Tim ; Hodgson, Zara ; Guimarães, Lamartine Nogueira Frutuoso		
trabalhoCompletoEmCongresso	Lamartine Nogueira Frutuoso Guimarães	2015		European Roadmap MEGAHIT# and DEMOCRITOS* Project for Nuclear Electric Propulsion Space Missions	!2th Annual Meeting Asia Oceania Geosciences Society - AOGS	Jansen, Frank ; Bauer, Waldemar ; Masson, F. ; Ruault, Jean-Marc ; Lassoudiere, Francois ; Granjon, Richard ; Worms, Jean-Claude ; Detsis, Emmanouil ; Gaia, Enrico ; Tosi, Maria Cristina ; KOROTEEV, Anatoly S. ; SEMENKIN, A. V. ; Tinsley, Tim ; Hodgson, Zara ; Koppel, Christoph ; GUIMARÃES, L. N. F.		
artigoEmPeriodico	Ezzat Selim Chalhoub	2015		Chlorophyll profile estimation in ocean waters by a set of artificial neural networks	Computer Assisted Methods in Engineering and Science	F. D. Corvino ; CHALHOUB, E. S. ; Campos Velho, H. F. ; Kampel, M.	Qualis nao identificado	Computer Assisted Methods in Engineering and Science
trabalhoCompletoEmCongresso	Lúbia Vinhas	2015		Algoritmos de clustering para separação de culturas agrícolas e tipos de uso e cobertura da Terra utilizando dados de sensoriamento remoto	XVII Simpósio Brasileiro de Sensoriamento Remoto - SBSR	MACIEL, A. M. ; VINHAS, L. ; CÂMARA, Gilberto		
trabalhoCompletoEmCongresso	Lúbia Vinhas	2015		Aplicação de técnicas de processamento digital de imagens usando a extensão espacial PostGIS Raster em imagens de sensoriamento remoto	XVII Simpósio Brasileiro de Sensoriamento Remoto	MACIEL, A. M. ; VINHAS, L. ; CÂMARA, Gilberto		
trabalhoCompletoEmCongresso	Lúbia Vinhas	2015		Towards a Spatial Data Infrastructure for Big Spatiotemporal Data Sets	XVII Simpósio Brasileiro de Sensoriamento Remoto - SBSR	FERREIRA, Karine Reis ; QUEIROZ, Gilberto Ribeiro de ; VINHAS, L. ; CÂMARA, Gilberto ; MAURANO, L. E. P. ; SOUZA, Ricardo Cartaxo Modesto de ; SANCHEZ, A.		
trabalhoCompletoEmCongresso	Lúbia Vinhas	2015		WTSS: um serviço web para extração de séries temporais de imagens de sensoriamento remoto	XVII Simpósio Brasileiro de Sensoriamento Remoto - SBSR	QUEIROZ, Gilberto Ribeiro de ; FERREIRA, Karine Reis ; VINHAS, L. ; CÂMARA, Gilberto ; COSTA, R. W. ; SOUZA, Ricardo Cartaxo Modesto de ; MAUS, V. W. ; SANCHEZ, A.		
trabalhoCompletoEmCongresso	Lúbia Vinhas	2015	http://dx.doi.org/10.1145/2804345.2804354	A mobile application for geographical data gathering and validation in fieldwork (invited talk)	the 3rd International Workshop	FERREIRA, Karine Reis ; Vinhas, Lúbia ; BOGOSSIAN, CLÁUDIO HENRIQUE ; DE CARVALHO, ANDRÉ F. ARAÚJO		
artigoEmPeriodico	Elbert Einstein Nehrer Macau	2015	http://dx.doi.org/10.1142/s0218127415500777	Chaotic Dynamics in a Low-Energy Transfer Strategy to the Equilateral Equilibrium Points in the Earth-Moon System	International Journal of Bifurcation and Chaos in Applied Sciences and Engineering	SALAZAR, F. J. T. ; MACAU, E. E. N. ; Winter, O. C.	A2	
artigoEmPeriodico	Elbert Einstein Nehrer Macau	2015	http://dx.doi.org/10.1063/1.4919246	Partial synchronization in networks of non-linearly coupled oscillators: The Deserter Hubs Model	Chaos (Woodbury, N.Y.)	FREITAS, CELSO ; Macau, Elbert ; PIKOVSKY, ARKADY	A2	
artigoEmPeriodico	Elbert Einstein Nehrer Macau	2015	http://dx.doi.org/10.1063/1.4906814	The discrete complex wavelet approach to phase assignment and a new test bed for related methods	Chaos (Woodbury, N.Y.)	FERREIRA, MARIA TEODORA ; NÓBREGA FREITAS, CELSO BERNARDO ; DOMINGUES, MARGARETE O. ; MACAU, ELBERT E. N.	A2	
artigoEmPeriodico	Elbert Einstein Nehrer Macau	2015	http://dx.doi.org/10.1016/j.asr.2015.03.028	Natural formations at the Earth-Moon triangular point in perturbed restricted problems	Advances in Space Research	SALAZAR, F.J.T. ; WINTER, O.C. ; MACAU, E.E. ; MASDEMONT, J.J. ; GÓMEZ, G.	B1	
artigoEmPeriodico	Elbert Einstein Nehrer Macau	2015	http://dx.doi.org/10.1007/s11517-015-1390-8	Assessment of heart rate variability by application of central tendency measure	Medical & Biological Engineering & Computing	DOS SANTOS, LAURITA ; Barroso, Joaquim J. ; MACAU, ELBERT E. N. ; DE GODOY, MOACIR F.	A2	
artigoEmPeriodico	Elbert Einstein Nehrer Macau	2015	http://dx.doi.org/10.1103/physreve.92.032901	Synchronization versus neighborhood similarity in complex networks of nonidentical oscillators	Physical Review. E, Statistical, Nonlinear, and Soft Matter Physics (Print)	FREITAS, CELSO ; Macau, Elbert ; VIANA, RICARDO LUIZ	A1	
artigoEmPeriodico	Elbert Einstein Nehrer Macau	2015	http://dx.doi.org/10.1063/1.4938400	Star-type oscillatory networks with generic Kuramoto-type coupling: A model for -Japanese drums synchrony-	Chaos (Woodbury, N.Y.)	VLASOV, VLADIMIR ; PIKOVSKY, ARKADY ; MACAU, ELBERT E. N.	A2	
trabalhoCompletoEmCongresso	Karine Reis Ferreira	2015		Towards a Spatial Data Infrastructure for Big Spatiotemporal Data Sets	XVII SIMPOSIO BRASILEIRO DE SENSORIAMENTO REMOTO (SBSR)	FERREIRA, Karine Reis ; QUEIROZ, Gilberto Ribeiro de ; VINHAS, L. ; CÂMARA, Gilberto ; MAURANO, L. E. P. ; SOUZA, Ricardo Cartaxo Modesto de ; SANCHEZ, A.		
trabalhoCompletoEmCongresso	Karine Reis Ferreira	2015		WTSS: um serviço web para extração de séries temporais de imagens de sensoriamento remoto	XVII SIMPOSIO BRASILEIRO DE SENSORIAMENTO REMOTO (SBSR)	QUEIROZ, Gilberto Ribeiro de ; FERREIRA, Karine Reis ; VINHAS, L. ; CÂMARA, Gilberto ; COSTA, R. W. ; SOUZA, Ricardo Cartaxo Modesto de ; MAUS, V. W. ; SANCHEZ, A.		
trabalhoCompletoEmCongresso	Karine Reis Ferreira	2015		Temporal GIS and Spatiotemporal Data Sources	XVI Simpósio Brasileiro de Banco de Dados	FERREIRA, K. R.; OLIVEIRA, A. G. ; MONTEIRO, Antonio Miguel Vieira ; ALMEIDA, D. B. F. C.		
resumoExpandidoEmCongresso	Karine Reis Ferreira	2015	A mobile application for geographical data gathering and validation in fieldwork (invited talk)	the 3rd International Workshop, 2015, Bergamo. Proceedings of the 3rd International Workshop on Software Development Lifecycle for Mobile - DeMobile 2015. New York: ACM Press	FERREIRA, KARINE REIS; VINHAS, LÚBIA ; BOGOSSIAN, CLÁUDIO HENRIQUE ; DE CARVALHO, ANDRÉ F. ARAÚJO		
trabalhoCompletoEmCongresso	José Carlos Becceneri	2015		OWA Filters for SAR Imagery	LA-CCI (Latin American) and 12. CBIC (Brazilian) Congress on Computational Intelligence	TORRES, L. ; BECCENERI, J. C. ; FREITAS, C. C. ; SANT?ANNA, S. ; SANDRI, S. A.		
trabalhoCompletoEmCongresso	José Carlos Becceneri	2015		Using Genetic Algorithms to learn a fuzzy based pseudometric for K-NN classification	ESCIM 2015 - 7th European Symposium on Computational Intelligence and Mathematics	MARTINS, F. ; BECCENERI, J. C. ; DUTRA, L. ; SANDRI, S. A. ; LU, D.		
artigoEmPeriodico	Joaquim José Barroso de Castro	2015	http://dx.doi.org/10.1109/JSTQE.2014.2358565	Reference-Plane-Invariant Effective Thickness and Electromagnetic Property Determination of Isotropic Metamaterials Involving Boundary Effects	IEEE Journal of Selected Topics in Quantum Electronics	HASAR, UGUR CEM ; BARROSO, JOAQUIM JOSE ; BULDU, GUL ; BUTE, MUSA ; KAYA, YUNUS ; KARACALI, TEVHIT ; ERTUGRUL, MEHMET	Qualis nao identificado	IEEE Journal of Selected Topics in Quantum Electronics
artigoEmPeriodico	Joaquim José Barroso de Castro	2015	http://dx.doi.org/10.1109/JSTQE.2014.2365583	Characterization of Porous Silicon Fabry?Pérot Optical Sensors for Reflectivity and Transmittivity Measurements	IEEE Journal of Selected Topics in Quantum Electronics	HASAR, UGUR C. ; OZBEK, IBRAHIM Y. ; CAVUSOGLU, BULENT ; KARACALI, TEVHIT ; EFEOGLU, HASAN ; ERTUGRUL, MEHMET ; BARROSO, JOAQUIM JOSE	Qualis nao identificado	IEEE Journal of Selected Topics in Quantum Electronics
artigoEmPeriodico	Joaquim José Barroso de Castro	2015	http://dx.doi.org/10.1063/1.4906514	Reference-plane-invariant and thickness- and branch-index-independent retrieval of effective parameters of bi-anisotropic metamaterials	AIP Advances	HASAR, U. C. ; BARROSO, J. J. ; KARACALI, T. ; Ertugrul, M.	C	
artigoEmPeriodico	Joaquim José Barroso de Castro	2015	http://dx.doi.org/10.1016/j.optcom.2015.03.012	Scattering parameter analysis of cascaded bi-anisotropic metamaterials	Optics Communications (Print)	HASAR, UGUR CEM ; BARROSO, JOAQUIM JOSÉ	A2	
artigoEmPeriodico	Joaquim José Barroso de Castro	2015	http://dx.doi.org/10.1109/LPT.2014.2385811	Identification of Gases by Porous Optical Sensors Using Reflectivity Difference and Wavelength Shift	IEEE Photonics Technology Letters	HASAR, UGUR CEM ; OZBEK, IBRAHIM YUCEL ; CAVUSOGLU, BULENT ; KARACALI, TEVHIT ; EFEOGLU, HASAN ; ERTUGRUL, MEHMET ; Barroso, Joaquim J.	A2	
artigoEmPeriodico	Joaquim José Barroso de Castro	2015	http://dx.doi.org/10.1109/LMWC.2015.2409990	Semi-Infinite Reflection Coefficients of Bi-Anisotropic Metamaterial Slabs Including Boundary Effects	IEEE Microwave and Wireless Components Letters	HASAR, UGUR C. ; Barroso, Joaquim J. ; KARACALI, TEVHIT ; ERTUGRUL, MEHMET	Qualis nao identificado	IEEE Microwave and Wireless Components Letters
artigoEmPeriodico	Joaquim José Barroso de Castro	2015	http://dx.doi.org/10.1109/TMTT.2015.2431685	Determination of Reference-Plane Invariant, Thickness-Independent, and Broadband Constitutive Parameters of Thin Materials	IEEE Transactions on Microwave Theory and Techniques	HASAR, UGUR C. ; KAYA, YUNUS ; Barroso, Joaquim J. ; ERTUGRUL, MEHMET	B1	
artigoEmPeriodico	Joaquim José Barroso de Castro	2015	http://dx.doi.org/10.1063/1.4926595	Comment on -Calibration-independent measurement of complex permittivity of liquids using a coaxial transmission line- [Rev. Sci. Instrum. 86, 014704 (2015)]	Review of Scientific Instruments	HASAR, U. C. ; BARROSO, J. J.	A2	
artigoEmPeriodico	Joaquim José Barroso de Castro	2015	http://dx.doi.org/10.5028/jatm.v7i3.468	Side Lobe Reduction in an X-Band Horn Antenna Loaded by a Wire Medium	Journal of Aerospace Technology and Management (Online)	TOMAZ, ANTÔNIO ; Barroso, Joaquim J. ; HASAR, UGUR CEM	B3	
artigoEmPeriodico	Joaquim José Barroso de Castro	2015	http://dx.doi.org/10.1007/s11517-015-1390-8	Assessment of heart rate variability by application of central tendency measure	Medical & Biological Engineering & Computing	DOS SANTOS, LAURITA ; Barroso, Joaquim J. ; Macau, Elbert E. N. ; DE GODOY, MOACIR F.	A2	
trabalhoCompletoEmCongresso	Joaquim José Barroso de Castro	2015		Estudo experimental e comparativo das propriedades eletromagnéticas de metamateriais de anéis repartidos não-uniformes e uniformes	21 CBECIMAT-Congresso Brasileiro de Engenharia e Ciência dos Materiais	CASTRO, PEDRO J. ; BARROSO, JOAQUIM J. ; LEITE NETO, JOAQUIM P.		
trabalhoCompletoEmCongresso	Joaquim José Barroso de Castro	2015	http://dx.doi.org/10.1109/PPC.2015.7296856	Transmission properties of doubly periodic LC ladder networks	2015 IEEE Pulsed Power Conference (PPC)	BARROSO, J. J.; GRECO, A. F. G. ; ROSSI, J. O.		
trabalhoCompletoEmCongresso	Joaquim José Barroso de Castro	2015	http://dx.doi.org/10.1109/ppc.2015.7296892	Overview of RF generation using nonlinear transmission lines	2015 IEEE Pulsed Power Conference (PPC)	ROSSI, J. O. ; SILVA, L. P. ; BARROSO, J. J. ; YAMASAKI, F. S. ; SCHAMILOGLU, EDL		
trabalhoCompletoEmCongresso	Joaquim José Barroso de Castro	2015	http://dx.doi.org/10.1109/ppc.2015.7296895	Spice simulations of nonlinear gyromagnetic lines	2015 IEEE Pulsed Power Conference (PPC)	YAMASAKI, F. S. ; SCHAMILOGLU, E. ; ROSSI, J. O. ; BARROSO, J. J.		
trabalhoCompletoEmCongresso	Joaquim José Barroso de Castro	2015	http://dx.doi.org/10.1109/ppc.2015.7296906	High power RF generation in nonlinear lumped transmission lines using commercial ceramic capacitor as nonlinear elements	2015 IEEE Pulsed Power Conference (PPC)	NETO, L. P. SILVA ; ROSSI, J. O. ; BARROSO, J. J.		
trabalhoCompletoEmCongresso	Joaquim José Barroso de Castro	2015	http://dx.doi.org/10.1109/imoc.2015.7369071	Focusing microwaves by a periodic arrangement of conducting wires	2015 SBMO/IEEE MTTS International Microwave and Optoelectronics Conference (IMOC)	Barroso, Joaquim J.; TOMAZ, ANTONIO ; HASAR, UGUR C.		
trabalhoCompletoEmCongresso	Joaquim José Barroso de Castro	2015	http://dx.doi.org/10.1109/IMOC.2015.7369109	Constitutive parameters determination of bi-anisotropic metamaterials using a waveguide method	2015 SBMO/IEEE MTTS International Microwave and Optoelectronics Conference (IMOC)	HASAR, U. C. ; BUTE, M. ; MURATOGLU, A. ; BARROSO, J. J. ; KARACALI, T. ; Ertugrul, M.		
trabalhoCompletoEmCongresso	Joaquim José Barroso de Castro	2015	http://dx.doi.org/10.1109/imoc.2015.7369060	Spice simulations of inductive Nonlinear Transmission Lines	2015 SBMO/IEEE MTTS International Microwave and Optoelectronics Conference (IMOC)	YAMASAKI, FERNANDA SAYURI ; SCHAMILOGLU, EDL ; ROSSI, JOSE OSVALDO ; BARROSO, JOAQUIM JOSE		
trabalhoCompletoEmCongresso	Joaquim José Barroso de Castro	2015	http://dx.doi.org/10.1109/imoc.2015.7369106	Pulse sharpening and RF generation using nonlinear transmission lines	2015 SBMO/IEEE MTTS International Microwave and Optoelectronics Conference (IMOC)	SILVA NETO, L.P. ; ROSSI, J.O. ; BARROSO, J.J.		
trabalhoCompletoEmCongresso	Joaquim José Barroso de Castro	2015		Estudo das Características de Transmissão de uma rede de Metamateriais Não-Uniformes	59 Congresso Brasileiro de Cerâmica	CASTRO, PEDRO J. ; BARROSO, JOAQUIM J. ; LEITE NETO, JOAQUIM P.		
trabalhoCompletoEmCongresso	Horacio Hideki Yanasse	2015	http://dx.doi.org/10.1109/cisti.2015.7170375	Technological competencies mapping: A Petrobras' information system for aiding the decision process based on the Lattes Platform	2015 10th Iberian Conference on Information Systems and Technologies (CISTI)	ALVES, ALEXANDRE DONIZETI ; Yanasse, Horacio Hideki ; DIAS DE SOUZA, JOSE FRANCISCO ; Soma, Nei Yoshihiro		
trabalhoCompletoEmCongresso	Horacio Hideki Yanasse	2015		Mapeamento da área Redes Sociais a partir da Web of Science	IV Brazilian Workshop on Social Network Analysis and Mining (BraSNAM 2015)	ALVES, A. D. ; YANASSE, H. H. ; SOMA, N. Y.		
trabalhoCompletoEmCongresso	Horacio Hideki Yanasse	2015		Minimização do número de diferentes padrões de corte no problema de corte de estoque unidimensional	XLVII SBPO	Poldi, K.C. ; KOBERSZTAJN, H. A. ; YANASSE, H. H.		
trabalhoCompletoEmCongresso	Horacio Hideki Yanasse	2015		Mapeamento da área de pesquisa operacional na Web of Science: uma análise das redes de coautoria	XLVII SBPO	ALVES, A. D. ; YANASSE, H. H. ; SOMA, N. Y.		
resumoExpandidoEmCongresso	Horacio Hideki Yanasse	2015	Uma extensão do método Kombi para minimização do número de padrões de corte distintos em um problema de corte de estoque	XVII ONPCE ? Oficina Nacional de Problemas de Corte e Empacotamento, planejamento e programação da produção e correlatos, 2015, Sorocaba. Livro de resumos	KOBERSZTAJN, H. A. ; YANASSE, H. H. ; Poldi, K.C.		
artigoEmPeriodico	Haroldo Fraga de Campos Velho	2015		Estimation of Tumor Size Evolution Using Particle Filters	Journal of Computational Biology	J. M. S. Costa ; H. R. B. Orlande ; Campos Velho, H. F. ; S. T. R. Pinho ; G. S. Dulikravich ; R. M. Cotta ; S. H. Cunha Neto	Qualis nao identificado	Journal of Computational Biology
artigoEmPeriodico	Haroldo Fraga de Campos Velho	2015		Self-configuring two types neural networks by MPCA	Journal of Mechanics Engineering and Automation	J. A. Anochi ; Campos Velho, H. F. ; Furtado, Helaine Cristina Morais ; LUZ, E. F. P. DA	Qualis nao identificado	Journal of Mechanics Engineering and Automation
artigoEmPeriodico	Haroldo Fraga de Campos Velho	2015		Climate precipitation prediction by neural network	Journal of Mathematics and System Science	J. A. Anochi ; Campos Velho, H. F.	Qualis nao identificado	Journal of Mathematics and System Science
artigoEmPeriodico	Haroldo Fraga de Campos Velho	2015		Analysis of extreme precipitation events using a novel data mining approach	American Journal of Environmental Engineering	H. M. Ruivo ; Campos Velho, H. F. ; G. Sampaio ; Ramos, F. M.	Qualis nao identificado	American Journal of Environmental Engineering
artigoEmPeriodico	Haroldo Fraga de Campos Velho	2015		Optimization by Firefly with predation for ensemble precipitation estimation using BRAMS	American Journal of Environmental Engineering	LUZ, E. F. P. DA ; Santos, A. F. ; Freitas, S. R. ; Campos Velho, H. F. ; Grell, G.	Qualis nao identificado	American Journal of Environmental Engineering
artigoEmPeriodico	Haroldo Fraga de Campos Velho	2015		Chlorophyll profile estimation in ocean waters by a set of artificial neural networks	Computer Assisted Methods in Engineering and Science	F. D. Corvino ; Chalhoub, Ezzat S ; Campos Velho, H. F. ; Kampel, M.	Qualis nao identificado	Computer Assisted Methods in Engineering and Science
artigoEmPeriodico	Haroldo Fraga de Campos Velho	2015	http://dx.doi.org/10.17265/2159-5291/2015.05.005	Climate Precipitation Prediction by Neural Network	Journal of Mathematics and System Science	ANOCHI, J. A. ; Campos Velho, H. F.	Qualis nao identificado	Journal of Mathematics and System Science
artigoEmPeriodico	Haroldo Fraga de Campos Velho	2015		Optimization by Firefly with Predation for Ensemble Precipitation Estimation Using BRAMS	American Journal of Environmental Engineering	LUZ, EDUARDO F.P. ; SANTOS, A. ; Freitas, S. R. ; Campos Velho, H. F. ; Grell, G.	Qualis nao identificado	American Journal of Environmental Engineering
trabalhoCompletoEmCongresso	Haroldo Fraga de Campos Velho	2015	http://dx.doi.org/10.5540/03.2015.003.01.0457	New developments on reconstruction of high resolution chlorophyll-a vertical profiles	XXXV CNMAC Congresso Nacional de Matemática Aplicada e Computacional	SOUTO, ROBERTO P. ; DIAS, PEDRO L. SILVA ; VELHO, HAROLDO F. CAMPOS ; Stephany, S. ; Kampel, M.		
trabalhoCompletoEmCongresso	Haroldo Fraga de Campos Velho	2015	http://dx.doi.org/10.5540/03.2015.003.01.0433	Multi-Particle Collision Algorithm with Reflected Points	XXXV CNMAC Congresso Nacional de Matemática Aplicada e Computacional	TORRES, REYNIER HERNÁNDEZ ; LUZ, EDUARDO FÁVERO PACHECO DA ; VELHO, HAROLDO FRAGA DE CAMPOS		
trabalhoCompletoEmCongresso	Haroldo Fraga de Campos Velho	2015		Multi-particle collision algorithm with Hooke-Jeeves for solving a structural damage detection problem	10th International Conference on Composite Science and Technology	R. Hernandez T. ; Chiwiacosky, L. D. ; Campos Velho, H. F.		
trabalhoCompletoEmCongresso	Haroldo Fraga de Campos Velho	2015		Full Calibration for Helicopter Simulator	EuroGNC (Guidance	I. Y. Sumida ; Campos Velho, H. F. ; LUZ, E. F. P. DA ; R. V. Cruz ; L. C. S. Goes		
trabalhoCompletoEmCongresso	Haroldo Fraga de Campos Velho	2015		Analysis of extreme events using a data mining approach	12th International Conference on Applied Computing	H. M. Ruivo ; Campos Velho, H. F. ; Ramos, F. M. ; Freitas, S. R.		
trabalhoCompletoEmCongresso	Haroldo Fraga de Campos Velho	2015		Multispectral image classification of shade and non-shaded land-cover patterns	12th International Conference on Applied Computing	W. Silva ; J. R. G. Braga ; Campos Velho, H. F. ; Shiguemori, E. H.		
trabalhoCompletoEmCongresso	Haroldo Fraga de Campos Velho	2015		Dimensionality reduction using rough set approach for climate prediction	12th International Conference on Applied Computing	J. A. Anochi ; Campos Velho, H. F.		
trabalhoCompletoEmCongresso	Haroldo Fraga de Campos Velho	2015		Estudos preliminares usando mineração de dados para episódios de enchentes: Estados de Alagoas e Pernambuco (Junho - 2010)	Workshop Brasileiro de Micrometeorologia	H. M. Ruivo ; Campos Velho, H. F. ; Ramos, F. M. ; Freitas, S. R.		
trabalhoCompletoEmCongresso	Haroldo Fraga de Campos Velho	2015		Data assimilation by artificial neural networks for the global FSU atmospheric model: Surface Pressure	LA-CCI (Latin American) and CBIC (Brazilian) Congress on Computational Intelligence	Cintra, R.S.C. ; S. Cocke ; Campos Velho, H. F.		
trabalhoCompletoEmCongresso	Haroldo Fraga de Campos Velho	2015		Avaliação da Técnica de Casamento de Imagens para Navegação Autônoma de VANTs	Congresso Brasileiro de Inte;ligência on Computacional (CBIC)	C. Silva ; Goltz, G. A. M. ; E. H. Shiguemori ; C. Castro ; Braga, A. P. ; Campos Velho, H. F.		
trabalhoCompletoEmCongresso	Haroldo Fraga de Campos Velho	2015		Estimation of UAV position with use of thermal infrared images	International Conference on Sensing Technology (ICST-2015)	W. Silva ; Shiguemori, E.H. ; Vijaykumar, N. L. ; Campos Velho, H. F.		
trabalhoCompletoEmCongresso	Haroldo Fraga de Campos Velho	2015		Estimation of UAV position using LiDAR images for autonomous navigation over the ocean	International Conference on Sensing Technology	J. R. G. Braga ; Campos Velho, H. F. ; Shiguemori, E.H.		
trabalhoCompletoEmCongresso	Haroldo Fraga de Campos Velho	2015	http://dx.doi.org/10.20906/CPS/CILAMCE2015-0872	A hybrid method using q-gradient to identify structural damage	XXXVI Ibero-Latin American Congress on Computational Methods in Engineering (CILAMCE)	R. Hernandez T. ; M. C. Scarabello ; Campos Velho, H. F. ; A. C. Soterroni ; E. J. C. Gouvea ; Ramos, F. M. ; Chiwiacosky, L. D.		
artigoEmPeriodico	Gilberto Camara Neto	2015	http://dx.doi.org/10.4995/msel.2015.2811	Experiences with a Socio-Environmental Modeling Course	Modelling in Science Education and Learning	ANDRADE, PEDRO RIBEIRO ; Camara, Gilberto ; MARETTO, RAIAN V. ; MONTEIRO, ANTONIO MIGUEL V. ; CARNEIRO, TIAGO G. S. ; FEITOSA, FLAVIA F.	Qualis nao identificado	Modelling in Science Education and Learning
artigoEmPeriodico	Antonio Miguel Vieira Monteiro	2015	http://dx.doi.org/10.4995/msel.2015.2811	Experiences with a Socio-Environmental Modeling Course	Modelling in Science Education and Learning	ANDRADE, PEDRO RIBEIRO ; Camara, Gilberto ; MARETTO, RAIAN V. ; MONTEIRO, ANTONIO MIGUEL V. ; CARNEIRO, TIAGO G. S. ; FEITOSA, FLAVIA F.	Qualis nao identificado	Modelling in Science Education and Learning
artigoEmPeriodico	Valdivino Alexandre de Santiago Júnior	2015	http://dx.doi.org/10.1051/0004-6361/201526343	The protoMIRAX hard X-ray imaging balloon experiment	Astronomy & Astrophysics (Berlin. Print)	BRAGA, JOÃO ; D?AMICO, FLAVIO ; AVILA, MANUEL A. C. ; PENACCHIONI, ANA V. ; RODRIGO SACAHUI, J. ; DE SANTIAGO, VALDIVINO A. ; MATTIELLO-FRANCISCO, FÁTIMA ; STRAUSS, CESAR ; FIALHO, MÁRCIO A. A.	A2	
artigoEmPeriodico	Valdivino Alexandre de Santiago Júnior	2015		Towards a Wide Acceptance of Formal Methods to the Design of Safety Critical Software: an Approach Based on UML and Model Checking	Lecture Notes in Computer Science	ERAS, E. R. ; SANTOS, L. B. R. ; Santiago Júnior, Valdivino Alexandre de ; VIJAYKUMAR, N. L.	B1	
artigoEmPeriodico	Valdivino Alexandre de Santiago Júnior	2015		T-Tuple Reallocation: An Algorithm to Create Mixed-Level Covering Arrays to Support Software Test Case Generation	Lecture Notes in Computer Science	BALERA, J. M. ; Santiago Júnior, Valdivino Alexandre de	B1	
trabalhoCompletoEmCongresso	Valdivino Alexandre de Santiago Júnior	2015	http://dx.doi.org/10.1109/qrs-c.2015.29	On Proposing a Test Oracle Generator Based on Static and Dynamic Source Code Analysis	2015 International Conference on Software Quality	ARANTES, ALESSANDRO OLIVEIRA ; SANTIAGO, VALDIVINO ALEXANDRE DE ; Vijaykumar, Nandamudi Lankalapalli		
artigoEmPeriodico	Rogerio Deienno	2015	http://dx.doi.org/10.1016/j.asr.2014.11.005	Study of the gravitational capture of a spacecraft by Jupiter	Advances in Space Research	BRASIL, P.I.O. ; PRADO, A.F.B.A. ; Deienno, R. ; YOKOYAMA, T.	B1	
artigoEmPeriodico	Reinaldo Roberto Rosa	2015	http://dx.doi.org/10.6062/jcis.2015.06.03.0100	Computing hierarchical cosmological coupling constants from an alternative Seyfert-hyperbolic approach	JOURNAL OF COMPUTATIONAL INTERDISCIPLINARY SCIENCES	MEJÍA, M. E. ; CARETTA, C. A. ; STALDER, D. H. ; ROSA, R. R.	B3	
artigoEmPeriodico	Reinaldo Roberto Rosa	2015	http://dx.doi.org/10.6062/jcis.2015.06.02.0097	An expert supernova spectral classification using artificial neural networks	JOURNAL OF COMPUTATIONAL INTERDISCIPLINARY SCIENCES	GUIMARÃES, L. ; ROSA, R. ; MÓDOLO, M.	B3	
artigoEmPeriodico	Stephan Stephany	2015	http://dx.doi.org/10.1002/2015SW001182	Prediction of the level of ionospheric scintillation at equatorial latitudes in Brazil using a neural network	Space Weather (Online)	DE LIMA, G. R. T. ; Stephany, S. ; de PAULA, E. R. ; BATISTA, I. S. ; ABDU, M. A.	B1	
trabalhoCompletoEmCongresso	Stephan Stephany	2015		Portabilidade com eficiência da advecção do modelo BRAMS entre arquiteturas multi-core e many-core	XVI Simpósio em Sistemas Computacionais de Alto Desempenho (WSCAD-2015)	SILVA Jr., M.B. ; PANETTA, Jairo ; STEPHANY, S.		
artigoEmPeriodico	Solon Venâncio de Carvalho	2015	http://dx.doi.org/10.4995/msel.2015.2338	HydroC - An open source hydrological library with educational purposes	Modelling in Science Education and Learning	LIMA SANTOS, LEONARDO BACELAR ; MIRANDA, TIAGO NOGUEIRA SÁ ; DÉCIA FRATARI, JÉSSIKA CAROLINE ; BALDO BACELAR, ROBERTA ; MEDINA, CAMILA BELTRÃO ; DE CARVALHO, SOLON VENÂNCIO	Qualis nao identificado	Modelling in Science Education and Learning
artigoEmPeriodico	Sidnei Joao Siqueira Sant'Anna	2015		estocásticas e mapas de incertezas aplicados à classificação de dados de múltiplos sensores	RBC. Revista Brasileira de Cartografia (Online)	BRAGA, B. C. ; SANT'ANNA, S. J. S. ; FREITAS, C. C.	B1	
artigoEmPeriodico	Sidnei Joao Siqueira Sant'Anna	2015		Análise de Índice Ponderado para Avaliação de Segmentação	RBC. Revista Brasileira de Cartografia (Online)	REIS, M. S. ; PANTALEAO, E. ; SANT'ANNA, S. J. S. ; DUTRA, L. V.	B1	
trabalhoCompletoEmCongresso	Sidnei Joao Siqueira Sant'Anna	2015	http://dx.doi.org/10.1016/B978-0-12-804536-7.00012-0	Análise de métodos limiarização para a detecção de mudanças usando dados ótico e de micro-ondas numa região da Amazônia brasileira	XVII Simpósio Brasileiro de Sensoriamento Remoto	SANT'ANNA, S. J. S.; REIS, M. S.		
trabalhoCompletoEmCongresso	Sidnei Joao Siqueira Sant'Anna	2015		Classificação de cobertura da terra utilizando dados óticos e de radares de abertura sintética	Simpósio Brasileiro de Sensoriamento Remoto	REIS, M. S. ; PANTALEAO, E. ; SANT'ANNA, S. J. S. ; DUTRA, L. V.		
trabalhoCompletoEmCongresso	Sidnei Joao Siqueira Sant'Anna	2015		Avaliação do Padrão de Exatidão Cartográfica de imagens Quickbird e RapidEye em uma área do Tapajós, Pará	Simpósio Brasileiro de Sensoriamento Remoto	OLIVEIRA, M. A. F. ; ALBUQUERQUE, P. C. G. ; SANT'ANNA, S. J. S. ; DUTRA, L. V. ; ANJOS, D. S. ; COSTA, G. A. O. P.		
trabalhoCompletoEmCongresso	Sidnei Joao Siqueira Sant'Anna	2015		Proposta de uma medida para avaliação de classificação em bordas	Simpósio Brasileiro de Sensoriamento Remoto	NEGRI, R. G. ; DUTRA, L. V. ; SANT'ANNA, S. J. S.		
trabalhoCompletoEmCongresso	Sidnei Joao Siqueira Sant'Anna	2015		Development of dissimilarity functions using stochastic distances for region-based land cover classification: a case study near Tapajós Flona, Pará state, Brazil	Simpósio Brasileiro de Sensoriamento Remoto	DUTRA, L. V. ; NEGRI, R. G. ; SANT'ANNA, S. J. S. ; Lu, D.		
trabalhoCompletoEmCongresso	Sidnei Joao Siqueira Sant'Anna	2015		Classificação multifontes de imagens de sensoriamento remoto baseada em mapas de incertezas	Simpósio Brasileiro de Sensoriamento Remoto	BRAGA, B. C. ; Freitas, C. C. ; SANT'ANNA, S. J. S.		
trabalhoCompletoEmCongresso	Sidnei Joao Siqueira Sant'Anna	2015		Multisource classification based on uncertainty maps	IEEE International Geoscience and Remote Sensing Symposium	BRAGA, B. C. ; FREITAS, C. C. ; SANT'ANNA, S. J. S.		
trabalhoCompletoEmCongresso	Sidnei Joao Siqueira Sant'Anna	2015		Integration of Information-Theoretic Tools for PolSAR Image Processing and Analysis	IEEE International Geoscience and Remote Sensing Symposium	SANT'ANNA, S. J. S.; FREITAS, C. C. ; TORRES, Leonardo ; FRERY, A. C.		
trabalhoCompletoEmCongresso	Sidnei Joao Siqueira Sant'Anna	2015		Analysis of Binary Land Cover Change Detection Methods using Optical and Radar Data	IEEE International Geoscience and Remote Sensing Symposium	REIS, M. S. ; SANT'ANNA, S. J. S.		
trabalhoCompletoEmCongresso	Sidnei Joao Siqueira Sant'Anna	2015		Oil Slicks Detection Using Polarimetric Region Classifier	IEEE International Geoscience and Remote Sensing Symposium	GENOVEZ, P. C. ; FREITAS, C. C. ; SANT'ANNA, S. J. S. ; BENTZ, C. M. ; LORENZZETTI, J. A.		
trabalhoCompletoEmCongresso	Sidnei Joao Siqueira Sant'Anna	2015		Image Segmentation Algorithms Comparison	IEEE International Geoscience and Remote Sensing Symposium	REIS, M. S. ; OLIVEIRA, M. A. F. ; KORTING, T. S. ; SANT'ANNA, S. J. S. ; DUTRA, L. V. ; PANTALEAO, E.		
trabalhoCompletoEmCongresso	Sidnei Joao Siqueira Sant'Anna	2015		OWA Filters for SAR Imagery	LA-CCI (Latin American) and 12. CBIC (Brazilian) Congress on Computational Intelligence	TORRES, Leonardo ; BECCENERI, J. C. ; FREITAS, C. C. ; SANT?ANNA, S. J. S. ; SANDRI, S.		
artigoEmPeriodico	Sandra Aparecida Sandri	2015	http://dx.doi.org/10.4018/ijncr.2015010104	Classification of Land Use and Land Cover in the Brazilian Amazon using Fuzzy Multilayer Perceptrons	International Journal of Natural Computing Research	PIMENTEL, TONI ; RAMOS, FERNANDO M. ; Sandri, Sandra	B3	
artigoEmPeriodico	Sandra Aparecida Sandri	2015	http://dx.doi.org/10.1016/j.knosys.2015.07.030	Optical images-based edge detection in Synthetic Aperture Radar images	Knowledge-Based Systems	SILVA, GILBERTO P. ; FRERY, ALEJANDRO C. ; Sandri, Sandra ; BUSTINCE, HUMBERTO ; BARRENECHEA, EDURNE ; MARCO-DETCHART, CÉDRIC	B1	
trabalhoCompletoEmCongresso	Sandra Aparecida Sandri	2015		Using genetic algorithms to learn a fuzzy based pseudometric for k-NN classification	ESCIM 2015 - 7th European Symposium on Computational Intelligence and Mathematics	BEDE, F. M. ; BECCENERI, J. C. ; DUTRA, L. ; LU, D. ; Sandri, Sandra		
trabalhoCompletoEmCongresso	Sandra Aparecida Sandri	2015		A balancing heuristic for spacecraft equipment layout optimization	IEEE International Conference On Fuzzy Systems (Fuzz-IEEE)	ALVES, G. F. O. ; BECCENERI, J. C. ; Sandri, Sandra		
trabalhoCompletoEmCongresso	Sandra Aparecida Sandri	2015	http://dx.doi.org/10.2991/ifsa-eusflat-15.2015.201	A proposal for regime change/duration classification in chaotic systems	2015 Conference of the International Fuzzy Systems Association and the European Society for Fuzzy Logic and Technology (IFSAEUSFLAT15)	Sandri, Sandra; DE CAMPOS VELHO, HAROLDO ; CAMARGO, HELOISA A. ; SUMIDA, IVANA YOSHIE ; LOPES, PRISCILLA		
trabalhoCompletoEmCongresso	Sandra Aparecida Sandri	2015		OWA Filters for SAR Imagery	LA-CCI (Latin American) and 12. CBIC (Brazilian) Congress on Computational Intelligence	TORRES, Leonardo ; BECCENERI, J. C. ; FREITAS, C. C. ; SANT?ANNA, S. J. S. ; SANDRI, S.		
artigoEmPeriodico	Rafael Duarte Coelho dos Santos	2015	http://dx.doi.org/10.1109/MCSE.2015.86	Visualization of Citizen Science Volunteers' Behaviors with Data from Usage Logs	Computing in Science & Engineering (Print)	Morais, Alessandra Marli M. ; SANTOS, RAFAEL D.C.	Qualis nao identificado	Computing in Science & Engineering (Print)
trabalhoCompletoEmCongresso	Rafael Duarte Coelho dos Santos	2015	http://dx.doi.org/10.1109/syscon.2015.7116749	Integrated task assignment and maintenance recommendation based on system architecture and PHM information for UAVs	2015 9th Annual IEEE International Systems Conference (SysCon)	PAIXAO DE MEDEIROS, IVO ; RAMOS RODRIGUES, LEONARDO ; STROTTMANN KERN, CHRISTIAN ; DUARTE COELHO DOS SANTOS, RAFAEL ; HIDEITI SHIGUEMORI, ELCIO		
trabalhoCompletoEmCongresso	Rafael Duarte Coelho dos Santos	2015		Text Mining Applied to SQL Queries: A Case Study for the SDSS SkyServer	SIMBig 2015: 2nd Annual International Symposium on Information Management and Big Data	MAKIYAMA, V. H. ; RADDICK, M. J. ; SANTOS, R. D. C.		
resumoExpandidoEmCongresso	Rafael Duarte Coelho dos Santos	2015	Spectral Attributes Selection based on Data Mining for Remote Sensing Image classification	GEOINFO - XVI Brazilian Symposium on GeoInformatics, 2015, Campos do Jordão. Anais do GEOINFO - XVI Brazilian Symposium on GeoInformatics	MARETTO, R. V. ; KORTING, T. S. ; CASTEJON, E. F. ; FONSECA, L. M. G. ; SANTOS, R. D. C.		
