9267337003813495
4602582672339478
2366117797494886
4835234239471713
7074298521061400
5918581653525911
0132803130562466
0226886239142027
4476203520897045
0544401502986127
5559694190410112
6580445674881860
8444975783960079
5929647689455816
1834220534365154
1726523803257092
5746097026160276
9219981026641516
3479875274407285
3304211079659943
3478227711987460
4862382903424962
2132187008397683
3742268910717535
1156912706212227
4470574323962701
9612581422875343
5753860611703666
8321824022963022
2287042507047141
7570834418239102
5792248901353552
6706698691599737
1072720131252836
0948358753712864
8243039060904354
8911616599876693
4591922452106916
0529623886649332
3006116611471537
4900794006620841
5663947271820846
2369950127362199
3354405129153863
6339490770327826
0257744922714589
5773282463188912
9429302861177476
1719405448685259
3974473071197646
1426092727659273
1425546559330431
8853403205694911
4127871049540215
6011372961047638
2308714708568580
4446730950933085
0888742717478214
2608793579815976
3132606321784958
3149506293482176
2506784150129424
6625751123283713
9021607129551923
1660302572995238
2517277268062210
0989160531231200
8627441002342823
9879305049177191
6333473185550085
9193549309962982
3377861683609580
1549463076087299
8240034013281714
8674107427300722
1573111247304702
9668558620603206
1536610462846299
7528436775743604
9274991135144621
6597845927084787
4411670211010251
8172311818085137
2558952017425139
1774032026807061
2864458375152277
4064024662560135
9268849440017927
5327544341228659
3229877356519326
5276632744238898
9059741175310073
3296929166332069
9776455259487758
9071165705666744
6922559374582292
8666548473150908
0122904702358760
6117882283546106
6504361563928242
6858376417398735
6873786530174755
8310934294120888
8195261898909780
4527387699298544
0474463256192096
9158161954207835
9650449044049750
2161118329998992
7067134046933559
2044713933259398
6526138183872789
9577358235775447
6070632580336913
0255468254986750
1143218993429895
3207576404287955
5465545298248188
2179717690246702
2834522198832797
8886634592087842
4579192847560328
0733049835199641
1430525769089539
9514309218273598
4076745706335490
0180294324204786
7115863617279838
8559146085477218
8562429127078586
6031053586390906
2740522553760606
5712189728611491
9131995962916679
6140075755173414
2395415038644376
6270865646361217
4362322585959784
0318546244386426
6708513283832697
5364623753515555
9034002961130581
8984364936903330
8789618113680116
0276783172235661
0495081860691045
8189634323341629
9670749934684448
3079738136838662
0445080664344367
7459837353271983
0829017931975793
1255483552609788
6483708313638774
8527663136488388
8396069891881112
0898521160762302
4372603753642507
2186258561023010
4083692645415106
4928994967354106
8889098772394576
2803066379015505
0919883317891474
1036038467163657
6910794805658008
6895373188728113
7851263252868872
0320052379136072
9661006374047977
1199582218635897
0661972476710446
5816080287581520
1722309795039441
6661948983681991
2948464066198388
5936804512037599
6504389569181140
6160099090341721
0200148984540742
0146544361040530
9822253950704581
5845927850025017
8711436606888097
3173554474442621
1292471277111236
6657917580839804
0194194849641536
1161276285594771
1565168542921951
9431313605945669
0446977914508336
5681251994109338
7087917654179489
1864473087690223
7574004973909574
9907161332349780
3081456215222854
4665382743541415
8686111986489137
4499928813481251
9606314383605594
0720534218203801
6164453950109818
8535313996764809
3584310405162561
5671551351862535
5437244176873401
1399850284422290
9135658563561513
4988982411261218
4058530219602290
8216073986434430
0906207747393289
2548234773290224
2582725571935270
6892577487389430
3167729483839055
1289529714323011
7938270564009075
2681501442260692
4184754213073106
7664959166304068
6289602045034353
0718924631584680
8045271064617902
6994814260178186
9736392281795289
2274846671553134
5150073121129652
9348120725059968
2202061390827554
5198735434619403
7878730264582586
4145922567971503
6947513452840079
6583100106614887
3532547243546209
1662377408820990
7508959205418386
2854561326710488
3720844263112296
8013941810169412
3022057554560057
3766442273010100
5276479854764967
3277159391971084
4860953805272337
8315394281217758
4970333252161839
2140749735704050
1833502771757215
7437519804980702
7575872490871228
7341141838695457
9633748027345791
1391910133050352
3036865353026406
9208436447577806
7218666981997560
9277814890785373
6890249737079799
7625099641552834
8545518771299485
6008644137815614
9711435416463491
2453950220213440
4298795970350194
9624431567576290
8158865847990189
5295707042833535
3816771570859537
7532968937685437
5866500472830974
0549028778510051
7806234717678824
2431646009562202
8614912376367812
9336982075162775
3939229580240307
4272577421854800
5500281500415284
7054280317987007
2872064505456567
4768784008798361
5287040686973900
0162244851289477
