strict digraph grafo3 {
	graph [bb="0,0,1160.5,209",
		id=grafo3,
		overlap=False
	];
	node [fontsize=8,
		label="\N",
		shape=rectangle,
		style=filled
	];
	0	 [URL="http://lattes.cnpq.br/1149445153608393",
		color="#17272B",
		fontcolor="#FFFFFF",
		height=0.23611,
		label="Marcirio Silveira Chaves [2]",
		pos="109,200.5",
		width=1.5];
	7	 [URL="http://lattes.cnpq.br/3569470521730110",
		color="#17272B",
		fontcolor="#FFFFFF",
		height=0.23611,
		label="Andre F. Henriques Librantz [3]",
		pos="60,136.5",
		width=1.6667];
	0 -> 7	 [arrowhead=normal,
		arrowsize=0.75,
		fontsize=8,
		label=0.5,
		lp="77.5,168.5",
		penwidth=2.0,
		pos="e,61.088,145.03 93.902,191.9 86.391,187.45 77.72,181.18 72,173.5 67.419,167.35 64.523,159.34 62.726,152.45"];
	9	 [URL="http://lattes.cnpq.br/3138898469532698",
		color="#17272B",
		fontcolor="#FFFFFF",
		height=0.23611,
		label="Wonder Alexandre Luz Alves [3]",
		pos="200,136.5",
		width=1.7222];
	0 -> 9	 [arrowhead=normal,
		arrowsize=0.75,
		fontsize=8,
		label=0.5,
		lp="149.5,168.5",
		penwidth=2.0,
		pos="e,179.07,145.08 115.03,191.81 121.53,183.92 132.48,171.67 144,163.5 152.57,157.42 162.79,152.18 172.13,148.04"];
	7 -> 0	 [arrowhead=normal,
		arrowsize=0.75,
		fontsize=8,
		label=0.33,
		lp="98.5,168.5",
		penwidth=1.49,
		pos="e,103.83,191.89 67.048,145.06 71.708,150.16 77.879,157.1 83,163.5 88.708,170.63 94.703,178.88 99.495,185.67"];
	6	 [URL="http://lattes.cnpq.br/2147386441758156",
		color="#17272B",
		fontcolor="#FFFFFF",
		height=0.23611,
		label="Cleber Gustavo Dias [2]",
		pos="70,72.5",
		width=1.3056];
	7 -> 6	 [arrowhead=normal,
		arrowsize=0.75,
		fontsize=8,
		label=0.67,
		lp="57.5,104.5",
		penwidth=2.51,
		pos="e,61.76,81.324 55.275,127.98 51.282,120.64 46.7,109.2 50,99.5 51.504,95.079 54.096,90.823 56.925,87.079"];
	9 -> 0	 [arrowhead=normal,
		arrowsize=0.75,
		fontsize=8,
		label=0.33,
		lp="175.5,168.5",
		penwidth=1.49,
		pos="e,123.86,191.88 191.36,145.11 182.52,152.71 168.26,164.53 155,173.5 147.32,178.69 138.53,183.84 130.71,188.16"];
	10	 [URL="http://lattes.cnpq.br/2542529753132844",
		color="#17272B",
		fontcolor="#FFFFFF",
		height=0.23611,
		label="Sidnei Alves de Araújo [3]",
		pos="195,72.5",
		width=1.4306];
	9 -> 10	 [arrowhead=normal,
		arrowsize=0.75,
		fontsize=8,
		label=0.67,
		lp="174.5,104.5",
		penwidth=2.51,
		pos="e,182.29,81.136 185.19,127.95 178.31,123.58 170.82,117.37 167,109.5 162.81,100.87 168.86,92.349 176.39,85.764"];
	6 -> 7	 [arrowhead=normal,
		arrowsize=0.75,
		fontsize=8,
		label=1.0,
		lp="76.5,104.5",
		penwidth=3.5,
		pos="e,63.31,127.93 70.452,81.015 70.739,88.346 70.774,99.78 69,109.5 68.326,113.19 67.217,117.07 66.004,120.67"];
	10 -> 9	 [arrowhead=normal,
		arrowsize=0.75,
		fontsize=8,
		label=0.67,
		lp="205.5,104.5",
		penwidth=2.51,
		pos="e,199.39,127.9 195.62,81.165 196.4,90.864 197.77,107.8 198.77,120.19"];
	12	 [URL="http://lattes.cnpq.br/9938713955885093",
		color="#17272B",
		fontcolor="#FFFFFF",
		height=0.23611,
		label="Pedro H. Triguis Schimit [1]",
		pos="195,8.5",
		width=1.5];
	10 -> 12	 [arrowhead=normal,
		arrowsize=0.75,
		fontsize=8,
		label=0.33,
		lp="184.5,40.5",
		penwidth=1.49,
		pos="e,187.94,17.022 187.18,63.801 180.96,56.713 173.79,45.772 177,35.5 178.35,31.177 180.7,26.94 183.26,23.182"];
	12 -> 10	 [arrowhead=normal,
		arrowsize=0.75,
		fontsize=8,
		label=1.0,
		lp="200.5,40.5",
		penwidth=3.5,
		pos="e,195,63.898 195,17.165 195,26.864 195,43.797 195,56.189"];
	1	 [URL="http://lattes.cnpq.br/4754764003480925",
		color="#17272B",
		fontcolor="#FFFFFF",
		height=0.23611,
		label="Luc Quoniam [0]",
		pos="233,200.5",
		width=1];
	2	 [URL="http://lattes.cnpq.br/0646085361798175",
		color="#17272B",
		fontcolor="#FFFFFF",
		height=0.23611,
		label="Ivanir Costa [1]",
		pos="329,200.5",
		width=0.93056];
	11	 [URL="http://lattes.cnpq.br/8750334661789610",
		color="#17272B",
		fontcolor="#FFFFFF",
		height=0.23611,
		label="Renato José Sassi [1]",
		pos="337,136.5",
		width=1.1806];
	2 -> 11	 [arrowhead=normal,
		arrowsize=0.75,
		fontsize=8,
		label=1.0,
		lp="309.5,168.5",
		penwidth=3.5,
		pos="e,322.19,145.05 317.82,191.93 308.97,184.93 298.88,174.04 304,163.5 306.69,157.96 311.19,153.25 316.01,149.42"];
	11 -> 2	 [arrowhead=normal,
		arrowsize=0.75,
		fontsize=8,
		label=1.0,
		lp="339.5,168.5",
		penwidth=3.5,
		pos="e,329.98,191.9 336.01,145.16 334.76,154.86 332.57,171.8 330.98,184.19"];
	3	 [URL="http://lattes.cnpq.br/6722335489800535",
		color="#17272B",
		fontcolor="#FFFFFF",
		height=0.23611,
		label="Henrique M. Rodrigues de Freitas [0]",
		pos="449,200.5",
		width=1.9028];
	4	 [URL="http://lattes.cnpq.br/3024335982373707",
		color="#17272B",
		fontcolor="#FFFFFF",
		height=0.23611,
		label="Fábio Henrique Gil Pereira [0]",
		pos="593,200.5",
		width=1.5972];
	5	 [URL="http://lattes.cnpq.br/3981753537745216",
		color="#17272B",
		fontcolor="#FFFFFF",
		height=0.23611,
		label="Dirceu da Silva Daieira [0]",
		pos="720,200.5",
		width=1.4306];
	8	 [URL="http://lattes.cnpq.br/3678668865183045",
		color="#17272B",
		fontcolor="#FFFFFF",
		height=0.23611,
		label="Alessandro Melo de Ana [0]",
		pos="844,200.5",
		width=1.5];
	13	 [URL="http://lattes.cnpq.br/8169041532397235",
		color="#17272B",
		fontcolor="#FFFFFF",
		height=0.23611,
		label="Marcos V. Pimentel Cardoso [0]",
		pos="977,200.5",
		width=1.6806];
	14	 [URL="http://lattes.cnpq.br/4932899223077405",
		color="#17272B",
		fontcolor="#FFFFFF",
		height=0.23611,
		label="Marcos Antonio Gaspar [0]",
		pos="1108,200.5",
		width=1.4583];
}
