
PB0:2015,40;
PB2:2015,2;
PB3:*itens sem ano,3;
PB4:2015,37;
PB5:2015,3;
PB6:2015,37;
PB8:2015,7;
PT2:2015,1;
PT3:2015,1;
PT4:2015,75;
PT5:2015,22;
OA1:2014,1;2015,8;2016,9;2017,6;
OA2:2015,5;2016,6;2017,17;
OA5:2016,16;2017,4;
OC2:2015,8;
OC3:2015,1;
OC4:2015,4;
OC5:2015,12;
OC6:2015,1;
Pm:2015,2;
Pj:2008,1;2011,1;2012,4;2013,5;2014,7;2015,3;
PB:*itens sem ano,3;2015,126;
PT:2015,99;
OA:2014,1;2015,13;2016,31;2017,27;
OC:2015,26;
Ep:2015,27;
Eo:2015,4;