3142535320756543
5096294141072886
4305682045202863
7269219308582563
7192179175216123
4619779231164354
3083628377406351
0297012924571812
5514279823093282
6022845026534146
1413221338069065
5801501389356871
9093049780529649
9455035806392096
9471198838332350
4667787186445203
8297967372233309
6063358070251602
9319347283504985
5389641576788474
1093242836059112
9497629188685431
1506878029093299
4089874234122761
1132849369030717
1831934906332240
4584128933467358
8107257366246933
3424804303469383
1905506426998134
9935918414343319
9245901471966564
4496482936672345
2672727148131391
5109506795806667
7352458438217009
0734311707280115
4185713610775760
9580200413725994
3462254816005439
6936319879062155
3865409701113109
9722066254398087
5989059781831115
7865011071615794
7037466449311658
3098548295086867
8339290881375280
0176543786942215
9626029461098796
1329623071793399
7634477387447702
4631280176594929
8811538263763256
0951690941601357
0851790424896872
9232714268826714
9418071693252722
8313285849058499
7919837587202880
8421478272749302
4317424142531768
4671897065529634
2900995280822495
1674751260121191
8832730538017665
5650840933661923
6348215204947696
6312333405149932
0163735914142185
3619236046001548
6634666752905869
5501689339980819
6197658665571990
8177029209177693
6599568107206769
6653325962006463
9401184779364513
7457951617133182
4545141198235587
7369801383690401
4325741201583247
3332732704653592
4901078376878996
7387718587227127
9405094271594195
6316074065351797
6959796173185352
4033847603782812
7436075455169145
9324084297796198
8179978549313958
5966868764284331
0157677253910591
5501474017902654
3535329694708958
6695591100082194
1722229320002545
6286949963773913
3759820218362420
0007890894387249
3190326421915437
5285381377920257
8057719972797248
4325832876426929
1503923903508697
3324604871452630
4289283981665397
6651224672106734
5695753044496038
7695205234394739
9547510786414353
0512122110804047
9125201558465155
9156524780816305
1881139157091884
1338514748652744
8224458239402180
8153758173673961
4386102364988514
1384884805593624
6106340660854649
5480366841377440
3874327299043111
9104271477506670
6610957718216946
4564778885701725
6725856869061836
9109372583438246
1602495591542111
0403935450457957
5640827626205902
4489954406277812
9609808095433295
5231547788496074
3104548562204505
1133958310969088
0099824083924145
7576358359155849
9063469350004410
4838614492836820
8949540199759267
1152409542701700
4413322613841886
1595198693265575
4093653182381054
8081544864548434
8542512634940524
8339563650267766
8982378446802580
8018788492846096
1875389119014096
4588973096462209
8515453018054764
7437115504621985
2742700689894701
3297778421323651
8801697096107033
5336932357861690
8265110752153693
5837382815629937
3437742324678251
1740734674821323
0540194149670095
2146405758647159
3582837394622989
7049467925535372
6132951262767791
6519348045448711
9983280677467826
3852153573907873
2057032917911768
4530240320266470
5374485255673150
4244205836006671
3417002519401139
2630457195597218
1928117848082625
5718056033733467
0196218903676581
9568041005753425
6749012751885427
0601187758562936
8268701323561893
7888414143060354
6768775515600364
5943938234226549
8009502669698729
1940803413194474
2812205618349706
4756844036182206
1676027896988728
6078460594205572
3075706139608753
9181118757331104
2747017560926709
1418462999763236
3081622233675754
3496318005458509
9292348553136893
9631573633970523
5589325093937642
2393154761178018
9234090582229270
3476297596127895
2568049179416871
5692265216944597
5773414505323986
0173590018647229
8002527412133408
1556473704739858
7417227632886917
8909692974205208
2395000308112725
3021645851881947
7868022342060226
1795205735821144
4495751212219934
1773304205797212
1279763454071921
0602375598138896
8367238578448162
7625939490898137
9429208883488784
6297735492561055
6193764892006090
4551916754737123
0816918235211326
6883428673752458
9999217523842385
7858438162190419
0122916218414168
4137947314913590
8069894808918402
1833204937513412
0526242321357828
8018565063566238
7449886477436597
4386203755404108
4046984728286369
0016451753105367
2946783151941961
6495157619380989
8989638931346986
7481868767930127
3068070863600193
4566177926710180
7996790080178788
8452329863196060
5290164798310287
5409949156551733
1039909909754634
8950690134285149
4407774638207519
5138758521691630
9246161392432473
8962505409631536
1757497784585492
8385648231601029
0049333562438295
9918190442895340
3701612388041822
6304398755017363
2778501485897621
4712989817231486
5402382772926689
3399404108804935
1594563006260546
4058978461118686
7081288587715072
0330406525682635
3796147728637598
8372325192731922
5182036503078091
7723243457460277
7145367229306360
2854903179490993
2052014858065552
8797858687750467
4005300337391516
9568978600271651
9770620834891213
9640352641477952
0540085135906109
1869485061809670
0285387718549502
3713735824456402
4235447913378635
6542769654042813
0234102160572788
0628224413850063
6484498226358836
9274837225584499
7612202326773240
4979955190655938
4248625091730955
5462080662900048
5984706492644576
1146509227430495
0547318794354107
7307238902576135
3439395764863671
1042018203108549
7009657116863618
9723527574588682
