strict digraph grafo3 {
	graph [bb="0,0,2007,145",
		id=grafo3,
		overlap=False
	];
	node [fontsize=8,
		label="\N",
		shape=rectangle,
		style=filled
	];
	0	 [URL="http://lattes.cnpq.br/3666289112976187",
		color="#17272B",
		fontcolor="#FFFFFF",
		height=0.23611,
		label="Virginia Parente [0]",
		pos="40,136.5",
		width=1.1111];
	1	 [URL="http://lattes.cnpq.br/8333273103512768",
		color="#17272B",
		fontcolor="#FFFFFF",
		height=0.23611,
		label="Suani Teixeira Coelho [2]",
		pos="148,136.5",
		width=1.3889];
	21	 [URL="http://lattes.cnpq.br/1388529283382853",
		color="#17272B",
		fontcolor="#FFFFFF",
		height=0.23611,
		label="José Goldemberg [2]",
		pos="150,72.5",
		width=1.1667];
	1 -> 21	 [arrowhead=normal,
		arrowsize=0.75,
		fontsize=8,
		label=1.0,
		lp="126.5,104.5",
		penwidth=3.5,
		pos="e,137.55,81.002 135.86,127.87 126.58,121 116.16,110.34 121,99.5 123.35,94.236 127.35,89.595 131.64,85.745"];
	21 -> 1	 [arrowhead=normal,
		arrowsize=0.75,
		fontsize=8,
		label=1.0,
		lp="155.5,104.5",
		penwidth=3.5,
		pos="e,148.25,127.9 149.75,81.165 149.44,90.864 148.89,107.8 148.49,120.19"];
	2	 [URL="http://lattes.cnpq.br/5831942962758025",
		color="#17272B",
		fontcolor="#FFFFFF",
		height=0.23611,
		label="Sonia S. Pereira Mercedes [1]",
		pos="285,136.5",
		width=1.5556];
	9	 [URL="http://lattes.cnpq.br/4429686299726303",
		color="#17272B",
		fontcolor="#FFFFFF",
		height=0.23611,
		label="Celio Bermann [1]",
		pos="261,72.5",
		width=1.0556];
	2 -> 9	 [arrowhead=normal,
		arrowsize=0.75,
		fontsize=8,
		label=1.0,
		lp="264.5,104.5",
		penwidth=3.5,
		pos="e,258.68,81.271 274.08,127.94 268.42,123.35 262.08,116.93 259,109.5 256.34,103.08 256.36,95.447 257.25,88.87"];
	9 -> 2	 [arrowhead=normal,
		arrowsize=0.75,
		fontsize=8,
		label=1.0,
		lp="280.5,104.5",
		penwidth=3.5,
		pos="e,282.06,127.9 263.97,81.165 267.79,91.05 274.53,108.45 279.35,120.9"];
	3	 [URL="http://lattes.cnpq.br/0483804524873121",
		color="#17272B",
		fontcolor="#FFFFFF",
		height=0.23611,
		label="Hédio Tatizawa [0]",
		pos="399,136.5",
		width=1.0972];
	4	 [URL="http://lattes.cnpq.br/4541077008718244",
		color="#17272B",
		fontcolor="#FFFFFF",
		height=0.23611,
		label="Fernando Selles Ribeiro [1]",
		pos="509,136.5",
		width=1.4583];
	17	 [URL="http://lattes.cnpq.br/0339375192824635",
		color="#17272B",
		fontcolor="#FFFFFF",
		height=0.23611,
		label="Roberto Zilles [2]",
		pos="509,72.5",
		width=1.0278];
	4 -> 17	 [arrowhead=normal,
		arrowsize=0.75,
		fontsize=8,
		label=1.0,
		lp="498.5,104.5",
		penwidth=3.5,
		pos="e,502.04,81.264 502.72,127.85 499.1,122.93 494.91,116.23 493,109.5 490.89,102.06 493.77,94.165 497.64,87.672"];
	17 -> 4	 [arrowhead=normal,
		arrowsize=0.75,
		fontsize=8,
		label=0.5,
		lp="514.5,104.5",
		penwidth=2.0,
		pos="e,509,127.9 509,81.165 509,90.864 509,107.8 509,120.19"];
	13	 [URL="http://lattes.cnpq.br/9611146545395324",
		color="#17272B",
		fontcolor="#FFFFFF",
		height=0.23611,
		label="Ildo Luis Sauer [1]",
		pos="509,8.5",
		width=1.0694];
	17 -> 13	 [arrowhead=normal,
		arrowsize=0.75,
		fontsize=8,
		label=0.5,
		lp="499.5,40.5",
		penwidth=2.0,
		pos="e,502.67,17.017 503.1,63.786 499.71,58.85 495.78,52.145 494,45.5 491.99,38.007 494.79,30.011 498.49,23.463"];
	13 -> 17	 [arrowhead=normal,
		arrowsize=0.75,
		fontsize=8,
		label=1.0,
		lp="514.5,40.5",
		penwidth=3.5,
		pos="e,509,63.898 509,17.165 509,26.864 509,43.797 509,56.189"];
	5	 [URL="http://lattes.cnpq.br/2633839778514121",
		color="#17272B",
		fontcolor="#FFFFFF",
		height=0.23611,
		label="Edmilson Moutinho dos Santos [8]",
		pos="687,136.5",
		width=1.7917];
	12	 [URL="http://lattes.cnpq.br/2035937453943199",
		color="#17272B",
		fontcolor="#FFFFFF",
		height=0.23611,
		label="Hirdan K. de Medeiros Costa [7]",
		pos="625,72.5",
		width=1.6944];
	5 -> 12	 [arrowhead=normal,
		arrowsize=0.75,
		fontsize=8,
		label=0.88,
		lp="637.5,104.5",
		penwidth=3.14,
		pos="e,624.06,81.181 656.24,127.9 646.42,123.98 636.43,118.13 630,109.5 625.71,103.74 624.24,95.975 623.94,89.134"];
	18	 [URL="http://lattes.cnpq.br/0752588872656748",
		color="#17272B",
		fontcolor="#FFFFFF",
		height=0.23611,
		label="Murilo T. Werneck Fagá [1]",
		pos="758,72.5",
		width=1.4861];
	5 -> 18	 [arrowhead=normal,
		arrowsize=0.75,
		fontsize=8,
		label=0.13,
		lp="726.5,104.5",
		penwidth=0.89,
		pos="e,744.76,81.149 692.87,127.81 698.93,120.15 708.91,108.28 719,99.5 724.86,94.4 731.77,89.488 738.14,85.333"];
	12 -> 5	 [arrowhead=normal,
		arrowsize=0.75,
		fontsize=8,
		label=1.0,
		lp="664.5,104.5",
		penwidth=3.5,
		pos="e,679.4,127.9 632.66,81.165 642.92,91.424 661.28,109.78 673.79,122.29"];
	18 -> 5	 [arrowhead=normal,
		arrowsize=0.75,
		fontsize=8,
		label=1.0,
		lp="747.5,104.5",
		penwidth=3.5,
		pos="e,705.27,127.92 754.29,81.163 750.19,89.031 742.95,101.26 734,109.5 727.59,115.4 719.6,120.45 712.04,124.5"];
	6	 [URL="http://lattes.cnpq.br/5788186365234727",
		color="#17272B",
		fontcolor="#FFFFFF",
		height=0.23611,
		label="Colombo C. Gaeta Tassinari [0]",
		pos="829,136.5",
		width=1.6528];
	7	 [URL="http://lattes.cnpq.br/1216234757318996",
		color="#17272B",
		fontcolor="#FFFFFF",
		height=0.23611,
		label="Adnei Melges de Andrade [0]",
		pos="963,136.5",
		width=1.5556];
	8	 [URL="http://lattes.cnpq.br/0137727203004910",
		color="#17272B",
		fontcolor="#FFFFFF",
		height=0.23611,
		label="Alexandre Piantini [0]",
		pos="1081,136.5",
		width=1.2222];
	10	 [URL="http://lattes.cnpq.br/6015534907764450",
		color="#17272B",
		fontcolor="#FFFFFF",
		height=0.23611,
		label="Arnaldo Gakiya Kanashiro [0]",
		pos="1200,136.5",
		width=1.5833];
	11	 [URL="http://lattes.cnpq.br/2806240414211429",
		color="#17272B",
		fontcolor="#FFFFFF",
		height=0.23611,
		label="Geraldo Francisco Burani [0]",
		pos="1330,136.5",
		width=1.5278];
	14	 [URL="http://lattes.cnpq.br/9592400848216776",
		color="#17272B",
		fontcolor="#FFFFFF",
		height=0.23611,
		label="André F. Simões Cooper [0]",
		pos="1457,136.5",
		width=1.4861];
	15	 [URL="http://lattes.cnpq.br/0600185970893679",
		color="#17272B",
		fontcolor="#FFFFFF",
		height=0.23611,
		label="Patricia H. L. d. Santos Matai [0]",
		pos="1590,136.5",
		width=1.7083];
	16	 [URL="http://lattes.cnpq.br/1352455663841540",
		color="#17272B",
		fontcolor="#FFFFFF",
		height=0.23611,
		label="Sergio Almeida Pacca [0]",
		pos="1719,136.5",
		width=1.375];
	19	 [URL="http://lattes.cnpq.br/2457667975987644",
		color="#17272B",
		fontcolor="#FFFFFF",
		height=0.23611,
		label="Jose R. Simoes Moreira [0]",
		pos="1839,136.5",
		width=1.4444];
	20	 [URL="http://lattes.cnpq.br/3092201772041167",
		color="#17272B",
		fontcolor="#FFFFFF",
		height=0.23611,
		label="José R. Moreira Filho [0]",
		pos="1958,136.5",
		width=1.3611];
}
