strict digraph grafo3 {
	graph [bb="0,0,1797,81",
		id=grafo3,
		overlap=False
	];
	node [fontsize=8,
		label="\N",
		shape=rectangle,
		style=filled
	];
	0	 [URL="http://lattes.cnpq.br/3569271948805982",
		color="#17272B",
		fontcolor="#FFFFFF",
		height=0.23611,
		label="Mirco Ragni [0]",
		pos="34,72.5",
		width=0.94444];
	1	 [URL="http://lattes.cnpq.br/8080697890419252",
		color="#17272B",
		fontcolor="#FFFFFF",
		height=0.23611,
		label="Germano Pinto Guedes [0]",
		pos="137,72.5",
		width=1.4167];
	2	 [URL="http://lattes.cnpq.br/3206145669430720",
		color="#17272B",
		fontcolor="#FFFFFF",
		height=0.23611,
		label="Paulo C. da Rocha Poppe [1]",
		pos="261,72.5",
		width=1.5139];
	9	 [URL="http://lattes.cnpq.br/7112745645895347",
		color="#17272B",
		fontcolor="#FFFFFF",
		height=0.23611,
		label="Eduardo Brescansin de Amôres [1]",
		pos="261,8.5",
		width=1.7917];
	2 -> 9	 [arrowhead=normal,
		arrowsize=0.75,
		fontsize=8,
		label=1.0,
		lp="250.5,40.5",
		penwidth=3.5,
		pos="e,254.04,17.264 254.72,63.847 251.1,58.934 246.91,52.232 245,45.5 242.89,38.057 245.77,30.165 249.64,23.672"];
	9 -> 2	 [arrowhead=normal,
		arrowsize=0.75,
		fontsize=8,
		label=1.0,
		lp="266.5,40.5",
		penwidth=3.5,
		pos="e,261,63.898 261,17.165 261,26.864 261,43.797 261,56.189"];
	3	 [URL="http://lattes.cnpq.br/5036651780388149",
		color="#17272B",
		fontcolor="#FFFFFF",
		height=0.23611,
		label="João B. da Rocha Junior [0]",
		pos="387,72.5",
		width=1.4722];
	4	 [URL="http://lattes.cnpq.br/6032273849847285",
		color="#17272B",
		fontcolor="#FFFFFF",
		height=0.23611,
		label="Michele Fúlvia Angelo [1]",
		pos="509,72.5",
		width=1.4167];
	12	 [URL="http://lattes.cnpq.br/0704248561279452",
		color="#17272B",
		fontcolor="#FFFFFF",
		height=0.23611,
		label="Angelo Conrado Loula [1]",
		pos="509,8.5",
		width=1.4167];
	4 -> 12	 [arrowhead=normal,
		arrowsize=0.75,
		fontsize=8,
		label=1.0,
		lp="498.5,40.5",
		penwidth=3.5,
		pos="e,502.72,17.153 502.04,63.736 496.5,56.604 490.13,45.635 493,35.5 494.16,31.398 496.17,27.307 498.38,23.625"];
	12 -> 4	 [arrowhead=normal,
		arrowsize=0.75,
		fontsize=8,
		label=1.0,
		lp="514.5,40.5",
		penwidth=3.5,
		pos="e,509,63.898 509,17.165 509,26.864 509,43.797 509,56.189"];
	5	 [URL="http://lattes.cnpq.br/2772680929789725",
		color="#17272B",
		fontcolor="#FFFFFF",
		height=0.23611,
		label="Gracinete Bastos de Souza [0]",
		pos="635,72.5",
		width=1.5694];
	6	 [URL="http://lattes.cnpq.br/6148546666142551",
		color="#17272B",
		fontcolor="#FFFFFF",
		height=0.23611,
		label="Roberto Almeida Bittencourt [0]",
		pos="770,72.5",
		width=1.6806];
	7	 [URL="http://lattes.cnpq.br/2755740550497444",
		color="#17272B",
		fontcolor="#FFFFFF",
		height=0.23611,
		label="Joao Bosco Gertrudes [0]",
		pos="898,72.5",
		width=1.3611];
	8	 [URL="http://lattes.cnpq.br/5306570350415091",
		color="#17272B",
		fontcolor="#FFFFFF",
		height=0.23611,
		label="Edgar S. Nunes Junior [0]",
		pos="1015,72.5",
		width=1.3889];
	10	 [URL="http://lattes.cnpq.br/1644931272174401",
		color="#17272B",
		fontcolor="#FFFFFF",
		height=0.23611,
		label="Iranderly Fernandes de Fernandes [0]",
		pos="1151,72.5",
		width=1.8889];
	11	 [URL="http://lattes.cnpq.br/8821536792042504",
		color="#17272B",
		fontcolor="#FFFFFF",
		height=0.23611,
		label="Angelo Amâncio Duarte [1]",
		pos="1290,72.5",
		width=1.4722];
	14	 [URL="http://lattes.cnpq.br/5222182427171497",
		color="#17272B",
		fontcolor="#FFFFFF",
		height=0.23611,
		label="Artur T. Lopo de Queiroz [1]",
		pos="1290,8.5",
		width=1.5278];
	11 -> 14	 [arrowhead=normal,
		arrowsize=0.75,
		fontsize=8,
		label=1.0,
		lp="1279.5,40.5",
		penwidth=3.5,
		pos="e,1283.7,17.153 1283,63.736 1277.5,56.604 1271.1,45.635 1274,35.5 1275.2,31.398 1277.2,27.307 1279.4,23.625"];
	14 -> 11	 [arrowhead=normal,
		arrowsize=0.75,
		fontsize=8,
		label=1.0,
		lp="1295.5,40.5",
		penwidth=3.5,
		pos="e,1290,63.898 1290,17.165 1290,26.864 1290,43.797 1290,56.189"];
	13	 [URL="http://lattes.cnpq.br/3697401408315559",
		color="#17272B",
		fontcolor="#FFFFFF",
		height=0.23611,
		label="Carlos A. de Freitas Rodrigues [0]",
		pos="1425,72.5",
		width=1.7639];
	15	 [URL="http://lattes.cnpq.br/7696000869833399",
		color="#17272B",
		fontcolor="#FFFFFF",
		height=0.23611,
		label="Antônio D. Conceição de Jesus [0]",
		pos="1571,72.5",
		width=1.7778];
	16	 [URL="http://lattes.cnpq.br/3398684577876218",
		color="#17272B",
		fontcolor="#FFFFFF",
		height=0.23611,
		label="Daniel A. S. Gouveia Dias-da-Costa [0]",
		pos="1725,72.5",
		width=2];
}
