
PB0:2015,18;
PB3:*itens sem ano,1;
PB4:2015,24;
PB5:2015,4;
PB6:2015,7;
PB8:2015,17;
PT4:2015,1;
PT5:2015,7;
OA1:2014,1;2015,1;2016,2;2017,1;
OA2:2013,5;2014,2;2015,9;2016,35;2017,12;
OA4:2014,2;2015,1;2016,1;2017,4;
OA5:2014,1;2015,2;2016,7;2017,6;
OA6:2016,1;2017,2;
OC1:2015,1;
OC2:2015,8;
OC4:2015,4;
OC5:2015,20;
OC6:2015,3;
Pm:2015,2;
Pj:1998,1;2000,1;2003,1;2004,2;2007,1;2008,1;2009,1;2010,5;2011,2;2012,6;2013,5;2014,5;2015,2;
PB:*itens sem ano,1;2015,70;
PT:2015,8;
OA:2013,5;2014,6;2015,13;2016,46;2017,25;
OC:2015,36;
Ep:2015,14;
Eo:2015,1;