strict graph grafo2 {
	graph [bb="0,0,1314,209",
		id=grafo2,
		overlap=False
	];
	node [fontsize=8,
		label="\N",
		shape=rectangle,
		style=filled
	];
	0	 [URL="http://lattes.cnpq.br/1073307881297127",
		color="#17272B",
		fontcolor="#FFFFFF",
		height=0.23611,
		label="Pedro A. de Paula Pereira [1]",
		pos="61.5,136.5",
		width=1.5278];
	11	 [URL="http://lattes.cnpq.br/4049958660392553",
		color="#17272B",
		fontcolor="#FFFFFF",
		height=0.23611,
		label="Jailson Bittencourt de Andrade [5]",
		pos="63.5,72.5",
		width=1.7639];
	0 -- 11	 [fontsize=8,
		label=1.0,
		lp="69,104.5",
		pos="61.745,127.9 62.129,116 62.868,93.102 63.253,81.165"];
	12	 [URL="http://lattes.cnpq.br/7767998250007993",
		color="#17272B",
		fontcolor="#FFFFFF",
		height=0.23611,
		label="Gisele Olímpio da Rocha [3]",
		pos="63.5,8.5",
		width=1.5139];
	11 -- 12	 [fontsize=8,
		label=3.0,
		lp="69,40.5",
		pos="63.5,63.898 63.5,51.998 63.5,29.102 63.5,17.165"];
	1	 [URL="http://lattes.cnpq.br/9170893104155674",
		color="#17272B",
		fontcolor="#FFFFFF",
		height=0.23611,
		label="Silvio A. B. Vieira de Melo [1]",
		pos="187.5,200.5",
		width=1.6111];
	7	 [URL="http://lattes.cnpq.br/2483185411923070",
		color="#17272B",
		fontcolor="#FFFFFF",
		height=0.23611,
		label="Ednildo Andrade Torres [7]",
		pos="187.5,136.5",
		width=1.4722];
	1 -- 7	 [fontsize=8,
		label=1.0,
		lp="193,168.5",
		pos="187.5,191.9 187.5,180 187.5,157.1 187.5,145.16"];
	7 -- 11	 [fontsize=8,
		label=1.0,
		lp="139,104.5",
		pos="172.3,127.9 148.5,116 102.7,93.102 78.829,81.165"];
	8	 [URL="http://lattes.cnpq.br/3733846364293441",
		color="#17272B",
		fontcolor="#FFFFFF",
		height=0.23611,
		label="Asher Kiperstok [4]",
		pos="187.5,72.5",
		width=1.1111];
	7 -- 8	 [fontsize=8,
		label=4.0,
		lp="193,104.5",
		pos="187.5,127.9 187.5,116 187.5,93.102 187.5,81.165"];
	16	 [URL="http://lattes.cnpq.br/6401622195719726",
		color="#17272B",
		fontcolor="#FFFFFF",
		height=0.23611,
		label="Iuri Muniz Pepe [2]",
		pos="314.5,72.5",
		width=1.1111];
	7 -- 16	 [fontsize=8,
		label=1.0,
		lp="265,104.5",
		pos="203.07,127.9 227.45,116 274.35,93.102 298.8,81.165"];
	2	 [URL="http://lattes.cnpq.br/5363080225273626",
		color="#17272B",
		fontcolor="#FFFFFF",
		height=0.23611,
		label="Jardel Pereira Gonçalves [1]",
		pos="513.5,200.5",
		width=1.4861];
	3	 [URL="http://lattes.cnpq.br/7228906971455111",
		color="#17272B",
		fontcolor="#FFFFFF",
		height=0.23611,
		label="Heloysa M. Carvalho Andrade [1]",
		pos="513.5,136.5",
		width=1.75];
	2 -- 3	 [fontsize=8,
		label=1.0,
		lp="519,168.5",
		pos="513.5,191.9 513.5,180 513.5,157.1 513.5,145.16"];
	4	 [URL="http://lattes.cnpq.br/2272781877323360",
		color="#17272B",
		fontcolor="#FFFFFF",
		height=0.23611,
		label="Sandro Lemos Machado [0]",
		pos="638.5,200.5",
		width=1.4722];
	5	 [URL="http://lattes.cnpq.br/4754562885515304",
		color="#17272B",
		fontcolor="#FFFFFF",
		height=0.23611,
		label="Daniel Veras Ribeiro [1]",
		pos="757.5,200.5",
		width=1.3333];
	15	 [URL="http://lattes.cnpq.br/5969382268977201",
		color="#17272B",
		fontcolor="#FFFFFF",
		height=0.23611,
		label="Luiz R. P. de Andrade Lima [1]",
		pos="757.5,136.5",
		width=1.6389];
	5 -- 15	 [fontsize=8,
		label=1.0,
		lp="763,168.5",
		pos="757.5,191.9 757.5,180 757.5,157.1 757.5,145.16"];
	6	 [URL="http://lattes.cnpq.br/1428637808064409",
		color="#17272B",
		fontcolor="#FFFFFF",
		height=0.23611,
		label="Milton José Porsani [0]",
		pos="869.5,200.5",
		width=1.2639];
	9	 [URL="http://lattes.cnpq.br/8676714298611642",
		color="#17272B",
		fontcolor="#FFFFFF",
		height=0.23611,
		label="Paulo Fernando de Almeida [0]",
		pos="991.5,200.5",
		width=1.625];
	10	 [URL="http://lattes.cnpq.br/7897779819494573",
		color="#17272B",
		fontcolor="#FFFFFF",
		height=0.23611,
		label="Cristina M. A. L. T. da M. Hermida Quintella [1]",
		pos="345.5,136.5",
		width=2.4167];
	10 -- 16	 [fontsize=8,
		label=1.0,
		lp="338,104.5",
		pos="341.7,127.9 335.75,116 324.3,93.102 318.33,81.165"];
	13	 [URL="http://lattes.cnpq.br/5927149543717327",
		color="#17272B",
		fontcolor="#FFFFFF",
		height=0.23611,
		label="Caio M. Castro de Castilho [0]",
		pos="1125.5,200.5",
		width=1.5972];
	14	 [URL="http://lattes.cnpq.br/5329137760546794",
		color="#17272B",
		fontcolor="#FFFFFF",
		height=0.23611,
		label="Maria d. G. Andrade Korn [0]",
		pos="1257.5,200.5",
		width=1.5694];
}
