strict digraph grafo3 {
	graph [bb="0,0,3199.5,209",
		id=grafo3,
		overlap=False
	];
	node [fontsize=8,
		label="\N",
		shape=rectangle,
		style=filled
	];
	0	 [URL="http://lattes.cnpq.br/1836363748488436",
		color="#17272B",
		fontcolor="#FFFFFF",
		height=0.23611,
		label="Alexandre da Costa Sena [0]",
		pos="54,200.5",
		width=1.5];
	1	 [URL="http://lattes.cnpq.br/9781797634377318",
		color="#17272B",
		fontcolor="#FFFFFF",
		height=0.23611,
		label="Fabiano Souza de Oliveira [0]",
		pos="183,200.5",
		width=1.5694];
	2	 [URL="http://lattes.cnpq.br/7657422977567514",
		color="#17272B",
		fontcolor="#FFFFFF",
		height=0.23611,
		label="Frederico A. de Oliveira Cruz [0]",
		pos="320,200.5",
		width=1.7222];
	3	 [URL="http://lattes.cnpq.br/6107034183202542",
		color="#17272B",
		fontcolor="#FFFFFF",
		height=0.23611,
		label="Celia M. Cortez Silva [1]",
		pos="449,200.5",
		width=1.3611];
	10	 [URL="http://lattes.cnpq.br/5258150848273682",
		color="#17272B",
		fontcolor="#FFFFFF",
		height=0.23611,
		label="Roseli Suzi Wedemann [1]",
		pos="449,136.5",
		width=1.4306];
	3 -> 10	 [arrowhead=normal,
		arrowsize=0.75,
		fontsize=8,
		label=1.0,
		lp="438.5,168.5",
		penwidth=3.5,
		pos="e,442.72,145.15 442.04,191.74 436.5,184.6 430.13,173.63 433,163.5 434.16,159.4 436.17,155.31 438.38,151.62"];
	10 -> 3	 [arrowhead=normal,
		arrowsize=0.75,
		fontsize=8,
		label=1.0,
		lp="454.5,168.5",
		penwidth=3.5,
		pos="e,449,191.9 449,145.16 449,154.86 449,171.8 449,184.19"];
	4	 [URL="http://lattes.cnpq.br/3909390599449995",
		color="#17272B",
		fontcolor="#FFFFFF",
		height=0.23611,
		label="Carlos F. F. de Barros e Vasconcellos [0]",
		pos="591,200.5",
		width=2.0694];
	5	 [URL="http://lattes.cnpq.br/4299545465339581",
		color="#17272B",
		fontcolor="#FFFFFF",
		height=0.23611,
		label="Antonio C. de Moura Santos [0]",
		pos="744,200.5",
		width=1.6667];
	6	 [URL="http://lattes.cnpq.br/",
		color="#17272B",
		fontcolor="#FFFFFF",
		height=0.23611,
		label="[Nome-nao-identificado] [0]",
		pos="876,200.5",
		width=1.4861];
	7	 [URL="http://lattes.cnpq.br/0403732822984772",
		color="#17272B",
		fontcolor="#FFFFFF",
		height=0.23611,
		label="Alexandre Sztajnberg [1]",
		pos="996,200.5",
		width=1.3472];
	11	 [URL="http://lattes.cnpq.br/1829333800490851",
		color="#17272B",
		fontcolor="#FFFFFF",
		height=0.23611,
		label="Rosa M. E. Moreira da Costa [3]",
		pos="996,136.5",
		width=1.6806];
	7 -> 11	 [arrowhead=normal,
		arrowsize=0.75,
		fontsize=8,
		label=1.0,
		lp="985.5,168.5",
		penwidth=3.5,
		pos="e,989.04,145.26 989.72,191.85 986.1,186.93 981.91,180.23 980,173.5 977.89,166.06 980.77,158.16 984.64,151.67"];
	11 -> 7	 [arrowhead=normal,
		arrowsize=0.75,
		fontsize=8,
		label=0.33,
		lp="1003.5,168.5",
		penwidth=1.49,
		pos="e,996,191.9 996,145.16 996,154.86 996,171.8 996,184.19"];
	9	 [URL="http://lattes.cnpq.br/7535348349141535",
		color="#17272B",
		fontcolor="#FFFFFF",
		height=0.23611,
		label="Vera M. Benjamim Werneck [3]",
		pos="996,72.5",
		width=1.6806];
	11 -> 9	 [arrowhead=normal,
		arrowsize=0.75,
		fontsize=8,
		label=0.67,
		lp="984.5,104.5",
		penwidth=2.51,
		pos="e,988.17,81.398 987.75,127.84 981.18,120.77 973.62,109.85 977,99.5 978.39,95.248 980.76,91.115 983.37,87.441"];
	9 -> 11	 [arrowhead=normal,
		arrowsize=0.75,
		fontsize=8,
		label=0.67,
		lp="1003.5,104.5",
		penwidth=2.51,
		pos="e,996,127.9 996,81.165 996,90.864 996,107.8 996,120.19"];
	14	 [URL="http://lattes.cnpq.br/1706605645478326",
		color="#17272B",
		fontcolor="#FFFFFF",
		height=0.23611,
		label="Ana L. de C. Leite Duboc [1]",
		pos="996,8.5",
		width=1.5417];
	9 -> 14	 [arrowhead=normal,
		arrowsize=0.75,
		fontsize=8,
		label=0.33,
		lp="985.5,40.5",
		penwidth=1.49,
		pos="e,988.18,17.199 988.94,63.978 984.88,59.114 980.16,52.417 978,45.5 975.59,37.796 979.02,29.716 983.51,23.167"];
	14 -> 9	 [arrowhead=normal,
		arrowsize=0.75,
		fontsize=8,
		label=1.0,
		lp="1001.5,40.5",
		penwidth=3.5,
		pos="e,996,63.898 996,17.165 996,26.864 996,43.797 996,56.189"];
	8	 [URL="http://lattes.cnpq.br/4754635406522430",
		color="#17272B",
		fontcolor="#FFFFFF",
		height=0.23611,
		label="Jerrylee D. Yoshii Silva [0]",
		pos="1115,200.5",
		width=1.4583];
	12	 [URL="http://lattes.cnpq.br/5413422509570085",
		color="#17272B",
		fontcolor="#FFFFFF",
		height=0.23611,
		label="Paulo E. Duarte Pinto [0]",
		pos="1235,200.5",
		width=1.3611];
	13	 [URL="http://lattes.cnpq.br/1734587740129156",
		color="#17272B",
		fontcolor="#FFFFFF",
		height=0.23611,
		label="Augusto C. de Castro Barbosa [2]",
		pos="1365,200.5",
		width=1.7361];
	27	 [URL="http://lattes.cnpq.br/7992727935310462",
		color="#17272B",
		fontcolor="#FFFFFF",
		height=0.23611,
		label="Marcus V. Tovar Costa [2]",
		pos="1365,136.5",
		width=1.4306];
	13 -> 27	 [arrowhead=normal,
		arrowsize=0.75,
		fontsize=8,
		label=1.0,
		lp="1354.5,168.5",
		penwidth=3.5,
		pos="e,1358,145.26 1358.7,191.85 1355.1,186.93 1350.9,180.23 1349,173.5 1346.9,166.06 1349.8,158.16 1353.6,151.67"];
	27 -> 13	 [arrowhead=normal,
		arrowsize=0.75,
		fontsize=8,
		label=1.0,
		lp="1370.5,168.5",
		penwidth=3.5,
		pos="e,1365,191.9 1365,145.16 1365,154.86 1365,171.8 1365,184.19"];
	15	 [URL="http://lattes.cnpq.br/8300604408079168",
		color="#17272B",
		fontcolor="#FFFFFF",
		height=0.23611,
		label="Ricardo Carvalho de Barros [0]",
		pos="1504,200.5",
		width=1.625];
	16	 [URL="http://lattes.cnpq.br/3413049864861519",
		color="#17272B",
		fontcolor="#FFFFFF",
		height=0.23611,
		label="Rosa M. Videira de Figueiredo [0]",
		pos="1644,200.5",
		width=1.7639];
	17	 [URL="http://lattes.cnpq.br/9164335773757265",
		color="#17272B",
		fontcolor="#FFFFFF",
		height=0.23611,
		label="Regina Serrão Lanzillotti [0]",
		pos="1780,200.5",
		width=1.5139];
	18	 [URL="http://lattes.cnpq.br/2324159515825927",
		color="#17272B",
		fontcolor="#FFFFFF",
		height=0.23611,
		label="Raul Jose Donangelo [0]",
		pos="1901,200.5",
		width=1.3333];
	19	 [URL="http://lattes.cnpq.br/8180092714037435",
		color="#17272B",
		fontcolor="#FFFFFF",
		height=0.23611,
		label="Patrícia Nunes da Silva [0]",
		pos="2019,200.5",
		width=1.4306];
	20	 [URL="http://lattes.cnpq.br/0556459512101837",
		color="#17272B",
		fontcolor="#FFFFFF",
		height=0.23611,
		label="Luis A. Vidal de Carvalho [0]",
		pos="2145,200.5",
		width=1.5556];
	21	 [URL="http://lattes.cnpq.br/4869894816851795",
		color="#17272B",
		fontcolor="#FFFFFF",
		height=0.23611,
		label="Leandro A. Justen Marzulo [0]",
		pos="2277,200.5",
		width=1.5972];
	22	 [URL="http://lattes.cnpq.br/7074540262731419",
		color="#17272B",
		fontcolor="#FFFFFF",
		height=0.23611,
		label="Neide d. Santos Souza [0]",
		pos="2403,200.5",
		width=1.3889];
	23	 [URL="http://lattes.cnpq.br/0662797102623056",
		color="#17272B",
		fontcolor="#FFFFFF",
		height=0.23611,
		label="Sheila R. Murgel Veloso [0]",
		pos="2525,200.5",
		width=1.4861];
	24	 [URL="http://lattes.cnpq.br/3383864003678045",
		color="#17272B",
		fontcolor="#FFFFFF",
		height=0.23611,
		label="Cristiane de Faria Oliveira [0]",
		pos="2653,200.5",
		width=1.5694];
	25	 [URL="http://lattes.cnpq.br/4468191018994448",
		color="#17272B",
		fontcolor="#FFFFFF",
		height=0.23611,
		label="Maria H. de P. Leite Mello [0]",
		pos="2785,200.5",
		width=1.5833];
	26	 [URL="http://lattes.cnpq.br/6348480289055660",
		color="#17272B",
		fontcolor="#FFFFFF",
		height=0.23611,
		label="Maria C. Stelling de Castro [0]",
		pos="2918,200.5",
		width=1.6111];
	28	 [URL="http://lattes.cnpq.br/3965328361563422",
		color="#17272B",
		fontcolor="#FFFFFF",
		height=0.23611,
		label="Luerbio Faria [0]",
		pos="3030,200.5",
		width=1];
	29	 [URL="http://lattes.cnpq.br/4657870977403568",
		color="#17272B",
		fontcolor="#FFFFFF",
		height=0.23611,
		label="Guilherme L. Abelha Mota [0]",
		pos="3142,200.5",
		width=1.5972];
}
