strict graph grafo1 {
	graph [bb="0,0,4510,179",
		id=grafo1,
		overlap=False
	];
	node [fontsize=8,
		label="\N",
		shape=rectangle,
		style=filled
	];
	0	 [URL="http://lattes.cnpq.br/0751163307734256",
		color="#17272B",
		fontcolor="#FFFFFF",
		height=0.23611,
		label="Antonio Riul Júnior [0]",
		pos="46,170.5",
		width=1.2778];
	1	 [URL="http://lattes.cnpq.br/8106067351019340",
		color="#17272B",
		fontcolor="#FFFFFF",
		height=0.23611,
		label="Antonio A. da Silva Curvelo [0]",
		pos="170,170.5",
		width=1.6667];
	2	 [URL="http://lattes.cnpq.br/4352323080338671",
		color="#17272B",
		fontcolor="#FFFFFF",
		height=0.23611,
		label="Andreas Karoly Gombert [0]",
		pos="303,170.5",
		width=1.5139];
	3	 [URL="http://lattes.cnpq.br/8444233927942764",
		color="#17272B",
		fontcolor="#FFFFFF",
		height=0.23611,
		label="Andre Tosi Furtado [0]",
		pos="421,170.5",
		width=1.2639];
	4	 [URL="http://lattes.cnpq.br/9224559183264354",
		color="#17272B",
		fontcolor="#FFFFFF",
		height=0.23611,
		label="Maria I. Afonso Lopes [0]",
		pos="535,170.5",
		width=1.4028];
	5	 [URL="http://lattes.cnpq.br/8251885707409794",
		color="#17272B",
		fontcolor="#FFFFFF",
		height=0.23611,
		label="Michel Brienzo [1]",
		pos="643,170.5",
		width=1.0833];
	9	 [URL="http://lattes.cnpq.br/4638952263502744",
		color="#17272B",
		fontcolor="#FFFFFF",
		height=0.23611,
		label="Pedro de Oliva Neto [1]",
		pos="643,116.5",
		width=1.2917];
	5 -- 9	 [pos="643,161.83 643,152 643,135.05 643,125.2"];
	6	 [URL="http://lattes.cnpq.br/8021481959269554",
		color="#17272B",
		fontcolor="#FFFFFF",
		height=0.23611,
		label="Marcus B. Soares Forte [1]",
		pos="780,170.5",
		width=1.4306];
	24	 [URL="http://lattes.cnpq.br/2967035823175406",
		color="#17272B",
		fontcolor="#FFFFFF",
		height=0.23611,
		label="Sandra Imaculada Maintinguer [2]",
		pos="809,116.5",
		width=1.7639];
	6 -- 24	 [pos="784.28,161.83 789.76,152 799.21,135.05 804.7,125.2"];
	7	 [URL="http://lattes.cnpq.br/2663920223082171",
		color="#17272B",
		fontcolor="#FFFFFF",
		height=0.23611,
		label="Márcia J. Rossini Mutton [0]",
		pos="999,170.5",
		width=1.5139];
	8	 [URL="http://lattes.cnpq.br/3707634488541457",
		color="#17272B",
		fontcolor="#FFFFFF",
		height=0.23611,
		label="Rafael Vasconcelos Ribeiro [1]",
		pos="1005,116.5",
		width=1.625];
	13	 [URL="http://lattes.cnpq.br/9861339870761985",
		color="#17272B",
		fontcolor="#FFFFFF",
		height=0.23611,
		label="Marcelo Menossi Teixeira [1]",
		pos="989,62.5",
		width=1.5556];
	8 -- 13	 [pos="1002.6,107.83 999.61,97.996 994.4,81.051 991.37,71.204"];
	46	 [URL="http://lattes.cnpq.br/8781151791813974",
		color="#17272B",
		fontcolor="#FFFFFF",
		height=0.23611,
		label="Carlos Alberto Labate [3]",
		pos="1073,8.5",
		width=1.375];
	8 -- 46	 [pos="1016.8,107.79 1027.9,99.92 1044.3,86.726 1054,71.5 1065.1,54.041 1070.1,29.65 1072,17.311"];
	13 -- 46	 [pos="1001.4,53.827 1017.4,43.939 1045,26.856 1060.8,17.035"];
	10	 [URL="http://lattes.cnpq.br/7908775368079914",
		color="#17272B",
		fontcolor="#FFFFFF",
		height=0.23611,
		label="Paulo Seleghim Júnior [0]",
		pos="1428,170.5",
		width=1.3889];
	11	 [URL="http://lattes.cnpq.br/0072173018005712",
		color="#17272B",
		fontcolor="#FFFFFF",
		height=0.23611,
		label="Nelson Ramos Stradiotto [0]",
		pos="1828,170.5",
		width=1.5];
	12	 [URL="http://lattes.cnpq.br/8867390850809735",
		color="#17272B",
		fontcolor="#FFFFFF",
		height=0.23611,
		label="Munir Salomao Skaf [5]",
		pos="1237,170.5",
		width=1.3056];
	27	 [URL="http://lattes.cnpq.br/4574679474660607",
		color="#17272B",
		fontcolor="#FFFFFF",
		height=0.23611,
		label="João R. Carvalho Muniz [7]",
		pos="1151,116.5",
		width=1.4722];
	12 -- 27	 [pos="1224.3,161.83 1208,151.94 1179.7,134.86 1163.5,125.04"];
	29	 [URL="http://lattes.cnpq.br/9669532724764871",
		color="#17272B",
		fontcolor="#FFFFFF",
		height=0.23611,
		label="Igor Polikarpov [13]",
		pos="1242,62.5",
		width=1.1389];
	12 -- 29	 [pos="1237.4,161.88 1238.3,142.32 1240.7,90.536 1241.6,71.054"];
	27 -- 29	 [pos="1164.4,107.83 1181.7,97.939 1211.6,80.856 1228.8,71.035"];
	32	 [URL="http://lattes.cnpq.br/4768305989343564",
		color="#17272B",
		fontcolor="#FFFFFF",
		height=0.23611,
		label="Fernando Segato [1]",
		pos="1142,62.5",
		width=1.1389];
	27 -- 32	 [pos="1149.7,107.83 1148,97.996 1145,81.051 1143.3,71.204"];
	29 -- 46	 [pos="1217.4,53.939 1185.4,44.08 1129.7,26.934 1097.6,17.07"];
	48	 [URL="http://lattes.cnpq.br/7497379804672333",
		color="#17272B",
		fontcolor="#FFFFFF",
		height=0.23611,
		label="Sindelia Freitas Azzoni [1]",
		pos="1242,8.5",
		width=1.4306];
	29 -- 48	 [pos="1242,53.827 1242,43.996 1242,27.051 1242,17.204"];
	14	 [URL="http://lattes.cnpq.br/6123811912250634",
		color="#17272B",
		fontcolor="#FFFFFF",
		height=0.23611,
		label="Luis A. Barbosa Cortez [7]",
		pos="1680,116.5",
		width=1.4306];
	15	 [URL="http://lattes.cnpq.br/4984859173592703",
		color="#17272B",
		fontcolor="#FFFFFF",
		height=0.23611,
		label="Jose M. F. Jardim da Silveira [1]",
		pos="1362,62.5",
		width=1.6806];
	14 -- 15	 [pos="1634.1,107.99 1573.7,98.122 1468.3,80.874 1407.9,71.003"];
	25	 [URL="http://lattes.cnpq.br/0112866192884217",
		color="#17272B",
		fontcolor="#FFFFFF",
		height=0.23611,
		label="Telma Teixeira Franco [1]",
		pos="1491,62.5",
		width=1.4028];
	14 -- 25	 [pos="1652.5,107.94 1616.7,98.08 1554.4,80.934 1518.5,71.07"];
	34	 [URL="http://lattes.cnpq.br/7632245413046227",
		color="#17272B",
		fontcolor="#FFFFFF",
		height=0.23611,
		label="Henrique C. Junqueira Franco [14]",
		pos="2020,62.5",
		width=1.7778];
	14 -- 34	 [pos="1729.1,107.99 1793.6,98.122 1906.4,80.874 1970.9,71.003"];
	38	 [URL="http://lattes.cnpq.br/7765068307855043",
		color="#17272B",
		fontcolor="#FFFFFF",
		height=0.23611,
		label="Francisco E. Baccaro Nigro [1]",
		pos="1618,62.5",
		width=1.625];
	14 -- 38	 [pos="1670.9,107.83 1659.1,97.996 1638.9,81.051 1627.2,71.204"];
	50	 [URL="http://lattes.cnpq.br/5436713663763286",
		color="#17272B",
		fontcolor="#FFFFFF",
		height=0.23611,
		label="Rubens Maciel Filho [2]",
		pos="1742,62.5",
		width=1.3194];
	14 -- 50	 [pos="1689.1,107.83 1700.9,97.996 1721.1,81.051 1732.8,71.204"];
	51	 [URL="http://lattes.cnpq.br/5130566170893828",
		color="#17272B",
		fontcolor="#FFFFFF",
		height=0.23611,
		label="Rubens A. Camargo Lamparelli [1]",
		pos="1873,62.5",
		width=1.8056];
	14 -- 51	 [pos="1708.1,107.94 1744.7,98.08 1808.3,80.934 1844.9,71.07"];
	16	 [URL="http://lattes.cnpq.br/1750154267305530",
		color="#17272B",
		fontcolor="#FFFFFF",
		height=0.23611,
		label="José Luz Silveira [0]",
		pos="2199,170.5",
		width=1.1528];
	17	 [URL="http://lattes.cnpq.br/2090018228785477",
		color="#17272B",
		fontcolor="#FFFFFF",
		height=0.23611,
		label="Tito José Bonagamba [1]",
		pos="1314,116.5",
		width=1.3472];
	17 -- 29	 [pos="1303.4,107.83 1289.8,97.996 1266.3,81.051 1252.7,71.204"];
	18	 [URL="http://lattes.cnpq.br/0694700754100102",
		color="#17272B",
		fontcolor="#FFFFFF",
		height=0.23611,
		label="Lucas Rios do Amaral [1]",
		pos="2089,170.5",
		width=1.3889];
	22	 [URL="http://lattes.cnpq.br/1198843146263387",
		color="#17272B",
		fontcolor="#FFFFFF",
		height=0.23611,
		label="Paulo S. Graziano Magalhães [15]",
		pos="2089,116.5",
		width=1.75];
	18 -- 22	 [pos="2089,161.83 2089,152 2089,135.05 2089,125.2"];
	22 -- 34	 [pos="2078.8,107.83 2065.8,97.996 2043.3,81.051 2030.2,71.204"];
	45	 [URL="http://lattes.cnpq.br/1117896124904968",
		color="#17272B",
		fontcolor="#FFFFFF",
		height=0.23611,
		label="Carlos E. Pellegrino Cerri [1]",
		pos="2158,62.5",
		width=1.5417];
	22 -- 45	 [pos="2099.2,107.83 2112.2,97.996 2134.7,81.051 2147.8,71.204"];
	19	 [URL="http://lattes.cnpq.br/2208463258386199",
		color="#17272B",
		fontcolor="#FFFFFF",
		height=0.23611,
		label="Marco A. Pinheiro Lima [0]",
		pos="2312,170.5",
		width=1.4722];
	20	 [URL="http://lattes.cnpq.br/6068911894498452",
		color="#17272B",
		fontcolor="#FFFFFF",
		height=0.23611,
		label="Jose G. Cabrera Gomez [0]",
		pos="2435,170.5",
		width=1.4444];
	21	 [URL="http://lattes.cnpq.br/9859154979447005",
		color="#17272B",
		fontcolor="#FFFFFF",
		height=0.23611,
		label="Jonas Contiero [1]",
		pos="888,170.5",
		width=1.0556];
	21 -- 24	 [pos="876.34,161.83 861.32,151.94 835.37,134.86 820.45,125.04"];
	23	 [URL="http://lattes.cnpq.br/4582822311318387",
		color="#17272B",
		fontcolor="#FFFFFF",
		height=0.23611,
		label="Ricardo A. Verdú Ramos [0]",
		pos="2560,170.5",
		width=1.5139];
	26	 [URL="http://lattes.cnpq.br/8333273103512768",
		color="#17272B",
		fontcolor="#FFFFFF",
		height=0.23611,
		label="Suani Teixeira Coelho [1]",
		pos="1122,170.5",
		width=1.3889];
	26 -- 27	 [pos="1126.3,161.83 1131.8,152 1141.2,135.05 1146.7,125.2"];
	28	 [URL="http://lattes.cnpq.br/0629601747594563",
		color="#17272B",
		fontcolor="#FFFFFF",
		height=0.23611,
		label="Jackson D. Megiatto Junior [0]",
		pos="2691,170.5",
		width=1.6111];
	30	 [URL="http://lattes.cnpq.br/8452678355444067",
		color="#17272B",
		fontcolor="#FFFFFF",
		height=0.23611,
		label="Igor Cesarino [0]",
		pos="2803,170.5",
		width=1];
	31	 [URL="http://lattes.cnpq.br/9002964104953284",
		color="#17272B",
		fontcolor="#FFFFFF",
		height=0.23611,
		label="Eduardo Ribeiro de Azevedo [0]",
		pos="2918,170.5",
		width=1.6806];
	33	 [URL="http://lattes.cnpq.br/4943655471147347",
		color="#17272B",
		fontcolor="#FFFFFF",
		height=0.23611,
		label="Antonio J. de Almeida Meirelles [0]",
		pos="3063,170.5",
		width=1.8333];
	35	 [URL="http://lattes.cnpq.br/5775091545458540",
		color="#17272B",
		fontcolor="#FFFFFF",
		height=0.23611,
		label="Goncalo A. Guimarães Pereira [0]",
		pos="3210,170.5",
		width=1.75];
	36	 [URL="http://lattes.cnpq.br/2296571587865157",
		color="#17272B",
		fontcolor="#FFFFFF",
		height=0.23611,
		label="Gláucia Mendes de Souza [0]",
		pos="3347,170.5",
		width=1.5417];
	37	 [URL="http://lattes.cnpq.br/3812059891202992",
		color="#17272B",
		fontcolor="#FFFFFF",
		height=0.23611,
		label="Gabriel R. Alves Margarido [0]",
		pos="3480,170.5",
		width=1.6389];
	39	 [URL="http://lattes.cnpq.br/3902020936480943",
		color="#17272B",
		fontcolor="#FFFFFF",
		height=0.23611,
		label="Eliana G. de Macedo Lemos [0]",
		pos="3617,170.5",
		width=1.6528];
	40	 [URL="http://lattes.cnpq.br/7091241742851920",
		color="#17272B",
		fontcolor="#FFFFFF",
		height=0.23611,
		label="Eleni Gomes [0]",
		pos="3729,170.5",
		width=0.95833];
	41	 [URL="http://lattes.cnpq.br/9972643774491301",
		color="#17272B",
		fontcolor="#FFFFFF",
		height=0.23611,
		label="Edvaldo A. Amaral da Silva [0]",
		pos="3841,170.5",
		width=1.6389];
	42	 [URL="http://lattes.cnpq.br/5063831821596250",
		color="#17272B",
		fontcolor="#FFFFFF",
		height=0.23611,
		label="Eduardo Alves de Almeida [0]",
		pos="3976,170.5",
		width=1.5972];
	43	 [URL="http://lattes.cnpq.br/9855493448161702",
		color="#17272B",
		fontcolor="#FFFFFF",
		height=0.23611,
		label="Edivaldo Domingues Velini [0]",
		pos="4111,170.5",
		width=1.6389];
	44	 [URL="http://lattes.cnpq.br/6423374942748412",
		color="#17272B",
		fontcolor="#FFFFFF",
		height=0.23611,
		label="Cecilia Laluce [0]",
		pos="4225,170.5",
		width=1.0278];
	47	 [URL="http://lattes.cnpq.br/2699196515879292",
		color="#17272B",
		fontcolor="#FFFFFF",
		height=0.23611,
		label="Carla K. Nakao Cavaliero [0]",
		pos="4336,170.5",
		width=1.5417];
	49	 [URL="http://lattes.cnpq.br/6878697355639730",
		color="#17272B",
		fontcolor="#FFFFFF",
		height=0.23611,
		label="Rudinei Toneto Junior [0]",
		pos="4460,170.5",
		width=1.3889];
}
