strict digraph grafo3 {
	graph [bb="0,0,3917,401",
		id=grafo3,
		overlap=False
	];
	node [fontsize=8,
		label="\N",
		shape=rectangle,
		style=filled
	];
	0	 [URL="http://lattes.cnpq.br/0751163307734256",
		color="#17272B",
		fontcolor="#FFFFFF",
		height=0.23611,
		label="Antonio Riul Júnior [0]",
		pos="46,392.5",
		width=1.2778];
	1	 [URL="http://lattes.cnpq.br/8106067351019340",
		color="#17272B",
		fontcolor="#FFFFFF",
		height=0.23611,
		label="Antonio A. da Silva Curvelo [0]",
		pos="170,392.5",
		width=1.6667];
	2	 [URL="http://lattes.cnpq.br/4352323080338671",
		color="#17272B",
		fontcolor="#FFFFFF",
		height=0.23611,
		label="Andreas Karoly Gombert [0]",
		pos="303,392.5",
		width=1.5139];
	3	 [URL="http://lattes.cnpq.br/8444233927942764",
		color="#17272B",
		fontcolor="#FFFFFF",
		height=0.23611,
		label="Andre Tosi Furtado [0]",
		pos="421,392.5",
		width=1.2639];
	4	 [URL="http://lattes.cnpq.br/9224559183264354",
		color="#17272B",
		fontcolor="#FFFFFF",
		height=0.23611,
		label="Maria I. Afonso Lopes [0]",
		pos="535,392.5",
		width=1.4028];
	5	 [URL="http://lattes.cnpq.br/8251885707409794",
		color="#17272B",
		fontcolor="#FFFFFF",
		height=0.23611,
		label="Michel Brienzo [1]",
		pos="643,392.5",
		width=1.0833];
	9	 [URL="http://lattes.cnpq.br/4638952263502744",
		color="#17272B",
		fontcolor="#FFFFFF",
		height=0.23611,
		label="Pedro de Oliva Neto [1]",
		pos="665,328.5",
		width=1.2917];
	5 -> 9	 [arrowhead=normal,
		arrowsize=0.75,
		fontsize=8,
		label=1.0,
		lp="643.5,360.5",
		penwidth=3.5,
		pos="e,653.39,337.19 639.65,383.75 636.92,376.24 634.1,364.67 638,355.5 640.12,350.51 643.72,346.02 647.61,342.22"];
	9 -> 5	 [arrowhead=normal,
		arrowsize=0.75,
		fontsize=8,
		label=1.0,
		lp="660.5,360.5",
		penwidth=3.5,
		pos="e,645.7,383.9 662.28,337.16 658.81,346.96 652.71,364.12 648.31,376.55"];
	6	 [URL="http://lattes.cnpq.br/8021481959269554",
		color="#17272B",
		fontcolor="#FFFFFF",
		height=0.23611,
		label="Marcus B. Soares Forte [1]",
		pos="768,392.5",
		width=1.4306];
	24	 [URL="http://lattes.cnpq.br/2967035823175406",
		color="#17272B",
		fontcolor="#FFFFFF",
		height=0.23611,
		label="Sandra Imaculada Maintinguer [2]",
		pos="796,328.5",
		width=1.7639];
	6 -> 24	 [arrowhead=normal,
		arrowsize=0.75,
		fontsize=8,
		label=1.0,
		lp="769.5,360.5",
		penwidth=3.5,
		pos="e,781.63,337.15 764.91,383.94 762.32,376.38 759.68,364.58 764,355.5 766.54,350.17 770.76,345.57 775.33,341.79"];
	24 -> 6	 [arrowhead=normal,
		arrowsize=0.75,
		fontsize=8,
		label=0.5,
		lp="788.5,360.5",
		penwidth=2.0,
		pos="e,771.43,383.9 792.54,337.16 788.07,347.05 780.22,364.45 774.59,376.9"];
	21	 [URL="http://lattes.cnpq.br/9859154979447005",
		color="#17272B",
		fontcolor="#FFFFFF",
		height=0.23611,
		label="Jonas Contiero [1]",
		pos="796,264.5",
		width=1.0556];
	24 -> 21	 [arrowhead=normal,
		arrowsize=0.75,
		fontsize=8,
		label=0.5,
		lp="786.5,296.5",
		penwidth=2.0,
		pos="e,789.67,273.02 790.1,319.79 786.71,314.85 782.78,308.14 781,301.5 778.99,294.01 781.79,286.01 785.49,279.46"];
	21 -> 24	 [arrowhead=normal,
		arrowsize=0.75,
		fontsize=8,
		label=1.0,
		lp="801.5,296.5",
		penwidth=3.5,
		pos="e,796,319.9 796,273.16 796,282.86 796,299.8 796,312.19"];
	7	 [URL="http://lattes.cnpq.br/2663920223082171",
		color="#17272B",
		fontcolor="#FFFFFF",
		height=0.23611,
		label="Márcia J. Rossini Mutton [0]",
		pos="894,392.5",
		width=1.5139];
	8	 [URL="http://lattes.cnpq.br/3707634488541457",
		color="#17272B",
		fontcolor="#FFFFFF",
		height=0.23611,
		label="Rafael Vasconcelos Ribeiro [1]",
		pos="1026,392.5",
		width=1.625];
	13	 [URL="http://lattes.cnpq.br/9861339870761985",
		color="#17272B",
		fontcolor="#FFFFFF",
		height=0.23611,
		label="Marcelo Menossi Teixeira [1]",
		pos="935,328.5",
		width=1.5556];
	8 -> 13	 [arrowhead=normal,
		arrowsize=0.75,
		fontsize=8,
		label=0.5,
		lp="957.5,360.5",
		penwidth=2.0,
		pos="e,936.75,337.17 986.79,383.99 974.54,380.1 961.71,374.25 952,365.5 945.82,359.93 941.69,351.63 939.05,344.4"];
	46	 [URL="http://lattes.cnpq.br/8781151791813974",
		color="#17272B",
		fontcolor="#FFFFFF",
		height=0.23611,
		label="Carlos Alberto Labate [3]",
		pos="1019,264.5",
		width=1.375];
	8 -> 46	 [arrowhead=normal,
		arrowsize=0.75,
		fontsize=8,
		label=0.5,
		lp="1027.5,328.5",
		penwidth=2.0,
		pos="e,1019.4,273.12 1025.6,384 1024.5,363.82 1021.4,308.11 1019.9,280.88"];
	13 -> 8	 [arrowhead=normal,
		arrowsize=0.75,
		fontsize=8,
		label=0.5,
		lp="990.5,360.5",
		penwidth=2.0,
		pos="e,1014.8,383.9 946.25,337.16 961.85,347.8 990.22,367.12 1008.6,379.63"];
	13 -> 46	 [arrowhead=normal,
		arrowsize=0.75,
		fontsize=8,
		label=0.5,
		lp="962.5,296.5",
		penwidth=2.0,
		pos="e,991.01,273.06 937.95,319.93 941.42,311.9 947.89,299.33 957,291.5 964.76,284.83 974.48,279.68 983.9,275.79"];
	46 -> 8	 [arrowhead=normal,
		arrowsize=0.75,
		fontsize=8,
		label=0.17,
		lp="1049.5,328.5",
		penwidth=1.01,
		pos="e,1030.7,383.62 1024.6,273.29 1027.9,278.25 1031.9,284.96 1034,291.5 1044.2,322.82 1045.1,333.33 1038,365.5 1037.2,369.31 1035.7,\
373.22 1034.1,376.82"];
	46 -> 13	 [arrowhead=normal,
		arrowsize=0.75,
		fontsize=8,
		label=0.17,
		lp="989.5,296.5",
		penwidth=1.01,
		pos="e,945.3,319.9 1008.6,273.16 994.34,283.7 968.49,302.78 951.53,315.3"];
	29	 [URL="http://lattes.cnpq.br/9669532724764871",
		color="#17272B",
		fontcolor="#FFFFFF",
		height=0.23611,
		label="Igor Polikarpov [13]",
		pos="1019,200.5",
		width=1.1389];
	46 -> 29	 [arrowhead=normal,
		arrowsize=0.75,
		fontsize=8,
		label=0.67,
		lp="1007.5,232.5",
		penwidth=2.51,
		pos="e,1011.2,209.4 1010.7,255.84 1004.2,248.77 996.62,237.85 1000,227.5 1001.4,223.25 1003.8,219.11 1006.4,215.44"];
	29 -> 46	 [arrowhead=normal,
		arrowsize=0.75,
		fontsize=8,
		label=0.15,
		lp="1026.5,232.5",
		penwidth=0.95,
		pos="e,1019,255.9 1019,209.16 1019,218.86 1019,235.8 1019,248.19"];
	12	 [URL="http://lattes.cnpq.br/8867390850809735",
		color="#17272B",
		fontcolor="#FFFFFF",
		height=0.23611,
		label="Munir Salomao Skaf [5]",
		pos="866,136.5",
		width=1.3056];
	29 -> 12	 [arrowhead=normal,
		arrowsize=0.75,
		fontsize=8,
		label=0.35,
		lp="893.5,168.5",
		penwidth=1.55,
		pos="e,868.12,145.13 977.81,195.28 944.35,191.16 900.42,183.98 886,173.5 878.95,168.38 874.08,159.97 870.91,152.57"];
	27	 [URL="http://lattes.cnpq.br/4574679474660607",
		color="#17272B",
		fontcolor="#FFFFFF",
		height=0.23611,
		label="João R. Carvalho Muniz [7]",
		pos="931,72.5",
		width=1.4722];
	29 -> 27	 [arrowhead=normal,
		arrowsize=0.75,
		fontsize=8,
		label=0.35,
		lp="971.5,136.5",
		penwidth=1.55,
		pos="e,933.46,81.126 1009.4,191.96 997.51,182.24 977.23,164.34 964,145.5 951.33,127.46 941.59,103.78 936.08,88.596"];
	17	 [URL="http://lattes.cnpq.br/2090018228785477",
		color="#17272B",
		fontcolor="#FFFFFF",
		height=0.23611,
		label="Tito José Bonagamba [1]",
		pos="1082,136.5",
		width=1.3472];
	29 -> 17	 [arrowhead=normal,
		arrowsize=0.75,
		fontsize=8,
		label=0.08,
		lp="1045.5,168.5",
		penwidth=0.74,
		pos="e,1064.2,145.19 1021.6,191.86 1024.6,184 1030.1,171.79 1038,163.5 1043.5,157.72 1050.6,152.79 1057.4,148.83"];
	48	 [URL="http://lattes.cnpq.br/7497379804672333",
		color="#17272B",
		fontcolor="#FFFFFF",
		height=0.23611,
		label="Sindelia Freitas Azzoni [1]",
		pos="1200,136.5",
		width=1.4306];
	29 -> 48	 [arrowhead=normal,
		arrowsize=0.75,
		fontsize=8,
		label=0.08,
		lp="1127.5,168.5",
		penwidth=0.74,
		pos="e,1177.9,145.07 1041.2,191.9 1073.7,180.76 1134.4,159.98 1170.6,147.58"];
	12 -> 29	 [arrowhead=normal,
		arrowsize=0.75,
		fontsize=8,
		label=0.9,
		lp="929.5,168.5",
		penwidth=3.2,
		pos="e,981.61,191.9 876.19,145.1 887.39,153.14 906.18,165.73 924,173.5 939.9,180.44 958.12,185.96 974.32,190.1"];
	12 -> 27	 [arrowhead=normal,
		arrowsize=0.75,
		fontsize=8,
		label=0.1,
		lp="886.5,104.5",
		penwidth=0.8,
		pos="e,908.88,81.043 867.58,127.77 869.54,119.85 873.58,107.58 881,99.5 886.78,93.211 894.43,88.188 902,84.299"];
	27 -> 29	 [arrowhead=normal,
		arrowsize=0.75,
		fontsize=8,
		label=0.64,
		lp="999.5,136.5",
		penwidth=2.42,
		pos="e,1015.9,191.87 942.27,81.021 948.85,85.786 957.01,92.38 963,99.5 985.83,126.64 1004,164.46 1013,184.93"];
	27 -> 12	 [arrowhead=normal,
		arrowsize=0.75,
		fontsize=8,
		label=0.07,
		lp="909.5,104.5",
		penwidth=0.71,
		pos="e,873.97,127.9 922.96,81.165 912.11,91.517 892.62,110.11 879.5,122.63"];
	26	 [URL="http://lattes.cnpq.br/8333273103512768",
		color="#17272B",
		fontcolor="#FFFFFF",
		height=0.23611,
		label="Suani Teixeira Coelho [1]",
		pos="876,8.5",
		width=1.3889];
	27 -> 26	 [arrowhead=normal,
		arrowsize=0.75,
		fontsize=8,
		label=0.14,
		lp="888.5,40.5",
		penwidth=0.92,
		pos="e,875.14,17.119 905.78,63.908 896.58,59.887 886.98,53.973 881,45.5 876.86,39.628 875.41,31.854 875.08,25.034"];
	32	 [URL="http://lattes.cnpq.br/4768305989343564",
		color="#17272B",
		fontcolor="#FFFFFF",
		height=0.23611,
		label="Fernando Segato [1]",
		pos="985,8.5",
		width=1.1389];
	27 -> 32	 [arrowhead=normal,
		arrowsize=0.75,
		fontsize=8,
		label=0.14,
		lp="956.5,40.5",
		penwidth=0.92,
		pos="e,971.45,17.079 933.53,63.992 936.41,56.25 941.67,44.125 949,35.5 953.52,30.18 959.35,25.37 964.99,21.376"];
	17 -> 29	 [arrowhead=normal,
		arrowsize=0.75,
		fontsize=8,
		label=1.0,
		lp="1070.5,168.5",
		penwidth=3.5,
		pos="e,1032.6,191.91 1077.7,145.27 1073.2,153 1065.6,164.92 1057,173.5 1051.7,178.79 1045.1,183.71 1039,187.8"];
	48 -> 29	 [arrowhead=normal,
		arrowsize=0.75,
		fontsize=8,
		label=1.0,
		lp="1165.5,168.5",
		penwidth=3.5,
		pos="e,1060.2,193.92 1189.3,145.26 1177.5,153.44 1157.8,166.15 1139,173.5 1116.4,182.37 1090.1,188.49 1067.9,192.56"];
	10	 [URL="http://lattes.cnpq.br/7908775368079914",
		color="#17272B",
		fontcolor="#FFFFFF",
		height=0.23611,
		label="Paulo Seleghim Júnior [0]",
		pos="1168,392.5",
		width=1.3889];
	11	 [URL="http://lattes.cnpq.br/0072173018005712",
		color="#17272B",
		fontcolor="#FFFFFF",
		height=0.23611,
		label="Nelson Ramos Stradiotto [0]",
		pos="1344,392.5",
		width=1.5];
	26 -> 27	 [arrowhead=normal,
		arrowsize=0.75,
		fontsize=8,
		label=1.0,
		lp="911.5,40.5",
		penwidth=3.5,
		pos="e,924.26,63.898 882.8,17.165 891.9,27.424 908.18,45.775 919.28,58.286"];
	32 -> 27	 [arrowhead=normal,
		arrowsize=0.75,
		fontsize=8,
		label=1.0,
		lp="975.5,40.5",
		penwidth=3.5,
		pos="e,942.91,63.784 981.56,17.205 977.9,24.886 971.6,36.764 964,45.5 959.69,50.453 954.33,55.137 949.2,59.129"];
	14	 [URL="http://lattes.cnpq.br/6123811912250634",
		color="#17272B",
		fontcolor="#FFFFFF",
		height=0.23611,
		label="Luis A. Barbosa Cortez [7]",
		pos="1495,392.5",
		width=1.4306];
	15	 [URL="http://lattes.cnpq.br/4984859173592703",
		color="#17272B",
		fontcolor="#FFFFFF",
		height=0.23611,
		label="Jose M. F. Jardim da Silveira [1]",
		pos="1168,328.5",
		width=1.6806];
	14 -> 15	 [arrowhead=normal,
		arrowsize=0.75,
		fontsize=8,
		label=0.14,
		lp="1230.5,360.5",
		penwidth=0.92,
		pos="e,1176.6,337.09 1443.5,386.73 1365.3,379.48 1225.6,366.4 1223,365.5 1208,360.24 1193.1,350.07 1182.6,341.87"];
	25	 [URL="http://lattes.cnpq.br/0112866192884217",
		color="#17272B",
		fontcolor="#FFFFFF",
		height=0.23611,
		label="Telma Teixeira Franco [1]",
		pos="1297,328.5",
		width=1.4028];
	14 -> 25	 [arrowhead=normal,
		arrowsize=0.75,
		fontsize=8,
		label=0.14,
		lp="1337.5,360.5",
		penwidth=0.92,
		pos="e,1301.8,337.25 1443.4,387.11 1402.5,382.94 1349.2,375.79 1330,365.5 1320.5,360.4 1312.3,351.5 1306.5,343.82"];
	34	 [URL="http://lattes.cnpq.br/7632245413046227",
		color="#17272B",
		fontcolor="#FFFFFF",
		height=0.23611,
		label="Henrique C. Junqueira Franco [14]",
		pos="1430,328.5",
		width=1.7778];
	14 -> 34	 [arrowhead=normal,
		arrowsize=0.75,
		fontsize=8,
		label=0.14,
		lp="1440.5,360.5",
		penwidth=0.92,
		pos="e,1428.5,337.17 1459.4,383.98 1449.3,380.11 1439.4,374.28 1433,365.5 1428.7,359.59 1427.7,351.61 1427.9,344.67"];
	38	 [URL="http://lattes.cnpq.br/7765068307855043",
		color="#17272B",
		fontcolor="#FFFFFF",
		height=0.23611,
		label="Francisco E. Baccaro Nigro [1]",
		pos="1571,328.5",
		width=1.625];
	14 -> 38	 [arrowhead=normal,
		arrowsize=0.75,
		fontsize=8,
		label=0.14,
		lp="1522.5,360.5",
		penwidth=0.92,
		pos="e,1546.4,337.05 1497.6,383.99 1500.6,376.01 1506.4,363.49 1515,355.5 1521.9,349.06 1530.7,343.96 1539.3,340.06"];
	50	 [URL="http://lattes.cnpq.br/5436713663763286",
		color="#17272B",
		fontcolor="#FFFFFF",
		height=0.23611,
		label="Rubens Maciel Filho [2]",
		pos="1695,328.5",
		width=1.3194];
	14 -> 50	 [arrowhead=normal,
		arrowsize=0.75,
		fontsize=8,
		label=0.29,
		lp="1613.5,360.5",
		penwidth=1.37,
		pos="e,1670.6,337.07 1519.5,383.9 1555.6,372.71 1623,351.81 1663,339.43"];
	51	 [URL="http://lattes.cnpq.br/5130566170893828",
		color="#17272B",
		fontcolor="#FFFFFF",
		height=0.23611,
		label="Rubens A. Camargo Lamparelli [1]",
		pos="1826,328.5",
		width=1.8056];
	14 -> 51	 [arrowhead=normal,
		arrowsize=0.75,
		fontsize=8,
		label=0.14,
		lp="1713.5,360.5",
		penwidth=0.92,
		pos="e,1794.2,337.03 1546.4,384.26 1579.2,379.43 1622.7,372.67 1661,365.5 1704.1,357.43 1753.1,346.51 1786.5,338.82"];
	15 -> 14	 [arrowhead=normal,
		arrowsize=0.75,
		fontsize=8,
		label=1.0,
		lp="1307.5,360.5",
		penwidth=3.5,
		pos="e,1443.5,386.38 1192.5,337.09 1219.2,345.13 1263.3,357.72 1302,365.5 1346.6,374.46 1397.6,381.18 1436,385.54"];
	25 -> 14	 [arrowhead=normal,
		arrowsize=0.75,
		fontsize=8,
		label=1.0,
		lp="1412.5,360.5",
		penwidth=3.5,
		pos="e,1470.7,383.9 1321.2,337.07 1356.8,348.23 1423.6,369.14 1463.2,381.54"];
	34 -> 14	 [arrowhead=normal,
		arrowsize=0.75,
		fontsize=8,
		label=0.07,
		lp="1473.5,360.5",
		penwidth=0.71,
		pos="e,1487,383.9 1438,337.16 1448.9,347.52 1468.4,366.11 1481.5,378.63"];
	22	 [URL="http://lattes.cnpq.br/1198843146263387",
		color="#17272B",
		fontcolor="#FFFFFF",
		height=0.23611,
		label="Paulo S. Graziano Magalhães [15]",
		pos="1430,264.5",
		width=1.75];
	34 -> 22	 [arrowhead=normal,
		arrowsize=0.75,
		fontsize=8,
		label=0.93,
		lp="1418.5,296.5",
		penwidth=3.29,
		pos="e,1422.2,273.4 1421.7,319.84 1415.2,312.77 1407.6,301.85 1411,291.5 1412.4,287.25 1414.8,283.11 1417.4,279.44"];
	38 -> 14	 [arrowhead=normal,
		arrowsize=0.75,
		fontsize=8,
		label=1.0,
		lp="1546.5,360.5",
		penwidth=3.5,
		pos="e,1505.6,383.98 1562.7,337.15 1554.5,344.58 1541.6,356.09 1530,365.5 1524.2,370.15 1517.8,375.04 1512,379.31"];
	50 -> 14	 [arrowhead=normal,
		arrowsize=0.75,
		fontsize=8,
		label=1.0,
		lp="1651.5,360.5",
		penwidth=3.5,
		pos="e,1546.5,384.58 1682.6,337.24 1668.9,345.41 1646.2,358.11 1625,365.5 1602.4,373.41 1576.6,379.19 1554,383.26"];
	51 -> 14	 [arrowhead=normal,
		arrowsize=0.75,
		fontsize=8,
		label=1.0,
		lp="1763.5,360.5",
		penwidth=3.5,
		pos="e,1546.6,384.65 1808.9,337.02 1789.1,345.37 1755.3,358.59 1725,365.5 1651.4,382.3 1631,374.59 1556,383.5 1555.4,383.57 1554.8,383.64 \
1554.3,383.71"];
	22 -> 34	 [arrowhead=normal,
		arrowsize=0.75,
		fontsize=8,
		label=0.87,
		lp="1437.5,296.5",
		penwidth=3.11,
		pos="e,1430,319.9 1430,273.16 1430,282.86 1430,299.8 1430,312.19"];
	18	 [URL="http://lattes.cnpq.br/0694700754100102",
		color="#17272B",
		fontcolor="#FFFFFF",
		height=0.23611,
		label="Lucas Rios do Amaral [1]",
		pos="1371,200.5",
		width=1.3889];
	22 -> 18	 [arrowhead=normal,
		arrowsize=0.75,
		fontsize=8,
		label=0.07,
		lp="1384.5,232.5",
		penwidth=0.71,
		pos="e,1370.4,209.17 1402.9,255.93 1393.3,251.94 1383.4,246.05 1377,237.5 1372.7,231.71 1371,223.95 1370.5,217.11"];
	45	 [URL="http://lattes.cnpq.br/1117896124904968",
		color="#17272B",
		fontcolor="#FFFFFF",
		height=0.23611,
		label="Carlos E. Pellegrino Cerri [1]",
		pos="1495,200.5",
		width=1.5417];
	22 -> 45	 [arrowhead=normal,
		arrowsize=0.75,
		fontsize=8,
		label=0.07,
		lp="1462.5,232.5",
		penwidth=0.71,
		pos="e,1480.3,209.18 1434.1,255.97 1438.5,248.22 1446.2,236.08 1455,227.5 1460.5,222.16 1467.3,217.29 1473.6,213.24"];
	18 -> 22	 [arrowhead=normal,
		arrowsize=0.75,
		fontsize=8,
		label=1.0,
		lp="1409.5,232.5",
		penwidth=3.5,
		pos="e,1422.8,255.9 1378.3,209.16 1388.1,219.42 1405.5,237.78 1417.4,250.29"];
	45 -> 22	 [arrowhead=normal,
		arrowsize=0.75,
		fontsize=8,
		label=1.0,
		lp="1483.5,232.5",
		penwidth=3.5,
		pos="e,1444.7,255.82 1490.9,209.03 1486.5,216.78 1478.8,228.92 1470,237.5 1464.5,242.84 1457.7,247.71 1451.4,251.76"];
	16	 [URL="http://lattes.cnpq.br/1750154267305530",
		color="#17272B",
		fontcolor="#FFFFFF",
		height=0.23611,
		label="José Luz Silveira [0]",
		pos="1606,392.5",
		width=1.1528];
	19	 [URL="http://lattes.cnpq.br/2208463258386199",
		color="#17272B",
		fontcolor="#FFFFFF",
		height=0.23611,
		label="Marco A. Pinheiro Lima [0]",
		pos="1719,392.5",
		width=1.4722];
	20	 [URL="http://lattes.cnpq.br/6068911894498452",
		color="#17272B",
		fontcolor="#FFFFFF",
		height=0.23611,
		label="Jose G. Cabrera Gomez [0]",
		pos="1842,392.5",
		width=1.4444];
	23	 [URL="http://lattes.cnpq.br/4582822311318387",
		color="#17272B",
		fontcolor="#FFFFFF",
		height=0.23611,
		label="Ricardo A. Verdú Ramos [0]",
		pos="1967,392.5",
		width=1.5139];
	28	 [URL="http://lattes.cnpq.br/0629601747594563",
		color="#17272B",
		fontcolor="#FFFFFF",
		height=0.23611,
		label="Jackson D. Megiatto Junior [0]",
		pos="2098,392.5",
		width=1.6111];
	30	 [URL="http://lattes.cnpq.br/8452678355444067",
		color="#17272B",
		fontcolor="#FFFFFF",
		height=0.23611,
		label="Igor Cesarino [0]",
		pos="2210,392.5",
		width=1];
	31	 [URL="http://lattes.cnpq.br/9002964104953284",
		color="#17272B",
		fontcolor="#FFFFFF",
		height=0.23611,
		label="Eduardo Ribeiro de Azevedo [0]",
		pos="2325,392.5",
		width=1.6806];
	33	 [URL="http://lattes.cnpq.br/4943655471147347",
		color="#17272B",
		fontcolor="#FFFFFF",
		height=0.23611,
		label="Antonio J. de Almeida Meirelles [0]",
		pos="2470,392.5",
		width=1.8333];
	35	 [URL="http://lattes.cnpq.br/5775091545458540",
		color="#17272B",
		fontcolor="#FFFFFF",
		height=0.23611,
		label="Goncalo A. Guimarães Pereira [0]",
		pos="2617,392.5",
		width=1.75];
	36	 [URL="http://lattes.cnpq.br/2296571587865157",
		color="#17272B",
		fontcolor="#FFFFFF",
		height=0.23611,
		label="Gláucia Mendes de Souza [0]",
		pos="2754,392.5",
		width=1.5417];
	37	 [URL="http://lattes.cnpq.br/3812059891202992",
		color="#17272B",
		fontcolor="#FFFFFF",
		height=0.23611,
		label="Gabriel R. Alves Margarido [0]",
		pos="2887,392.5",
		width=1.6389];
	39	 [URL="http://lattes.cnpq.br/3902020936480943",
		color="#17272B",
		fontcolor="#FFFFFF",
		height=0.23611,
		label="Eliana G. de Macedo Lemos [0]",
		pos="3024,392.5",
		width=1.6528];
	40	 [URL="http://lattes.cnpq.br/7091241742851920",
		color="#17272B",
		fontcolor="#FFFFFF",
		height=0.23611,
		label="Eleni Gomes [0]",
		pos="3136,392.5",
		width=0.95833];
	41	 [URL="http://lattes.cnpq.br/9972643774491301",
		color="#17272B",
		fontcolor="#FFFFFF",
		height=0.23611,
		label="Edvaldo A. Amaral da Silva [0]",
		pos="3248,392.5",
		width=1.6389];
	42	 [URL="http://lattes.cnpq.br/5063831821596250",
		color="#17272B",
		fontcolor="#FFFFFF",
		height=0.23611,
		label="Eduardo Alves de Almeida [0]",
		pos="3383,392.5",
		width=1.5972];
	43	 [URL="http://lattes.cnpq.br/9855493448161702",
		color="#17272B",
		fontcolor="#FFFFFF",
		height=0.23611,
		label="Edivaldo Domingues Velini [0]",
		pos="3518,392.5",
		width=1.6389];
	44	 [URL="http://lattes.cnpq.br/6423374942748412",
		color="#17272B",
		fontcolor="#FFFFFF",
		height=0.23611,
		label="Cecilia Laluce [0]",
		pos="3632,392.5",
		width=1.0278];
	47	 [URL="http://lattes.cnpq.br/2699196515879292",
		color="#17272B",
		fontcolor="#FFFFFF",
		height=0.23611,
		label="Carla K. Nakao Cavaliero [0]",
		pos="3743,392.5",
		width=1.5417];
	49	 [URL="http://lattes.cnpq.br/6878697355639730",
		color="#17272B",
		fontcolor="#FFFFFF",
		height=0.23611,
		label="Rudinei Toneto Junior [0]",
		pos="3867,392.5",
		width=1.3889];
}
