artigoEmPeriodico	Rinaldo dos Santos Araújo	2013		Hidrocarbonetos policíclicos aromáticos atmosféricos de fontes automotivas: uma breve revisão	Holos (Natal. Online)	AZEVEDO, J. A. H. ; ARAÚJO, R. S ; MARINHO, G.	B2	
artigoEmPeriodico	Rinaldo dos Santos Araújo	2013		Biodegradação de corantes têxteis associada ao cultivo de geobacillus stearothermophilus: uma alternativa para produção de biossurfactante	Revista AIDIS de Ingeniería y Ciencias Ambientales	VASCONCELOS, A. K. P. ; Aquino, M. D. ; FABRICIO, T. N. R. ; BRAGA, M. A. ; LIMA, I. S. ; ARAÚJO, R. S	B3	
artigoEmPeriodico	Rinaldo dos Santos Araújo	2013		Qualidade do ar - parâmetros de controle e efeito sobre a saúde humana: uma breve revisão	Holos (Natal. Online)	CASTRO, A. H. S. ; ARAÚJO, R. S ; MARINHO, G.	B2	
artigoEmPeriodico	Rinaldo dos Santos Araújo	2013		Azo Dye Degradation by Phanerochaete Chrysosporium in the Medium Enriched with Nitrogen in the Presence of Primary Co-Substrate	Brazilian Archives of Biology and Technology (Impresso)	ANDRADE, M. V. F. ; SILVA, K. M. L. ; FELIX, J. P. L. ; PESSOA-WANDERLEY, C. R. ; ARAÚJO, R. S ; Sampaio, G. M. M. S. ; Rodrigues, K. A.	B1	
trabalhoCompletoEmCongresso	Rinaldo dos Santos Araújo	2013		Ozonização de azo corante Acid Red 27 em solução aquosa usando sistemas O3, O3/H2O2, O3/LaFeO3 (perovskita) e O3/TiO2	27 Congresso Brasileiro de Engenharia Sanitária e Ambiental	MARINHO, C. O. ; LIMA, M. R. P. ; Lima, R.K.C ; RODRIGUES, K. A. ; ARAÚJO, R. S		
trabalhoCompletoEmCongresso	Rinaldo dos Santos Araújo	2013		Oxidação Eletrocatalítica do azo corante Acid Red 27 usando eletrodo óxido de Ti/Ru0,3Sn0,7O2	27 Congresso Brasileiro de Engenharia Sanitária e Ambiental	ALBUQUERQUE, B. C. ; MONTE, A. C. S. ; LIMA, A. C. G. ; MARANHAO, M. L. ; ARAÚJO, R. S		
trabalhoCompletoEmCongresso	Rinaldo dos Santos Araújo	2013		Cinética de adsorção de azo corantes Acid Red usando resíduo celulósico e carvão ativado como adsorventes	27 Congresso Brasileiro de Engenharia Sanitária e Ambiental	FURTADO, Y. D. ; OLIVEIRA, M. S. ; CASTRO, A. H. S. ; SAMPAIO, G. M. M. S. ; ARAÚJO, R. S		
trabalhoCompletoEmCongresso	Rinaldo dos Santos Araújo	2013		Oxidação Avançada do azo corante Acid Red 66 via processos UV, UV/H2O2 e Fe2+/H2O2	17 Congresso Brasileiro de Catálise/VII Congresso de Catálise do Mercosul	LIMA, M. R. P. ; MARINHO, C. O. ; OLIVEIRA, M. L. M. ; SAMPAIO, G. M. M. S. ; ARAÚJO, R. S		
trabalhoCompletoEmCongresso	Rinaldo dos Santos Araújo	2013		Eletro-oxidação do Azo Corante Acid Red 66 utilizando eletrodo anodo de Ti/Ru0,3Sn0,7O2	17 Congresso Brasileiro de Catálise	MONTE, A. C. S. ; ALBUQUERQUE, B. C. ; LIMA, A. C. G. ; MARANHAO, M. L. ; ARAÚJO, R. S		
trabalhoCompletoEmCongresso	Rinaldo dos Santos Araújo	2013		Estudo da combustão catalítica de biodiesel/GLP em queimador poroso contendo CuZSM-5/Al2O3	17 Congresso Brasileiro de Catálise	ARARUNA, C. L. ; DUARTE, J. B. F. ; PIRES, A. P. M. ; ARAÚJO, R. S ; ARAUJO, J. C. S. ; Lima, R.K.C ; OLIVEIRA, M. L. M.		
trabalhoCompletoEmCongresso	Rinaldo dos Santos Araújo	2013		Study of iron-exchanged zeolite catalyst in the SCR-NOx with NH3	17 Congresso Brasileiro de Catálise	OLIVEIRA, M. L. M. ; ARAÚJO, R. S ; ARAUJO, J. C. S. ; ALBUQUERQUE, V. H. C. ; SILVA, C. C. ; CASTELLON, E. R.		
trabalhoCompletoEmCongresso	Rinaldo dos Santos Araújo	2013		Eletro-oxidação do azo corante acid red 66 utilizando anodo de Ti/Ru0,3Ti0,4Sn0,3O2	VIII Congresso Norte-Nordeste de Pesquisa e Inovação	MONTE, A. C. S. ; ALBUQUERQUE, B. C. ; LIMA, A. C. G. ; MARANHAO, M. L. ; NOGUEIRA, M. I. C. ; ARAÚJO, R. S		
trabalhoCompletoEmCongresso	Rinaldo dos Santos Araújo	2013		Monitoramento atmosférico das partículas totais em suspensão em uma área urbana da cidade de Fortaleza-ce. estudo de caso: Avenida Treze de Maio	VIII Congresso Norte-Nordeste de Pesquisa e Inovação	AZEVEDO, J. A. H. ; CASTRO, A. H. S. ; LIMA, R. M. ; CASSIANO, D. R. ; OLIVEIRA, M. L. M. ; ARAÚJO, R. S		
resumoExpandidoEmCongresso	Rinaldo dos Santos Araújo	2013	Pearson correlation between quality indices of paluma guava harvested in different maturity stages	Simposio Latino Americano de Ciência de Alimentos, 2013, Campinas - SP. Anais do 10 Simposio Latino Americano de Ciência de Alimentos	MUNIZ, J. L. ; SANTOS, L. M. L. ; OLIVEIRA, Z. L. ; BRAGA, R. C. ; SOUZA, P. A. ; ARAÚJO, R. S		
artigoEmPeriodico	Antônio Carlos Santana dos Santos	2013		ANÁLISE DO POTENCIAL EÓLICO OFFSHORE DO CEARÁ EM PERÍODOS DE EL NIÑO E LA NIÑA.	Ciência e Natura	LIMA, D. K. S. ; LEAO, R. P. S. ; SANTOS, A. C. S. ; MELO, F. D. C. ; CHAVES, C. M. N. M.	B2	
artigoEmPeriodico	Antônio Carlos Santana dos Santos	2013	http://dx.doi.org/10.1590/s0102-77862013000400011	Desenvolvimento de uma parametrização do efeito de rajadas associadas a sistemas convectivos nos fluxos de calor na superfície utilizando Modelagem de Ensemble de Nuvens	Revista Brasileira de Meteorologia (Impresso)	SANTOS, A. C. S.; NORONHA, A. W. T. ; COSTA, A. A.	A2	
trabalhoCompletoEmCongresso	Antônio Carlos Santana dos Santos	2013		Modelagem Numérica do Clima Urbano da Cidade de Fortaleza: Estudo de caso para o parque do rio Cocó	V SIC - Simpósio Internacional de Clmatologia	OLIVEIRA, F. W. C. ; SANTOS, A. C. S. ; NORONHA, A. W. T. ; SILVA, M. V. M.		
