strict graph grafo1 {
	graph [bb="0,0,1623.5,179",
		id=grafo1,
		overlap=False
	];
	node [fontsize=8,
		label="\N",
		shape=rectangle,
		style=filled
	];
	0	 [URL="http://lattes.cnpq.br/2820404320026694",
		color="#17272B",
		fontcolor="#FFFFFF",
		height=0.23611,
		label="José R. Cápua Proveti [0]",
		pos="49,170.5",
		width=1.3611];
	1	 [URL="http://lattes.cnpq.br/3741207242086712",
		color="#17272B",
		fontcolor="#FFFFFF",
		height=0.23611,
		label="Marcelo Silveira Bacelos [3]",
		pos="284,170.5",
		width=1.5139];
	6	 [URL="http://lattes.cnpq.br/8699243861996813",
		color="#17272B",
		fontcolor="#FFFFFF",
		height=0.23611,
		label="Taisa Shimosakai de Lira [3]",
		pos="164,116.5",
		width=1.5139];
	1 -- 6	 [pos="266.55,161.94 243.8,152.08 204.23,134.93 181.47,125.07"];
	8	 [URL="http://lattes.cnpq.br/5476118728173549",
		color="#17272B",
		fontcolor="#FFFFFF",
		height=0.23611,
		label="Fabio de A. Ressel Pereira [1]",
		pos="197,62.5",
		width=1.5694];
	1 -- 8	 [pos="277.74,161.88 261.69,142.32 219.19,90.536 203.2,71.054"];
	12	 [URL="http://lattes.cnpq.br/1800610548349937",
		color="#17272B",
		fontcolor="#FFFFFF",
		height=0.23611,
		label="Ana Paula Meneguelo [6]",
		pos="480,116.5",
		width=1.375];
	1 -- 12	 [pos="312.5,161.94 349.66,152.08 414.29,134.93 451.47,125.07"];
	14	 [URL="http://lattes.cnpq.br/7737476090013576",
		color="#17272B",
		fontcolor="#FFFFFF",
		height=0.23611,
		label="Leonardo da Silva Arrieche [8]",
		pos="359,62.5",
		width=1.6111];
	1 -- 14	 [pos="285.05,161.61 287.02,149.16 292.18,124.63 304,107.5 314.83,91.8 332.89,78.895 345.34,71.209"];
	6 -- 8	 [pos="168.87,107.83 175.11,97.996 185.86,81.051 192.11,71.204"];
	12 -- 14	 [pos="462.41,107.94 439.46,98.08 399.57,80.934 376.62,71.07"];
	18	 [URL="http://lattes.cnpq.br/3981995002595753",
		color="#17272B",
		fontcolor="#FFFFFF",
		height=0.23611,
		label="Oldrich Joel Romero [1]",
		pos="483,62.5",
		width=1.3194];
	12 -- 18	 [pos="480.44,107.83 481.01,97.996 481.99,81.051 482.56,71.204"];
	20	 [URL="http://lattes.cnpq.br/7140925853660088",
		color="#17272B",
		fontcolor="#FFFFFF",
		height=0.23611,
		label="Paulo S. da Silva Porto [2]",
		pos="359,8.5",
		width=1.4167];
	14 -- 20	 [pos="359,53.827 359,43.996 359,27.051 359,17.204"];
	2	 [URL="http://lattes.cnpq.br/5401369683892150",
		color="#17272B",
		fontcolor="#FFFFFF",
		height=0.23611,
		label="Glaydston Mattos Ribeiro [4]",
		pos="675,170.5",
		width=1.5417];
	7	 [URL="http://lattes.cnpq.br/0319559373628489",
		color="#17272B",
		fontcolor="#FFFFFF",
		height=0.23611,
		label="Gisele de L. Diniz Chaves [8]",
		pos="675,116.5",
		width=1.5556];
	2 -- 7	 [pos="675,161.83 675,152 675,135.05 675,125.2"];
	11	 [URL="http://lattes.cnpq.br/3919161245148947",
		color="#17272B",
		fontcolor="#FFFFFF",
		height=0.23611,
		label="Wanderley Cardoso Celeste [2]",
		pos="607,62.5",
		width=1.625];
	7 -- 11	 [pos="664.97,107.83 652.11,97.996 629.95,81.051 617.07,71.204"];
	17	 [URL="http://lattes.cnpq.br/5222139886054755",
		color="#17272B",
		fontcolor="#FFFFFF",
		height=0.23611,
		label="Marielce de C. Ribeiro Tosta [2]",
		pos="744,62.5",
		width=1.6806];
	7 -- 17	 [pos="685.18,107.83 698.23,97.996 720.71,81.051 733.78,71.204"];
	3	 [URL="http://lattes.cnpq.br/0111900440522917",
		color="#17272B",
		fontcolor="#FFFFFF",
		height=0.23611,
		label="Gilmene Bianco [0]",
		pos="789,170.5",
		width=1.1111];
	4	 [URL="http://lattes.cnpq.br/5616576281329159",
		color="#17272B",
		fontcolor="#FFFFFF",
		height=0.23611,
		label="Laura Marina Pinotti [1]",
		pos="164,170.5",
		width=1.3194];
	4 -- 6	 [pos="164,161.83 164,152 164,135.05 164,125.2"];
	5	 [URL="http://lattes.cnpq.br/3410912882231783",
		color="#17272B",
		fontcolor="#FFFFFF",
		height=0.23611,
		label="Breno Nonato de Melo [0]",
		pos="898,170.5",
		width=1.4028];
	9	 [URL="http://lattes.cnpq.br/8285018770645807",
		color="#17272B",
		fontcolor="#FFFFFF",
		height=0.23611,
		label="Eduardo Perini Muniz [1]",
		pos="363,116.5",
		width=1.375];
	9 -- 14	 [pos="362.41,107.83 361.65,97.996 360.35,81.051 359.59,71.204"];
	10	 [URL="http://lattes.cnpq.br/6948945548186089",
		color="#17272B",
		fontcolor="#FFFFFF",
		height=0.23611,
		label="Carlos M. Nascimento Yoshioka [3]",
		pos="1033,170.5",
		width=1.8472];
	16	 [URL="http://lattes.cnpq.br/3606604113019271",
		color="#17272B",
		fontcolor="#FFFFFF",
		height=0.23611,
		label="Ana B. Neves Brito [3]",
		pos="1033,116.5",
		width=1.2639];
	10 -- 16	 [pos="1033,161.83 1033,152 1033,135.05 1033,125.2"];
	13	 [URL="http://lattes.cnpq.br/6693921747312552",
		color="#17272B",
		fontcolor="#FFFFFF",
		height=0.23611,
		label="Roney Pignaton da Silva [0]",
		pos="1171,170.5",
		width=1.4861];
	15	 [URL="http://lattes.cnpq.br/6446351182254980",
		color="#17272B",
		fontcolor="#FFFFFF",
		height=0.23611,
		label="Maria de F. Pereira dos Santos [0]",
		pos="1306,170.5",
		width=1.75];
	19	 [URL="http://lattes.cnpq.br/1309035538142217",
		color="#17272B",
		fontcolor="#FFFFFF",
		height=0.23611,
		label="Maximilian Serguei Mesquita [0]",
		pos="1449,170.5",
		width=1.7083];
	21	 [URL="http://lattes.cnpq.br/0512510452476006",
		color="#17272B",
		fontcolor="#FFFFFF",
		height=0.23611,
		label="Rodrigo Dias Pereira [0]",
		pos="1576,170.5",
		width=1.3194];
}
