artigoEmPeriodico	2016		Comments to Piperata et al. 2016	Current Anthropology	ADAMS, C	A1	
artigoEmPeriodico	2016	http://dx.doi.org/10.1111/btp.12385	Impacts of large-scale forest restoration on socioeconomic status and local livelihoods: what we know and do not know	Biotropica (Lawrence, KS)	ADAMS, C.; RODRIGUES, S. T. ; CALMON, M. ; KUMAR, C.	A2	
artigoEmPeriodico	2016	http://dx.doi.org/10.1051/0004-6361/201525896	<i>Planck</i> intermediate results	Astronomy & Astrophysics (Berlin. Print)	ADE, P	A2	
artigoEmPeriodico	2016	http://dx.doi.org/10.1186/s13102-016-0038-9	Effect of fatigue caused by a simulated handball game on ball throwing velocity, shoulder muscle strength and balance ratio: a prospective study	BMC Sports Science, Medicine and Rehabilitation	ANDRADE, MARÍLIA SANTOS ; DE CARVALHO KOFFES, FABIANA ; BENEDITO-SILVA, ANA AMÉLIA ; Da Silva, Antonio Carlos ; De Lira, Claudio Andre Barbosa	Qualis nao identificado	BMC Sports Science, Medicine and Rehabilitation
artigoEmPeriodico	2016	http://dx.doi.org/10.5380/dma.v36i0.43924	Efeitos ecológicos da exploração de produtos florestais não madeireiros: uma revisão sistemática	Desenvolvimento e Meio Ambiente (UFPR)	BRITES, ALICE DANTAS ; MORSELLO, CARLA	B1	
artigoEmPeriodico	2016	http://dx.doi.org/10.1080/03014460.2016.1193222	Social and health dimensions of climate change in the Amazon: A review	Annals of Human Biology	BRONDIZIO, E. ; LIMA, A. C. B. ; SCHRAMSKI, S. ; ADAMS, C.	B1	
artigoEmPeriodico	2016	http://dx.doi.org/10.1371/journal.pone.0167691	Who Cares about Forests and Why? Individual Values Attributed to Forests in a Post-Frontier Region in Amazonia	Plos One	CARIGNANO TORRES, PATRICIA ; MORSELLO, CARLA ; PARRY, LUKE ; PARDINI, RENATA	A1	
artigoEmPeriodico	2016	http://dx.doi.org/10.1088/1751-8113/49/6/065001	Epidemics in networks: a master equation approach	Journal of Physics. A, Mathematical and Theoretical (Print)	COTACALLAPA, M ; HASE, M O	A2	
artigoEmPeriodico	2016	http://dx.doi.org/10.1017/S0007114516000994	Indices for the assessment of nutritional quality of meals: a systematic review	British Journal of Nutrition	GORGULHO, B. ; POT, G. ; SARTI, F. M. ; MARCHIONI, D. M. L.	A1	
artigoEmPeriodico	2016	http://dx.doi.org/10.1088/1742-5468/2016/04/043304	Carrying capacity in growing networks	Journal of Statistical Mechanics	HASE, M O; CASA GRANDE, H L	A2	
artigoEmPeriodico	2016	http://dx.doi.org/10.3389/fphy.2016.00007	Thou Shalt Not Take Sides: Cognition, Logic and the Need for Changing How We Believe	Frontiers in Physics	Martins, André C. R	Qualis nao identificado	Frontiers in Physics
artigoEmPeriodico	2016	http://dx.doi.org/10.4025/jphyseduc.v27i1.2732	Variação diurna entre matutinos e vespertinos nos tempos de reação motora e de movimento	Journal of Physical Education	MEIRA JUNIOR, CASSIO MIRANDA ; Benedito-Silva, Ana Amelia ; FALCONI, MARIANA MURIEL VITORIO	Qualis nao identificado	Journal of Physical Education
artigoEmPeriodico	2016	http://dx.doi.org/10.1142/S0129183116500169	The inactive-active phase transition in the noisy additive (exclusive-or) probabilistic cellular automaton	International Journal of Modern Physics C	MENDONÇA, J. RICARDO G	B1	
artigoEmPeriodico	2016	http://dx.doi.org/10.1016/j.telpol.2016.10.004	Evolution and determinants of digital divide in Brazil (2005-2013)	Telecommunications Policy	NISHIJIMA, M. ; IVANAUSKAS, T. M. ; SARTI, F. M.	Qualis nao identificado	Telecommunications Policy
artigoEmPeriodico	2016		A UTILIZAÇÃO DA MODELAGEM DE SISTEMAS COMPLEXOS NA CONSTRUÇÃO DE UM MERCADO DE AÇÕES ARTIFICIAL	Revista Eletrônica do Departamento de Ciências Contábeis & Departamento de Atuária e Métodos Quantitativos (REDECA)	RAMOS, W. ; Rodrigues Neto, C.	Qualis nao identificado	Revista Eletrônica do Departamento de Ciências Contábeis & Departamento de Atuária e Métodos Quantitativos (REDECA)
artigoEmPeriodico	2016		A sustainability analysis of environmental management approaches: prevention, mitigation and compensation	Proceedings of the International Academy of Ecology and Environmental Sciences	ROQUETTI, D. R. ; Moretto, E. M. ; DE ALMEIDA SINISGALLI, PAULO ANTONIO	B2	
artigoEmPeriodico	2016	http://dx.doi.org/10.1590/0102-311x00067516	Factors associated with the diffusion rate of innovations: a pilot study from the perspective of the Brazilian Unified National Health System	Cadernos de Saúde Pública (Online)	SCHNEIDERS, R. E. ; RONSONI, R. M. ; SARTI, F. M. ; NITA, M. E. ; BASTOS, E. A. ; ZIMMERMANN, I. R. ; FERREIRA, F. F.	Qualis nao identificado	Cadernos de Saúde Pública (Online)
trabalhoCompletoEmCongresso	2016		Gestão Social como Campo do Saber no Brasil: uma análise de sua produção científica pela modelagem de redes sociais (2005-2015)	VII Encontro Nacional de Administração Pública e Governo (EnAPG)	MENON, I. ; COELHO, F. S.		
trabalhoCompletoEmCongresso	2016		Fatores que Afetam a Rotatividade e Evasão de Talentos na Administração Pública Brasileira - o caso dos gestores públicos	IX Congresso Consad de Gestão Pública	MOTA, M. M. ; LEVY, E. ; COELHO, F. S.		
trabalhoCompletoEmCongresso	2016		Por uma Abordagem Metodológica de Estratégia em Governos Subnacionais em Dois Níveis: Longitudinal, a partir de Planos Plurianuais, e, em Profundidade, a partir de Múltiplas Variáveis Político-Administrativas	XL Encontro Nacional de Administração - EnANPAD	OLENSCKI, A. R. B. ; COELHO, F. S. ; PIRES, V. A. ; PERES, U. D. ; TERENCE, A.C. F.		
trabalhoCompletoEmCongresso	2016		Payment for Ecosystem Services in Santa Rosa de Lima: Innovative practices to leverage social change and environmental recovery	4th Convención Internacional AGRODESARROLLO 2016 11th International Workshop 'Trees and Shrubs in Livestock Production'	SCHIMITT FILHO, A. L. ; FARLEY, J. ; SINISGALLI, P.A.A. ; FANTINI, A. C.		
resumoExpandidoEmCongresso	2016	Dynamics of land use change in southern Brazil: A case study of Santa Catarina's Capital of Agroecology	IV Convención Internacional AGRODESARROLLO 2016 11th International Workshop 'Trees and Shrubs in Livestock Production', 2016, Varadero. IV Convención Internacional AGRODESARROLLO 2016 11th International Workshop 'Trees and Shrubs in Livestock Production'	AMAZONAS, I. ; ZANETTI, V. ; SCHIMITT FILHO, A. L. ; SINISGALLI, P.A.A. ; FARLEY, J. ; FANTINI, A. C.		
