9063837162469343
7328352498056918
9893021191241534
1050746618632869
6203480655462793
9290271881970216
5106368046707412
0836744515692394
9627511059419100
6179793963629913
2718664296804955
8029517087268069
6907017215672171
5917373551645478
8616588782164215
7139287203307123
8631251523758804
0375745110240885
9559119135506333
9842065721198574
6260596558041357
2487554612123446
8033850810456184
3224748622228899
3116837013357484
9961013633092279
5898851138882202
8866350262202846
9952763854107642
9363093386755922
5438072195349527
3964855224223946
5956779016222823
8684969735172043
3497125298399728
4462292447937016
2314309546470778
8017603992897250
5522815415073059
9135685334181472
5890511039171222
4183596450761559
1404632471755241
2440193189134197
9030707448549156
8624647938935556
0330108534667053
4163174689326082
9055052467152337
0247728785254850
2834403735297272
4714668927746667
6804624331579259
1758306905062349
9620039738297377
8344194525615133
0213307052479603
0782333764868447
6992824817295435
6773795080923981
6986138014246480
3022893538527155
0281123427918307
6231698617725272
3238659802153968
4314171128819442
1388301252430761
0176078672697165
5788034885236304
9770406908381251
1536620584841140
7510015300104618
0652038346929546
4079789052322350
6364315440256373
4097593492753621
5799445358880614
3553721558104979
0873148116418864
9108471025746879
9127577198387019
2449884773275716
0595155060933638
5710278151289710
5187510075483927
6653435398940498
0463425954630366
4950150079320593
7691036667937217
5133316075951713
9433123288261141
9515624751489138
1826341763217869
5048063262801476
8016883581345169
7733681743453751
4695699230584970
7214098465609388
8602778120667424
7315592936477868
2904360910215316
1980385021266418
8753324796035314
1733919132239586
3951322834691336
9374460427113373
8798410409396545
7156418583861852
7722722343199817
8110605710866827
5061257105058061
1578085364191789
6685666727183074
1657751485128138
0340779925799164
3218907171568989
0193837844853870
2408991231058279
0387264889300859
0270993076640805
9305196015266298
0765423133125301
9876280877426259
5739886256942536
0556459512101837
5235160130809948
9170658424711012
4108398403192996
2703716951709834
6388210976465568
6837125666966113
7356403238727506
9941440001544010
0858402708122364
3413978291577451
4101228443157020
9376514233715653
1928082930465887
2440597555714066
5509401058975677
9291377532473859
8046274052705840
6717376475817937
9957113776414024
5068214035794691
5717307958113119
2498259320755762
4816866372904602
0093760864518058
4867559397277885
1514025882588427
7953197985531154
1998819305595059
6932171005996406
9037349417947599
0601030410417146
0417643355061928
9666011714312528
8122790472421454
2339209077200570
6166573341085441
9617352934964079
0328320510802936
7320090199496500
1306681534855748
5604849668698878
7014499051225333
5399601756512708
0858482819476716
4475898606860245
9300734296482577
0403732822984772
2025330782487908
2105494423966032
8621487041613032
4419790523552484
8961157344310666
2633385656638880
6421176042066975
6402361744624287
7521861928465039
2806860023990548
4415817897120454
2019624495480547
5835809216538290
7035545485084138
2317714197108593
3179203995601607
8449916971915629
1660272156108142
9998509212446471
1253513796155405
1412808523275213
8090262178406810
7621538564296356
9857991780878053
0932002363914895
7501330527833816
1404973981717481
9326312900263071
3778951683665992
4862105931908699
0249801965838212
5792248901353552
2715907749036866
2374269502863995
9629521908430192
4509114023630862
3358075178615535
9081918642785880
3135071757003343
8572021171012577
1233049484488761
6631551524031132
4611908594979062
4821122371021903
9920078249410940
7826687495703990
5087171037839377
1533819162005958
9530065975903052
7320086099404288
9237788190989316
5944694217863192
7107831728330169
9237713158265249
8406442959451018
7663688927643108
5730040432280075
2825302557451331
0033164052076654
9092587237114334
1735653164303041
4258637809653835
1989532473555107
6353954532527478
8270014489610530
0767556327924829
2349565177200719
6266354707135494
3862247323408950
7248201762871885
2460003586001708
1902321154581402
2319067011964508
8524858575954775
3211660196134627
1757838249536602
1232417356351146
6740018257272418
7712090792201553
7097223939541054
2207239537360072
0817120063553519
4209609384454552
9175814053972605
6338514580120246
1092810690505352
5389472650673412
8671745801940831
0500653771427979
9339700280516940
7304725672519248
5146026894831823
8002590846188269
6032107933273400
6141100039435205
5568306743201167
7458438355734004
7314111053561444
7992589011048146
3232663071892028
5754302161987633
9900625695933750
7510922888395812
3254301039664080
6640821551363987
5512370737274131
4144670210289406
2053836895063204
4722522939658402
9934336682797626
6724989288310306
8943562657054260
2136918881072833
5995853841982097
1513369127661577
0868909503278328
7221417656440652
4503245454189660
2223382675951164
4036812106816798
8483490239401597
2413923873881528
2134199393085715
9011663690459023
3423133876430218
1827042213170077
6263393174761013
4797934811107085
5941176305014752
8219067086195114
7557682750383552
5815669435537933
7805432023782520
7554233520986997
4684516083583964
6653416458352062
3909803022567543
8318368692247199
5760044087782428
5363080225273626
0748728586772601
5392174572115882
2980425786626151
3546577463374439
6688041530466410
1231441107075402
1092466400643526
3879476401994096
2724168328906477
7499752464812345
9950879952262717
8747508613717242
4725432140878360
5602080234193447
7613126506226410
3419515003161122
3250170839435251
7429696739028899
7467134188220384
3572434390881704
5149229612250815
2418153506447417
6243353891930501
8142335806097574
5293684092572886
4602221579308599
0417109018924837
5495322642019035
9672291905868428
9499429606822923
5975973286504763
6437355674279811
4329386108329268
7125536830093617
6766632095703989
3183177583039130
5187507798447022
6661948983681991
8125938329997708
1030441165416875
3967943593612229
5437848745952940
7635233174054633
0949308423020439
5792226822929445
3074561832181610
5364984237364336
8313751159401909
5856832655059418
5335487988375951
8568885640687850
7561791813071961
9016339697026494
9126339190151859
1043606043814998
9849259694644135
4802548698016081
3742302894743620
3221046741511322
6852377088234212
7491976072797902
8161211387900203
3436095483096185
6462573027770082
6393651740927554
0238400607643579
3158859691850299
6891455814459982
3027543246096713
8974178421982723
4536983853174716
0951542162499636
0311818140902541
0591887486382229
8265116967095452
6681044486435612
7483132144832976
8258292300584637
4759455147217311
