
PB0:2013,21;
PB1:2013,1;
PB2:2013,6;
PB4:2013,26;
PB5:2013,4;
PB6:*itens sem ano,4;2013,6;
PB7:*itens sem ano,6;2013,1;
PB8:2013,2;
PB9:2013,1;
PT4:2013,2;
PT5:2013,4;
OA0:2015,1;2016,3;
OA1:2011,2;2012,2;2013,7;2014,9;2015,11;2016,12;2017,8;
OA2:2014,1;2015,5;2016,11;2017,18;
OA4:2016,2;2017,9;
OA5:2014,1;2015,8;2016,11;2017,15;
OA6:2016,3;2017,5;
OC1:2013,2;
OC2:2013,15;
OC4:2013,15;
OC5:2013,29;
OC6:2013,16;
Pm:2013,2;
Pj:2009,7;2010,12;2011,6;2012,9;2013,16;
PB:*itens sem ano,10;2013,68;
PT:2013,6;
OA:2011,2;2012,2;2013,7;2014,11;2015,25;2016,42;2017,55;
OC:2013,77;
Ep:2013,7;
Eo:2013,8;