strict graph grafo1 {
	graph [bb="0,0,1664.5,125",
		id=grafo1,
		overlap=False
	];
	node [fontsize=8,
		label="\N",
		shape=rectangle,
		style=filled
	];
	0	 [URL="http://lattes.cnpq.br/0812422122265124",
		color="#17272B",
		fontcolor="#FFFFFF",
		height=0.23611,
		label="Regina C. Baptista Belluzzo [0]",
		pos="59,116.5",
		width=1.6389];
	1	 [URL="http://lattes.cnpq.br/1621055168002551",
		color="#17272B",
		fontcolor="#FFFFFF",
		height=0.23611,
		label="Maria da G. Mello Ferracioli [0]",
		pos="196,116.5",
		width=1.6667];
	2	 [URL="http://lattes.cnpq.br/5849711278501873",
		color="#17272B",
		fontcolor="#FFFFFF",
		height=0.23611,
		label="Juliano Maurício de Carvalho [0]",
		pos="336,116.5",
		width=1.7083];
	3	 [URL="http://lattes.cnpq.br/1233049484488761",
		color="#17272B",
		fontcolor="#FFFFFF",
		height=0.23611,
		label="Joao Fernando Marar [1]",
		pos="464,116.5",
		width=1.3333];
	17	 [URL="http://lattes.cnpq.br/1882712230914196",
		color="#17272B",
		fontcolor="#FFFFFF",
		height=0.23611,
		label="Antonio Carlos Sementille [1]",
		pos="464,62.5",
		width=1.5694];
	3 -- 17	 [pos="464,107.83 464,97.996 464,81.051 464,71.204"];
	4	 [URL="http://lattes.cnpq.br/1650529446656955",
		color="#17272B",
		fontcolor="#FFFFFF",
		height=0.23611,
		label="Luiz E. Martins Morgado [0]",
		pos="604,116.5",
		width=1.5278];
	5	 [URL="http://lattes.cnpq.br/2302756561160804",
		color="#17272B",
		fontcolor="#FFFFFF",
		height=0.23611,
		label="Maria Cristina Gobbi [3]",
		pos="763,116.5",
		width=1.3333];
	13	 [URL="http://lattes.cnpq.br/3036916968393237",
		color="#17272B",
		fontcolor="#FFFFFF",
		height=0.23611,
		label="Juarez T. de Paula Xavier [1]",
		pos="650,62.5",
		width=1.5278];
	5 -- 13	 [pos="746.33,107.83 724.84,97.939 687.72,80.856 666.37,71.035"];
	16	 [URL="http://lattes.cnpq.br/5884461869811166",
		color="#17272B",
		fontcolor="#FFFFFF",
		height=0.23611,
		label="Antonio Francisco Magnoni [2]",
		pos="782,62.5",
		width=1.6389];
	5 -- 16	 [pos="765.8,107.83 769.4,97.996 775.59,81.051 779.18,71.204"];
	6	 [URL="http://lattes.cnpq.br/1126886933267406",
		color="#17272B",
		fontcolor="#FFFFFF",
		height=0.23611,
		label="Marcos Américo [1]",
		pos="902,116.5",
		width=1.1389];
	12	 [URL="http://lattes.cnpq.br/3280707979820725",
		color="#17272B",
		fontcolor="#FFFFFF",
		height=0.23611,
		label="Denis Porto Renó [1]",
		pos="902,62.5",
		width=1.1806];
	6 -- 12	 [pos="902,107.83 902,97.996 902,81.051 902,71.204"];
	7	 [URL="http://lattes.cnpq.br/8417343618934636",
		color="#17272B",
		fontcolor="#FFFFFF",
		height=0.23611,
		label="Leticia Passos Affini [0]",
		pos="1008,116.5",
		width=1.3056];
	8	 [URL="http://lattes.cnpq.br/9638407992652406",
		color="#17272B",
		fontcolor="#FFFFFF",
		height=0.23611,
		label="João Pedro Albino [1]",
		pos="1117,116.5",
		width=1.2083];
	9	 [URL="http://lattes.cnpq.br/7838983448809586",
		color="#17272B",
		fontcolor="#FFFFFF",
		height=0.23611,
		label="Humberto Ferasoli Filho [2]",
		pos="1117,62.5",
		width=1.4861];
	8 -- 9	 [pos="1117,107.83 1117,97.996 1117,81.051 1117,71.204"];
	18	 [URL="http://lattes.cnpq.br/8962021573218552",
		color="#17272B",
		fontcolor="#FFFFFF",
		height=0.23611,
		label="Vania C. P. Nogueira Valente [1]",
		pos="1117,8.5",
		width=1.7083];
	9 -- 18	 [pos="1117,53.827 1117,43.996 1117,27.051 1117,17.204"];
	10	 [URL="http://lattes.cnpq.br/9910965797411044",
		color="#17272B",
		fontcolor="#FFFFFF",
		height=0.23611,
		label="Francisco Rolfsen Belda [0]",
		pos="1232,116.5",
		width=1.4722];
	11	 [URL="http://lattes.cnpq.br/0237724129941236",
		color="#17272B",
		fontcolor="#FFFFFF",
		height=0.23611,
		label="Francisco N. Machado Filho [0]",
		pos="1363,116.5",
		width=1.6528];
	14	 [URL="http://lattes.cnpq.br/3751287338655685",
		color="#17272B",
		fontcolor="#FFFFFF",
		height=0.23611,
		label="Jose Luis Bizelli [0]",
		pos="1481,116.5",
		width=1.125];
	15	 [URL="http://lattes.cnpq.br/3759662136447410",
		color="#17272B",
		fontcolor="#FFFFFF",
		height=0.23611,
		label="Célia M. R. Godoy dos Santos [0]",
		pos="1602,116.5",
		width=1.7361];
}
