4840157161428643
6042407022379509
9890466918172228
1787526384833274
3036916968393237
1840609802970374
1251423347793821
7423018980067933
3473220559837084
5239499562930002
2808306784318194
1787287111469332
1693558682186525
3784197244666003
3616991101436026
9437252037066082
9237058508812286
1219890355120736
4162323188940515
6792025643983370
3759662136447410
9910965797411044
3727262146038915
5136725461605524
5948002876598953
8124915262779593
0571636114215776
7413071447572657
6239693357488113
0107976161469463
3592389456346748
8608652533666660
3280707979820725
0344068434757724
0132903314233387
0145887238250184
8914073228135977
1990040223557289
0990745125127549
6695788601621063
1738119529239891
8608842967266868
0515651302685104
6980506062675488
9518550480506952
4354383159774999
3622120472378517
3249812382402062
3727732364475835
1190619908936824
7091433224104048
8978120515660556
2198323793866737
7498276240065288
7536622893794669
1562046464320058
4241463643540464
7645928463852577
2360164651437844
2658993454212592
1411942858950238
5459937078079140
1423217585553676
6461318248577345
2319027473502526
2419735299778580
8746028665783268
5651108179250769
0510655671197805
0995514441028503
4902647631120812
7621812517256308
4695160738719008
9296602520589485
5546710285849820
2145563539766435
9039182932747194
3618067810719564
7838983448809586
0758745124500295
7276725427732524
0880771061329468
3234858289370958
5568681374094860
8471116829733774
7047087934214499
6272009172449720
9974498156889522
6624511988127147
7380146739962775
1338431203182045
9128873906867163
2416184514198659
7277318969645668
2048129833384119
3885462178210324
5378001483900682
3901017530978939
3029741171566877
9700268935960950
4651595631518025
0767262484121277
2879404190736880
6774534680160421
7379881090378011
7163791603588084
7114174203705251
4183597656373089
5519608865890590
2737355368719837
8225695133457017
8150926690780957
5885928592067110
8602778120667424
8093742630119627
7887151031086218
5511584964936170
3211804611353068
0525674414045441
6689100044131753
6003771643955369
4898901793227078
6012056161794873
7168438237172733
9567904945321714
0597567944562076
8388039231523027
1046720230338474
5539725123736590
2286089648804371
1572717403309508
8417343618934636
7651091951209946
6967394056971024
0547029348002909
3487975093868584
0089803131113390
1557116132863243
0459958984072617
2024531359365648
5943634209341438
1457891441823881
0401229963329231
7383711003546585
3751287338655685
7019323583252237
2302756561160804
1624500784303232
3157624793305524
2098576092415545
8273426533200227
0928389323647657
8326777285580886
0314881499472963
0449177312401735
1589331053597209
6635058136218303
6638569357514374
5137098873560200
2831888349247517
6532241571894056
1270011884916244
0682703234775710
0260765811027676
3553158779093278
7454508605039228
5289264290795569
5389472650673412
9279241671098045
4135636294511491
5729423104650316
9179585302373820
2926465244576767
0235320453073470
2098623262892719
4762029784021248
7688174324890256
0140365057016044
6386720284767787
3901377309450654
4194056997420853
1216644357418833
5062309886977914
5913053162159963
0062065110639984
9496403687986524
8945872587403556
8697314376216832
0345547034374979
4213808458053599
3240173165097974
3089541052795097
8204883294350286
6282205924630287
1939856493222203
6855317655224830
1990172299353318
4979344841683251
0028142602338832
3912018199767595
4517194729310670
6088686659032946
0153127778539202
8977174953008174
3809921994668424
1183898700072149
2463838816354647
4271609139942812
5116213374235632
3049904151551643
8460342893300947
0997565922046163
9510436936816012
1983712841032850
9790614365588296
8051252654540276
1049186978910803
4376676055611850
1233049484488761
8962021573218552
4167514050938821
0448891472280429
1644868350215025
7198546378622817
2318750874408975
1780951520277389
3257840949372915
1849696597666965
3662733385786393
5780422207785032
3210035960599086
7698913311024550
8908711595824603
4494277528116725
1195099838481871
4413410311464411
6095324698402428
1882712230914196
4631980448829376
3038584733281966
9889031497844442
5946402698411270
4045945821229968
2602624262701725
9402329775615873
8224917448326866
8192505149998240
7340783113175141
6904297262686526
5430633968681220
0099009790787799
6641213492109462
4958634383806568
0605944883825482
6167780482628027
6991013230002770
3581804746301862
5989642813506596
6771179752926463
9457047804104272
8272141187372861
4237219427703771
9175997990682339
1080664575920984
7272976836026061
4812459071221541
0277705848688464
4568542956020857
8765417026433631
0061672297029647
7672231351710960
5638891574785798
1581120377467873
6631190517917024
4250338926646608
8615127367466231
7715061168651835
5012034338598304
3180337852388571
5634581124583939
5173313475335608
6215535222588743
5406743472929701
5883180177100670
2466517084516526
5379661390022533
1126886933267406
1317333555400020
3150864335851165
4343279772210768
0904036561398307
5819896225378469
8163849451440263
4373598990710203
4927574535461903
6428413806359878
5014729336663731
3930479235042209
7663956513419186
3464104561935896
3500533734909821
3133881226791259
9493916968753089
5149465031479790
0812422122265124
1997823494436636
8172590572025942
9393190768810116
5763594652024608
6595441371222304
9866220897394261
6834271909078938
0362300701202046
5884461869811166
2853605503597521
5682819225987446
9638407992652406
4598876696156622
4132683130576643
7843393360157474
9931293076574399
1472529642945802
5354486076103358
1469778637919809
4868421701118971
4667227050874161
5258037906525924
5266002931827311
6703370996234751
3855053449114282
5524828195599648
3078055042318066
1621055168002551
8599555996213255
7336775056841143
5851335209487224
8616897325074950
5849711278501873
1880381390408733
2730684435681805
1964255645115572
5001387380117806
2558236983534973
4218593188956443
3869906610941404
3761585497791105
0115031852172516
4778895417611312
9895900038414424
5446515762795697
0324456429495779
3098491904832617
6608860059401511
9936991322389586
7393878405922755
3837519154356668
7837215512449857
0588897089963011
3101630544687086
3806652471471086
3496636396916157
5042747439994845
2601633916210576
8901320181295016
7679116798667691
9330425176923983
1547793498258666
5777705137810019
4760173147289270
5540432863582207
