trabalhoCompletoEmCongresso	Regina Celia Baptista Belluzzo	2015		Ações educacionais de mediação da informação e da competência em informação (CoInfo) como fatores de interferência na realidade social	Encontro de pesquisa em Informação e mediação	SANTOS, C. A. ; ALMEIDA JUNIOR, O. F. ; BELLUZZO, R. C. B.		
resumoExpandidoEmCongresso	Regina Celia Baptista Belluzzo	2015	Uso de abordagens qualitativas em pesquisa sobre competência em informação em História da Ciência	Congresso Ibero-Americano em investigação qualitativa e, 2015, Aracaju. Livro de Resumos ?4º Congresso Ibero Americano em Investigação Qualitativa? e do ?6º Simpósio Internacional de Educação e Comunicação. Aracaju: Ludomedia	ROSETO, M. ; BELLUZZO, R. C. B.		
artigoEmPeriodico	Juliano Maurício de Carvalho	2015		O espaço hiperlocal e as novas possibilidades para a produção jornalística	Acervo On-line de Mídia Regional (UNITAU)	MIRANDA, G. V. ; VICENTE, G. H. ; Carvalho, J. M.	B4	
artigoEmPeriodico	Juliano Maurício de Carvalho	2015		Quem paga a conta? As possibilidades do crowdfunding para o jornalismo nas indústrias criativas	Rebej (Brasília)	CARVALHO, Juliano M.; ANDRADE, S. S.	B3	
trabalhoCompletoEmCongresso	Juliano Maurício de Carvalho	2015		A Produção Jornalística Hiperlocal Diante Das Transformações Tecnológicas	Congresso de Ciências da Comunicação na Região Sudeste	CARVALHO, Juliano M.; ROCHA, H. C. C. ; MIRANDA, G. V.		
trabalhoCompletoEmCongresso	Juliano Maurício de Carvalho	2015		O modelo de financiamento coletivo crowdfunding e as suas possibilidades de sustentabilidade para a pesquisa científica	5º Simpósio Internacional de Linguagens Educativas	CARVALHO, Juliano M.; ANDRADE, S. S.		
trabalhoCompletoEmCongresso	Juliano Maurício de Carvalho	2015		Conceituação e Análise de um Jornalismo Hiperlocal na Era Digital	X Conferência Brasileira de Mídia Cidadã e V Conferência Sul-Americana de Mídia Cidadã	MIRANDA, G. V. ; CARVALHO, Juliano M. ; VICENTE, G. H.		
trabalhoCompletoEmCongresso	Juliano Maurício de Carvalho	2015		Jogos digitais enquanto tecnologia social: um novo horizonte para a comunicação	X Conferência Brasileira de Mídia Cidadã e V Conferência Sul-Americana de Mídia Cidadã	CARVALHO, Juliano M.; ZAMBON, P. S.		
trabalhoCompletoEmCongresso	Juliano Maurício de Carvalho	2015		Jornalismo Hiperlocal: inovação e cultura digital	X Conferência Brasileira de Mídia Cidadã e V Conferência Sul-Americana de Mídia Cidadã	MIRANDA, G. V. ; CARVALHO, Juliano M. ; ROCHA, H. C. C.		
trabalhoCompletoEmCongresso	Juliano Maurício de Carvalho	2015		Crowdfunding para jogos digitais: estratégias de financiamento e a reconfiguração da cadeia produtiva	XXXVIII Congresso Brasileiro de Ciências da Comunicação	CARVALHO, Juliano M.; ANDRADE, S. S. ; ZAMBON, P. S.		
trabalhoCompletoEmCongresso	Juliano Maurício de Carvalho	2015		Perspectivas nacionais sobre produção audiovisual: Arranjos Produtivos Locais, Desenvolvimento Regional e Diversidade Cultural	X Conferência Brasileira de Mídia Cidadã e V Conferência Sul-Americana de Mídia Cidadã	CARVALHO, Juliano M.; CARDOSO, V. L. ; LOURENCO, A. L.		
trabalhoCompletoEmCongresso	Juliano Maurício de Carvalho	2015		LECOTEC: a extensão universitária como fator de diálogo com o ensino, a pesquisa e as práticas profissionais	8º Congresso de Extensão Universitária da UNESP	MIRANDA, G. V. ; CARVALHO, Juliano M. ; LIRIO, J.		
resumoExpandidoEmCongresso	Juliano Maurício de Carvalho	2015	Jornalismo Hiperlocal: inovação e cultura digital	IV Jornada Científica de Comunicação Social - Comunicação e Mobilidade: Vínculos e Rupturas, 2015, Bauru, SP. Anais da IV Jornada Científica de Comunicação Social da USC	MIRANDA, G. V. ; ROCHA, H. C. C. ; CARVALHO, Juliano M.		
resumoExpandidoEmCongresso	Juliano Maurício de Carvalho	2015	A mediação crítica: o desenho institucional da criatividade como fator de impacto para os processos de inovação do jornalismo hiperlocal	XVII Jornada Multidisciplinar, Diversidade, Acessibilidade e Direitos: Diálogos com a Comunicação, 2015, Bauru, SP. Anais da XVII Jornada Multidisciplinar, Diversidade, Acessibilidade e Direitos: Diálogos com a Comunicação	MIRANDA, G. V. ; CARVALHO, Juliano M. ; VICENTE, G. H.		
resumoExpandidoEmCongresso	Juliano Maurício de Carvalho	2015	Políticas culturais, indústrias criativas e arranjos produtivos locais: cinema e diversidade cultural	XVII Jornada Multidisciplinar, Diversidade, Acessibilidade e Direitos: Diálogos com a Comunicação, 2015, Bauru, SP. Anais da XVII Jornada Multidisciplinar, Diversidade, Acessibilidade e Direitos: Diálogos com a Comunicação	CARVALHO, Juliano M.; LOURENCO, A. L.		
artigoEmPeriodico	Joao Fernando Marar	2015	http://dx.doi.org/10.5965/2175234606122014094	Origami contemporâneo: um estudo sobre a arte em dobra e sua mutabilidade prática	Palíndromo (Online)	TEIXEIRA, SAMANTA ALINE ; MARAR, JOÃO FERNANDO ; CAMPOS ROSSI, DORIVAL	Qualis nao identificado	Palíndromo (Online)
trabalhoCompletoEmCongresso	Joao Fernando Marar	2015		Phineas Gage and ADHA. Some related aspects	EBICC 2015 - 10 th INTERNATIONAL BRAZILIAN MEETING ON COGNITIVE SCIENCE	CARVALHO, A. P. ; MARAR, JOÃO FERNANDO		
artigoEmPeriodico	Maria Cristina Gobbi	2015	http://dx.doi.org/10.15603/2175-7755/cs.v37n1p69-98	Espetáculo Midiático: O Mensalão Através das Charges Jornalísticas	Comunicação & Sociedade (Online)	GOBBI, M.C.; PARNAIBA, C.S. ; VANZINI, K.	B1	
artigoEmPeriodico	Maria Cristina Gobbi	2015		(Impresso) Espetáculo Midiático: O mensalão através das charges jornalísticas	Comunicação & Sociedade	GOBBI, Maria Cristina; PARNAÍBA, Cristiane dos Santos ; VANZINI, K.	B1	
artigoEmPeriodico	Maria Cristina Gobbi	2015		(Impresso 1809-5844) Televisão e Mídias Digitais na América Latina: um cenário em construção	Intercom (São Paulo. Impresso)	GOBBI, Maria Cristina; MACHADO FILHO, Francisco	B1	
artigoEmPeriodico	Maria Cristina Gobbi	2015	http://dx.doi.org/10.1590/1809-5844201514	Televisão e Mídias Digitais na América Latina: um cenário em construção	Intercom (São Paulo. Online)	GOBBI, Maria Cristina; MACHADO FILHO, Francisco	B1	
artigoEmPeriodico	Maria Cristina Gobbi	2015	http://dx.doi.org/10.15603/2175-7755/cs.v37n3p153-189	O Legado dos Pioneiros da Elacom: Um Resgate da Produção Comunicativa no Cone Sul	Comunicação & Sociedade (Online)	GOBBI, M.C	B1	
artigoEmPeriodico	Maria Cristina Gobbi	2015		(Impresso) Perfil do PPGCom em Comunicação Midiática da Unesp: análise de dissertações - Biênio 2013-2014	Extraprensa (USP)	BOTELHO, Daira Renata Martins ; AQUINO, Henrique Perazzi ; GOBBI, Maria Cristina ; MODELLI, Laís ; OLIVEIRA, Camila Fernandes de ; PÁDUA, Aline Ferreira ; SOUSA, Juliano Ferreira de	B2	
artigoEmPeriodico	Maria Cristina Gobbi	2015		Perfil do PPGCom em Comunicação Midiática da Unesp: análise de dissertações - Biênio 2013-2014	Revista Extraprensa	BOTELHO, Daira Renata Martins ; AQUINO, Henrique Perazzi ; GOBBI, Maria Cristina ; MODELLI, Laís ; OLIVEIRA, Camila Fernandes de ; PÁDUA, Aline Ferreira ; SOUSA, Juliano Ferreira de	B3	
artigoEmPeriodico	Maria Cristina Gobbi	2015		(Impresso) Doramas: cenários da cultura asiática	Iniciação Científica - CESUMAR	CAMPOS, T. B. ; TEODORO, M. C. ; GOBBI, Maria Cristina	B5	
artigoEmPeriodico	Maria Cristina Gobbi	2015		(Online) Doramas: cenários da cultura Asiática	Iniciação Científica Cesumar	CAMPOS, T. B. ; TEODORO, M. C. ; GOBBI, Maria Cristina	B5	Iniciação Científica - CESUMAR
trabalhoCompletoEmCongresso	Maria Cristina Gobbi	2015		Intervenções Folkcomunicacionais em grafites: Muro da Faneco, um estudo de caso na cidade de Bauru	XVII Conferência Brasileira de Folkcomunicação	AQUINO, Henrique Perazzi ; BOTELHO, Daira Renata Martins ; GOBBI, Maria Cristina		
trabalhoCompletoEmCongresso	Maria Cristina Gobbi	2015		TV Digital no Brasil: uma realidade não vista por todos os brasileiros	X Conferência Brasileira de Mídia Cidadã e V Conferência Sul-Americana de Mídia Cidadã	BERNARDINI, Gleice ; GOBBI, Maria Cristina		
trabalhoCompletoEmCongresso	Maria Cristina Gobbi	2015		Migrantes e nativos digitais: câmbio cultural, interação e pertencimento	X Conferência Brasileira de Mídia Cidadã e V Conferência Sul-Americana de Mídia Cidadã	SOUSA, Juliano Ferreira de ; GOBBI, Maria Cristina		
trabalhoCompletoEmCongresso	Maria Cristina Gobbi	2015		Hilda, a catadora de papel: acompanhamento de sua ação nas ruas de Bauru	X Conferência Brasileira de Mídia Cidadã e V Conferência Sul-Americana de Mídia Cidadã	AQUINO, Henrique Perazzi ; GOBBI, Maria Cristina		
trabalhoCompletoEmCongresso	Maria Cristina Gobbi	2015		Segunda Tela na TV digital brasileira: um estudo dos processos midiáticos interativos	XIV Congresso Internacional Ibercom 2015	BERNARDINI, Gleice ; GOBBI, Maria Cristina		
trabalhoCompletoEmCongresso	Maria Cristina Gobbi	2015		Flashmob como intervenção social e política	X Conferência Brasileira de Mídia Cidadã e V Conferência Sul-Americana de Mídia Cidadã	DARCIE, Marina Paula ; GOBBI, Maria Cristina		
resumoExpandidoEmCongresso	Maria Cristina Gobbi	2015	Fontes populares: a interface Folkcomunicativa no Muro da Faneco	XI Encontro Regional Sudeste de História Oral, 2015, Rio de Janeiro. Dimensões do público: comunidades de sentido e narrativas políticas. Niterói: UFF	AQUINO, Henrique Perazzi ; GOBBI, Maria Cristina		
resumoExpandidoEmCongresso	Maria Cristina Gobbi	2015	Comunicação e Cultura: decolonialidade na crítica ao cânone moderno das Teorias da Comunicação na América Latina	XVII Jornada Multidisciplinar Diversidade, Acessibilidade e Direitos: Diálogos com a Comunicação, 2015, Bauru. Cadernod e Resumosda XVII Jornada Multidisciplinar - 2015: Diversidade, acessibilidade e Direitos: diálogos com a Comunicação. Bauru: Unesp	VIANA, Thais Alves ; GOBBI, Maria Cristina		
resumoExpandidoEmCongresso	Maria Cristina Gobbi	2015	The Matrix Interdisciplinar de Teorias: a compreensão do impacto de tecnologias inovadoras nas áreas das Artes, Engenharia e Estudantes de Comunicação	XVII Jornada Multidisciplinar Diversidade, Acessibilidade e Direitos: Diálogos com a Comunicação, 2015, Bauru. Caderno de resumos da XVII Jornada Multidisciplinar - 2015: Diversidade, Acessibilidade e Direitos: diálogos com a Comunicação. Bauru: Unesp	GOBBI, Maria Cristina; MACHADO FILHO, Francisco ; MAGNONI, Antonio Francisco ; RENÓ, Denis Porto		
artigoEmPeriodico	Marcos Américo	2015		Interfaces de notícias táteis em conteúdos gamificados contemporâneos	Âncora - Revista Latino-americana de Jornalismo	RENO, D. P. ; AMÉRICO, M. ; NAVARI, S. C.	Qualis nao identificado	Âncora - Revista Latino-americana de Jornalismo
artigoEmPeriodico	Marcos Américo	2015		Inclusão digital e cidadania via televisão digital no Brasil.	Revista Internacional de Comunicación y Desarrollo	AMÉRICO, M.; CARVALHO, Angela M. Grossi	Qualis nao identificado	Revista Internacional de Comunicación y Desarrollo
artigoEmPeriodico	Marcos Américo	2015		A TV no ecossistema dos onívoros digitais	Razón y Palabra	AMÉRICO, M	B1	
artigoEmPeriodico	Marcos Américo	2015		Un acercamiento al eduentretenimiento	Revista Question	AMÉRICO, M.; GRANDE, F. C. ; SANTOS, J. F. T. S.	Qualis nao identificado	Revista Question
artigoEmPeriodico	Marcos Américo	2015		Considerações sobre a base teórica do curso online ?Fundamentos do Google para o ensino?	Temática (João Pessoa. Online)	SILVA, S. R. ; MAGNONI, A. F. ; AMÉRICO, M. ; GRANDE, F. C.	B4	
trabalhoCompletoEmCongresso	Marcos Américo	2015		A questão separatista da Catalunha: mídia, cultura, política e futebol	XX Congresso de Ciêncais da Comunicação da Região Sudeste	PAVINI, T. P. ; FACINI, H. ; AMÉRICO, M. ; NAPOLITANO, C. J.		
trabalhoCompletoEmCongresso	Marcos Américo	2015		Futebol, ditadura e machismo na mídia esportiva: uma visão crítica no programa radiofônico ?Observatório do Esporte?	X Conferência Brasileira de Mídia Cidadã e V Conferência Sul-Americana de Mídia Cidadã	AMÉRICO, MARCOS; PAVINI, T. P. ; FACINI, H. ; MARQUES, J. C. ; NAPOLITANO, C. J.		
trabalhoCompletoEmCongresso	Marcos Américo	2015		Vídeos Literários Interativos como proposta de aproximar a Literatura Clássica dos alunos do Ensino Médio	X Conferência Brasileira de Mídia Cidadã e V Conferência Sul-Americana de Mídia Cidadã	GRANDE, F. C. ; AMÉRICO, MARCOS ; SANTOS, J. F. T. S.		
trabalhoCompletoEmCongresso	Marcos Américo	2015		Onívoros Digitais em Contato Perpétuo: a mobilidade das mídias pela ótica ecológica	VIII Seminario Regional (Cono Sur) ALAIC	AMÉRICO, M.; ANGELUCI, A. C. B.		
trabalhoCompletoEmCongresso	Marcos Américo	2015		Observatório do Esporte: uma visão crítica da mídia esportiva na rádio Unesp FM	8º Congresso de Extensão Universitária da Unesp	AMÉRICO, M.; PAVINI, T. P.		
trabalhoCompletoEmCongresso	Marcos Américo	2015	http://dx.doi.org/10.21723/X_EIDE_2015	Desenvolvimento de sistemas gamificados com foco no edutretenimento e no jogador: uma análise dos arquétipos de Bartle e Marczewski	X Encontro Ibero-Americano de Educação	NAVARI, S. C. ; AMÉRICO, M. ; BELDA, F.R.		
resumoExpandidoEmCongresso	Marcos Américo	2015	Aplicação de mapas conceituais e storyboard como metodologia no desenvolvimento de aplicativo gamificado para o ensino de ciências	5º Simpósio Internacional de Linguagens Educativas: Práticas, Tecnologias e Iniovavação, 2015, Bauru. Anais do 5o. Simpósio Internacional de Linguagens Educativas. bauru: 5	GRANDE, F. C. ; SANTOS, J. F. T. S. ; AMÉRICO, M.		
resumoExpandidoEmCongresso	Marcos Américo	2015	Proposta de aplicativo gamificado para o ensino de direção defensiva	5º Simpósio Internacional de Linguagens Educativas: Práticas, Tecnologias e Iniovavação, 2015, Bauru. Anais do 5o. Simpósio Internacional de Linguagens Educativas. Bauru: USC	GRANDE, F. C. ; SANTOS, J. F. T. S. ; AMÉRICO, M.		
resumoExpandidoEmCongresso	Marcos Américo	2015	Proposta para construção de objeto de aprendizagem para apoio ao ensino de artes	5º Simpósio Internacional de Linguagens Educativas: Práticas, Tecnologias e Iniovavação, 2015, Bauru. Anais do 5o. Simpósio Internacional de Linguagens Educativas. Bauru: USC	GRANDE, F. C. ; SANTOS, J. F. T. S. ; AMÉRICO, M.		
artigoEmPeriodico	Leticia Passos Affini	2015		A iteratividade: do melodrama à narrativa audiovisual sob demanda	Razón y Palabra	AFFINI, L. P.; CAZANI JUNIOR, L. E.	B1	
trabalhoCompletoEmCongresso	Leticia Passos Affini	2015		A Influência das Cores na Construção da Narrativa: estudo do caso 'Felizes para Sempre?'	X Conferência Brasileira de Mídia Cidadã e V Conferência Sul-Americana de Mídia Cidadã	AFFINI, L. P.; PAIVA, L.		
trabalhoCompletoEmCongresso	Leticia Passos Affini	2015		Apontamentos Sobre o Conceito de FanFiction	X Conferência Brasileira de Mídia Cidadã e V Conferência Sul-Americana de Mídia Cidadã	AFFINI, L. P.; PIVA, H. C.		
resumoExpandidoEmCongresso	Leticia Passos Affini	2015	Apontamentos e discussões sobre os conceitos de Fanfiction	IV JORNADA CIENTÍFICA DE COMUNICAÇÃO SOCIAL - COMUNICAÇÃO E MOBILIDADE: VÍNCULOS E RUPTURAS, 2015, Bauru. Anais do IV Jornada Científica De Comunicação Social - Comunicação E Mobilidade: Vínculos E Rupturas. Bauru: Editora da USC	PIVA, H. C. ; AFFINI, L. P.		
resumoExpandidoEmCongresso	Leticia Passos Affini	2015	Experimentação Cenográfica para Televisão no Programa 'Pau a Pixel'	8º Congresso de Extensão Universitária da UNESP, 2015, Bauru, SP. Anais do 8º Congresso de Extensão Universitária da UNESP	AFFINI, L. P.; PAIVA, L. R. ; ALMEIDA, B. J.		
resumoExpandidoEmCongresso	Leticia Passos Affini	2015	A Estrutura Temporal na Narrativa Complexa: estudo de caso da Série 'How to Get Away With Murder'	XXVII Congresso de Iniciação Científica da Unesp, 2015, Bauru. Anais do XXVII Congresso de Iniciação Científica da Unesp. São Paulo: Editora da Unesp	PIVA, H. C. ; AFFINI, L. P.		
resumoExpandidoEmCongresso	Leticia Passos Affini	2015	Retalhos: costurando identidades em figurinos audiovisuais	XXVII Congresso de Iniciação Científica da Unesp, 2015, Bauru. Anais do XXVII Congresso de Iniciação Científica da Unesp. São Paulo: Editora da Unesp	PAIVA, L. ; AFFINI, L. P.		
resumoExpandidoEmCongresso	Leticia Passos Affini	2015	A influência das TICs no jornalismo tradicional	X Jornada Científica da FIB, 2015, Bauru. Anais da X Jornada Científica da FIB. Bauru: Editora da FIB	PEREIRA, J. ; AFFINI, L. P.		
resumoExpandidoEmCongresso	Leticia Passos Affini	2015	A PROPAGANDA COMO FERRAMENTA DAS RELAÇÕES PÚBLICAS: ANÁLISE DO POSICIONAMENTO INSTITUCIONAL DA COCA-COLA	X Jornada Científica da FIB, 2015, Bauru. Anais da X Jornada Científica da FIB. Bauru: Editora da FIB	SOUZA, L. M. F. ; AFFINI, L. P.		
resumoExpandidoEmCongresso	Leticia Passos Affini	2015	A INFLUÊNCIA DAS TICS NO JORNALISMO TRADICIONAL	X Jornada Científica Faculdade Integradas de Bauru - FIB, 2015, Bauru. X Jornada Científica FIB 2015. Bauru: Editora da FIB	AFFINI, L. P.; PEREIRA, J. R.		
resumoExpandidoEmCongresso	Leticia Passos Affini	2015	A PROPAGANDA COMO FERRAMENTA DAS RELAÇÕES PÚBLICAS: ANÁLISE DO POSICIONAMENTO INSTITUCIONAL DA COCA-COLA	X Jornada Científica Faculdade Integradas de Bauru - FIB, 2015, Bauru. X Jornada Científica FIB 2015. Bauru: Editora da FIB	SOUZA, L. M. F. ; AFFINI, L. P.		
artigoEmPeriodico	João Pedro Albino	2015		GESTÃO DO CONHECIMENTO E COMUNIDADES DE PRÁTICA UM ENFOQUE A PARTIR DAS TICS.	RETEC. Revista de Tecnologias (Ourinhos)	ALBINO, João Pedro; FERRASOLI FILHO, H. ; VALENTE, V. C. P. N. ; RIBEIRO, C. E. T. ; CAMPANA, E. C. ; TEIXEIRA, A. N.	B5	
trabalhoCompletoEmCongresso	João Pedro Albino	2015		Design de Interfaces para Web Baseados no Sistema de Grade do Bootstrap 3	WCSEIT'2015	ALBINO, João Pedro; MORAIS, M.J. ; GALLO JUNIOR, J. A. ; MORGADO, Eduardo Martins		
trabalhoCompletoEmCongresso	João Pedro Albino	2015		O uso da mídia digital na educação desafios e possibilidades	IBERCOM	BITTENCOURT, P. A. S. ; ALBINO, João Pedro		
trabalhoCompletoEmCongresso	João Pedro Albino	2015		Os nativos digitais e o uso das tecnologias na educação do século XXI	IV Seminário Hispano-Brasileiro de Pesquisa em Informação	BITTENCOURT, P. A. S. ; ALBINO, João Pedro		
resumoExpandidoEmCongresso	João Pedro Albino	2015	Canal de Retorno: Integração entre Sistemas Educacionais Web e Tvd	X Jornada Científica FIB, 2015, Bauru, SP. X Jornada Científica FIB. Bauru, SP: Faculdades Integradas de Bauru - FIB	ALBINO, João Pedro; RIBEIRO, C. E. T. ; ANTUNES, M. A. M. ; ANTUNES, D. L.		
resumoExpandidoEmCongresso	João Pedro Albino	2015	Ibeacons e a Ponte UX	X Jornada Científica FIB, 2015, Bauru, SP. X Jornada Científica FIB. Bauru, SP: Faculdades Integradas de Bauru - FIB	ALBINO, João Pedro; TORRES, C. T.		
resumoExpandidoEmCongresso	João Pedro Albino	2015	Implementação da Tecnologia Beacons como Solução em Gerenciamento de Mural de Avisos	X Jornada Científica FIB, 2015, Bauru, SP. X Jornada Científica FIB. Bauru, SP: Faculdades Integradas de Bauru - FIB	ALBINO, João Pedro; TORRES, C. T.		
resumoExpandidoEmCongresso	João Pedro Albino	2015	Narrativa Transmídia como Elemento de Estímulo a Leitura e Participação Interdisciplinar	5º Congresso Municipal de Educação de Bauru e 3º Fórum Infantojuvenil, 2015, Bauru, SP. 5º Congresso Municipal de Educação de Bauru e 3º Fórum Infantojuvenil. Bauru, SP: Prefeitura Municipal de Bauru	ALBINO, João Pedro; MORAIS, M.J. ; GALLO JUNIOR, J. A. ; MORGADO, Eduardo Martins		
resumoExpandidoEmCongresso	João Pedro Albino	2015	O uso da tecnologia na educação: uma análise comparativa da pesquisa sobre o uso das tecnologias de informação e comunicação nas escolas brasileiras realizada pela CGI	5º SIMPÓSIO INTERNACIONAL DE LINGUAGENS EDUCATIVAS: práticas, tecnologia e inovação,, 2015, Bauru, SP. 5º SIMPÓSIO INTERNACIONAL DE LINGUAGENS EDUCATIVAS: práticas, tecnologia e inovação,. Bauru, SP: 5º SILE - USC	BITTENCOURT, P. A. S. ; ALBINO, João Pedro		
resumoExpandidoEmCongresso	João Pedro Albino	2015	O Uso das tecnologias digitais como apoio: ao ensino-aprendizagem: Reflexão da tecnologia na educação do século XXI	Colóquio Mídia e tecnologia, 2015, Bauru, SP. Colóquio Mídia e tecnologia. Bauru, SP: UNESP	BITTENCOURT, P. A. S. ; ALBINO, João Pedro		
resumoExpandidoEmCongresso	João Pedro Albino	2015	Reflexões sobre a utilização do design de interfaces em ambientes virtuais de aprendizagem	5º SIMPÓSIO INTERNACIONAL DE LINGUAGENS EDUCATIVAS: práticas, tecnologia e inovação,, 2015, Bauru, SP. 5º SIMPÓSIO INTERNACIONAL DE LINGUAGENS EDUCATIVAS: práticas, tecnologia e inovação,. Bauru, SP: 5º SILE - USC	BITTENCOURT, P. A. S. ; ALBINO, João Pedro		
resumoExpandidoEmCongresso	João Pedro Albino	2015	RFID-Sistema de Identificação por Radio Frequência	X Jornada Científica FIB, 2015, Bauru, SP. X Jornada Científica FIB. Bauru, SP: Faculdades Integradas de Bauru - FIB	ALBINO, João Pedro; TORRES, C. T.		
resumoExpandidoEmCongresso	João Pedro Albino	2015	TV Digital Interativa na Educação	X Jornada Científica FIB, 2015, Bauru, SP. TV Digital Interativa na Educação. Bauru, SP: Faculdades Integradas de Bauru - FIB	ALBINO, João Pedro; RIBEIRO, C. E. T. ; CAMPANA, E. C.		
artigoEmPeriodico	Humberto Ferasoli Filho	2015		GESTÃO DO CONHECIMENTO E COMUNIDADES DE PRÁTICA UM ENFOQUE A PARTIR DAS TICS.	RETEC. Revista de Tecnologias (Ourinhos)	ALBINO, João Pedro; FERRASOLI FILHO, H. ; VALENTE, V. C. P. N. ; RIBEIRO, C. E. T. ; CAMPANA, E. C. ; TEIXEIRA, A. N.	B5	
artigoEmPeriodico	Humberto Ferasoli Filho	2015		Uma Plataforma Aberta e de Baixo Custo de Robô Móvel para Propósito Geral	Interciência e Sociedade	Matsubara, T ; FERASOLI FILHO, H. ; Marranghello, N.	Qualis nao identificado	Interciência e Sociedade
artigoEmPeriodico	Humberto Ferasoli Filho	2015		Trajectory tracking of a wheeled mobile robot with uncertainties and disturbances: proposed adaptive neural control	Control and Cybernetics	MARTINS, N. A. ; ALENCAR, M. ; LOMBARDI, W. C. ; BERTOL, D. W. ; DE PIERI, E. R. ; FERASOLI FILHO, H.	B1	
artigoEmPeriodico	Humberto Ferasoli Filho	2015		Tutoriais gamificados e o design centrado no usuário	REVISTA GEMInIS	FABRÍCIO, M. A. ; BONETTI, M. H. ; GRASSI, N. B. ; VALENTE, V. C. P. N. ; FERASOLI FILHO, H.	B3	
trabalhoCompletoEmCongresso	Humberto Ferasoli Filho	2015		Learning Escape Routes with Mobile Robots	International Workshop on Serious Gaming = Serious Business	Alves, S. F. R. ; URIBE, Alvaro ; FERASOLI FILHO, H.		
trabalhoCompletoEmCongresso	Humberto Ferasoli Filho	2015		Multimodal Method for Detecting Emotion of Autistic Children	1st International Workshop on Assistive Technology	Alves, S. F. R. ; BASTOS, Teodiano Freire ; Caurin, G. A. P. ; Nunes ; FERASOLI FILHO, H.		
trabalhoCompletoEmCongresso	Humberto Ferasoli Filho	2015		Área de Trabalho Dinâmica para o Ambiente Experimental e Didático com Robôs Móveis	Simpósio Brasileiro de Automação Inteligente - SBAI	Sousa, A. M. ; PEGORARO, Renê ; Alves, S. F. R. ; FERASOLI FILHO, H.		
resumoExpandidoEmCongresso	Humberto Ferasoli Filho	2015	Intelligent Control Architecture for Assistive Mobile Robots	1o International Workshop on Assistive Technology, 2015, Vitória, Espirito Santo. Proceedings of the 1st International Workshop on Assistive Technology. Vitória	Alves, S. F. R. ; Nunes ; FERASOLI FILHO, H. ; BASTOS, Teodiano Freire		
resumoExpandidoEmCongresso	Humberto Ferasoli Filho	2015	Um Ambiente Computacional para Emular em Rede Aplicações Desenvolvidas para Televisão Digital	Jornada Multidisciplinar: Diversidade, Acessibilidade e Direitos: diálogos com a comunicação, 2015, Bauru. Anais do XVII Jornada Multidisciplinar: Diversidade, Acessibilidade e Direitos; Diálogos com a Comunicação - 2015	CAMPANA, E. C. ; Morgado, E. M. ; FERASOLI FILHO, H.		
artigoEmPeriodico	Francisco Rolfsen Belda	2015		Da culinária de papel às mídias sociais de nicho	Razón y Palabra	BELDA, Francisco Rolfsen; GAMONAR, F.	B1	
artigoEmPeriodico	Francisco Rolfsen Belda	2015		Panorama dos Modelos de Negócios na TV Digital Aberta	REVISTA GEMInIS	LIMA, F. ; BRESSAN, D. ; BELDA, Francisco Rolfsen ; DURIGAN, G. ; LIMA, M. M.	B3	
artigoEmPeriodico	Francisco Rolfsen Belda	2015		Conteúdos Audiovisuais em Revistas Digitais: um Exame das Revistas Esquire e Katashi em suas Versões para Tablet	Razón y Palabra	BELDA, Francisco Rolfsen; LIMA, F.	B1	
artigoEmPeriodico	Francisco Rolfsen Belda	2015		Jornalismo participativo integrado a plataforma cartográfica de mídia digital	Rastros (Joinville)	BELDA, Francisco Rolfsen	B4	
artigoEmPeriodico	Francisco Rolfsen Belda	2015		Proposta de uma rede social como ambiente de convergência com programas de gastronomia e culinária na TV	Revista Ciência & Desenvolvimento	BELDA, Francisco Rolfsen; GAMONAR, F.	B4	
trabalhoCompletoEmCongresso	Francisco Rolfsen Belda	2015		Conteúdos Audiovisuais em Revistas Digitais: um Exame das Revistas Esquire e Katashi em suas Versões para Tablet	XX Congresso de Ciências da Comunicação na Região Sudeste	BELDA, Francisco Rolfsen; LIMA, F.		
trabalhoCompletoEmCongresso	Francisco Rolfsen Belda	2015		Hipermidialidade e interação no design editorial de revistas digitais: um estudo exploratório sobre a Wired Magazine	XX Congresso de Ciências da Comunicação na Região Sudeste	BRESSAN, D. ; BELDA, Francisco Rolfsen		
resumoExpandidoEmCongresso	Francisco Rolfsen Belda	2015	Revistas Digitais Educativas para Tablet: Possibilidade de Enriquecimento Audiovisual da Revista Nova Escola	V Simpósio Internacional de Linguagens Educativas: Práticas, Tecnologia e Inovação, 2015, Bauru. Anais - Simpósio Internacional de Linguagens Educativas: Práticas, Tecnologia e Inovação	BELDA, Francisco Rolfsen; LIMA, F. ; BRESSAN, D. ; DURIGAN, G.		
artigoEmPeriodico	Denis Porto Renó	2015		Folkcomunicación ciudadana a partir de la web 2.0 y de la movilidad	Revista internacional de Comunicación y Desarrollo	RENO, Denis P	Qualis nao identificado	Revista internacional de Comunicación y Desarrollo
artigoEmPeriodico	Denis Porto Renó	2015		Interfaces de notícias tácteis em conteúdos gamificados contemporâneos	ÂNCORA - Revista Latino-americana de Jornalismo	RENO, Denis P.; AMERICO, M. ; NAVARI, S. C.	Qualis nao identificado	ÂNCORA - Revista Latino-americana de Jornalismo
artigoEmPeriodico	Denis Porto Renó	2015		Mapas interactivos como plataformas informativas para ciudadanos desconectados	Journalism Research Review Quarterly	RENO, Denis P.; RENÓ, Luciana Tarlá Lorenzi	Qualis nao identificado	Journalism Research Review Quarterly
artigoEmPeriodico	Denis Porto Renó	2015		Técnicas y lenguajes documentales por el brasileño Eduardo Coutinho	Revista Latina de Comunicación Social	RENO, Denis P.; CAMPALANS, C. ; RENÓ, Luciana Tarlá Lorenzi	B1	
artigoEmPeriodico	Denis Porto Renó	2015		Mapas interactivos como plataformas informativas para ciudadanos desconectados	Razón y Palabra	RENO, Denis P.; RENÓ, Luciana Tarlá Lorenzi	B1	
artigoEmPeriodico	Denis Porto Renó	2015		A representação temática da tecnologia nos jornais brasileiros e sua configuração mercadológica diante de uma perspectiva de conceito social	Pauta Geral	RENO, Denis P.; DANCOSKY, A. K.	B5	
artigoEmPeriodico	Denis Porto Renó	2015		Vídeo-ativismo e conexões em rede nos protestos brasileiros de 2013.	Razón y Palabra	RENO, Denis P.; DURIGAN, G.	B1	
artigoEmPeriodico	Denis Porto Renó	2015		Educomunicação e comunicação cidadã na América Latina: um desenvolvimento necessário	Revista Internacional de Comunicación y Desarrollo	RENO, Denis P	Qualis nao identificado	Revista Internacional de Comunicación y Desarrollo
artigoEmPeriodico	Denis Porto Renó	2015		O documentário transmídia: como produzir	Revista Latino-americana de Jornalismo - Âncora	RENO, Denis P	Qualis nao identificado	Revista Latino-americana de Jornalismo - Âncora
artigoEmPeriodico	Denis Porto Renó	2015		Cidadão mobile: reflexões sobre o ecossistema midiático contemporâneo	Comunicação & Sociedade (Online)	RENO, Denis P	B1	
artigoEmPeriodico	Denis Porto Renó	2015		Video-ativismo e a imagem documental cidadã	Revista Latinoamericana Comunicación Chasqui	RENO, Denis P	B2	
artigoEmPeriodico	Denis Porto Renó	2015		Jornalismo de dados e tecnologia: algoritmo na produção da notícia transmídia	Razón y Palabra	RENO, Denis P.; RENÓ, Luciana Tarlá Lorenzi	B1	
artigoEmPeriodico	Denis Porto Renó	2015		Configurações do bios midiático: o papel do YouTube na sociedade midiatizada	Razón y Palabra	MORELLI, B. T. ; RENO, Denis P.	B1	
artigoEmPeriodico	Denis Porto Renó	2015		Las nuevas redacciones, el 'Big Data' y los medios sociales como fuentes de noticias	Estudios sobre el Mensaje Periodístico	RENO, Denis P.; RENÓ, Luciana Tarlá Lorenzi	Qualis nao identificado	Estudios sobre el Mensaje Periodístico
artigoEmPeriodico	Denis Porto Renó	2015		Las nuevas redacciones, el 'Big data' y los medios sociales como fuentes de noticias	Estudos del mensaje periodistico	RENO, Denis P.; RENÓ, Luciana Tarlá Lorenzi	Qualis nao identificado	Estudos del mensaje periodistico
artigoEmPeriodico	Denis Porto Renó	2015		Video-ativismoe a imagem documental cidadã	Chasqui_ Revista Latinoamericana de Comunicación	RENO, Denis P	Qualis nao identificado	Chasqui_ Revista Latinoamericana de Comunicación
artigoEmPeriodico	Denis Porto Renó	2015		Cidadão mobile: reflexões sobre o ecossistema midiático contemporâneo	Comunicação & Sociedade	RENO, Denis P	B1	
trabalhoCompletoEmCongresso	Denis Porto Renó	2015		Diversidad de formatos para documentales transmedia	VI Congreso Internacional Latina de Comunicación Social	RENO, Denis P		
artigoEmPeriodico	Juarez Tadeu de Paula Xavier	2015		LER, INTERPRETAR E AGIR: UM CÍRCULO DE CULTURA FORA DO EIXO1	Razón y Palabra	XAVIER, J. T. P.; Xavier, P.A.M	B1	
artigoEmPeriodico	Juarez Tadeu de Paula Xavier	2015		A comunicação colaborativa e a construção de uma sociedade cidadã e uma nova agenda na comunicação pública	Anuário Unesco/Metodista de Comunicação Regional	XAVIER, J. T. P.; Machado Filho ; Ferreira, Mayra Fernanda	B4	Anuário Unesco/Metodista de Comunicação Regional (Impresso)
artigoEmPeriodico	Juarez Tadeu de Paula Xavier	2015		Jornalismo cidadão e o protagonismo político local: as experiências do jornal ?Voz do Nicéia? e do ?Portal Participi?	Revista Latino-Americana de Jornalismo Âncora	XAVIER, J. T. P.; Sottovia Aranha, Ângelo	Qualis nao identificado	Revista Latino-Americana de Jornalismo Âncora
artigoEmPeriodico	Juarez Tadeu de Paula Xavier	2015		MOVIMENTOS SOCIAIS, ECOLOGIA DIGITAL, MÍDIAS RADICAIS E AS NARRATIVAS ANTICAPITALISTAS NA ESFERA PÚBLICA ALTERNATIVA GLOBAL	Razón y Palabra	XAVIER, J. T. P.; Xavier, P.A.M	B1	
trabalhoCompletoEmCongresso	Juarez Tadeu de Paula Xavier	2015		Esfera pública radical e políticas públicas antirracistas: Ações políticas contra o genocídio da população jovem e negra	XIV Congresso Ibero-Americano de Comunicação IBERCOM 2015	XAVIER, J. T. P		
artigoEmPeriodico	Jose Luis Bizelli	2015		Inovações tecnológicas e contexto escolar: reflexões necessárias.	Revista Ibero-Americana de Estudos em Educação	CUNHA, M. D. ; BIZELLI, J. L.	B1	
artigoEmPeriodico	Jose Luis Bizelli	2015		The interactive whiteboard in primary school: a case study of a Brazilian district school.	International Journal of Education and Research	ESTEVES, R. F. ; FISCARELLI, S. H. ; BIZELLI, J. L.	B1	International Journal of Education
artigoEmPeriodico	Jose Luis Bizelli	2015		Docência para o ensino superior: inovação, informação e construção do conhecimento na era digital.	Cadernos de Educação, Tecnologia e Sociedade	CRUZ, J. A. S. ; BIZELLI, J. L.	Qualis nao identificado	Cadernos de Educação, Tecnologia e Sociedade
artigoEmPeriodico	Jose Luis Bizelli	2015		Acessibilidade e deficiência na universidade: política de recursos humanos (versão eletrônica).	Revista Ibero-Americana de Estudos em Educação	CANDIDO PEREIRA, C. E. ; BIZELLI, J. L. ; LEITE, L. P.	B1	
artigoEmPeriodico	Jose Luis Bizelli	2015		Acessibilidade e deficiência na universidade: política de recursos humanos (Versão Impressa)	Revista Iberoamericana de Estudos em Educação (impressa)	CANDIDO PEREIRA, C. E. ; BIZELLI, J. L. ; LEITE, L. P.	B1	Revista Iberoamericana
artigoEmPeriodico	Jose Luis Bizelli	2015		Interactive Whiteboards in Brazilian?s Primary School: New Barriers (impresso).	International Journal: Emerging Technologies in Learning	ESTEVES, R. F. ; FISCARELLI, S. H. ; BIZELLI, J. L.	Qualis nao identificado	International Journal: Emerging Technologies in Learning
artigoEmPeriodico	Jose Luis Bizelli	2015	http://dx.doi.org/10.3991/ijet.v10i6.4804	Interactive Whiteboards in Brazilian?s Primary School: New Barriers	International Journal: Emerging Technologies in Learning	ESTEVES, RODOLFO FERNANDES ; FISCARELLI, SILVIO HENRIQUE ; BIZELLI, JOSÉ LUÍS	Qualis nao identificado	International Journal: Emerging Technologies in Learning
artigoEmPeriodico	Jose Luis Bizelli	2015		Tecnologias da informação e comunicação na educação: conceitos e definições.	Política e Gestão Educacional (Online)	Geraldi, L.M.A. ; BIZELLI, J. L.	Qualis nao identificado	Política e Gestão Educacional (Online)
trabalhoCompletoEmCongresso	Jose Luis Bizelli	2015		Análise da atual formação de professores para o atendimento aos alunos e alunas na perspectiva de escola inclusiva	Encontro Ibero-Americano de Educação	Mattos, M. O. ; BIZELLI, JOSÉ LUÍS ; Heredero, Eladio Sebastian		
trabalhoCompletoEmCongresso	Jose Luis Bizelli	2015		Um estudo de caso sobre a lousa digital interativa no ensino fundamental do município de Araraquara	X Encontro Ibero-Americano de Educação.	ESTEVES, RODOLFO FERNANDES ; FISCARELLI, SILVIO HENRIQUE ; BIZELLI, JOSÉ LUÍS		
trabalhoCompletoEmCongresso	Jose Luis Bizelli	2015		Educação inovadora e alteridade: as tecnologias de informação e comunicação para uma aprendizagem colaborativa	X Encontro Ibero-Americano de Educação	CARAM, N. R. ; BIZELLI, JOSÉ LUÍS		
trabalhoCompletoEmCongresso	Jose Luis Bizelli	2015		Tecnologias educacionais e a formação de docentes	X Encontro Ibero-Americano de Educação.	CRUZ, J. A. S. ; BIZELLI, JOSÉ LUÍS		
trabalhoCompletoEmCongresso	Jose Luis Bizelli	2015		Diagramas na Atenção Primária: a Estratégia de Saúde da Família no Brasil	1.o Congresso da Associação Internacional das Ciências Sociais e Humanas em Língua Portuguesa.	BIZELLI, S. S. K. ; BIZELLI, J. L. ; CASTANHERA, E. R. L.		
trabalhoCompletoEmCongresso	Jose Luis Bizelli	2015		Ensinar com TIC na Era do Conhecimento: a realidade brasileira	XX CONGRESSO DE CIÊNCIAS DA COMUNICAÇÃO NA REGIÃO SUDESTE	CARAM, N. R. ; BIZELLI, J. L.		
trabalhoCompletoEmCongresso	Jose Luis Bizelli	2015		Educação contemporânea e as tecnologias : educar para os meios	X Conferência Brasileira de Mídia Cidadã e V Conferência Sul - Americana de Mídia Cidadã.	CRUZ, J. A. S. ; BIZELLI, J. L.		
trabalhoCompletoEmCongresso	Jose Luis Bizelli	2015		Educação, Tecnologias e mediação pedagógica	XXXVIII Congresso Brasileiro de Ciências da Comunicação	CRUZ, J. A. S. ; BIZELLI, J. L.		
trabalhoCompletoEmCongresso	Jose Luis Bizelli	2015		Acesso e apropriação tecnológica na sociedade digital	XXXVIII Congresso Brasileiro de Ciências da Comunicação	BIZELLI, J. L		
trabalhoCompletoEmCongresso	Jose Luis Bizelli	2015		O uso das TICs nas escolas: a voz dos professores	XIV Congresso Ibero-Americano de Comunicação - IBERCOM	CUNHA, M. D. ; BIZELLI, J. L.		
resumoExpandidoEmCongresso	Jose Luis Bizelli	2015	Análisis de los procesos innovadores en los gobiernos del territorio paulista: portales municipales	XXIII Jornadas Jóvenes Investigadores Grupo Montevideo., 2015, La Plata	Vargas, T. C. ; BIZELLI, J. L.		
resumoExpandidoEmCongresso	Jose Luis Bizelli	2015	Educação para Cidadania: Estratégias Comparadas para a Formação do Cidadão em Ibero-América	XXVII Congresso de Iniciação Científica., 2015, Araraquara, São Paulo.. Trabalhos apresentados no XXVII Congresso de Iniciação Científica.. São Paulo.: UNESP	Duarte, C. P. ; BIZELLI, J. L.		
resumoExpandidoEmCongresso	Jose Luis Bizelli	2015	Análise de processos inovadores nos governos do território paulista: portais municipais	XXVII Congresso de Iniciação Científica., 2015, Araraquara.. Trabalhos apresentados no XXVII Congresso de Iniciação Científica.. São Paulo.: UNESP	Vargas, T. C. ; BIZELLI, J. L.		
trabalhoCompletoEmCongresso	Célia Maria Retz Godoy dos Santos	2015		Da articulação em rede à praça pública como espaço de discussão cidadã: entre a Primavera Árabe, o Movimento 15-M na Espanha e o Movimento Passe Livre no Brasil	X Conferência Brasileira de Mídia Cidadã e V Conferência Sul-Americana de Mídia Cidadã	SANTOS, C. M. R. G.; CABRAL, R.		
trabalhoCompletoEmCongresso	Célia Maria Retz Godoy dos Santos	2015		A Consulta de Opiniões na Gestão da Confiança Interpessoal em Grupos de Trabalho Multiculturais	IX Congresso Brasileiro Cientifico de Comunicação Organizacional e de Relações Públicas Abrapcorp 2015	SANTOS, C. M. R. G.; CABRAL, R. ; RUIZ, Angelica A. P. L.		
artigoEmPeriodico	Antonio Francisco Magnoni	2015		Considerações sobre a base teórica do curso on-line ?Fundamentos do Google para o ensino?	Temática (João Pessoa. Online)	SILVA, S. R. ; MAGNONI, A. F. ; AMERICO, M. ; GRANDE, F. C.	B4	
artigoEmPeriodico	Antonio Francisco Magnoni	2015		Jornalismo no ciberespaço: os desafios da formação profissional	Razón y Palabra	MAGNONI, A. F.; GARRIDO, B. A.	B1	
artigoEmPeriodico	Antonio Francisco Magnoni	2015		Comunicação Rural no estado de São Paulo: O papel da SAA na vida do produtor rural	Ciência Geográfica	MELO, R. R. ; MAGNONI, A. F.	B3	
artigoEmPeriodico	Antonio Francisco Magnoni	2015		Programação televisiva pública e privada: um estudo de caso da TV Brasil	Revista de Estudos da Comunicação (Impresso)	Magnoni, A. F.; GODOY, J. M.	B2	
artigoEmPeriodico	Antonio Francisco Magnoni	2015		Programação televisiva pública e privada: um estudo de caso da TV Brasil	Revista de Comunicação	MAGNONI, A. F.; GODOY, J. M.	B3	Revista de Comunicação e Linguagens
artigoEmPeriodico	Antonio Francisco Magnoni	2015		Novos Cenários Radiofônicos: Convergência; Jovens Digitais E Tendências	Vozes e Diálogo	MIRANDA, G. V. ; MAGNONI, A. F.	Qualis nao identificado	Vozes e Diálogo
trabalhoCompletoEmCongresso	Antonio Francisco Magnoni	2015		Jornalismo Alternativo e a Internet: Uma Possibilidade Cidadã para a Notícia	X Conferência Brasileira de Mídia Cidadã e V Conferência Sul-Americana de Mídia Cidadã	Magnoni, A. F.; GARRIDO, B. A.		
trabalhoCompletoEmCongresso	Antonio Francisco Magnoni	2015		Estudo de Caso do Curso Experimental de Inglês Early Bird na Cidade de Bauru	X Conferência Brasileira de Mídia Cidadã e V Conferência Sul-Americana de Mídia Cidadã	SILVA, S. R. ; Magnoni, A. F.		
trabalhoCompletoEmCongresso	Antonio Francisco Magnoni	2015		A Produção Midiática de Movimentos Sociais: Documentário Guapiaçu, Um Rio (de Janeiro) Ameaçado	X Conferência Brasileira de Mídia Cidadã e V Conferência Sul-Americana de Mídia Cidadã	Magnoni, A. F.; CAIRES, Mariana ; NOVO, L. F.		
trabalhoCompletoEmCongresso	Antonio Francisco Magnoni	2015		Os desafios da Comunicação Rural no estado de São Paulo	X Conferência Brasileira de Mídia Cidadã e V Conferência Sul-Americana de Mídia Cidadã	Magnoni, A. F.; MELO, R. R.		
trabalhoCompletoEmCongresso	Antonio Francisco Magnoni	2015		Breve Painel Histórico e de Perspectivas da TV Brasil e do Canal 7 Argentina	X Conferência Brasileira de Mídia Cidadã e V Conferência Sul-Americana de Mídia Cidadã	Magnoni, A. F.; GODOY, J. M.		
resumoExpandidoEmCongresso	Antonio Francisco Magnoni	2015	The Matrix Interdisciplinar De Teorias: A Compreensão Do Impacto De Tecnologias Inovadoras Nas Áreas Das Artes, Engenharia E Estudantes De Comunicação	XVII Jornada Multidisciplinar Diversidade, Acessibilidade e Direitos: Diálogos com a Comunicação, 2015, Bauru. Caderno de resumos da XVII Jornada Multidisciplinar - 2015: Diversidade, Acessibilidade e Direitos: diálogos com a Comunicação. Bauru: Unesp	GOBBI, Maria Cristina; MACHADO FILHO, Francisco ; MAGNONI, Antonio Francisco ; RENÓ, Denis Porto		
resumoExpandidoEmCongresso	Antonio Francisco Magnoni	2015	O rádio e as tecnologias da comunicação e informação: contextos, produção e consumo	XV Jornada Multidisciplinar 'A linguagem nas mídias na Era da Convergência', 2013, Bauru, SP. Anais da XV Jornada Multidisciplinar	MAGNONI, A. F.; BETTI, J. C. ; RODRIGUES, K. C.		
trabalhoCompletoEmCongresso	Antonio Carlos Sementille	2015	http://dx.doi.org/10.1109/svr.2015.38	Segmentation Quality for Augmented Reality: An Objective Metric	2015 XVII Symposium on Virtual and Augmented Reality (SVR)	SALIONI, DANILO VITORI ; SANCHES, SILVIO R.R. ; SILVA, Valdinei F. ; GASPARI, Tiago de ; SEMENTILLE, ANTONIO C.		
resumoExpandidoEmCongresso	Antonio Carlos Sementille	2015	Desenvolvimento de um método semiautomático para a geração de ground truths de vídeos	V WPPGCC2015 - Workshop do Programa de Pós-Graduação em Ciência da Computação da UNESP: Qualidade na Pós-Graduação, 2015, Bauru. Anais do V WPPGCC2015 - Workshop do Programa de Pós-Graduação em Ciência da Computação da UNESP: Qualidade na Pós-Graduação. Bauru: UNESP	DE GASPARI, TIAGO ; SEMENTILLE, A. C. ; SANCHES, S. R. R.		
resumoExpandidoEmCongresso	Antonio Carlos Sementille	2015	Um método para a calibração de câmeras RGB e RGB-D visando a utilização em aplicações de realidade aumentada	V WPPGCC2015 - Workshop do Programa de Pós-Graduação em Ciência da Computação da UNESP: Qualidade na Pós-Graduação, 2015, Bauru. Anais do V WPPGCC2015 - Workshop do Programa de Pós-Graduação em Ciência da Computação da UNESP: Qualidade na Pós-Graduação. Bauru: Unesp	SILVA, Carlos Eduardo Rossi Cubas da ; SEMENTILLE, A. C.		
resumoExpandidoEmCongresso	Antonio Carlos Sementille	2015	O desenvolvimento de um método para a captura de movimentos humanos usando câmeras RGB e RGB-D	V WPPGCC 20015 - Workshop do Programa de Pós-Graduação em Ciência da Computação da UNESP: Qualidade na Pós-Graduação, 2015, Bauru. Anais do V WPPGCC 20015 - Workshop do Programa de Pós-Graduação em Ciência da Computação da UNESP: Qualidade na Pós-Graduação. Bauru: UNESP	MOTTA, Everton Simões da ; SEMENTILLE, A. C.		
resumoExpandidoEmCongresso	Antonio Carlos Sementille	2015	Interação com objetos digitais em estúdios virtuais	XVII Jornada Multidisciplinar - 2015 'Diversidade, Acessibilidade e Direitos: Diálogos com a Comunicação', 2015, Bauru. Caderno de resumos da XVII Jornada Multidisciplinar ? 2015: "Diversidade, Acessibilidade e Direitos: Diálogos com a Comunicação" e VIII Encontro de Direitos Humanos da Unesp: "Universidade, Violências e Educação em Direitos Humanos". Bauru: UNESP-FAAC	PEDROSO, Rafael Guimarães ; SEMENTILLE, A. C.		
artigoEmPeriodico	Vania Cristina Pires Nogueira Valente	2015		Tecnologia disseminando a arte: quais as perspectivas para o futuro da TV Digital?	VIII World Congress on Communication and Arts	VALENTE, V. C. P. N.; TEIXEIRA, A. N.	Qualis nao identificado	VIII World Congress on Communication and Arts
artigoEmPeriodico	Vania Cristina Pires Nogueira Valente	2015		Aprimoramento da Capacidade de Visualização Espacial com a utilização de hologramas	Technology Education for the Future: from simple Growth to Sustainable Quality of Living	VALENTE, V. C. P. N.; TRINDADE, T.	Qualis nao identificado	Technology Education for the Future: from simple Growth to Sustainable Quality of Living
artigoEmPeriodico	Vania Cristina Pires Nogueira Valente	2015		Tutoriais gamificados e o design centrado no usuário	REVISTA GEMInIS	FABRÍCIO, M. A. ; BONETTI, M. H. ; GRASSI, N. B. ; VALENTE, V. C. P. N. ; FERASOLI FILHO, H.	B3	
artigoEmPeriodico	Vania Cristina Pires Nogueira Valente	2015		Tecnologias Midiáticas apoiando Objetos Digitais de Aprendizagem	Desafios, Práticas e Tecnologias na Era da Informação	VALENTE, V. C. P. N.; TEIXEIRA, A. N. ; SILVA, G. V.	Qualis nao identificado	Desafios, Práticas e Tecnologias na Era da Informação
artigoEmPeriodico	Vania Cristina Pires Nogueira Valente	2015		Utilização de games com paradoxos visuais tridimensionais para aprimoramento da Habilidade Espacial	Desafios, Práticas e Tecnologias na Era da Informação	VALENTE, V. C. P. N.; BENUTTI, M. A. ; GRASSI, N. B.	Qualis nao identificado	Desafios, Práticas e Tecnologias na Era da Informação
artigoEmPeriodico	Vania Cristina Pires Nogueira Valente	2015		A arte do Origani, Kirigami e Origami Arquitetônico auxiliando o desenvolvimento da Habilidade de Visualização Espacial	Communication and Arts as Structuring Elements of Wellbeing and Social Justice	VALENTE, V. C. P. N.; OTA, C. Y.	Qualis nao identificado	Communication and Arts as Structuring Elements of Wellbeing and Social Justice
trabalhoCompletoEmCongresso	Vania Cristina Pires Nogueira Valente	2015	http://dx.doi.org/10.14684/icece	Aprimoramento da Capacidade de Visualização Espacial com a utilização de hologramas	IX International Conference on Engineering and Computer Education	VALENTE, V. C. P. N.; TRINDADE, T.		
trabalhoCompletoEmCongresso	Vania Cristina Pires Nogueira Valente	2015		Tecnologia disseminando a arte: quais as perspectivas para o futuro da TV Digital?	The VIII World Congress on Communication and Arts	VALENTE, V. C. P. N.; TEIXEIRA, A. N.		
trabalhoCompletoEmCongresso	Vania Cristina Pires Nogueira Valente	2015	http://dx.doi.org/10.14684/wcca	A arte do Origani, Kirigami e Origami Arquitetônico auxiliando o desenvolvimento da Habilidade de Visualização Espacial	The VIII World Congress on Communication and Arts	VALENTE, V. C. P. N.; OTA, C. Y.		
trabalhoCompletoEmCongresso	Vania Cristina Pires Nogueira Valente	2015		A gamificação como recurso estratégico para motivar nativos digitais : uma abordagem	X ENCONTRO IBERO-AMERICANO DE EDUCAÇÃO	VALENTE, V. C. P. N.; GRASSI, N. B.		
trabalhoCompletoEmCongresso	Vania Cristina Pires Nogueira Valente	2015		Gamificação: uma abordagem para atrair e motivar nativos digitais ao aprendizado	X JORNADA CIENTÍFICA DAS FACULDADES INTEGRADAS DE BAURU	VALENTE, V. C. P. N.; GRASSI, N. B.		
trabalhoCompletoEmCongresso	Vania Cristina Pires Nogueira Valente	2015		TECNOLOGIAS MIDIÁTICAS APOIANDO OBJETOS DIGITAIS DE APRENDIZAGEM	WCSEIT2015 ? II Congresso Mundial em Engenharia de Sistemas e Tecnologias de Informação	VALENTE, V. C. P. N.; TEIXEIRA, A. N. ; SILVA, G. V.		
trabalhoCompletoEmCongresso	Vania Cristina Pires Nogueira Valente	2015		A GAMIFICAÇÃO E OS NOVOS MODELOS EDUCACIONAIS	V CBE - Congresso Brasileiro de Educação	GRASSI, N. B. ; VALENTE, V. C. P. N.		
trabalhoCompletoEmCongresso	Vania Cristina Pires Nogueira Valente	2015		Utilização de games com paradoxos visuais tridimensionais para aprimoramento da Habilidade Espacial	World Congress on Systems Engineering and Information Technology	VALENTE, V. C. P. N.; GRASSI, N. B. ; BENUTTI, M. A.		
resumoExpandidoEmCongresso	Vania Cristina Pires Nogueira Valente	2015	Tecnologias midiáticas na educação contemporânea por meio de objetos digitais de aprendizagem	XVII Jornada Multidisciplinar, 2015, Bauru. Diversidade, Acessibilidade e Direitos: diálogos com a comunidade. Bauru: Unesp	VALENTE, V. C. P. N.; SILVA, G. V. ; MORGADO, E. M. ; CAMPANHA, S. B. C.		
