strict graph grafo2 {
	graph [bb="0,0,5649,81",
		id=grafo2,
		overlap=False
	];
	node [fontsize=8,
		label="\N",
		shape=rectangle,
		style=filled
	];
	0	 [URL="http://lattes.cnpq.br/0751163307734256",
		color="#17272B",
		fontcolor="#FFFFFF",
		height=0.23611,
		label="Antonio Riul Júnior [0]",
		pos="46,72.5",
		width=1.2778];
	1	 [URL="http://lattes.cnpq.br/8106067351019340",
		color="#17272B",
		fontcolor="#FFFFFF",
		height=0.23611,
		label="Antonio A. da Silva Curvelo [0]",
		pos="170,72.5",
		width=1.6667];
	2	 [URL="http://lattes.cnpq.br/4352323080338671",
		color="#17272B",
		fontcolor="#FFFFFF",
		height=0.23611,
		label="Andreas Karoly Gombert [0]",
		pos="303,72.5",
		width=1.5139];
	3	 [URL="http://lattes.cnpq.br/8444233927942764",
		color="#17272B",
		fontcolor="#FFFFFF",
		height=0.23611,
		label="Andre Tosi Furtado [0]",
		pos="421,72.5",
		width=1.2639];
	4	 [URL="http://lattes.cnpq.br/9224559183264354",
		color="#17272B",
		fontcolor="#FFFFFF",
		height=0.23611,
		label="Maria I. Afonso Lopes [0]",
		pos="535,72.5",
		width=1.4028];
	5	 [URL="http://lattes.cnpq.br/8251885707409794",
		color="#17272B",
		fontcolor="#FFFFFF",
		height=0.23611,
		label="Michel Brienzo [1]",
		pos="643,72.5",
		width=1.0833];
	9	 [URL="http://lattes.cnpq.br/4638952263502744",
		color="#17272B",
		fontcolor="#FFFFFF",
		height=0.23611,
		label="Pedro de Oliva Neto [1]",
		pos="643,8.5",
		width=1.2917];
	5 -- 9	 [fontsize=8,
		label=1.0,
		lp="648.5,40.5",
		pos="643,63.898 643,51.998 643,29.102 643,17.165"];
	6	 [URL="http://lattes.cnpq.br/8021481959269554",
		color="#17272B",
		fontcolor="#FFFFFF",
		height=0.23611,
		label="Marcus B. Soares Forte [0]",
		pos="752,72.5",
		width=1.4306];
	7	 [URL="http://lattes.cnpq.br/2663920223082171",
		color="#17272B",
		fontcolor="#FFFFFF",
		height=0.23611,
		label="Márcia J. Rossini Mutton [0]",
		pos="876,72.5",
		width=1.5139];
	8	 [URL="http://lattes.cnpq.br/3707634488541457",
		color="#17272B",
		fontcolor="#FFFFFF",
		height=0.23611,
		label="Rafael Vasconcelos Ribeiro [0]",
		pos="1007,72.5",
		width=1.625];
	10	 [URL="http://lattes.cnpq.br/7908775368079914",
		color="#17272B",
		fontcolor="#FFFFFF",
		height=0.23611,
		label="Paulo Seleghim Júnior [0]",
		pos="1134,72.5",
		width=1.3889];
	11	 [URL="http://lattes.cnpq.br/0072173018005712",
		color="#17272B",
		fontcolor="#FFFFFF",
		height=0.23611,
		label="Nelson Ramos Stradiotto [0]",
		pos="1256,72.5",
		width=1.5];
	12	 [URL="http://lattes.cnpq.br/8867390850809735",
		color="#17272B",
		fontcolor="#FFFFFF",
		height=0.23611,
		label="Munir Salomao Skaf [1]",
		pos="1375,72.5",
		width=1.3056];
	29	 [URL="http://lattes.cnpq.br/9669532724764871",
		color="#17272B",
		fontcolor="#FFFFFF",
		height=0.23611,
		label="Igor Polikarpov [2]",
		pos="1434,8.5",
		width=1.0833];
	12 -- 29	 [fontsize=8,
		label=1.0,
		lp="1414.5,40.5",
		pos="1382.2,63.898 1393.6,51.998 1415.3,29.102 1426.7,17.165"];
	13	 [URL="http://lattes.cnpq.br/9861339870761985",
		color="#17272B",
		fontcolor="#FFFFFF",
		height=0.23611,
		label="Marcelo Menossi Teixeira [0]",
		pos="1620,72.5",
		width=1.5556];
	14	 [URL="http://lattes.cnpq.br/6123811912250634",
		color="#17272B",
		fontcolor="#FFFFFF",
		height=0.23611,
		label="Luis A. Barbosa Cortez [2]",
		pos="1746,72.5",
		width=1.4306];
	15	 [URL="http://lattes.cnpq.br/4984859173592703",
		color="#17272B",
		fontcolor="#FFFFFF",
		height=0.23611,
		label="Jose M. F. Jardim da Silveira [1]",
		pos="1683,8.5",
		width=1.6806];
	14 -- 15	 [fontsize=8,
		label=1.0,
		lp="1724.5,40.5",
		pos="1738.3,63.898 1726.2,51.998 1702.9,29.102 1690.8,17.165"];
	50	 [URL="http://lattes.cnpq.br/5436713663763286",
		color="#17272B",
		fontcolor="#FFFFFF",
		height=0.23611,
		label="Rubens Maciel Filho [1]",
		pos="1809,8.5",
		width=1.3194];
	14 -- 50	 [fontsize=8,
		label=1.0,
		lp="1786.5,40.5",
		pos="1753.7,63.898 1765.8,51.998 1789.1,29.102 1801.2,17.165"];
	16	 [URL="http://lattes.cnpq.br/1750154267305530",
		color="#17272B",
		fontcolor="#FFFFFF",
		height=0.23611,
		label="José Luz Silveira [0]",
		pos="1857,72.5",
		width=1.1528];
	17	 [URL="http://lattes.cnpq.br/2090018228785477",
		color="#17272B",
		fontcolor="#FFFFFF",
		height=0.23611,
		label="Tito José Bonagamba [0]",
		pos="1965,72.5",
		width=1.3472];
	18	 [URL="http://lattes.cnpq.br/0694700754100102",
		color="#17272B",
		fontcolor="#FFFFFF",
		height=0.23611,
		label="Lucas Rios do Amaral [0]",
		pos="2082,72.5",
		width=1.3889];
	19	 [URL="http://lattes.cnpq.br/2208463258386199",
		color="#17272B",
		fontcolor="#FFFFFF",
		height=0.23611,
		label="Marco A. Pinheiro Lima [0]",
		pos="2203,72.5",
		width=1.4722];
	20	 [URL="http://lattes.cnpq.br/6068911894498452",
		color="#17272B",
		fontcolor="#FFFFFF",
		height=0.23611,
		label="Jose G. Cabrera Gomez [0]",
		pos="2326,72.5",
		width=1.4444];
	21	 [URL="http://lattes.cnpq.br/9859154979447005",
		color="#17272B",
		fontcolor="#FFFFFF",
		height=0.23611,
		label="Jonas Contiero [1]",
		pos="2434,72.5",
		width=1.0556];
	24	 [URL="http://lattes.cnpq.br/2967035823175406",
		color="#17272B",
		fontcolor="#FFFFFF",
		height=0.23611,
		label="Sandra Imaculada Maintinguer [1]",
		pos="2434,8.5",
		width=1.7639];
	21 -- 24	 [fontsize=8,
		label=1.0,
		lp="2439.5,40.5",
		pos="2434,63.898 2434,51.998 2434,29.102 2434,17.165"];
	22	 [URL="http://lattes.cnpq.br/1198843146263387",
		color="#17272B",
		fontcolor="#FFFFFF",
		height=0.23611,
		label="Paulo S. Graziano Magalhães [2]",
		pos="2578,72.5",
		width=1.6944];
	34	 [URL="http://lattes.cnpq.br/7632245413046227",
		color="#17272B",
		fontcolor="#FFFFFF",
		height=0.23611,
		label="Henrique C. Junqueira Franco [2]",
		pos="2578,8.5",
		width=1.7222];
	22 -- 34	 [fontsize=8,
		label=2.0,
		lp="2583.5,40.5",
		pos="2578,63.898 2578,51.998 2578,29.102 2578,17.165"];
	23	 [URL="http://lattes.cnpq.br/4582822311318387",
		color="#17272B",
		fontcolor="#FFFFFF",
		height=0.23611,
		label="Ricardo A. Verdú Ramos [0]",
		pos="2712,72.5",
		width=1.5139];
	25	 [URL="http://lattes.cnpq.br/0112866192884217",
		color="#17272B",
		fontcolor="#FFFFFF",
		height=0.23611,
		label="Telma Teixeira Franco [0]",
		pos="2835,72.5",
		width=1.4028];
	26	 [URL="http://lattes.cnpq.br/8333273103512768",
		color="#17272B",
		fontcolor="#FFFFFF",
		height=0.23611,
		label="Suani Teixeira Coelho [0]",
		pos="2954,72.5",
		width=1.3889];
	27	 [URL="http://lattes.cnpq.br/4574679474660607",
		color="#17272B",
		fontcolor="#FFFFFF",
		height=0.23611,
		label="João R. Carvalho Muniz [1]",
		pos="1493,72.5",
		width=1.4722];
	27 -- 29	 [fontsize=8,
		label=1.0,
		lp="1473.5,40.5",
		pos="1485.8,63.898 1474.4,51.998 1452.7,29.102 1441.3,17.165"];
	28	 [URL="http://lattes.cnpq.br/0629601747594563",
		color="#17272B",
		fontcolor="#FFFFFF",
		height=0.23611,
		label="Jackson D. Megiatto Junior [0]",
		pos="3080,72.5",
		width=1.6111];
	30	 [URL="http://lattes.cnpq.br/8452678355444067",
		color="#17272B",
		fontcolor="#FFFFFF",
		height=0.23611,
		label="Igor Cesarino [0]",
		pos="3192,72.5",
		width=1];
	31	 [URL="http://lattes.cnpq.br/9002964104953284",
		color="#17272B",
		fontcolor="#FFFFFF",
		height=0.23611,
		label="Eduardo Ribeiro de Azevedo [0]",
		pos="3307,72.5",
		width=1.6806];
	32	 [URL="http://lattes.cnpq.br/4768305989343564",
		color="#17272B",
		fontcolor="#FFFFFF",
		height=0.23611,
		label="Fernando Segato [0]",
		pos="3427,72.5",
		width=1.1389];
	33	 [URL="http://lattes.cnpq.br/4943655471147347",
		color="#17272B",
		fontcolor="#FFFFFF",
		height=0.23611,
		label="Antonio J. de Almeida Meirelles [0]",
		pos="3552,72.5",
		width=1.8333];
	35	 [URL="http://lattes.cnpq.br/5775091545458540",
		color="#17272B",
		fontcolor="#FFFFFF",
		height=0.23611,
		label="Goncalo A. Guimarães Pereira [0]",
		pos="3699,72.5",
		width=1.75];
	36	 [URL="http://lattes.cnpq.br/2296571587865157",
		color="#17272B",
		fontcolor="#FFFFFF",
		height=0.23611,
		label="Gláucia Mendes de Souza [0]",
		pos="3836,72.5",
		width=1.5417];
	37	 [URL="http://lattes.cnpq.br/3812059891202992",
		color="#17272B",
		fontcolor="#FFFFFF",
		height=0.23611,
		label="Gabriel R. Alves Margarido [0]",
		pos="3969,72.5",
		width=1.6389];
	38	 [URL="http://lattes.cnpq.br/7765068307855043",
		color="#17272B",
		fontcolor="#FFFFFF",
		height=0.23611,
		label="Francisco E. Baccaro Nigro [0]",
		pos="4105,72.5",
		width=1.625];
	39	 [URL="http://lattes.cnpq.br/3902020936480943",
		color="#17272B",
		fontcolor="#FFFFFF",
		height=0.23611,
		label="Eliana G. de Macedo Lemos [0]",
		pos="4241,72.5",
		width=1.6528];
	40	 [URL="http://lattes.cnpq.br/7091241742851920",
		color="#17272B",
		fontcolor="#FFFFFF",
		height=0.23611,
		label="Eleni Gomes [0]",
		pos="4353,72.5",
		width=0.95833];
	41	 [URL="http://lattes.cnpq.br/9972643774491301",
		color="#17272B",
		fontcolor="#FFFFFF",
		height=0.23611,
		label="Edvaldo A. Amaral da Silva [0]",
		pos="4465,72.5",
		width=1.6389];
	42	 [URL="http://lattes.cnpq.br/5063831821596250",
		color="#17272B",
		fontcolor="#FFFFFF",
		height=0.23611,
		label="Eduardo Alves de Almeida [0]",
		pos="4600,72.5",
		width=1.5972];
	43	 [URL="http://lattes.cnpq.br/9855493448161702",
		color="#17272B",
		fontcolor="#FFFFFF",
		height=0.23611,
		label="Edivaldo Domingues Velini [0]",
		pos="4735,72.5",
		width=1.6389];
	44	 [URL="http://lattes.cnpq.br/6423374942748412",
		color="#17272B",
		fontcolor="#FFFFFF",
		height=0.23611,
		label="Cecilia Laluce [0]",
		pos="4849,72.5",
		width=1.0278];
	45	 [URL="http://lattes.cnpq.br/1117896124904968",
		color="#17272B",
		fontcolor="#FFFFFF",
		height=0.23611,
		label="Carlos E. Pellegrino Cerri [0]",
		pos="4960,72.5",
		width=1.5417];
	46	 [URL="http://lattes.cnpq.br/8781151791813974",
		color="#17272B",
		fontcolor="#FFFFFF",
		height=0.23611,
		label="Carlos Alberto Labate [0]",
		pos="5083,72.5",
		width=1.375];
	47	 [URL="http://lattes.cnpq.br/2699196515879292",
		color="#17272B",
		fontcolor="#FFFFFF",
		height=0.23611,
		label="Carla K. Nakao Cavaliero [0]",
		pos="5206,72.5",
		width=1.5417];
	48	 [URL="http://lattes.cnpq.br/7497379804672333",
		color="#17272B",
		fontcolor="#FFFFFF",
		height=0.23611,
		label="Sindelia Freitas Azzoni [0]",
		pos="5331,72.5",
		width=1.4306];
	49	 [URL="http://lattes.cnpq.br/6878697355639730",
		color="#17272B",
		fontcolor="#FFFFFF",
		height=0.23611,
		label="Rudinei Toneto Junior [0]",
		pos="5451,72.5",
		width=1.3889];
	51	 [URL="http://lattes.cnpq.br/5130566170893828",
		color="#17272B",
		fontcolor="#FFFFFF",
		height=0.23611,
		label="Rubens A. Camargo Lamparelli [0]",
		pos="5584,72.5",
		width=1.8056];
}
