strict graph grafo1 {
	graph [bb="0,0,1445,179",
		id=grafo1,
		overlap=False
	];
	node [fontsize=8,
		label="\N",
		shape=rectangle,
		style=filled
	];
	0	 [URL="http://lattes.cnpq.br/1512717941866097",
		color="#17272B",
		fontcolor="#FFFFFF",
		height=0.23611,
		label="Paulo F. Ferreira Rosa [1]",
		pos="116,170.5",
		width=1.3889];
	1	 [URL="http://lattes.cnpq.br/1185487031019435",
		color="#17272B",
		fontcolor="#FFFFFF",
		height=0.23611,
		label="Paulo César Pellanda [5]",
		pos="116,116.5",
		width=1.3333];
	0 -- 1	 [pos="116,161.83 116,152 116,135.05 116,125.2"];
	7	 [URL="http://lattes.cnpq.br/4578693731159389",
		color="#17272B",
		fontcolor="#FFFFFF",
		height=0.23611,
		label="José A. Apolinário Junior [4]",
		pos="55,62.5",
		width=1.5278];
	1 -- 7	 [pos="107,107.83 95.466,97.996 75.589,81.051 64.038,71.204"];
	13	 [URL="http://lattes.cnpq.br/5161688186852047",
		color="#17272B",
		fontcolor="#FFFFFF",
		height=0.23611,
		label="Alberto Mota Simões [2]",
		pos="177,62.5",
		width=1.3472];
	1 -- 13	 [pos="125,107.83 136.53,97.996 156.41,81.051 167.96,71.204"];
	11	 [URL="http://lattes.cnpq.br/4946117471548540",
		color="#17272B",
		fontcolor="#FFFFFF",
		height=0.23611,
		label="Carla Liberal Pagliari [2]",
		pos="55,8.5",
		width=1.3472];
	7 -- 11	 [pos="55,53.827 55,43.996 55,27.051 55,17.204"];
	2	 [URL="http://lattes.cnpq.br/0270661833822671",
		color="#17272B",
		fontcolor="#FFFFFF",
		height=0.23611,
		label="Maria T. M. Rocco Giraldi [0]",
		pos="241,170.5",
		width=1.5833];
	3	 [URL="http://lattes.cnpq.br/8911936841113704",
		color="#17272B",
		fontcolor="#FFFFFF",
		height=0.23611,
		label="Maria E. Soares Marques [3]",
		pos="371,170.5",
		width=1.5139];
	5	 [URL="http://lattes.cnpq.br/2431901858566512",
		color="#17272B",
		fontcolor="#FFFFFF",
		height=0.23611,
		label="Luiz A. Vieira Carneiro [3]",
		pos="371,116.5",
		width=1.4444];
	3 -- 5	 [pos="371,161.83 371,152 371,135.05 371,125.2"];
	4	 [URL="http://lattes.cnpq.br/1766896412449188",
		color="#17272B",
		fontcolor="#FFFFFF",
		height=0.23611,
		label="Luiz F. C. Ferreira da Silva [0]",
		pos="502,170.5",
		width=1.6111];
	6	 [URL="http://lattes.cnpq.br/0054945070201197",
		color="#17272B",
		fontcolor="#FFFFFF",
		height=0.23611,
		label="Leonardo de Castro Oliveira [0]",
		pos="638,170.5",
		width=1.6528];
	8	 [URL="http://lattes.cnpq.br/7247460085720503",
		color="#17272B",
		fontcolor="#FFFFFF",
		height=0.23611,
		label="Itamar Borges Junior [0]",
		pos="763,170.5",
		width=1.3194];
	9	 [URL="http://lattes.cnpq.br/8610703960852975",
		color="#17272B",
		fontcolor="#FFFFFF",
		height=0.23611,
		label="Ernesto Leite Pinto [0]",
		pos="874,170.5",
		width=1.25];
	10	 [URL="http://lattes.cnpq.br/6256072821309272",
		color="#17272B",
		fontcolor="#FFFFFF",
		height=0.23611,
		label="Maurício H. Costa Dias [0]",
		pos="989,170.5",
		width=1.4444];
	12	 [URL="http://lattes.cnpq.br/9907968103431589",
		color="#17272B",
		fontcolor="#FFFFFF",
		height=0.23611,
		label="Antonio E. Carrilho da Cunha [0]",
		pos="1121,170.5",
		width=1.7222];
	14	 [URL="http://lattes.cnpq.br/2131496810770098",
		color="#17272B",
		fontcolor="#FFFFFF",
		height=0.23611,
		label="Rosângela Fernandes Coelho [0]",
		pos="1262,170.5",
		width=1.6806];
	15	 [URL="http://lattes.cnpq.br/3620084512865554",
		color="#17272B",
		fontcolor="#FFFFFF",
		height=0.23611,
		label="Ronaldo Moreira Salles [0]",
		pos="1393,170.5",
		width=1.4444];
}
