artigoEmPeriodico	2016	http://dx.doi.org/10.1021/acs.jpcc.6b07689	Insight into the Excited State Electronic and Structural Properties of the Organic Photovoltaic Donor Polymer Poly(thieno[3,4- <i>b</i> ]thiophene benzodithiophene) by Means of <i>ab Initio</i> and Density Functional Theory	Journal of Physical Chemistry. C	BORGES, ITAMAR; Uhl, Elmar ; MODESTO-COSTA, LUCAS ; Aquino, Adélia J. A. ; Lischka, Hans	A1	
artigoEmPeriodico	2016	http://dx.doi.org/10.1049/iet-rsn.2016.0015	Consistent DOA Estimation of Heavily Noisy Gunshot Signals Using a Microphone Array	IET Radar Sonar and Navigation	BORZINO, ANGELO ; APOLINARIO JR., JOSE ; DE CAMPOS, MARCELLO	Qualis nao identificado	IET Radar Sonar and Navigation
artigoEmPeriodico	2016	http://dx.doi.org/10.1049/iet-cta.2016.0570	Structured robust controller design via non-smooth mixed Mu synthesis	IET Control Theory & Applications (Online)	DE MENEZES, EDUARDO ; DE AGUIAR, RAQUEL ; SIMÕES, ALBERTO ; Apkarian, Pierre	B5	
artigoEmPeriodico	2016	http://dx.doi.org/10.5028/jatm.v8i2.588	Performance Comparison of the IMMPDAF Algorithm Using Real and Simulated Radar Measurements	JOURNAL OF AEROSPACE TECHNOLOGY AND MANAGEMENT (ONLINE)	DE SOUZA, MARCELO LUCENA ; GUIMARÃES, ALBERTO GASPAR ; PINTO, ERNESTO LEITE	B3	
artigoEmPeriodico	2016	http://dx.doi.org/10.1109/TIM.2016.2571378	Curvature and Vibration Sensing Based on Core Diameter Mismatch Structures	IEEE Transactions on Instrumentation and Measurement	FERNANDES, C. S. ; GIRALDI, M. T. M. R. ; SOUSA, M. J. ; COSTA, J. C. W. A. ; Gouveia, Carlos ; JORGE, P. A. S. ; FRANCO, M. A. R.	B1	
artigoEmPeriodico	2016		Estudo de placas de concreto com fibras de aço e de poliolefina submetidas a impacto balístico	REVISTA MILITAR DE CIÊNCIA E TECNOLOGIA	GASPAR, D. H. ; CARNEIRO, L. A. V. ; Teixeira, A. M. A. J.	B5	
artigoEmPeriodico	2016		Observação do Impacto do Uso de Área Projetada a partir do Indice de Reserva Legal, no Maciço da Tijuca/RJJ	RBC. Revista Brasileira de Cartografia (Online)	LAETA, T. ; FERREIRA, L.F. ; FERNANDES, M.C.	B1	
artigoEmPeriodico	2016		Identificação de Áreas Suscetíveis ao Processo de Movimento de Massa aem a Visita de Campo e Obtida por Análise Multicritério	Caderno de Estudos Geoambientais	LOBATO, R. B. ; FERREIRA DA SILVA, L. F. C. ; VOLOTAO, C. F. S.	Qualis nao identificado	Caderno de Estudos Geoambientais
artigoEmPeriodico	2016	http://dx.doi.org/10.1109/TIP.2016.2582422	Image Coding Using Generalized Predictors Based on Sparsity and Geometric Transformations	IEEE Transactions on Image Processing	LUCAS, LUIS F. R. ; RODRIGUES, NUNO M. M. ; DA SILVA, EDUARDO A. B. ; PAGLIARI, Carla L. ; DE FARIA, SERGIO M. M.	A2	
artigoEmPeriodico	2016	http://dx.doi.org/10.1007/s11045-016-0417-0	Recurrent pattern matching based stereo image coding using linear predictors	Multidimensional Systems and Signal Processing (Online)	LUCAS, LUÍS F. R. ; RODRIGUES, NUNO M. M. ; PAGLIARI, Carla L. ; DA SILVA, EDUARDO A. B. ; DE FARIA, SÉRGIO M. M.	B1	Multidimensional Systems and Signal Processing
artigoEmPeriodico	2016	http://dx.doi.org/10.1109/tla.2016.7786311	A Model for Management of Virtual Networks in OpenFlow Environment	Revista IEEE América Latina	NASCIMENTO ARAUJO, TARCISIO ; MOREIRA SALLES, RONALDO	B1	
artigoEmPeriodico	2016	http://dx.doi.org/10.1016/j.supflu.2016.04.004	Molecular dynamics simulations of momentum and thermal diffusion properties of near-critical argon along isobars	The Journal of Supercritical Fluids	NICHELE, JAKLER ; BORGES, ITAMAR ; DE OLIVEIRA, ALAN B. ; DE B. ALVES, LEONARDO S.	A1	
artigoEmPeriodico	2016	http://dx.doi.org/10.1007/s00034-016-0242-6	An Evolutionary Method for Synthesizing Low-Sensitivity Lossless Matching Networks	Circuits, Systems, and Signal Processing	SA, L. B. ; DIAS, M. H. C. ; MESQUITA FILHO, A. C.	Qualis nao identificado	Circuits, Systems, and Signal Processing
artigoEmPeriodico	2016	http://dx.doi.org/10.1109/LSP.2015.2495102	Speech Enhancement with Nonstationary Acoustic Noise Detection in Time Domain	IEEE Signal Processing Letters	TAVARES, R. ; COELHO, R., Rosângela Coelho	A2	
artigoEmPeriodico	2015	http://dx.doi.org/10.1049/iet-com.2015.0151	Bayesian blind turbo equaliser with reduced complexity based on channel estimate monitoring	IET Communications	ALVES, JOÃO PAULO LUZ ; GUIMARÃES, ALBERTO GASPAR ; PINTO, ERNESTO LEITE	B1	
artigoEmPeriodico	2015	http://dx.doi.org/10.1109/tsp.2015.2474302	L1-Constrained Normalized LMS Algorithms for Adaptive Beamforming	IEEE Transactions on Signal Processing	Andrade Jr., J. F. ; CAMPOS, M. L. R. ; Apolinário Jr., J. A.	A2	
artigoEmPeriodico	2015		ESTAÇÃO DE CONTROLE EM SOLO COM FUNCIONALIDADES DE VOO MÚLTIPLO PARA VANTs	Revista Militar de Ciência e Tecnologia	Angonese, T. A. ; ROSA, PAULO F. F.	B5	
artigoEmPeriodico	2015		Reclamation Project of a Brownfield Site at Rio de Janeiro State, Brazil	Geotechnical Engineering Journal of the SEAGS & AGSSEA	BARBOSA, M. C. ; OLIVEIRA, A. R. M. B. ; Marques, M. E. S.	Qualis nao identificado	Geotechnical Engineering Journal of the SEAGS & AGSSEA
artigoEmPeriodico	2015	http://dx.doi.org/10.1007/s00894-015-2667-4	Brazilian symposium of theoretical chemistry (SBQT2013)	Journal of Molecular Modeling (Print)	BORGES, ITAMAR; NASCIMENTO, MARCO ANTONIO CHAER	B1	
artigoEmPeriodico	2015	http://dx.doi.org/10.1002/mop.28984	Bent optical fiber taper for refractive index measurements with tunable sensitivity	Microwave and Optical Technology Letters (Print)	CLENILSON, ; COSTA, J. C. W. A. ; GIRALDI, M. T. M. R. ; JORGE, P. A. S. ; BRAGANTINE, S. ; BARBERO, A. P.	B1	
artigoEmPeriodico	2015	http://dx.doi.org/10.1109/TAC.2014.2322436	Haar-Based Stability Analysis of LPV Systems	IEEE Transactions on Automatic Control	DE ARAUJO, LEONARDO O. ; Pellanda, Paulo C. ; GALDINO, JURACI F. ; SIMOES, ALBERTO M.	A2	IEEE Transactions on Automatic Control (Print)
artigoEmPeriodico	2015	http://dx.doi.org/10.1186/s40064-015-1084-6	An expression of uncertainty and its application to positioning: a quality-metric and optimal ranges for the identification of cells with RFID	SpringerPlus	DEL RIO, EDUARDO ; FERREIRA, LUIZ FELIPE	Qualis nao identificado	SpringerPlus
artigoEmPeriodico	2015	http://dx.doi.org/10.1002/mop.29414	Low cost electronic beam tilting of microstrip antennas by the use of tunable parasites	Microwave and Optical Technology Letters (Print)	DIAS, M. H. C.; FREITAS, V. ; VUONG, T. P.	B1	
artigoEmPeriodico	2015		Conhecimentos de Interesse da Doutrina sobre Antenas, Radiopropagação e Tecnologia de Rádios HF no Emprego das Comunicações em Operações na Selva na Era da Informação	Coleção Meira Mattos - Revista das Ciências Militares	DIAS, M. H. C.; MORAES, F. D.	Qualis nao identificado	Coleção Meira Mattos - Revista das Ciências Militares
artigoEmPeriodico	2015	http://dx.doi.org/10.1109/JSTSP.2014.2385657	Robust Maximum Likelihood Acoustic Energy Based Source Localization in Correlated Noisy Sensing Environments	IEEE Journal of Selected Topics in Signal Processing	DRANKA, E. ; COELHO, R., Rosângela Coelho	Qualis nao identificado	IEEE Journal of Selected Topics in Signal Processing
artigoEmPeriodico	2015		Emulador de Traces de Bot	C&T. Revista Militar de Ciência e Tecnologia	FERREIRA, C. C. C. P. ; Noya, R. C. ; SALLES, R. M.	B3	
artigoEmPeriodico	2015	http://dx.doi.org/10.5935/0103-5053.20150044	Molecular Electronic Topology and Fragmentation Onset via Charge Partition Methods and Nuclear Fukui Functions: 1,1-Diamino-2,2-dinitroethylene	Journal of the Brazilian Chemical Society (Impresso)	GIANNERINI, TIAGO ; BORGES JR., ITAMAR	A2	
artigoEmPeriodico	2015	http://dx.doi.org/10.1109/JLT.2014.2360500	Fiber Loop Mirror Sensors Interrogated and Multiplexed by OTDR	Journal of Lightwave Technology (Print)	GIRALDI, M. T. M. R.; FERNANDES, C. S. ; FERREIRA, M. S. ; SOUSA, M. J. ; JORGE, P. A. S. ; COSTA, J. C. W. A. ; Jose Luis Santos ; FRAZAO, O.	A1	
artigoEmPeriodico	2015	http://dx.doi.org/10.1002/mop.29086	Fiber optic displacement sensor based on a double-reflecting OTDR technique	Microwave and Optical Technology Letters (Print)	GIRALDI, M. T. M. R.; FERNANDES, C. S. ; FERREIRA, M. S. ; SOUSA, M. J. ; JORGE, P. A. S. ; COSTA, J. C. W. A. ; Jose Luis Santos ; FRAZAO, O.	B1	
artigoEmPeriodico	2015		Inclinômetro instrumentado com fibra óptica para monitoramento de encostas	C&T. Revista Militar de Ciência e Tecnologia	GOMES PINTO, F. ; Mello, M. A. ; ARAGAO, L. A. C. M. ; Marques, M. E. S.	B3	
artigoEmPeriodico	2015		Análise do Comportamento de Corpos de Prova Cilíndricos com Duas Partes Aderidas por Epóxi em Concretos com Diferentes Resistências e inclinações	Matéria (UFRJ)	GUERRANTE, I. F. ; SÁNCHEZ FILHO, E. S. ; CARNEIRO, L. A. V.	B1	
artigoEmPeriodico	2015		Resiliência em Redes de Computadores baseada na Teoria da Confiabilidade	Revista Brasileira de Estatística	Laurinete Ximenes ; SALLES, R. M. ; Silva, P. A. L.	B2	
artigoEmPeriodico	2015		Concretos Especiais para Blindagem de Estruturas de Defesa	Revista Militar de Ciência e Tecnologia	LEFONE, R. C. ; CARNEIRO, L. A. V. ; Teixeira, A. M. A. J.	B5	
artigoEmPeriodico	2015	http://dx.doi.org/10.1109/tip.2015.2456509	Intra Predictive Depth Map Coding Using Flexible Block Partitioning	IEEE Transactions on Image Processing	LUCAS, LUIS F. R. ; WEGNER, KRZYSZTOF ; RODRIGUES, NUNO M. M. ; PAGLIARI, Carla L. ; DA SILVA, EDUARDO A. B. ; DE FARIA, SERGIO M. M.	A2	
artigoEmPeriodico	2015		A theoretical analysis of the impact of iron nano-inclusions in multilayer waveguide structures with resonant layer effect	Journal of Microwaves, Optoelectronics and Electromagnetic Applications	MAGALHAES, G. M. ; ALENCAR, R. M. ; PAIXAO, D. K. ; GIRALDI, M. T. M. R. ; FONSECA, D. ; PEREIRA, R. ; SILVA, A. O. ; MARTINEZ, M. A. G.	Qualis nao identificado	Journal of Microwaves, Optoelectronics and Electromagnetic Applications
artigoEmPeriodico	2015		Decomposição no domínio da frequência: estado da arte na estimação de modos oscilatórios em sistemas de potência	Revista Militar de Ciência e Tecnologia	Fernando Javier De Marco ; PELLANDA, Paulo César ; José Antonio Apolinário Junior ; MARTINS, Nelson	B5	
artigoEmPeriodico	2015		A Influência das Fortificações Militares na Expansão Urbana da Cidade do Rio de Janeiro sob a Ótica da Cartografia Histórica	RBC. Revista Brasileira de Cartografia (Online)	MARENGA, R. C. ; SILVA, LUIZ FELIPE COUTINHO FERREIRA DA	B1	
artigoEmPeriodico	2015	http://dx.doi.org/10.1002/jcc.24208	Water solvent effects using continuum and discrete models: The nitromethane molecule, CH <sub>3</sub> NO <sub>2</sub>	Journal of Computational Chemistry	MODESTO-COSTA, LUCAS ; Uhl, Elmar ; BORGES, ITAMAR	A1	
artigoEmPeriodico	2015		Avaliação Estrutural e Funcional do Pavimento do Novo Aeroporto Internacional da Grande Natal	Revista Pavimentação	NASCIMENTO, F. A. C. ; GUIMARÃES, A. C. R. ; CARNEIRO, L. A. V. ; LEITAO, B. B. M. ; TOLEDO, A. L. L. ; HUNKA, B. C.	B3	
artigoEmPeriodico	2015	http://dx.doi.org/10.1109/TLA.2015.7055562	Shooter Localization based on DoA Estimation of Gunshot Signals and Digital Map Information	Revista IEEE América Latina	Paredes-Calderón, D. M ; APOLINARIO JR., J.A.	B1	
artigoEmPeriodico	2015		Uma Análise sobre o Mecanismo de Propagação de Vírus em Redes Ad hoc Móveis	C&T. Revista Militar de Ciência e Tecnologia	SALLES, R. M.; MARANHAO, JOAO PAULO	B3	
artigoEmPeriodico	2015		Concreto de Alta Resistência com Agregados Miúdos de Escória de Ferro-Níquel	Concreto & Contrução	SANTANA, C. S. A. ; SANTOS, G. P. P. ; GONDIM, R. C. ; GUIMARÃES, A. C. R. ; CARNEIRO, L. A. V.	B4	
artigoEmPeriodico	2015		Investigation of the sensing properties of a localized surface plasmon nanocavity	International Journal of Applied Electromagnetics and Mechanics	SILVA, A. O. ; CARDOSO, M. P. ; GIRALDI, M. T. M. R. ; COSTA, J. C. W. A.	B1	
artigoEmPeriodico	2015		Métricas para Detecção de Ataques DDoS	C&T. Revista Militar de Ciência e Tecnologia	SILVA, N. R. E. ; SALLES, R. M.	B3	
artigoEmPeriodico	2014		BUSCA TABU NA OBTENÇÃO DE SUPERVISORES POR DISTINGUIDORES APROXIMADOS	C&T. Revista Militar de Ciência e Tecnologia	AGUIAR, R. S. S. ; CARRILHO DA CUNHA, A. E. ; CURY, J. E. R.	B3	
artigoEmPeriodico	2014	http://dx.doi.org/10.5935/1984-6835.20140043	Theoretical Chemistry at the Service of the Chemical Defense: Degradation of Nerve Agents in Magnesium Oxide and Hydroxide Surface	Revista Virtual de Química	Alvim, Raphael S. ; Vaiss, Viviane S. ; Leitão, Alexandre A. ; BORGES JR., ITAMAR	B2	
artigoEmPeriodico	2014	http://dx.doi.org/10.1039/c4cp02900c	Intermolecular interactions and charge transfer transitions in aromatic hydrocarbon-tetracyanoethylene complexes	PCCP. Physical Chemistry Chemical Physics (Print)	AQUINO, ADÉLIA A. J. ; BORGES, ITAMAR ; NIEMAN, REED ; KÖHN, ANDREAS ; Lischka, Hans	A1	
artigoEmPeriodico	2014	http://dx.doi.org/10.1007/s00894-014-2095-x	Electronic and ionization spectra of 1,1-diamino-2,2-dinitroethylene, FOX-7	Journal of Molecular Modeling (Print)	BORGES, ITAMAR	B1	
artigoEmPeriodico	2014	http://dx.doi.org/10.1021/jp507396e	A Multireference Configuration Interaction Study of the Photodynamics of Nitroethylene	The Journal of Physical Chemistry. A	BORGES, ITAMAR; Aquino, Adélia J. A. ; Lischka, Hans	A2	
artigoEmPeriodico	2014	http://dx.doi.org/10.1021/jp508512s	Absorption and Fluorescence Spectra of Poly-(p-phenylene vinylene) (PPV) oligomers: An <i>Ab Initio</i> Simulation	The Journal of Physical Chemistry. A	CARDOZO, THIAGO MESSIAS ; AQUINO, ADELIA J. A. ; Barbatti, Mario ; BORGES, ITAMAR ; Lischka, Hans	A2	
artigoEmPeriodico	2014	http://dx.doi.org/10.1016/j.adhoc.2013.12.013	Modeling message diffusion in epidemical DTN	Ad Hoc Networks	DE ABREU, CLAUDIO SÁ ; SALLES, RONALDO MOREIRA	Qualis nao identificado	Ad Hoc Networks
artigoEmPeriodico	2014	http://dx.doi.org/10.1155/2014/793191	Dual-Band Compact Planar Antenna for a Low-Cost WLAN USB Dongle	International Journal of Antennas and Propagation (Online)	DIAS, M. H. C.; FRANCISCATTO, B. R. ; ADEL, H. ; VUONG, T. P.	B2	International Journal of Antennas and Propagation (Print)
artigoEmPeriodico	2014	http://dx.doi.org/10.2514/1.g000453	Smoothly Gain-Scheduled Control of a Tri-Turbofan Airship	Journal of Guidance, Control, and Dynamics (Print)	DO VALLE, RICARDO C. ; MENEGALDO, LUCIANO L. ; SIMÕES, ALBERTO M.	Qualis nao identificado	Journal of Guidance, Control, and Dynamics (Print)
artigoEmPeriodico	2014	http://dx.doi.org/10.1109/tifs.2014.2363524	Edit Detection in Speech Recordings via Instantaneous Electric Network Frequency Variations	IEEE Transactions on Information Forensics and Security	ESQUEF, PAULO ANTONIO ; APOLINARIO, JOSE ; BISCAINHO, LUIZ W. P.	B1	
artigoEmPeriodico	2014	http://dx.doi.org/10.1590/S1982-21702014000200024	A aplicação das tecnologias de prototipagem rápida na confecção de matrizes táteis	Boletim de Ciências Geodésicas (Online)	FERREIRA, M. E. S. ; FERREIRA DA SILVA, L. F. C.	Qualis nao identificado	Boletim de Ciências Geodésicas (Online)
artigoEmPeriodico	2014	http://dx.doi.org/10.1016/j.jvoice.2014.02.001	Classification of Vocal Aging Using Parameters Extracted From the Glottal Signal	Journal of Voice	FORERO MENDOZA, LEONARDO A. ; CATALDO, EDSON ; VELLASCO, MARLEY M.B.R. ; SILVA, MARCO A. ; APOLINÁRIO, JOSÉ A.	B1	
artigoEmPeriodico	2014	http://dx.doi.org/10.1002/mop.28720	Interrogation and multiplexing system for fiber loop mirror coupled intensity sensors using OTDR	Microwave and Optical Technology Letters (Print)	Giraldi, M. T. M. R.; FERNANDES, C. S. ; FERREIRA, M. S. ; SOUSA, M. J. ; JORGE, P. A. S. ; COSTA, J. C. W. A. ; Jose Luis Santos ; FRAZAO, O.	B1	
artigoEmPeriodico	2014	http://dx.doi.org/10.1109/LCOMM.2014.2367125	A Model for Epidemical DTN Considering Effects of Path Loss and Interference	IEEE Communications Letters (Print)	MARANHAO, JOAO PAULO ; ROLLA, VITOR ; CURADO, MARILIA ; SALLES, Ronaldo	A2	
artigoEmPeriodico	2014		Panorama das Pesquisas com Sistemas de Informações Histórico-Geográficas no Mundo e suas Relações com a Geografia, História e Cartografia Histórica	RBC. Revista Brasileira de Cartografia (Online)	MARTINS, P. A. ; FERREIRA DA SILVA, L. F. C.	B1	
artigoEmPeriodico	2014		Comportamento mecânico de solo mole tratado com a técnica de CPR	C&T. Revista Militar de Ciência e Tecnologia	Mello, M. A. ; Marques, M. E. S. ; ALMEIDA, Márcio de Souza Soares de ; ARAGAO, L. A. C. M.	B3	
artigoEmPeriodico	2014		Caracterização do Material Cimentício de Colunas de Consolidação Profunda Radial	Concreto & Contrução	MELLO, M. A. ; MARQUES, M. E. S. ; CARNEIRO, L. A. V.	B4	
artigoEmPeriodico	2014		Taludes marinhos com ocorrência de hidrato de gás em traçado de dutovias	C&T. Revista Militar de Ciência e Tecnologia	Menezes, W. J. O. ; Marques, M. E. S. ; OLIVEIRA, José Renato Moreira da Silva de	B3	
artigoEmPeriodico	2014		Disposição de Sedimentos Contaminados de Dragagem em Tubos Geotêxteis	C&T. Revista Militar de Ciência e Tecnologia	MONTEIRO, A. M. ; Amorim, J.C.C. ; Marques, M. E. S.	B3	
artigoEmPeriodico	2014		Equation of state for near critical argon obtained via molecular dynamics	High Temperatures. High Pressures (Print)	NICHELE, J. ; ALVES, L. S. B. ; BORGES JR., I.	B2	
artigoEmPeriodico	2014	http://dx.doi.org/10.1109/tac.2014.2322436	Haar-Based Stability Analysis of LPV Systems	IEEE Transactions on Automatic Control (Print)	OLIVEIRA DE ARAUJO, LEONARDO ; PELLANDA, PAULO CESAR ; FERREIRA GALDINO, JURACI ; Simoes, Alberto Mota	A2	
artigoEmPeriodico	2014	http://dx.doi.org/10.1109/tac.2014.2298985	Verification of the Observer Property in Discrete Event Systems	IEEE Transactions on Automatic Control (Print)	PENA, P. N. ; BRAVO, H. J. ; da Cunha, A. E. C. ; MALIK, R. ; LAFORTUNE, S. ; CURY, J. E. R.	A2	
artigoEmPeriodico	2014	http://dx.doi.org/10.7437/nt2236-7640/2014.02.004	Enhancement of structures in images through diffusion equation	Notas Técnicas do CBPF	PERSECHINO, ANDRÉ ; APOLINÁRIO JR, JOSÉ ANTÔNIO ; ALBQUERQUE, MÁRCIO	Qualis nao identificado	Notas Técnicas do CBPF
artigoEmPeriodico	2014		Análise e Controle do Sistema de Propulsão de um Navio de Guerra	Revista Militar de Ciência e Tecnologia	PINTO, Fernando Teixeira ; PELLANDA, Paulo César	B5	
artigoEmPeriodico	2014	http://dx.doi.org/10.12721/2237-5112.v04n01a01	EstimaÃ§Ã£o da DireÃ§Ã£o de Disparo de Arma de Fogo: Uma ImplementaÃ§Ã£o em Tempo Real	Revista de Tecnologia da Informação e Comunicação	PRANDEL, P.C. ; APOLINÁRIO JR., J.A.	Qualis nao identificado	Revista de Tecnologia da Informação e Comunicação
artigoEmPeriodico	2014		Timed Automata Verification Applied to Performance Analysis of Control Logics Synthesized by Supervisory Control Theory	Computer Science and Applications	RODRIGUEZ, J. A. V. ; Carrilho da Cunha, Antonio Eduardo	Qualis nao identificado	Computer Science and Applications
artigoEmPeriodico	2014		Ensaio Pouco Invasivo Para Avaliação de Estabilizadores em Usinas Multigeradores	Revista Militar de Ciência e Tecnologia	Samir de Oliveria Ferreira ; PELLANDA, Paulo César ; MARTINS, Nelson	B5	
artigoEmPeriodico	2014		Pavimentos de Concreto: Histórico, Tipos e Modelos de Fadiga	Revista Militar de Ciência e Tecnologia	SILVA, J. E. M ; CARNEIRO, L. A. V.	B5	
artigoEmPeriodico	2014	http://dx.doi.org/10.1109/taslp.2014.2355821	On speech features fusion, α-integration Gaussian modeling and multi-style training for noise robust speaker classification	IEEE/ACM Transactions on Audio, Speech, and Language Processing	VENTURINI, A. ; ZAO, L. ; COELHO, R.	Qualis nao identificado	IEEE/ACM Transactions on Audio, Speech, and Language Processing
artigoEmPeriodico	2014	http://dx.doi.org/10.1371/journal.pntd.0002878	Distantiae Transmission of Trypanosoma cruzi: A New Epidemiological Feature of Acute Chagas Disease in Brazil	PLoS Neglected Tropical Diseases (Online)	XAVIER, Samanta Cristina das Chagas ; Roque, André Luiz Rodrigues ; BILAC, DANIELE ; DE ARAÚJO, VITOR ANTÔNIO LOUZADA ; NETO, SÓCRATES FRAGA DA COSTA ; LOROSA, ELIAS SEIXAS ; SILVA, LUIZ FELIPE COUTINHO FERREIRA DA ; JANSEN, Ana Maria	A1	
artigoEmPeriodico	2014	http://dx.doi.org/10.1109/lsp.2014.2311435	Time-Frequency Feature and AMS-GMM Mask for Acoustic Emotion Classification	IEEE Signal Processing Letters	ZAO, L. ; CAVALCANTE, D. ; COELHO, R.	A2	
artigoEmPeriodico	2014	http://dx.doi.org/10.1109/taslp.2014.2312541	Speech Enhancement with EMD and Hurst-based Mode Selection	IEEE/ACM Transactions on Audio, Speech, and Language Processing	ZAO, LEONARDO ; COELHO, ROSANGELA ; FLANDRIN, PATRICK	Qualis nao identificado	IEEE/ACM Transactions on Audio, Speech, and Language Processing
artigoEmPeriodico	2013	http://dx.doi.org/10.1021/jp4075477	Hydrolysis of a VX-like Organophosphorus Compound through Dissociative Chemisorption on the MgO(001) Surface	Journal of Physical Chemistry. C	Alvim, Raphael S. ; Vaiss, Viviane S. ; Leitão, Alexandre A. ; BORGES, ITAMAR	A1	
artigoEmPeriodico	2013	http://dx.doi.org/10.1021/ja4081925	<i>Ab Initio</i> Modeling of Excitonic and Charge-Transfer States in Organic Semiconductors: The PTB1/PCBM Low Band Gap System	Journal of the American Chemical Society (Print)	BORGES, ITAMAR; Aquino, Adélia J. A. ; KÖHN, ANDREAS ; NIEMAN, REED ; HASE, WILLIAM L. ; CHEN, LIN X. ; Lischka, Hans	A1	
artigoEmPeriodico	2013	http://dx.doi.org/10.1016/j.comnet.2012.07.021	Botnets: a Survey	Computer Networks (1999)	CARDOSO, Sérgio ; Praxedes, R. M. ; PINTO, RAQUEL C.G. ; SALLES, R. M.	A2	
artigoEmPeriodico	2013		Simulation of a Temporal Hard-Limited OCDMA System over FSO Link under Average Turbulence	Journal of Microwaves, Optoelectronics and Electromagnetic Applications	CARNEIRO, V. G. A. ; RODRIGUES, G. K. ; GIRALDI, M. T. M. R.	Qualis nao identificado	Journal of Microwaves, Optoelectronics and Electromagnetic Applications
artigoEmPeriodico	2013	http://dx.doi.org/10.1016/j.dsp.2012.07.009	On the design of LMS-based channel estimators using the Doppler spread parameter	DIGITAL SIGNAL PROCESSING	dos Santos, C.C. ; GALDINO, J. F. ; PINTO, E. L.	Qualis nao identificado	DIGITAL SIGNAL PROCESSING
artigoEmPeriodico	2013	http://dx.doi.org/10.1109/TIP.2012.2226045	Multiscale Image Fusion Using the Undecimated Wavelet Transform With Spectral Factorization and Non-Orthogonal Filter Banks	IEEE Transactions on Image Processing	ELLMAUTHALER, Andreas ; PAGLIARI, C. L. ; SILVA, Eduardo Antonio Barros da	A2	
artigoEmPeriodico	2013		Navegação e Manipulação de Objetos Virtuais Utilizando Dispositivos Sem Fio	C&T. Revista Militar de Ciência e Tecnologia	FRANCA, M. H. ; OLIVEIRA, J. C. ; Ferreira Rosa, P.F ; OLIVEIRA, T. E. A.	B3	
artigoEmPeriodico	2013		O uso da Realidade Aumentada no Desenvolvimento de Produtos Cartográficos	C&T. Revista Militar de Ciência e Tecnologia	GOMES, J. V. P. ; FERREIRA DA SILVA, L. F. C.	B3	
artigoEmPeriodico	2013	http://dx.doi.org/10.1155/2013/359202	Adsorption of Trinitrotoluene on a MgO(001) Surface Including Surface Relaxation Effects	Journal of Chemistry	GUERRA, THIAGO ; BORGES, ITAMAR	B4	
artigoEmPeriodico	2013		Análise da Compressão JPEG na Generalização de Modelos Digitais	C&T. Revista Militar de Ciência e Tecnologia	GUIMARAES FILHO, A. G. ; Ferreira da Silva, Luiz Felipe Coutinho	B3	
artigoEmPeriodico	2013		Análise dos Sistemas HGIS (Historical Geographical Information Systems) disponíveis na INTERNET	C&T. Revista Militar de Ciência e Tecnologia	MARTINS, P. A. ; FERREIRA DA SILVA, L. F. C.	B3	
artigoEmPeriodico	2013	http://dx.doi.org/10.1007/s40313-013-0041-2	Efficiency of the Visual FastSLAM Technique with a Common Feature Map for Two Vehicles in the Integrated Exploration of an Indoor Environment	Journal of Control, Automation and Electrical Systems	MELO NETO, ADÃO ; PELLANDA, Paulo César ; Ferreira Rosa, P.F ; OLIVEIRA, THIAGO EUSTAQUIO ALVES ; PELLANDA, Paulo César	Qualis nao identificado	Journal of Control, Automation and Electrical Systems
artigoEmPeriodico	2013		SISTEMA AUTÔNOMO PARA A ESTIMAÇÃO DA POSE DE UM OBJETO COM FACES PLANAS EM AMBIENTE NÃO ESTRUTURADO	C&T. Revista Militar de Ciência e Tecnologia	OLIVEIRA, T. E. A. ; ROSA, PAULO FERNANDO FERREIRA ; MELLO NETO, A. ; FRANCA, M. H.	B3	
artigoEmPeriodico	2013		A Nova Estrutura do Sistema de Ciência e Tecnologia do Exército e a Produção de Conhecimentos e Inovações Tecnológicas para a Área de Defesa	Coleção Meira Mattos - Revista das Ciências Militares	PELLANDA, Paulo César	Qualis nao identificado	Coleção Meira Mattos - Revista das Ciências Militares
artigoEmPeriodico	2013	http://dx.doi.org/10.1016/j.optcom.2013.04.058	Evaluation of the strong turbulence impact over free-space optical links	Optics Communications (Print)	RODRIGUES, G. K. ; CARNEIRO, V. G. A. ; CRUZ, A. R. ; GIRALDI, M. T. M. R.	A2	
artigoEmPeriodico	2013	http://dx.doi.org/10.1016/j.comnet.2012.08.008	Botnet Activity: Analysis, Detection and Shutdown	Computer Networks (1999)	SALLES, Ronaldo; Gu, Guofei ; Swimmer, M.	A2	
artigoEmPeriodico	2013		Verificação do Ajuste de Sinais Estabilizadores em Usinas de Energia Elétrica por Procedimento Automático de Ensaio de Campo Pouco Invasivo	Eletroevolução (Rio de Janeiro)	Samir de Oliveria Ferreira ; MARTINS, Nelson ; Pellanda, P. C. ; da Silva, Rui Jovita Godinho Corrêa ; Bossa, Thiago Henrique Sanches	B4	
artigoEmPeriodico	2013		Estudos sobre Reforço de Pilares de Concreto Armado com Materiais Compósitos de Resina e Fibras	Revista Militar de Ciência e Tecnologia	SARAIVA, R. M. D. C. ; Teixeira, A. M. A. J. ; CARNEIRO, L. A. V.	B5	
artigoEmPeriodico	2013	http://dx.doi.org/10.1590/S1982-21702013000300009	Avaliação do símbolo de orientação na cartografia tátil	Boletim de Ciências Geodésicas (Online)	SILVA, R. R. ; FERREIRA DA SILVA, L. F. C.	Qualis nao identificado	Boletim de Ciências Geodésicas (Online)
artigoEmPeriodico	2013	http://dx.doi.org/10.5769/J201301004	Convolutive ICA-Based Forensic Speaker Identification Using Mel Frequency Cepstral Coefficients and Gaussian Mixture Models	The International Journal of Forensic Computer Science (Impresso)	SILVEIRA, MATHEUS ; SCHROEDER, CEZAR ; COSTA, JOÃO PAULO ; OLIVEIRA, CELSO ; APOLINÁRIO JUNIOR, JOSÉ ; SERRANO, ANTONIO ; QUINTILIANO, PAULO ; SOUSA JÚNIOR, RAFAEL	Qualis nao identificado	The International Journal of Forensic Computer Science (Impresso)
artigoEmPeriodico	2013	http://dx.doi.org/10.1016/j.chemphys.2013.03.014	Formation reaction mechanisms of hydroxide anions from Mg(OH)2 layers	Chemical Physics (Print)	Vaiss, Viviane S. ; BORGES, ITAMAR ; WYPYCH, FERNANDO ; Leitão, Alexandre A.	A1	PCCP. Physical Chemistry Chemical Physics (Print)
trabalhoCompletoEmCongresso	2016		An L1-normLlinearly Constrinaed Affine Projection Algorithm	IEEE Sensor Array and Multichannel Signal Processing Workshop (SAM)	Andrade Jr., J. F. ; Apolinário Jr., J. A. ; DE CAMPOS, MARCELLO		
trabalhoCompletoEmCongresso	2016	http://dx.doi.org/10.1109/LARS-SBR.2016.49	Integration of People Detection and Simultaneous Localization and Mapping Systems for an Autonomous Robotic Platform	2016 XIII Latin American Robotics Symposium and IV Brazilian Robotics Symposium (LARS/SBR)	ANGONESE, ALBERTO TORRES ; ROSA, PAULO FERNANDO FERREIRA		
trabalhoCompletoEmCongresso	2016		PEOPLE DETECTION SYSTEM FOR AN AUTONOMOUS ROBOTIC PLATFORM INTEGRATED WITH SIMULTANEOUS LOCALIZATION AND MAPPING	XXI CONGRESSO BRASILEIRO DE AUTOMÁTICA	Angonese, T. A. ; ROSA, PAULO F. F.		
trabalhoCompletoEmCongresso	2016		Estudos sobre Reforço de Vigas-Parede de Concreto Armado com Materiais Compósitos de Resina e Fibras de Carbono	IX Congresso Brasileiro de Pontes e Estruturas	AVILA, F. G. ; Teixeira, A. M. A. J. ; CARNEIRO, L. A. V.		
trabalhoCompletoEmCongresso	2016		Dimensionamento de Vigas-Parede de Concreto Armado Reforçadas ao Cisalhamento com Compósitos de Resina e Fibras	58. Congresso Brasileiro do Concreto	AVILA, F. G. ; Teixeira, A. M. A. J. ; CARNEIRO, L. A. V.		
trabalhoCompletoEmCongresso	2016		Avaliação das Propriedades de Concreto de Alta Resistência com Agregados Miúdos de Borracha de Pneus Inservíveis Triturados	58. Congresso Brasileiro do Concreto	CARNEIRO, L. A. V.; GUIMARÃES, A. C. R. ; SILVA, B. A. E. ; SANTANA, C. S. A.		
trabalhoCompletoEmCongresso	2016		VirtualT-bar penetrometer tests using Discrete Element Method	ICS´5 International conference on Geothecnical and Geophysical Characterization	Carvalho, L. S. ; OLIVEIRA, José Renato Moreira da Silva de ; Vasconcellos, C. A. B. ; Marques, M. E. S.		
trabalhoCompletoEmCongresso	2016	http://dx.doi.org/10.1016/B978-0-12-396502-8.00002-4	LIGHT FIELD HEVC-BASED IMAGE CODING USING LOCALLY LINEAR EMBEDDING AND SELF-SIMILARITY COMPENSATED PREDICTION	2ICME 2016 Grand Challenge: Light-Field Image Compression ICME 2016 Grand Challenge: Light-Field Image Compression ICME 2016 Grand Challenge: Light-Field Image Compression	CONTI, C. ; Lucas, Luís ; SOARES, L. D. ; NUNES, P. ; SILVA, E. A. B. ; PAGLIARI, C. L.		
trabalhoCompletoEmCongresso	2016		Modelagem de um enlace FSO em um meio turbulento e com desalinhamento	MOMAG 2016	CORREA, J. G. P. S. ; BESSONI, R. S. C. ; CARNEIRO, V. G. A. ; GIRALDI, M. T. M. R.		
trabalhoCompletoEmCongresso	2016		Investigating the potential of UAV for gunshot DoA estimation and shooter localization	Simpósio Brasileiro de Telecomunicações e Processamento de Sinais (SBrT)	Fernandes, R. P. ; BORZINO, A. M. C. R. ; RAMOS, A. L. L. ; APOLINÁRIO JR., J.A.		
trabalhoCompletoEmCongresso	2016		Detection of ENF discontinuitiesusing PLL for audio authenticity	7th IEEE Latin American Symposium on Circuits and Systems (LASCAS)	FUENTES-LUJAMBIO, M. ; ZINEMANAS-FRIET, P. I. ; CANCELA-ARESQUETA, P. A. ; APOLINARIO JR., J. A.		
trabalhoCompletoEmCongresso	2016		ATTITUDE CONTROL OF A NANO QUADROTOR	CONGRESSO BRASILEIRO DE AUTOMÁTICA	LOBO E SILVA, L. O. G. ; CARRILHO DA CUNHA, A. E.		
trabalhoCompletoEmCongresso	2016		Redução de dimensionalidade de dados para detecção de fechamento de loop através de método espectral: implementação experimental	XXI CONGRESSO BRASILEIRO DE AUTOMÁTICA	Moreira, L. A. S. ; JUSTEL, C. M. ; ROSA, PAULO F. F.		
trabalhoCompletoEmCongresso	2016		Uso de SDN no Balanceamento de Carga em Redes com Suporte a Múltiplos Caminhos	XXXIV Simpósio Brasileiro de Telecomunicações e Processamento de Sinais	OLIVEIRA, N. Q. ; SALLES, R. M.		
trabalhoCompletoEmCongresso	2016		Efeito de Altas Temperaturas na Resistência à Flexão de Concreto Convencional	Congresso Brasileiro de Patologia das Construções	PAIVA, A. A. S. ; VASCONCELLOS, C. A. B. ; CARNEIRO, L. A. V.		
trabalhoCompletoEmCongresso	2016		Efeito do Resfriamento Brusco na Resistência de Concreto Convencional sob Elevadas Temperaturas	II Encontro Luso-Brasileiro de Degradação de Estruturas de Betão	PAIVA, A. A. S. ; VASCONCELLOS, C. A. B. ; CARNEIRO, L. A. V.		
trabalhoCompletoEmCongresso	2016		Considerações sobre a Escolha de Antenas para Rádio Definido por Software Tático Terrestre	XXXIV Simpósio Brasileiro de Telecomunicações e Processamento de Sinais (SBrT 2016)	PEREIRA, F. E. S. ; GOMES, G. A. F. ; DIAS, M. H. C.		
trabalhoCompletoEmCongresso	2016		Avaliação do Efeito Tamanho na Resistência à Compressão e nos Parâmetros não Destrutivos de Colunas Curtas de Concreto Simples	58. Congresso Brasileiro do Concreto	RABELO, L. A. ; CARNEIRO, L. A. V.		
trabalhoCompletoEmCongresso	2016		Construção de um Framework de Planejamento e Controle de Trajetória em Tempo Real de Múltiplos Robôs Terrestres	III Workshop on MSc Dissertation and PhD Thesis Contest in Robotics (WTDR)	ROSA, J. F. ; ROSA, PAULO F. F.		
trabalhoCompletoEmCongresso	2016		Tendência de Composições sobre Concretos Projetados	58. Congresso Brasileiro do Concreto	SANTANA, C. S. A. ; Teixeira, A. M. A. J. ; CARNEIRO, L. A. V.		
trabalhoCompletoEmCongresso	2016		Avaliação de algoritmos de localização de alvos baseados apenas em medidas de marcação	Simpósio Brasileiro de Telecomunicações e Processamento de Sinais (SBrT)	SANTOS, E. C. ; APOLINÁRIO JR., J.A. ; DOS SANTOS, J. C. A.		
trabalhoCompletoEmCongresso	2016		AN OVERVIEW AND FUTURE PERSPECTIVES ON DATA TRANSMISSION STRATEGIES FOR UNMANED AERIAL VEHICLES	SDPS Conference	SHAO, ZHILI ; RAMOS, A. L. L. ; APOLINÁRIO JR., J.A.		
trabalhoCompletoEmCongresso	2016		Sistema de VANTs para Monitoramento Persistente de Ambientes Dinâmicos: Um Simulador de Trajetórias	XXI CONGRESSO BRASILEIRO DE AUTOMÁTICA	SILVA, L. C. B. ; GIOVANINI, B. S. ; ROSA, PAULO F. F.		
trabalhoCompletoEmCongresso	2016		Casos de Fissuração em Blocos de Concreto Armado sobre Estacas	Congresso Brasileiro de Patologia das Construções	THOMAZ, E. C. S. ; CARNEIRO, L. A. V.		
trabalhoCompletoEmCongresso	2016		Considerações sobre o Dimensionamento de Blocos sobre Estacas com o Uso do Método das Bielas e Tirantes	IX Congresso Brasileiro de Pontes e Estruturas	THOMAZ, E. C. S. ; CARNEIRO, L. A. V.		
trabalhoCompletoEmCongresso	2016		Minimização de Potência para Redes Ad-hoc de uso Militar	XXXIV Simpósio Brasileiro de Telecomunicações e Processamento de Sinais	Vasconcelos, M. ; SALLES, R. M.		
trabalhoCompletoEmCongresso	2016		Decomposição Tempo-Frequência Adaptativa de Sinais Acústicos com Variações Emocionais	XXXIV Simpósio Brasileiro de Telecomunicações e Processamento de Sinais	VIEIRA, V. J. D. ; COELHO, R., Rosângela Coelho ; ASSIS, F. M.		
trabalhoCompletoEmCongresso	2016		Método Combinado de Multitreinamento e Realce de Sinais em Presença de Interferências Acústicas	XXXIV Simpósio Brasileiro de Telecomunicações e Processamento de Sinais	ZAO, L. ; COELHO, R., Rosângela Coelho		
trabalhoCompletoEmCongresso	2016		Verificação Acústica de Emoções Baseada no Modelo Estocástico alfa-GMM-UBM	XXXIV Simpósio Brasileiro de Telecomunicações e Processamento de Sinais	ZUCATELLI, G. ; COELHO, R., Rosângela Coelho		
trabalhoCompletoEmCongresso	2016	http://dx.doi.org/10.1201/b19385-8	Empirical Signal Decomposition for Acoustic Noise Detection	IEEE 9th Sensor Array and Multichannel Signal Processing Workshop	ZÃO, L. ; COELHO, R., Rosângela Coelho		
trabalhoCompletoEmCongresso	2015		A Comparison of Different Modeling Approximations for a FSO Channel with Radial Displacement	The SBMO/IEEE MTT-S International Microwave and Optoelectronics Conference - IMOC2015	BESSONI, R. S. C. ; SILVA, L. F. S. E. ; CARNEIRO, V. G. A. ; GIRALDI, M. T. M. R.		
trabalhoCompletoEmCongresso	2015		Robust DOA estimation of heavily noisy gunshot signals	IEEE ICASSP 2015	BORZINO, A. M. C. R. ; APOLINARIO JR., J.A. ; CAMPOS, M. L. R.		
trabalhoCompletoEmCongresso	2015		Signal enhancement for gunshot DOA estimation with median filters	6th IEEE Latin American Symposium on Circuits and Systems	BORZINO, A. M. C. R. ; Apolinário Jr., J. A. ; CAMPOS, M. L. R. ; BISCAINHO, L. W. P.		
trabalhoCompletoEmCongresso	2015		Avaliação das Propriedades de Concreto Convencional com Agregados Miúdos de Borracha de Pneus Inservíveis Triturados	57. Congresso Brasileiro do Concreto	CARNEIRO, L. A. V.; GUIMARÃES, A. C. R. ; SILVA, B. A. E. ; SANTANA, C. S. A.		
trabalhoCompletoEmCongresso	2015		Curvas Tensão x Deformação para Pilares Curtos de Concreto Reforçados com Compósitos de Resina e Fibras	XI Congresso Internacional sobre Patologia e Recuperação de Estruturas	CARNEIRO, L. A. V.; Teixeira, A. M. A. J. ; SARAIVA, R. M. D. C. ; MELO, A. A.		
trabalhoCompletoEmCongresso	2015		Avaliação da Resistência do Concreto de Vigas Armadas com Barras de Compósitos de Resina e Fibras com o Uso do Esclerômetro e do Ultrassom	XI Congresso Internacional sobre Patologia e Recuperação de Estruturas	CARNEIRO, L. A. V.; Teixeira, A. M. A. J. ; SILVA, R. C. B. E.		
trabalhoCompletoEmCongresso	2015		Benchmark: Quadrotor Attitude Control	ARCH14-15. 1st and 2nd International Workshop on Applied veRification for Continuous and Hybrid Systems	Carrilho da Cunha, Antonio Eduardo		
trabalhoCompletoEmCongresso	2015		In-fiber Michelson interferometer inclinometer	International Conference on Optical Fibre Sensors	CLENILSON, ; JORGE, P. A. S. ; COSTA, J. C. W. A. ; GIRALDI, M. T. M. R. ; SANTOS, J. L. ; FRAZAO, O.		
trabalhoCompletoEmCongresso	2015		Fixed-Wing State Level HIL via Factor Graph Incremental Smoothing	2015 IEEE International Conference on Industrial Technology (ICIT 2015)	Crivella, A. C. R. ; ROSA, PAULO F. F.		
trabalhoCompletoEmCongresso	2015		A first approach to signal enhancement for quadcopters using piezoelectric sensor	SDPS 2015	Fernandes, R. P. ; SANTOS, E. C. ; RAMOS, A. L. L. ; APOLINARIO JR., J. A.		
trabalhoCompletoEmCongresso	2015		Sparse Least-Squares Prediction for Intra Image Coding	IEEE INTERNATIONAL CONFERENCE ON IMAGE PROCESSING	Lucas, Luís ; RODRIGUES, N. M. M. ; PAGLIARI, C. L. ; PAGLIARI, C. L. ; SILVA, E. A. B. ; FARIA, S. M. M.		
trabalhoCompletoEmCongresso	2015		Horizontal stereoscopic display based on homologous points	VISAPP 2015 International Conference on Computer Vision Theory and Applications	Madeira, B.E. ; Volotao, C F S ; ROSA, PAULO F. F. ; Velho, L.		
trabalhoCompletoEmCongresso	2015		Síntese de Controladores Estruturados Robustos a Incertezas Mistas	DINCON 2015 ? Conferência Brasileira de Dinâmica	Menezes, Eduardo Felipe Mendonça de ; PELLANDA, Paulo César ; SIMOES, ALBERTO M.		
trabalhoCompletoEmCongresso	2015		AN OBJECTIVE 3D QUALITY ASSESSMENT MODEL TO ADJUST STEREO CAMERA BASELINE	IEEE INTERNATIONAL CONFERENCE ON IMAGE PROCESSING	MIGUEL, Marcelo A. ; PAGLIARI, C. L. ; PAGLIARI, C. L. ; SILVA, E. A. B. ; PEREZ, Marcelo de Mello		
trabalhoCompletoEmCongresso	2015		The Effect of Iron Nano-Inclusions in Multilayered Integrated Optical Waveguides	PIERS - Progress In Electromagnetics Research Symposium	MORAES, I. G. ; SILVA, A. O. ; MARTINEZ, M. A. G. ; GIRALDI, M. T. M. R.		
trabalhoCompletoEmCongresso	2015	http://dx.doi.org/10.1145/2695664.2695779	Visual similarity analysis in loop closure through data dimensionality reduction via diffusion maps	the 30th Annual ACM Symposium	MOREIRA, LEANDRO A. S. ; JUSTEL, CLAUDIA M. ; ROSA, PAULO F. F.		
trabalhoCompletoEmCongresso	2015		Concretos Auto-adensáveis: Tendências de Composição e Resultados de Ensaios	IV Congresso Ibero-americano sobre Betão Auto-compactável - BAC2015	MOURA, A. A. ; CARNEIRO, L. A. V. ; THOMAZ, E. C. S.		
trabalhoCompletoEmCongresso	2015		Composições e Resultados de Ensaios sobre Concretos Auto-Adensáveis feitos no Brasil	57. Congresso Brasileiro do Concreto	MOURA, A. A. ; LUCAS, J. P. S. ; SARAIVA, F. M. G. ; CARNEIRO, L. A. V. ; THOMAZ, E. C. S.		
trabalhoCompletoEmCongresso	2015		Análise da Influência das Propriedades do Ligante Asfáltico e do Esqueleto Pétreo na Deformação Permanente de Misturas Asfálticas	44ª REUNIÃO ANUAL DE PAVIMENTAÇÃO (RAPv) e 18º ENCONTRO NACIONAL DE CONSERVAÇÃO RODOVIÁRIA (ENACOR)	NASCIMENTO, F. A. C. ; GUIMARÃES, A. C. R. ; CARNEIRO, L. A. V.		
trabalhoCompletoEmCongresso	2015		Estudo Comparativo sobre Deformação Permanente em Misturas Asfálticas a partir de Ensaios de Tração Indireta e Simulador de Tráfego	XVIII Congreso Ibero Latinoamericano del Asfalto 2015 (XVIII CILA)	NASCIMENTO, F. A. C. ; GUIMARÃES, A. C. R. ; CARNEIRO, L. A. V.		
trabalhoCompletoEmCongresso	2015		Measurement of Elastic Rebound and Final Set Through a New Field Apparatus	15th Pan-American Conference on Soil Mechanics and Geotechnical Engineering - PCSMGE XV	OLIVEIRA, J. R. M. S. ; SILVA, M. R. L. ; CARNEIRO, L. A. V. ; LUKIANTCHUKI, J. A.		
trabalhoCompletoEmCongresso	2015		Data-driven Analysis of Kinaesthetic and Tactile Information for Shape Classification	2015 IEEE International Conference on Computational Intelligence and Virtual Environments for Measurement Systems and Applications (CIVEMSA 2015)	OLIVEIRA, T. E. A. ; FONSECA, V. P. ; HULUTA, E. ; ROSA, PAULO F. F. ; PETRIU, E.		
trabalhoCompletoEmCongresso	2015		Índice Esclerométrico de Concreto de Alta Resistência sob Altas Temperaturas	57. Congresso Brasileiro do Concreto	PAIVA, A. A. S. ; VASCONCELLOS, C. A. B. ; CARNEIRO, L. A. V.		
trabalhoCompletoEmCongresso	2015	http://dx.doi.org/10.1109/imoc.2015.7369171	Low-complexity receiver for wavelet-filtered M-ary modulations over flat-fading channels	2015 SBMO/IEEE MTTS International Microwave and Optoelectronics Conference (IMOC)	Silveira, Luiz F. Q. ; SILVEIRA, LUIZ G. DE Q. ; DE ASSIS, FRANCISCO M. ; PINTO, ERNESTO LEITE		
trabalhoCompletoEmCongresso	2015		Considerações sobre o Dimensionamento de Armadura de Suspensão em Vigas de Concreto	57. Congresso Brasileiro do Concreto	THOMAZ, E. C. S. ; CARNEIRO, L. A. V.		
trabalhoCompletoEmCongresso	2015		Variações da Decomposição Empírica de Modos para Realce de Sinais de Voz	XXXIII Simpósio Brasileiro de Telecomunicações (SBrT 2015)	ZAO, L. A. ; COELHO, R., Rosângela Coelho		
trabalhoCompletoEmCongresso	2014		Comparative of heuristics on search of supervisors by approximated distinguishers	Emerging Technology and Factory Automation (ETFA)	AGUIAR, R. S. S. ; Carrilho da Cunha, Antonio Eduardo ; CURY, J. E. R. ; QUEIROZ, M. H.		
trabalhoCompletoEmCongresso	2014		Robust Supervisory Control against Intermittent Loss of Observations	Workshop on Discrete Event Systems	ALVES, M. V. S. ; BASILIO, J. C. S. ; Carrilho da Cunha, Antonio Eduardo ; CARVALHO, L. K. ; MOREIRA, M. V. B.		
trabalhoCompletoEmCongresso	2014		Controle supervisório robusto de SED sujeitos a perdas intermitentes de observação	XX Congresso Brasileiro de Automática	ALVES, M. V. S. ; BASILIO, J. C. S. ; Carrilho da Cunha, Antonio Eduardo ; CARVALHO, L. K. ; MOREIRA, M. V. B.		
trabalhoCompletoEmCongresso	2014		SIRLab: Uma Evolução do Projeto Engenharia-Escola para Competições Robóticas	5th Workshop of Robotics in Education	Angonese, T. A. ; KREMPSER, E. ; ROSA, PAULO F. F.		
trabalhoCompletoEmCongresso	2014		GIROFLOW: Openflow virtualized infrastructure management tool	10th International Conference on Network and Service Management	Araújo, T. ; SALLES, R. M.		
trabalhoCompletoEmCongresso	2014	http://dx.doi.org/10.1109/ISIE.2014.6864778	Active stereoscopic camera to build an occupancy grid for autonomous navigation	2014 IEEE 23rd International Symposium on Industrial Electronics (ISIE)	BARCELOS, ANDRE DE OLIVEIRA PALMERIM ; VIDAL, FABIO SILVEIRA ; ROSA, PAULO FERNANDO FERREIRA		
trabalhoCompletoEmCongresso	2014		Use of Wissa?s piezo-probe for prediction of post-construction settlements in soft clay	3rd International Symposium on Cone Penetration Testing	Baroni, M. ; Marques, M. E. S. ; ALMEIDA, Márcio de Souza Soares de		
trabalhoCompletoEmCongresso	2014		Aplicação de Rede de Casamento de Impedâncias para Alargamento de Banda de Antena Patch Circular	MOMAG 2014: 16° SBMO - Simpósio Brasileiro de Microondas e Optoeletrônica e 11° CBMag - Congresso Brasileiro de Eletromagnetismo	BARROS, J. A. A. ; SILVA, R. A. O. ; DIAS, M. H. C. ; SANTOS, J. C. A.		
trabalhoCompletoEmCongresso	2014		Gunshot Signal Enhancement for DOA Estimation and Weapon Recognition	European Signal Processing Conference (EUSIPCO)	BORZINO, A. M. C. R. ; APOLINÁRIO JR., J.A. ; de Campos, Marcello L. R. ; PAGLIARI, C. L.		
trabalhoCompletoEmCongresso	2014	http://dx.doi.org/10.1109/its.2014.6947995	Estimating direction of arrival of long range gunshot signals	2014 International Telecommunications Symposium (ITS)	BORZINO, ANGELO M.C.R. ; Apolinario, Jose A. ; de Campos, Marcello L. R.		
trabalhoCompletoEmCongresso	2014		Generalised Search for the Observer Property in Discrete Event Systems	Workshop on Discrete Event Systems	CIPRIANO, H. J. B. ; PENA, P. N. ; Carrilho da Cunha, Antonio Eduardo ; MALIK, R. ; CURY, J. E. R.		
trabalhoCompletoEmCongresso	2014		Remote curvature fiber sensors using core mismatch structures and OTDR based interrogation	II International Conference on Applications of Optics and Photonics	FERNANDES, C. S. ; GIRALDI, M. T. M. R. ; Gouveia, Carlos ; SOUSA, M. J. ; COSTA, J. C. W. A. ; FRAZAO, O. ; JORGE, P. A. S.		
trabalhoCompletoEmCongresso	2014	http://dx.doi.org/10.1109/EuCAP.2014.6901758	A compact IFA-based dual-band planar antenna for WiFi USB dongles	2014 8th European Conference on Antennas and Propagation (EuCAP)	FRANCISCATTO, BRUNO R. ; ADEL, HANS ; DIAS, MAURICIO H. C. ; VUONG, TAN-PHU		
trabalhoCompletoEmCongresso	2014		Interrogation System for Fiber Loop Mirror Sensors using OTDR	23rd International Conference on Optical Fiber Sensors OFS23	GIRALDI, M. T. M. R.; FERNANDES, C. S. ; FERREIRA, M. S. ; COSTA, J. C. W. A. ; Jose Luis Santos ; FRAZAO, O.		
trabalhoCompletoEmCongresso	2014		Ensaios em material de reforço de túneis urbanos utilizando sistemas extensométricos de fibra óptica	XXVIII Congresso de Pesquisa e Ensino em Transportes	GOMES PINTO, F. ; ARAGAO, L. A. C. M. ; Marques, M. E. S.		
trabalhoCompletoEmCongresso	2014		Uso de extensômetros de fibra óptica em inclinometria	XVII Congresso Brasileiro de Mecânica dos Solos e Engenharia Geotécnica	GOMES, F. ; Mello, M. A. ; ARAGAO, L. A. C. M. ; Marques, M. E. S.		
trabalhoCompletoEmCongresso	2014		Análise do Comportamento de Corpos de Prova Cilíndricos Aderidos com Epóxi e com Concretos de Diferentes Resistências e Inclinações	56. Congresso Brasileiro do Concreto	GUERRANTE, I. F. ; SÁNCHEZ FILHO, E. S. ; CARNEIRO, L. A. V.		
trabalhoCompletoEmCongresso	2014		Locally Linear Embedding-Based Prediction for 3D Holoscopic Image Coding Using HEVC	EUSIPCO 2014	Lucas, Luís ; NUNES, P. ; CONTI, C. ; SOARES, L. D. ; RODRIGUES, N. M. M. ; PAGLIARI, C. L. ; SILVA, E. A. B. ; FARIA, S. M. M.		
trabalhoCompletoEmCongresso	2014	http://dx.doi.org/10.1109/RADAR.2014.6875594	Highly maneuverable target tracking based on efficient propagation of model hypotheses	2014 IEEE Radar Conference (RadarCon)	LUCENA, MARCELO ; GUIMARAES, ALBERTO ; PINTO, ERNESTO		
trabalhoCompletoEmCongresso	2014		Nano-Inclusões de Ferro em Estruturas de Múltiplas-Camadas com Efeito de Camada Ressonante	MOMAG2014	MAGALHAES, G. M. ; ALENCAR, R. M. ; PAIXAO, D. K. ; GIRALDI, M. T. M. R. ; FONSECA, D. ; PEREIRA, R. ; SILVA, A. O. ; MARTINEZ, M. A. G.		
trabalhoCompletoEmCongresso	2014		ENHANCEMENT METHOD FOR MULTIPLE DESCRIPTION DECODING OF DEPTH MAPS SUBJECT TO RANDOM LOSS	3DTV Conference 2014	MARCELINO, S. ; CORREIA, P. ; ASSUNCAO, P. A. A. ; FARIA, S. M. M. ; SOARES, S. ; PAGLIARI, C. L. ; SILVA, Eduardo Antonio Barros da		
trabalhoCompletoEmCongresso	2014		Aquisição de Sinais para o Estudo da Curva Tensão-Deformação em Misturas Asfálticas Submetidas a Ensaios de Tração Indireta	43. Reunião Anual de Pavimentação	NASCIMENTO, F. A. C. ; GUIMARÃES, A. C. R. ; ARAGAO FILHO, L. A. M. ; CARNEIRO, L. A. V.		
trabalhoCompletoEmCongresso	2014		Análise de Estabilidade de Sistemas LPV Via Transformada Haar	20th Brazilian Automatic Control Conference	OLIVEIRA DE ARAUJO, LEONARDO ; PELLANDA, PAULO CESAR ; FERREIRA GALDINO, JURACI ; SIMÕES, ALBERTO M.		
trabalhoCompletoEmCongresso	2014		Image Coding Using Variable-Size Transforms and a Full Binary Tree Recursive Optimization	International Telecommunications Symposium 2014	OLIVEIRA, ANDERSON V. C. ; RODRIGUES, N. M. M. ; FARIA, S. M. M. ; SILVA, E. A. B. ; PAGLIARI, C. L.		
trabalhoCompletoEmCongresso	2014		Resistência à Compressão de Concreto Convencional sob Altas Temperaturas com o Uso de Esclerômetro	X Congreso Internacional sobre Patología y Recuperación de Estructuras	PAIVA, A. A. S. ; VASCONCELLOS, C. A. B. ; CARNEIRO, L. A. V.		
trabalhoCompletoEmCongresso	2014		Resistência e Parâmetros Não Destrutivos de Concreto Convencional Submetidos a Ciclos de Solução Ácida e Aquecimento	Iº Encontro Luso-Brasileiro de Degradação em Estruturas de Concreto Armado	PAIVA, A. A. S. ; VASCONCELLOS, C. A. B. ; CARNEIRO, L. A. V.		
trabalhoCompletoEmCongresso	2014	http://dx.doi.org/10.1109/CONCAPAN.2014.7000419	Shooter localization using microphone arrays on elevated platforms	2014 IEEE Central America and Panama Convention (CONCAPAN XXXIV)	PAREDES, D. M. ; Apolinario, J. A.		
trabalhoCompletoEmCongresso	2014	http://dx.doi.org/10.1109/LASCAS.2014.6820266	Detailing a useful position calibration for microphone arrays	2014 IEEE 5th Latin American Symposium on Circuits and Systems (LASCAS)	PAREDES-CALDERON, DARWIN M. ; Apolinario, Jose A.		
trabalhoCompletoEmCongresso	2014		Avaliação da Resistência de Concreto sob Baixas Temperaturas	56. Congresso Brasileiro do Concreto	RABELO, L. A. ; CARNEIRO, L. A. V.		
trabalhoCompletoEmCongresso	2014		Avaliação das Propriedades de Concreto de Alta Resistência com Agregados Miúdos de Escória de Ferro Níquel	56. Congresso Brasileiro do Concreto	SANTOS, G. P. P. ; SANTANA, C. S. A. ; GONDIM, R. C. ; GUIMARÃES, A. C. R. ; CARNEIRO, L. A. V.		
trabalhoCompletoEmCongresso	2014		On the Relation Between Gain Ripple and Pump-Pump Interaction in the Design of Broad Band Raman Amplifiers	MOMAG2014	SANTOS, R. S. ; MARTINEZ, M. A. G. ; GIRALDI, M. T. M. R.		
trabalhoCompletoEmCongresso	2014		Investigation of a military site for destruction of ammunitions by open detonation	XVII Congresso Brasileiro de Mecânica dos Solos e Engenharia Geotécnica	SILVA, A. A. D. ; Brum, T. ; BARBOSA, M. C. ; Marques, M. E. S.		
trabalhoCompletoEmCongresso	2014		Aplicação de Técnicas de Alargamento de Banda em uma Antena Patch Circular em 2,45 GHz	MOMAG 2014: 16° SBMO - Simpósio Brasileiro de Microondas e Optoeletrônica e 11° CBMag - Congresso Brasileiro de Eletromagnetismo	SILVA, R. A. O. ; BARROS, J. A. A. ; DIAS, M. H. C. ; SANTOS, J. C. A.		
trabalhoCompletoEmCongresso	2014		Avaliação Experimental da Resistência do Concreto à Compressão de Vigas de Concreto Armado por Meio de Ensaios Não Destritivos	X Congreso Internacional sobre Patología y Recuperación de Estructuras	SILVA, R. C. B. E. ; Teixeira, A. M. A. J. ; CARNEIRO, L. A. V.		
trabalhoCompletoEmCongresso	2014	http://dx.doi.org/10.1109/its.2014.6948048	Speech intelligibility measures for speech enhancement under nonstationary acoustic noise	2014 International Telecommunications Symposium (ITS)	TAVARES, R. ; ZAO, L. ; COELHO, R.		
trabalhoCompletoEmCongresso	2014		Fissuração em Viadutos e Pontes de Concreto Armado ou Protendido: Alguns Casos e Suas Soluções	1. Congresso Brasileiro de Patologia das Construções	THOMAZ, E. C. S. ; CARNEIRO, L. A. V.		
trabalhoCompletoEmCongresso	2014		Vigas Gerber com Dentes Múltiplos: Dimensionamento e Detalhamento	VII Congresso Brasileiro de Pontes e Estruturas	THOMAZ, E. C. S. ; CARNEIRO, L. A. V. ; SARAIVA, R. M. D. C.		
trabalhoCompletoEmCongresso	2014		RLS sparse system identification using LAR-based situational awareness	European Signal Processing Conference (EUSIPCO)	Valdman, C. ; CAMPOS, M. L. R. ; APOLINÁRIO JR., J.A.		
trabalhoCompletoEmCongresso	2013		BUSCA HEUR´ ISTICA DE SUPERVISORES APROXIMADOS POR DISTINGUIDORES	XI Simpósio Brasileiro de Automação Inteligente	AGUIAR, R. S. S. ; CARRILHO DA CUNHA, A. E. ; CURY, J. E. R. ; QUEIROZ, M. H.		
trabalhoCompletoEmCongresso	2013		Heuristic Search of Supervisors by Approximated Distinguishers	Worshop on Dependable Control of Discrete Systems (DCDS 2013)	AGUIAR, R. S. S. ; CARRILHO DA CUNHA, A. E. ; QUEIROZ, M. H. ; CURY, J. E. R.		
trabalhoCompletoEmCongresso	2013	http://dx.doi.org/10.1109/IMOC.2013.6646544	Radar cross section of simple objects in the presence of an infinite conducting plane	2013 SBMO/IEEE MTTS International Microwave and Optoelectronics Conference (IMOC)	ALVES, RONNY R. O. ; DIAS, MAURICIO H. C. ; SANTOS, JOSE C. A.		
trabalhoCompletoEmCongresso	2013	http://dx.doi.org/10.1109/LARS.2013.70	Ground Control Station for Multiple UAVs Flight Simulation	2013 Latin American Robotics Symposium and Competition (LARS/LARC)	ANGONESE, ALBERTO TORRES ; ROSA, PAULO FERNANDO FERREIRA		
trabalhoCompletoEmCongresso	2013		ESTAÇÃO DE CONTROLE EM SOLO COM FUNCIONALIDADES DE VOO MÚLTIPLO PARA VANTs	XI SBAI Simpósio Brasileiro de Automação Inteligente	Angonese, T. A. ; ROSA, PAULO F. F.		
trabalhoCompletoEmCongresso	2013		Identificação Estrutural de Laje em Balanço para Fins de Aumento de Sobrecarga	IX International Congress on Pathology and Recovery Structures	ARAGAO FILHO, L. A. M. ; CARNEIRO, L. A. V. ; VASCONCELLOS, C. A. B.		
trabalhoCompletoEmCongresso	2013		Structural Behavior of Concrete Notched Beams Strengthened with CFRP Sheets	11th International Symposium on Fiber Reinforced Polymers for Reinforced Concrete Structures (FRPRCS-11)	CARNEIRO, L. A. V.; ARAGAO FILHO, L. A. M. ; BESADA, F. L. ; MOURA, A. A. ; GONZALEZ, P. F.		
trabalhoCompletoEmCongresso	2013		Considerações sobre Técnicas Existentes de Reparo e Reforço de Vigas de Concreto	IX International Congress on Pathology and Recovery Structures	CARNEIRO, L. A. V.; LEFONE, R. C. ; SILVA, R. C. B. E.		
trabalhoCompletoEmCongresso	2013		Ensaios não Destrutivos de Concretos Bombeáveis Produzidos em uma Central Dosadora de Concreto do Estado do Rio de Janeiro	IX International Congress on Pathology and Recovery Structures	CARNEIRO, L. A. V.; MULLER, R. M. ; AUGUSTIN, F. A. ; ALVES, B. A. C. ; OLIVEIRA, H. B.		
trabalhoCompletoEmCongresso	2013		Propriedades de Concretos Bombeáveis Produzidos em uma Central Dosadora de Concreto do Estado do Rio de Janeiro	55. Congresso Brasileiro do Concreto	CARNEIRO, L. A. V.; MULLER, R. M. ; AUGUSTIN, F. A. ; ALVES, B. A. C. ; OLIVEIRA, H. B.		
trabalhoCompletoEmCongresso	2013		BUSCA GENERALIZADA DA PROPRIEDADE DE OBSERVADOR EM SISTEMAS A EVENTOS DISCRETOS	XI Simpósio Brasileiro de Automação Inteligente	CIPRIANO, H. J. B. ; Carrilho da Cunha, Antonio Eduardo ; PENA, P. N. ; CURY, J. E. R.		
trabalhoCompletoEmCongresso	2013		Enhancement of Refractive Index Sensitivity of the In-Line Mach-Zehnder Interferometer through Bending	RIAO/OPTILAS	CLENILSON, ; COSTA, J. C. W. A. ; GIRALDI, M. T. M. R. ; FRANCO, M. A. R. ; JORGE, P. A. S.		
trabalhoCompletoEmCongresso	2013		Bent In-Line Mach-Zehnder Interferometer Sensor to Increase Refractive Index Sensitivity	SBMO/IEEE MTT-S International Microwave and Optoelectronics Conference	CLENILSON, ; COSTA, J. C. W. A. ; GIRALDI, M. T. M. R. ; FRANCO, M. A. R. ; JORGE, P. A. S.		
trabalhoCompletoEmCongresso	2013	http://dx.doi.org/10.1109/IECON.2013.6700031	Indoors object location protocol in a smart home	IECON 2013 39th Annual Conference of the IEEE Industrial Electronics Society	DA FONSECA, VINICIUS PRADO ; ROSA, PAULO F. F.		
trabalhoCompletoEmCongresso	2013		Diferenciação de Ataques DDoS Web e Flash Crowds através de Autenticação Gráfica e Aprendizado por Reforço	11th Brazilian Congress (CBIC) on Computational Intelligence / CI Applications in Defense Systems (CIDefS)	Dantas, R. ; ZIVIANI, Artur ; SALLES, R. M.		
trabalhoCompletoEmCongresso	2013	http://dx.doi.org/10.1109/ICASSP.2013.6638370	An L1-constrained normalized lms algorithm and its application to thinned adaptive antenna arrays	ICASSP 2013 2013 IEEE International Conference on Acoustics	DE ANDRADE, J. F. ; DE CAMPOS, M. L. R. ; Apolinario, J. A.		
trabalhoCompletoEmCongresso	2013	http://dx.doi.org/10.1109/LASCAS.2013.6518979	Efficient online estimation of electromechanical modes in large power systems	2013 IEEE 4th Latin American Symposium on Circuits and Systems (LASCAS)	Fernando Javier De Marco ; José Antonio Apolinário Junior ; PELLANDA, Paulo César ; MARTINS, Nelson		
trabalhoCompletoEmCongresso	2013	http://dx.doi.org/10.1109/APWC.2013.6624931	Analysis of the Impedance Changes of a HF/VHF Monopole Antenna in a Brazilian Atlantic Rainforest Urban Site	3rd IEEE-APS Topical Conference on Antennas and Propagation in Wireless Communications (IEEE APWC '13)	DIAS, M. H. C.; ALEM, R. A. ; SANTOS, J. C. A. ; NOGUEIRA, E. M. B. ; VUONG, T. P.		
trabalhoCompletoEmCongresso	2013		Utilisation de parasites et éléments localisés pour l'augmentation de la bande passante d'une antenne monopôle	18èmes Journées Nationales Microondes	DIAS, M. H. C.; SAUNDERS FILHO, C. A. B. ; SANTOS, J. C. A. ; FRANCISCATTO, B. R. ; FREITAS, V. ; VUONG, T. P.		
trabalhoCompletoEmCongresso	2013	http://dx.doi.org/10.1109/IMOC.2013.6646527	On the design of a dual-fed aperture-coupled circularly polarized microstrip patch antenna	2013 SBMO/IEEE MTTS International Microwave and Optoelectronics Conference (IMOC)	DIAS, MAURICIO H. C.; FRANCISCATTO, B. R. ; NOGUEIRA, E. M. B. ; VUONG, T. P.		
trabalhoCompletoEmCongresso	2013		Uma Plataforma Semântica de Apoio à Decisão para Controle de Epidemias da Dengue	11th Brazilian Congress (CBIC) on Computational Intelligence / CI Applications in Defense Systems (CIDefS)	DIAS, T. ; Pinheiro, W.A. ; SALLES, R. M.		
trabalhoCompletoEmCongresso	2013		Métodos PHAT, FLOS-PHAT e ML-Energia para Localização de Fontes de Sinais Acústicos Impulsivos	XXXI Simpósio Brasileiro de Telecomunicações	DRANKA, E. ; COELHO, R., Rosângela Coelho		
trabalhoCompletoEmCongresso	2013		Execução de Escoramento e Reforço Estrutural de um Edifício de Concreto Armado com 22 Pavimentos Situado na Cidade de Niterói/RJ	IX International Congress on Pathology and Recovery Structures	DUARTE, A. ; JUNGER, C. B. ; CARNEIRO, L. A. V.		
trabalhoCompletoEmCongresso	2013		A Robust Temporal Alignment Technique for Infrared and Visible-Light Video Sequences	XXXI Simpósio Brasileiro de Telecomunicações	ELLMAUTHALER, Andreas ; SILVA, E. A. B. ; PAGLIARI, C. L. ; PAGLIARI, C. L. ; GOIS, Jonathan N.		
trabalhoCompletoEmCongresso	2013		A NOVEL ITERATIVE CALIBRATION APPROACH FOR THERMAL INFRARED CAMERAS	IEEE INTERNATIONAL CONFERENCE ON IMAGE PROCESSING 2013 - ICIP2013	ELLMAUTHALER, Andreas ; SILVA, E. A. B. ; PAGLIARI, C. L. ; PAGLIARI, C. L. ; GOIS, Jonathan N. ; Neves, Sergio R.		
trabalhoCompletoEmCongresso	2013		Tracking Objects in a Smart Home	1st BRICS Countries 11th CBIC Brazilian Congress on Computational Intelligence.	FONSECA, V. P. ; ROSA, PAULO FERNANDO FERREIRA		
trabalhoCompletoEmCongresso	2013		Aplicações de realidade aumentada na visualização de elementos cartográficos	XVI Simpósio Brasileiro de Sensoriamento Remoto	GOMES, J. V. P. ; FERREIRA DA SILVA, L. F. C.		
trabalhoCompletoEmCongresso	2013		An Architecture to Implement the Bundle Layer Function of Delay Tolerant Networks	V International Workshop on Telecommunications	Job, D. H. ; SILVA, M. A. N. ; Pinheiro, W.A. ; SALLES, R. M.		
trabalhoCompletoEmCongresso	2013		Ag-nanowire metamaterials: Spectral reflectance analysis and homogenization models	RIAO/OPTILAS	LEITE, I. T. ; SILVA, A. O. ; HIERRO-RODRIGUEZ, A. ; SOUSA, C. T. ; FERNANDEZ-GARCIAD, M. ; TEIXEIRA, J. ; ARAUJO, J. ; GIRALDI, M. T. M. R. ; COSTA, J. C. W. A. ; VIEGAS, D. ; JORGE, P. A. S. ; GUERREIRO, A.		
trabalhoCompletoEmCongresso	2013		Convex combination of three affine projections adaptive filters	The Tenth International Symposium on Wireless Communication Systems	Leonel Arévalo ; APOLINARIO JR., J.A. ; CAMPOS, M. L. R. ; SAMPAIO N., R.		
trabalhoCompletoEmCongresso	2013		PREDICTIVE DEPTH MAP CODING FOR EFFICIENT VIRTUAL VIEW SYNTHESIS	IEEE INTERNATIONAL CONFERENCE ON IMAGE PROCESSING 2013 - ICIP2013	Lucas, Luís ; RODRIGUES, N. M. M. ; PAGLIARI, C. L. ; PAGLIARI, C. L. ; SILVA, E. A. B. ; FARIA, S. M. M.		
trabalhoCompletoEmCongresso	2013		Improving the Multidimensional Multiscale Parser Algorithm for Intra Image Coding	Conference on Telecommunications 2013	Lucas, Luís ; RODRIGUES, N. M. M. ; PAGLIARI, C. L. ; SILVA, E. A. B. ; FARIA, S. M. M.		
trabalhoCompletoEmCongresso	2013		The Inverse QRD Set-Membership RLS Algorithm	21st European Signal Processing Conference	LUCENA, M. ; APOLINARIO JR., J.A. ; Shoaib, Mobien		
trabalhoCompletoEmCongresso	2013		Monitoring of the Embankment Stabilization of Cantagalo Park, Brazil	2013 Geo-Congress	Marques, M. E. S.; ALMEIDA, Márcio de Souza Soares de ; Mello, M. A.		
trabalhoCompletoEmCongresso	2013		Caracterização do Material Cimentício de Colunas de Consolidação Profunda Radial	55. Congresso Brasileiro do Concreto	MELLO, M. A. ; MARQUES, M. E. S. ; CARNEIRO, L. A. V.		
trabalhoCompletoEmCongresso	2013		Modelagem Numérica da Curva de Resfriamento de Concretos Simples Utilizando o Método dos Volumes Finitos	55. Congresso Brasileiro do Concreto	MENESES, R. H. M. ; NASCIMENTO, G. C. ; VASCONCELLOS, C. A. B. ; CARNEIRO, L. A. V.		
trabalhoCompletoEmCongresso	2013		Audio Authenticity Based on the Discontinuity of ENF Higher Harmonics	21st European Signall Processing Conference	Nicolalde, D. P. ; APOLINÁRIO JR., J.A. ; BISCAINHO, L. W. P.		
trabalhoCompletoEmCongresso	2013	http://dx.doi.org/10.14209/sbrt.2013.172	Bipartite HMM Model for Burst Errors Focused on the Generation of Gaps and Clusters	XXXI Simpósio Brasileiro de Telecomunicações	NILSON MACIEL ; ELAINE MARQUES ; MARCO ANTONIO GRIVET MATTOSO MAIA ; ERNESTO PINTO		
trabalhoCompletoEmCongresso	2013	http://dx.doi.org/10.1109/IMOC.2013.6646540	Improving the localization accuracy of RSSI-based RTLS by using diversity antenna techniques	2013 SBMO/IEEE MTTS International Microwave and Optoelectronics Conference (IMOC)	NOGUEIRA, EVANASKA B. ; DIAS, MAURICIO H.C. ; HUCHARD, M. ; NADAGIJIMANA, F. ; VUONG, T. P.		
trabalhoCompletoEmCongresso	2013		Modelagem Computacional do Efeito da Temperatura em Pavimentos de Concreto de Cimento Portland	Congreso de Métodos Numéricos en Ingeniería	PAIVA, A. A. S. ; NASCIMENTO, G. C. ; VASCONCELLOS, C. A. B. ; CARNEIRO, L. A. V.		
trabalhoCompletoEmCongresso	2013		Modelagem Numérica de Concretos Simples Submetidos a Altas Temperaturas	55. Congresso Brasileiro do Concreto	PAIVA, A. A. S. ; NASCIMENTO, G. C. ; VASCONCELLOS, C. A. B. ; CARNEIRO, L. A. V.		
trabalhoCompletoEmCongresso	2013		Uma Estratégia para Detecção Online de Bots P2P	Workshop de Redes P2P	Praxedes, R. M. ; SALLES, R. M.		
trabalhoCompletoEmCongresso	2013		VERIFICAÇÃO DE AUTÔMATOS TEMPORIZADOS PARA VALIDAÇÃO E ANÁLISE DE DESEMPENHO DE LÓGICA DE CONTROLE SINTETIZADA PELA TEORIA DE CONTROLE SUPERVISÓRIO	XI Simpósio Brasileiro de Automação Inteligente	RODRIGUEZ, J. A. V. ; Carrilho da Cunha, Antonio Eduardo		
trabalhoCompletoEmCongresso	2013	http://dx.doi.org/10.1109/IMOC.2013.6646604	Evaluation of a novel tubular sample holder for dielectric measurements with Abdulnour's method	2013 SBMO/IEEE MTTS International Microwave and Optoelectronics Conference (IMOC)	ROTAVA, ANDRE ; BORGES, LUIZ E. P. ; DIAS, MAURICIO H. C. ; SANTOS, JOSE C. A.		
trabalhoCompletoEmCongresso	2013		Síntese Mi Não-Diferenciável Aplicada ao Controle de Míssil	XI Simpósio Brasileiro de Automação Inteligente (SBAI) - Conferência Brasileira de Dinâmica	SANTOS, G. J. S. ; SIMÕES, A. M.		
trabalhoCompletoEmCongresso	2013		Avaliação das Propriedades de Concretos com Agregados Miúdos de Escória de Ferro Níquel	55. Congresso Brasileiro do Concreto	SANTOS, G. P. P. ; SANTANA, C. S. A. ; GONDIM, R. C. ; GUIMARÃES, A. C. R. ; CARNEIRO, L. A. V.		
trabalhoCompletoEmCongresso	2013		Effective medium theory of subwavelength arrays of metallic nanowires: a numerical approach based on modal propagation method	8th Iberoamerican Optics Meeting and 11th Latin American Meeting on Optics	SILVA, A. O. ; LEITE, I. T. ; TEIXEIRA, J. ; ARAUJO, J. ; COSTA, J. C. W. A. ; Giraldi, M. T. M. R. ; JORGE, P. A. S. ; GUERREIRO, A.		
trabalhoCompletoEmCongresso	2013		Avaliação do Amortecimento em Estrutura Mista de Concreto e Aço	55. Congresso Brasileiro do Concreto	SILVA, E. ; ARAGAO FILHO, L. A. M. ; MAGLUTA, C. ; ROITMAN, N. ; CARNEIRO, L. A. V. ; FAISCA, R. G.		
trabalhoCompletoEmCongresso	2013		Viabilidade do Uso de uma Nova Distribuição de Probabilidades na Norma Brasileira ABNT NBR 12655 (2006)	55. Congresso Brasileiro do Concreto	SILVA, P. A. L. ; CARNEIRO, L. A. V.		
trabalhoCompletoEmCongresso	2013		Compressão de mapas de profundidade usando predição e funções polinomiais	XXXI Simpósio Brasileiro de Telecomunicações	SILVA, R. C. ; Lucas, Luís ; SILVA, E. A. B. ; PAGLIARI, C. L. ; PAGLIARI, C. L. ; RODRIGUES, N. M. M. ; FARIA, S. M. M.		
trabalhoCompletoEmCongresso	2013		Análise Computacional de Viga de Concreto Reforçada com CFRP	Congreso de Métodos Numéricos en Ingeniería	SILVA, R. C. B. E. ; NASCIMENTO, G. C. ; VASCONCELLOS, C. A. B. ; CARNEIRO, L. A. V.		
trabalhoCompletoEmCongresso	2013		Modelagem de explosões acima do nível do solo usando o Método dos Elementos Discretos	XXXIV Ibero Latin American Congress on Computational Methods in Engineering	SILVA, T. S. ; FIRMO, T. ; GOULART, M. ; BARBOSA, M. C. ; Marques, M. E. S.		
trabalhoCompletoEmCongresso	2013		Estimação Robusta do Desvio-Padrão de Ruídos Acústicos Aplicada ao Realce de Sinais de Voz	XXXI Simpósio Brasileiro de Telecomunicações	TAVARES, R. ; COELHO, R., Rosângela Coelho		
trabalhoCompletoEmCongresso	2013		Strength of Concrete Beams Reinforced with GFRP Bars	11th International Symposium on Fiber Reinforced Polymers for Reinforced Concrete Structures (FRPRCS-11)	Teixeira, A. M. A. J. ; CARNEIRO, L. A. V. ; MENEZES, R. A.		
trabalhoCompletoEmCongresso	2013		Alguns Casos Reais de Fissuração em Paredes de Edifícios de Concreto Armado	IX International Congress on Pathology and Recovery Structures	THOMAZ, E. C. S. ; CARNEIRO, L. A. V.		
trabalhoCompletoEmCongresso	2013		Avaliação de Abertura de Fissuras de Cisalhamento em Vigas de Concreto Armado	55. Congresso Brasileiro do Concreto	THOMAZ, E. C. S. ; CARNEIRO, L. A. V.		
trabalhoCompletoEmCongresso	2013		Guidance, avionics and navigation system of an autonomous airship for demining	22nd International Congress of Mechanical Engineering (COBEM 2013)	VALLE, R. C. ; MENEGALDO, L. L. ; SIMÕES, A. M.		
trabalhoCompletoEmCongresso	2013		Identificação de emoções a partir de expressões faciais com redes neurais sem peso	XI SBAI Simpósio Brasileiro de Automação Inteligente	VIDAL, F. S. ; CARNEIRO, H. C. C. ; ROSA, PAULO FERNANDO FERREIRA ; FRANCA, F. M. G.		
trabalhoCompletoEmCongresso	2013		Solução FASTSLAM com atualização de marcos utilizando multilayer perceptron	XI SBAI Simpósio Brasileiro de Automação Inteligente	VIDAL, F. S. ; ROSA, PAULO F. F. ; MELLO NETO, A. ; OLIVEIRA, T. E. A.		
trabalhoCompletoEmCongresso	2013		Multilayer Perceptron Use in a Mapping Task by Cooperating Robots	1st BRICS Countries 11th CBIC Brazilian Congress on Computational Intelligence	VIDAL, F. S. ; ROSA, PAULO FERNANDO FERREIRA ; MELLO NETO, A. ; OLIVEIRA, T. E. A.		
trabalhoCompletoEmCongresso	2013	http://dx.doi.org/10.1109/IECON.2013.6699788	Cooperating robots for mapping tasks with a multilayer perceptron	IECON 2013 39th Annual Conference of the IEEE Industrial Electronics Society	VIDAL, FABIO SILVEIRA ; ROSA, PAULO FERNANDO FERREIRA ; DE MELO NETO, ADAO ; DE OLIVEIRA, THIAGO EUSTAQUIO ALVES		
trabalhoCompletoEmCongresso	2013		Realce EMDF e Treinamento em Múltiplas Condições Acústicas para Identificação de Locutor	XXXI Simpósio Brasileiro de Telecomunicações	ZÃO, L. ; COELHO, R., Rosângela Coelho		
resumoExpandidoEmCongresso	2016	Built Environment Lifecycle Management by Using Large-Scale BIM: a Brazilian Army Case Study	BIM International Conference - BIC-2016, 2016, São Paulo e Lisboa. Proceedings of the 4th BIM International Conference. Lisboa: BIM Management Institute	Alexandre Fitzner do Nascimento ; Giuseppe Miceli Junior ; PELLANDA, Paulo César		
resumoExpandidoEmCongresso	2015	Avaliação da Permeabilidade horizontal e vertical de um depósito de solo mole	XXIX ANPET - Congresso de Pesquisa e Ensino em Transportes, 2015, Ouro Preto. XXIX ANPET - Congresso de Pesquisa e Ensino em Transportes	BERBERT, L. A. ; Marques, M. E. S.		
resumoExpandidoEmCongresso	2015	Avaliação das propriedades físicas e mecânicas do subleito de um pavimento de via férrea do tipo Heavy Haul	XXIX ANPET - Congresso de Pesquisa e Ensino em Transportes, 2015, Ouro Preto. XXIX ANPET - Congresso de Pesquisa e Ensino em Transportes	DARIVA, L. B. ; Marques, M. E. S. ; Vieira, A.		
resumoExpandidoEmCongresso	2015	Avaliação do comportamento tensão deformação dos solos de uma linha férrea	XXIX ANPET - Congresso de Pesquisa e Ensino em Transportes, 2015, Ouro Preto. XXIX ANPET - Congresso de Pesquisa e Ensino em Transportes	MONTEIRO, P. M. ; Marques, M. E. S. ; Vieira, A.		
resumoExpandidoEmCongresso	2014	RoboIME: on the road to RoboCup 2014	18th Annual ROBOCUP International Symposium, 2014, João Pessoa - PB. Proceedings of the 18th Annual ROBOCUP International Symposium. Porto Alegre: SBC	BARCELOS, ANDRE DE OLIVEIRA PALMERIM ; SEGRE, J. ; Lima, Lucas O. ; Naum, A. F. Barreira ; Gemignani, Renan ; Calou, Robinson M.B.F ; Bettio, Vitor H. F. ; Bramigk, V. ; ROSA, PAULO F. F.		
resumoExpandidoEmCongresso	2013	Método de análise da trafegabilidade de veículo em vias não pavimentadas	XXVII ANPET, 2013, Belém. XXVII ANPET	CORDEIRO, W. R. ; Marques, M. E. S.		
resumoExpandidoEmCongresso	2013	Modelos Markovianos Nascimento e Morte Para Canais Com Desvanecimento	XXXI Simpósio Brasileiro de Telecomunicações, 2013, Fortaleza. SBrT 2013	FELIPE BARROS ; CECILIO PIMENTEL ; ERNESTO PINTO		
resumoExpandidoEmCongresso	2013	The Influence of the Aspect-ratio on the Effective Optical Response of Metallic Nanowire Media	PIERS - Progress In Electromagnetics Research Symposium, 2013, Estocolmo. Proceedings of The Progress In Electromagnetics Research Symposium. Estocolmo: PIERS	SILVA, A. O. ; LEITE, I. T. ; TEIXEIRA, J. M. ; COSTA, J. C. W. A. ; GIRALDI, M. T. M. R. ; JORGE, P. A. S. ; GUERREIRO, A.		
