7523573139592166
6449109891449053
0783231483314728
5437263332275941
7527231134789887
5641519211700358
0516705125074931
9641517111540508
3619576672162191
2920848355110000
8571916045049616
3217849199882153
5124792435888370
6141444369495639
8008716840192055
4985215075940551
2135631756325452
3501951737374160
4608185787860314
8328754543048690
0507188444713095
6288735286919040
5811233850853806
6661676956232573
4038930548278283
1209937575998431
4685833009997780
6637517443126827
8259839362903281
3265471567908195
6653642556441432
1950137747785419
0454862055003828
7216098788423041
5685434166341583
9376203096430598
0938805013383423
3620197655490764
8318596780458442
1559766893291724
8404941083767535
3283741881583320
8494271331675279
5940284266359506
8715488365201101
5965829794533852
