strict digraph grafo3 {
	graph [bb="0,0,1746,81",
		id=grafo3,
		overlap=False
	];
	node [fontsize=8,
		label="\N",
		shape=rectangle,
		style=filled
	];
	0	 [URL="http://lattes.cnpq.br/8770932409623222",
		color="#17272B",
		fontcolor="#FFFFFF",
		height=0.23611,
		label="Juliana De Conto [0]",
		pos="41.5,72.5",
		width=1.1528];
	1	 [URL="http://lattes.cnpq.br/7514178774795860",
		color="#17272B",
		fontcolor="#FFFFFF",
		height=0.23611,
		label="Jose S. de Paula Pinto [0]",
		pos="150.5,72.5",
		width=1.3611];
	2	 [URL="http://lattes.cnpq.br/1216712773575109",
		color="#17272B",
		fontcolor="#FFFFFF",
		height=0.23611,
		label="Helena de F. Nunes Silva [2]",
		pos="272.5,72.5",
		width=1.5139];
	8	 [URL="http://lattes.cnpq.br/8265885406314576",
		color="#17272B",
		fontcolor="#FFFFFF",
		height=0.23611,
		label="Denise Fukumi Tsunoda [2]",
		pos="272.5,8.5",
		width=1.4722];
	2 -> 8	 [arrowhead=normal,
		arrowsize=0.75,
		fontsize=8,
		label=1.0,
		lp="262,40.5",
		penwidth=3.5,
		pos="e,266.22,17.153 265.54,63.736 260,56.604 253.63,45.635 256.5,35.5 257.66,31.398 259.67,27.307 261.88,23.625"];
	8 -> 2	 [arrowhead=normal,
		arrowsize=0.75,
		fontsize=8,
		label=1.0,
		lp="278,40.5",
		penwidth=3.5,
		pos="e,272.5,63.898 272.5,17.165 272.5,26.864 272.5,43.797 272.5,56.189"];
	3	 [URL="http://lattes.cnpq.br/4240755341639061",
		color="#17272B",
		fontcolor="#FFFFFF",
		height=0.23611,
		label="Glauco Gomes de Menezes [0]",
		pos="403.5,72.5",
		width=1.6111];
	4	 [URL="http://lattes.cnpq.br/1767196615552654",
		color="#17272B",
		fontcolor="#FFFFFF",
		height=0.23611,
		label="Egon Walter Wildauer [0]",
		pos="529.5,72.5",
		width=1.3889];
	5	 [URL="http://lattes.cnpq.br/2435628775717990",
		color="#17272B",
		fontcolor="#FFFFFF",
		height=0.23611,
		label="Edson R. Guarido Filho [0]",
		pos="649.5,72.5",
		width=1.4444];
	6	 [URL="http://lattes.cnpq.br/4196064047953730",
		color="#17272B",
		fontcolor="#FFFFFF",
		height=0.23611,
		label="Edelvino Razzolini Filho [0]",
		pos="773.5,72.5",
		width=1.5];
	7	 [URL="http://lattes.cnpq.br/6573466767454891",
		color="#17272B",
		fontcolor="#FFFFFF",
		height=0.23611,
		label="Denise M. Woranovicz Carvalho [0]",
		pos="912.5,72.5",
		width=1.8611];
	9	 [URL="http://lattes.cnpq.br/5213592913330383",
		color="#17272B",
		fontcolor="#FFFFFF",
		height=0.23611,
		label="Déborah Carvalho Ribeiro [0]",
		pos="1054.5,72.5",
		width=1.5694];
	10	 [URL="http://lattes.cnpq.br/6091643712340626",
		color="#17272B",
		fontcolor="#FFFFFF",
		height=0.23611,
		label="Vera Karam de Chueiri [0]",
		pos="1180.5,72.5",
		width=1.4306];
	11	 [URL="http://lattes.cnpq.br/8651113987192195",
		color="#17272B",
		fontcolor="#FFFFFF",
		height=0.23611,
		label="Cicero Aparecido Bezerra [0]",
		pos="1305.5,72.5",
		width=1.5417];
	12	 [URL="http://lattes.cnpq.br/7731274767187515",
		color="#17272B",
		fontcolor="#FFFFFF",
		height=0.23611,
		label="Celso Yoshikazu Ishida [8]",
		pos="1431.5,72.5",
		width=1.4444];
	15	 [URL="http://lattes.cnpq.br/1740734674821323",
		color="#17272B",
		fontcolor="#FFFFFF",
		height=0.23611,
		label="Maria do C. Duarte Freitas [8]",
		pos="1431.5,8.5",
		width=1.5833];
	12 -> 15	 [arrowhead=normal,
		arrowsize=0.75,
		fontsize=8,
		label=1.0,
		lp="1421,40.5",
		penwidth=3.5,
		pos="e,1424.5,17.264 1425.2,63.847 1421.6,58.934 1417.4,52.232 1415.5,45.5 1413.4,38.057 1416.3,30.165 1420.1,23.672"];
	15 -> 12	 [arrowhead=normal,
		arrowsize=0.75,
		fontsize=8,
		label=1.0,
		lp="1437,40.5",
		penwidth=3.5,
		pos="e,1431.5,63.898 1431.5,17.165 1431.5,26.864 1431.5,43.797 1431.5,56.189"];
	13	 [URL="http://lattes.cnpq.br/4445534055001103",
		color="#17272B",
		fontcolor="#FFFFFF",
		height=0.23611,
		label="Patricia Zeni Marchiori [0]",
		pos="1553.5,72.5",
		width=1.4306];
	14	 [URL="http://lattes.cnpq.br/4743367964787153",
		color="#17272B",
		fontcolor="#FFFFFF",
		height=0.23611,
		label="Newton C. de Castilho Junior [0]",
		pos="1684.5,72.5",
		width=1.7083];
}
