trabalhoCompletoEmCongresso	Paulo Roberto Bergamaschi	2014		Aprendizagem e Cognição Matemática do Aluno com Síndrome de Down	VI Simpósio de Matemática e Matemática Industrial	JESUS, R. A. ; BERGAMASCHI, Paulo Roberto ; Bergamaschi, Elânia M. Marques		
trabalhoCompletoEmCongresso	Paulo Roberto Bergamaschi	2014		Interação de Estudantes com Síndrome de Down por meiio de Jogos Matemáticos	II Congresso Nacional de Educação Especial e Inclusão (II CONEESPI) - Inclusão	JESUS, R. A. ; BERGAMASCHI, Paulo Roberto ; Bergamaschi, Elânia M. Marques		
trabalhoCompletoEmCongresso	Muris Lage Junior	2014		Balanceamento de linha de montagem a partir de métodos heurísticos em uma empresa do setor automotivo	ENEGEP	BUENO, C. C. ; LAGE JUNIOR, M. ; BACHEGA, S. J.		
resumoExpandidoEmCongresso	Muris Lage Junior	0	Componentes tecnológicos de suporte à produção integrada. 2010. (Parecer técnico)		LAGE JUNIOR, M		
resumoExpandidoEmCongresso	Muris Lage Junior	0	sistema kanban de duplo cartão. 2008. (Desenvolvimento de material didático ou instrucional - Simulador)		LAGE JUNIOR, M.; Fernandes, F. C. F.		
resumoExpandidoEmCongresso	Muris Lage Junior	0	Sistemas de Informação Gerenciais. 2007. (Desenvolvimento de material didático ou instrucional - Apostila)		LAGE JUNIOR, M		
resumoExpandidoEmCongresso	Muris Lage Junior	0	Modelos Probabilísticos Aplicados à Engenharia de Produção. 2006. (Desenvolvimento de material didático ou instrucional - Apostila)		LAGE JUNIOR, M		
resumoExpandidoEmCongresso	Muris Lage Junior	0	Minicurso de Melhoria da Qualidade. 2002. (Curso de curta duração ministrado/Outra)		LAGE JUNIOR, M		
artigoEmPeriodico	Marcos Napoleão Rabelo	2014	http://dx.doi.org/10.1155/2014/131379	Second Order Impulsive Retarded Differential Inclusions with Nonlocal Conditions	Abstract and Applied Analysis	Henríquez, Hernán R. ; RABELO, MARCOS ; VALE, LUCIANA	Qualis nao identificado	Abstract and Applied Analysis
artigoEmPeriodico	Marcos Napoleão Rabelo	2014	http://dx.doi.org/10.1016/j.neucom.2014.11.013	Hopf Bifurcation in a Chaotic Associative Memory	Neurocomputing (Amsterdam)	TIBA, ANDRÉ K.O. ; ARAUJO, ALUIZIO F.R. ; Rabelo, Marcos N.	A2	
artigoEmPeriodico	Marcelo Henrique Stoppa	2014		A Simple Industrial Process Simulation with Mindstorms NXT as Tool in Automation Lessons	International Journal for Innovation Education and Research	MAIA, B. A. ; STOPPA, M. H.	Qualis nao identificado	International Journal for Innovation Education and Research
artigoEmPeriodico	Marcelo Henrique Stoppa	2014		Veículos Híbridos como Oportunidade de Eficiência Logística	Enciclopédia Biosfera	BERNARDES JUNIOR, E. ; NEVES, G. S. ; Stoppa, M. H.	B3	
artigoEmPeriodico	Marcelo Henrique Stoppa	2014		Procedimento para Confecção de Corpos de Prova para Ensaios de Tração a Partir de Tubos de PVC	Enciclopédia Biosfera	SOUZA, L. R. S. ; Stoppa, M. H.	B3	
artigoEmPeriodico	Marcelo Henrique Stoppa	2014		Método para Mapeamento do Campo de Atuação 3D de Sensores Ultrassônicos	Enciclopédia Biosfera	OLIVEIRA, R. M. M. ; STOPPA, M. H.	B3	
artigoEmPeriodico	Marcelo Henrique Stoppa	2014		Desenvolvimento de Aplicativo de Controle de Próteses Biônicas de Mão para Sistemas Embarcados Móveis	Enciclopédia Biosfera	CAMARGO, L. C. ; STOPPA, M. H.	B3	
artigoEmPeriodico	Marcelo Henrique Stoppa	2014		Controle de Acesso a Redes WLAN: PFSENSE Integrado ao Radius e AD para Ambientes Multiplataforma	Enciclopédia Biosfera	Martinez, L. F. E. ; STOPPA, M. H.	B3	
trabalhoCompletoEmCongresso	Marcelo Henrique Stoppa	2014	http://dx.doi.org/10.5151/mathpro-cnmai-0021	INDUSTRIAL PRODUCTION LINE MODELING AND REASONING BY PETRI NETS	Congresso Nacional de Matemática Aplicada à Indústria	COSTA, VASTON GONÇALVES DA ; VIEIRA, BRUNO LOPES ; STOPPA, MARCELO HENRIQUE ; SOUZA, LEANDRO RODRIGUES DA SILVA		
trabalhoCompletoEmCongresso	Marcelo Henrique Stoppa	2014		Inspeção por Câmera no Processo de Validação da Gravação por Punção do Chassi	Congresso Nacional de Engenharia Mecânica	SOUZA, L. R. S. ; OLIVEIRA, R. M. M. ; Stoppa, M. H. ; CALDAS, J. O.		
artigoEmPeriodico	Helio Yochihiro Fuchigami	2014		Influência da relação entre os tempos de processamento e de setup em flow shop híbridos	Pesquisa Operacional para o Desenvolvimento	FUCHIGAMI, H. Y.; MOCCELLIN, J. V.	B4	
artigoEmPeriodico	Helio Yochihiro Fuchigami	2014		A função da comunicação na autoavaliação na Universidade Federal de Goiás - Regional Catalão	Enciclopédia Biosfera	SILVA, A. A. ; FUCHIGAMI, H. Y. ; VASCONCELOS-SILVA, A. ; ROSALEM, V.	B3	
artigoEmPeriodico	Helio Yochihiro Fuchigami	2014		A identificação das partes interessadas em um projeto de repatriar atividades de uma filial e um fornecedor: um projeto na montadora Alpha	Enciclopédia Biosfera	NICOLAU, I. C. ; FUCHIGAMI, H. Y. ; SILVA, P. F. ; SILVA, L. J. P. ; PRADO, S. F. ; CARDOSO, A. S. ; MORAIS, D. M.	B3	
artigoEmPeriodico	Helio Yochihiro Fuchigami	2014	http://dx.doi.org/10.14488/1676-1901.v14i3.1631	Proposição de algoritmo simulated annealing para programação em flow shops paralelos proporcionais com tempos de setup explícitos	Revista Produção Online	FUCHIGAMI, H. Y	B2	
trabalhoCompletoEmCongresso	Helio Yochihiro Fuchigami	2014		Estudo de regras de sequenciamento para minimização do atraso em ambiente flow shop com tempos de setup	XXXIV Encontro Nacional de Engenharia de Produção	SILVA, T. C. ; FUCHIGAMI, H. Y.		
trabalhoCompletoEmCongresso	Helio Yochihiro Fuchigami	2014		Novas regras de sequenciamento para programação de flow shop com datas de liberação e tempos de setup	XXXIV Encontro Nacional de Engenharia de Produção	ARAUJO, C. S. ; FUCHIGAMI, H. Y.		
trabalhoCompletoEmCongresso	Helio Yochihiro Fuchigami	2014		Técnicas de sequenciamento para o auxílio em execuções de projetos automobilísticos	I Congresso Nacional de Matemática Aplicada à Indústria	ALMEIDA, T. S. ; FUCHIGAMI, H. Y.		
trabalhoCompletoEmCongresso	Helio Yochihiro Fuchigami	2014		Uso de modelo matemático de alocação de peças para testes de diferentes cenários	I Congresso Nacional de Matemática Aplicada à Indústria	ALMEIDA, T. S. ; FUCHIGAMI, H. Y. ; LAGE JUNIOR, M. ; QUEIROZ, T. A.		
trabalhoCompletoEmCongresso	Helio Yochihiro Fuchigami	2014		Uma análise de estudos de casos em sequenciamento da produção	XLVI Simpósio Brasileiro de Pesquisa Operacional	FUCHIGAMI, H. Y.; RANGEL, S.		
resumoExpandidoEmCongresso	Helio Yochihiro Fuchigami	2014	Análise comparativa de heurísticas para minimização de adiantamentos e atrasos em flow shop com tempos de setup	XVI Oficina Nacional de Problemas de Corte, Empacotamento, Dimensionamento de Lotes e Programação da Produção, 2014, São Carlos/SP. XVI ONPCE	DAVID, J. L. D. ; FUCHIGAMI, H. Y.		
artigoEmPeriodico	Wellington Andrade da Silva	2014	http://dx.doi.org/10.5216/reec.v8i3.28149	Rotina computacional para a previsão da capacidade de carga em estacas	REEC - Revista Eletrônica de Engenharia Civil	FERREIRA, T. R. ; DELALIBERA, R. G. ; Da SILVA, W. A.	Qualis nao identificado	REEC - Revista Eletrônica de Engenharia Civil
artigoEmPeriodico	Wellington Andrade da Silva	2014	http://dx.doi.org/10.5216/reec.v9i2.28875	Avaliação dos critérios para análise da estabilidade global em edifícios de concreto armado: estudo de caso. (D.O.I. 10.5216/reec.v9i2.28875)	REEC - Revista Eletrônica de Engenharia Civil	LACERDA, M. M. S. ; FLORENCIO, A. C. ; Da SILVA, W. A. ; DELALIBERA, R. G.	Qualis nao identificado	REEC - Revista Eletrônica de Engenharia Civil
artigoEmPeriodico	Wellington Andrade da Silva	2014	http://dx.doi.org/10.14393/19834071.2014.26852	Análise numérica de blocos sobre duas estacas com cálice embutido submetido à ação de força horizontal	Ciência & Engenharia	DELALIBERA, RODRIGO GUSTAVO ; DA SILVA, WELLINGTON ANDRADE ; GIONGO, JOSÉ SAMUEL	B2	Ciência & Engenharia (UFU. Impresso)
trabalhoCompletoEmCongresso	Wellington Andrade da Silva	2014		MODELAGEM NUMÉRICA DE SISTEMA DE PROTEÇÃO DE PILARES DE PONTES	Iberian Latin-American Congress on Computational Methods in Engineering - CILAMCE	BRITO, M. A. N. ; EMIDIO SOBRINHO, B. ; MONTANDON JUNIOR, A. C. ; Da SILVA, W. A.		
trabalhoCompletoEmCongresso	Wellington Andrade da Silva	2014		MODELAGEM NUMÉRICA NA OBTENÇÃO DO COMPORTAMENTO DE EDIFICAÇÕES QUE SOFRERAM ALTERAÇÕES ESTRUTURAIS AO LONGO DO TEMPO	Iberian Latin-American Congress on Computational Methods in Engineering - CILAMCE	BRITO, M. A. N. ; EMIDIO SOBRINHO, B. ; SILVA, R. S. Y. C. ; Da SILVA, W. A. ; SILVA, B. F. ; MONTANDON JUNIOR, A. C.		
trabalhoCompletoEmCongresso	Wellington Andrade da Silva	2014		INSPEÇÃO PREDIAL E ANÁLISE DE CUSTOS DE RECUPERAÇÃO ESTRUTURAL DE EDIFICAÇÃO LOCALIZADA EM ÁREA TOMBADA PATRIMÔNIO HISTÓRICO EM BRASÍLIA	CONGRESSO BRASILEIRO DE PATOLOGIA DAS CONSTRUÇÕES	MAGALHAES, L. M. ; PERPETUO, C. E. C. ; Da SILVA, W. A.		
trabalhoCompletoEmCongresso	Vaston Gonçalves da Costa	2014	http://dx.doi.org/10.5151/mathpro-cnmai-0143	SIMULAÇÃO COMPUTACIONAL POR ELEMENTOS FINITOS E VALIDAÇÃO EXPERIMENTAL DE TUBOS DE PVC SOLICITADOS À FLEXÃO	Congresso Nacional de Matemática Aplicada à Indústria	SOUZA, LEANDRO RODRIGUES DA SILVA ; SANTOS, NÚBIA SAAD DOS ; PEREIRA, CLEZIDAN NÚCIO ; COSTA, VASTON GONÇALVES DA ; STOPPA, MARCELO HENRIQUE		
artigoEmPeriodico	Heber Martins de Paula	2014	http://dx.doi.org/10.1590/S1983-41952014000300003	Quality of concrete plant wastewater for reuse	Revista IBRACON de Estruturas e Materiais	PAULA, H. M.; ILHA, M. S. O.	B2	
artigoEmPeriodico	Heber Martins de Paula	2014	http://dx.doi.org/10.1016/j.jclepro.2014.04.031	Concrete Plant Wastewater Treatment Process By Coagulation Combining Aluminum Sulfate And Moringa Oleifera Powder	Journal of Cleaner Production	PAULA, H. M.; ILHA, M. S. O. ; ANDRADE, L. S.	A1	
artigoEmPeriodico	Heber Martins de Paula	2014		Consumo de água em usinas de concreto e a qualidade das águas residuárias	Hydro (São Paulo)	ILHA, M. S. O. ; PAULA, H. M. ; SARTI, M. P.	B5	
artigoEmPeriodico	Heber Martins de Paula	2014		PRÁTICAS EXECUTIVAS DE REDES COLETORAS DE ESGOTO SANITÁRIO	REEC - Revista Eletrônica de Engenharia Civil	FONSECA, R. M. C. ; SARMENTO, A. P. ; PAULA, H. M.	Qualis nao identificado	REEC - Revista Eletrônica de Engenharia Civil
trabalhoCompletoEmCongresso	Heber Martins de Paula	2014		USO DA MORINGA OLEIFERA ASSOCIADA AO SULFATO DE ALUMÍNIO NO TRATAMENTO DA ÁGUA RESIDUÁRIA DE USINAS DE CONCRETO	V Encontro Nacional de Moringa	PAULA, H. M.; ILHA, M. S. O.		
trabalhoCompletoEmCongresso	Heber Martins de Paula	2014		ESTUDO DE CASO: PROCESSO EXECUTIVO DE REDES COLETORAS DE ESGOTO EM LOTEAMENTOS DO MUNICÍPIO DE CATALÃO-GO	XIII SIMPÓSIO IBEROAMERICANO DE REDES DE ÁGUA	FONSECA, R. M. C. ; SARMENTO, A. P. ; PAULA, H. M.		
artigoEmPeriodico	Fran Sérgio Lobato	2014		Fish Swarm Optimization Algorithm Applied to Engineering System Design	Latin American Journal of Solids and Structures (Impresso)	LOBATO, F. S.; Steffen Jr, V.	Qualis nao identificado	Latin American Journal of Solids and Structures (Impresso)
artigoEmPeriodico	Fran Sérgio Lobato	2014	http://dx.doi.org/10.1016/j.asoc.2014.05.004	Multi-objective optimization and bio-inspired methods applied to machinability of stainless steel	Applied Soft Computing (Print)	LOBATO, F.S.; SOUSA, M.N. ; SILVA, M.A. ; MACHADO, A.R.	A2	
trabalhoCompletoEmCongresso	Fran Sérgio Lobato	2014		Etudo da Cinética de Remoção de Resíduos na Etapa de Enxágue de Sistema de Limpeza CIP	XI Simpósio de Mecânica Computacional e II Encontro Mineiro de Modelagem Computacional	LOBATO, F. S.; MALAGONI, R. A. ; GEDRAITE, R. ; KUNIGK, L.		
trabalhoCompletoEmCongresso	Fran Sérgio Lobato	2014		Projeto de Estator de Máquina de Indução Trifásica usando o Algoritmo de Evolução Diferencial	XI Simpósio de Mecânica Computacional e II Encontro Mineiro de Modelagem Computacional	LOBATO, F. S.; MALAGOLI, J. A. ; CAMACHO, J. R. ; LUZ, M. V. F.		
trabalhoCompletoEmCongresso	Fran Sérgio Lobato	2014		Resolução de Problemas Inversos de Transferência de Calor em Tecidos usando o Algoritmo de Evolução Diferencial	XIX Jornada em Engenharia Química	LOBATO, F. S.; FRANCO, D. G. F.		
trabalhoCompletoEmCongresso	Fran Sérgio Lobato	2014		Projeto de SIstemas de Engenharia usando Otimização Multiobjetivo Robusta e o Algoritmo de Colônia de Vagalumes	Congresso Nacional de Engenharia Mecânica	LOBATO, F. S.; MOREIRA, F. R. ; Steffen Jr, V.		
trabalhoCompletoEmCongresso	Fran Sérgio Lobato	2014		Robust Multiobjective Optimization Applied to Optimal Control Problems using Differential Evolution	International Congress of Chemical and Process Engineering	LOBATO, F. S.; SOUZA, D. L. ; GEDRAITE, R.		
trabalhoCompletoEmCongresso	Fran Sérgio Lobato	2014		Variability Reduction and Efficiency Increase in Nickel Reduction Roasters using Advanced Process Control	International Congress of Chemical and Process Engineering	LOBATO, F. S.; SOUZA, D. L. ; GEDRAITE, R.		
trabalhoCompletoEmCongresso	Fran Sérgio Lobato	2014		Determinação de Parâmetros Constitutivos no Processo de Cristalização usando o Algoritmo de Colônia de Vagalumes	XVII Encontro de Modelagem Computacional e V Encontro de Ciência e Tecnologia de Materiais	LOBATO, F.S.; MALAGONI, R. A.		
trabalhoCompletoEmCongresso	Fran Sérgio Lobato	2014		Determinação de Parâmetros Cinéticos para a Produção de Lacase em Meio de Cultura Submersa usando o Algoritmo de Evolução Diferencial	XVII Encontro de Modelagem Computacional e V Encontro de Ciência e Tecnologia de Materiais	LOBATO, F. S.; GEDRAITE, R. ; SOUZA, D. L.		
trabalhoCompletoEmCongresso	Fran Sérgio Lobato	2014		Determinação de Cavidade em Problemas de Condução de Calor usando o Método dos Elementos de Contorno e o Algoritmo de Colônia de Vagalumes	XVII Encontro de Modelagem Computacional e V Encontro de Ciência e Tecnologia de Materiais	LOBATO, F. S.; Steffen Jr, V. ; SILVA NETO, A. J.		
trabalhoCompletoEmCongresso	Fran Sérgio Lobato	2014		Otimização Multiobjetivo Robusta Aplicado ao Processo de Produção de Etanol	XVII Encontro de Modelagem Computacional e V Encontro de Ciência e Tecnologia de Materiais	LOBATO, F. S.; VIEIRA, P. A.		
trabalhoCompletoEmCongresso	Fran Sérgio Lobato	2014		Otimização Multiobjetivo Robusta Aplicado ao Processo de Produção de Etanol	XVII Encontro de Modelagem Computacional e V Encontro de Ciência e Tecnologia de Materiais	LOBATO, F. S.; VIEIRA, P. A.		
trabalhoCompletoEmCongresso	Fran Sérgio Lobato	2014		Otimização Multiobjetivo Aplicado ao Projeto do Rotor Bobinado de Motor de Indução Trifásico	XVII Encontro de Modelagem Computacional e V Encontro de Ciência e Tecnologia de Materiais	LOBATO, F. S.; MALAGOLI, J. A. ; CAMACHO, J. R.		
trabalhoCompletoEmCongresso	Fran Sérgio Lobato	2014		Otimização Multiobjetivo Aplicado ao Projeto do Rotor Bobinado de Motor de Indução Trifásico	XVII Encontro de Modelagem Computacional e V Encontro de Ciência e Tecnologia de Materiais	LOBATO, F. S.; MALAGOLI, J. A. ; CAMACHO, J. R.		
trabalhoCompletoEmCongresso	Donald Mark Santee	2014		Aplicação de Modelos Estatísticos para a Previsão do Valor de Venda de Automóveis: Um Estudo de Caso	VI Simpósio de Matemática e Matemática Industrial	SANTEE, D. M		
trabalhoCompletoEmCongresso	Donald Mark Santee	2014		Elementos de Modelagem Matemática e Computacional na Otimização Estrutural de Treliças Planas Considerando apenas os Efeitos de Primieira Ordem	VI Simpósio de Matemática e Matemática Industrial	DUARTE, P. A. S. ; SANTEE, D. M.		
trabalhoCompletoEmCongresso	Donald Mark Santee	2014		Problema da Dieta: Um Estudo de Caso	VI Simpósio de Matemática e Matemática Industrial	SANTOS, G. S. ; RAMOS, T. M. ; SANTEE, D. M.		
artigoEmPeriodico	Celso Vieira Abud	2014	http://dx.doi.org/10.1088/0029-5515/54/6/064010	Onset of shearless magnetic surfaces in tokamaks	Nuclear Fusion	Vieira Abud, C.; CALDAS, I.L.	Qualis nao identificado	Nuclear Fusion
artigoEmPeriodico	Celso Vieira Abud	2014	http://dx.doi.org/10.1103/physreve.89.012916	Tunable Fermi acceleration in a nondissipative driven magnetic billiard	Physical Review. E, Statistical, Nonlinear, and Soft Matter Physics (Print)	CASTALDI, B. ; Egydio de Carvalho, R. ; Vieira Abud, C. ; MIJOLARO, A. P.	A1	
trabalhoCompletoEmCongresso	Tobias Anderson Guimarães	2014		Simulação de Sinais de Vibração e Classificação de Falhas em Bombas Centrífugas Usando Redes Neurais Artificiais	Congresso Nacional em Engenharia Mecânica 2014	GUIMARÃES, T. A.; MARQUES, V. A. S. ; OLIVEIRA FILHO, R. H.		
resumoExpandidoEmCongresso	Tobias Anderson Guimarães	2014	Simulação Numérica da Expansão de um Stent Comercial com o Auxílio do Balão para Angioplastia	24º Simpósio do Programa de Pós Graduação em Engenharia Mecânica da Universidade Federal de Uberlândia, 2014, Uberlândia, MG. POSMEC 2014	ARAUJO, R. ; OLIVEIRA, S. A. G. ; GUIMARÃES, T. A.		
artigoEmPeriodico	Thiago Alves de Queiroz	2014	http://dx.doi.org/10.1007/s10479-014-1634-2	Order and static stability into the strip packing problem	Annals of Operation Research	DE QUEIROZ, THIAGO ALVES; MIYAZAWA, FLÁVIO KEIDI	A2	
artigoEmPeriodico	Thiago Alves de Queiroz	2014	http://dx.doi.org/10.1016/j.procs.2014.05.204	The Knapsack Problem with Three Practical Constraints	Procedia Computer Science	GONÇALVES, RAÍNNE FLORISBELO ; QUEIROZ, THIAGO ALVES DE	C	
trabalhoCompletoEmCongresso	Thiago Alves de Queiroz	2014		Sistemas de Equações Lineares e Programação Linear: Uma Proposta para o Ensino Médio	XLVI Simpósio Brasileiro de Pesquisa Operacional	Lyra, M. S. ; de Queiroz, Thiago A.		
trabalhoCompletoEmCongresso	Thiago Alves de Queiroz	2014		Uma Heurística para o Problema de Localização e Roteamento	VI Simpósio de Matemática e Matemática Industrial	SILVA, L. C. ; Queiroz, T. A.		
resumoExpandidoEmCongresso	Thiago Alves de Queiroz	2014	Problema de Localização-Roteamento-Empacotamento com Demanda Incerta	XVI Oficina Nacional de Problemas de Corte, Empacotamento, Dimensionamento de Lotes e Programação da Produção, 2014, São Carlos - SP. XVI ONPCE	de Queiroz, Thiago A.; Oliveira, J. F. ; Carravilla, M. A. ; MIYAZAWA, F. K.		
resumoExpandidoEmCongresso	Thiago Alves de Queiroz	2014	Better Uncertain Distances	Many Faces of Distance, 2014, Campinas - SP. MFC	SENDIN, I. S. ; Queiroz, T. A. ; Batista, Marcos A.		
resumoExpandidoEmCongresso	Thiago Alves de Queiroz	2014	Modelos híbridos para o Problema da Mochila Bidimensional com conflitos	XVI Oficina Nacional de Problemas de Corte, Empacotamento, Dimensionamento de Lotes e Programação da Produção, 2014, São Carlos - SP. XVI ONPCE	HOKAMA, P. H. ; de Queiroz, Thiago A. ; MIYAZAWA, F. K.		
trabalhoCompletoEmCongresso	Romes Antonio Borges	2014	http://dx.doi.org/10.5151/meceng-wccm2012-18458	MULTI-OBJECTIVE OPTIMIZATION LINE-UP ALGORITHM APPLIED TO THE DESIGN OF A NONLINEAR VIBRATION ABSORBER	10th World Congress on Computational Mechanics	BORGES, R. A.; LOBATO, F. S. ; JR, V. STEFFEN		
trabalhoCompletoEmCongresso	Romes Antonio Borges	2014		ESTUDO DA INFLUÊNCIA DA PRÉ-CARGA ESTÁTICA SOBREPOSTA A CARGAS DINÂMICAS NO AUTOAQUECIMENTO DE MATERIAIS VISCOELÁSTICOS	CONGRESSO NACIONAL DE ENGENHARIA MECÂNICA - CONEM	Rodovalho, L.F.F. ; BORGES, ROMES ANTONIO ; LIMA, A. M. G.		
trabalhoCompletoEmCongresso	Romes Antonio Borges	2014		ESTUDO NUMÉRICO COMPUTACIONAL DE ABSORVEDORES DINÂMICOS DE VIBRAÇÃO PSEUDOELÁSTICOS PARA O CONTROLE PASSIVO DE VIBRAÇÕES DE SISTEMAS DINÂMICOS EM GRANDES DESLOCAMENTOS	XXXV IBERIAN LATIN AMERICAN CONGRESS ON COMPUTATIONAL METHODS IN ENGINEERING	Rodovalho, L.F.F. ; LIMA, A. M. G. ; BORGES, ROMES ANTONIO		
trabalhoCompletoEmCongresso	Romes Antonio Borges	2014		ESTUDO NUMÉRICO COMPUTACIONAL DE ABSORVEDORES DINÂMICOS PSEUDOELÁSICOS PARA O CONTROLE PASSIVO DE VIBRAÇÕES DE PLACAS EM GRANDES DESLOCAMENTOS	SIMPÓSIO DO PROGRAMA DE PÓS-GRADUAÇÃO EM ENGENHARIA MECÂNICA - UFU	Rodovalho, L.F.F. ; LIMA, A. M. G. ; BORGES, ROMES ANTONIO		
trabalhoCompletoEmCongresso	Romes Antonio Borges	2014		Estudo Numérico e Computacional de um Absorvedor Dinâmico de Vibrações com Característica Não Linear	II Seminário de Pesquisa	PURCINA, A. B. ; BORGES, ROMES ANTONIO		
trabalhoCompletoEmCongresso	Romes Antonio Borges	2014		: Introdução às Técnicas de Perturbação Aplicadas à Resolução de Sistemas Dinâmicos Não-Lineares	II Seminário de Pesquisa	OLIVEIRA, L. D. ; BORGES, ROMES ANTONIO		
trabalhoCompletoEmCongresso	Romes Antonio Borges	2014		Investigação numérica-experimental da influência de pré-cargas estáticas combinada à carregamentos cíclicos sobre o fenômeno do autoaquecimento em materiais viscoelásticos	CONGRESSO NACIONAL DE MATEMÁTICA APLICADA À INDÚSTRIA - CNMAI2014	Rodovalho, L.F.F. ; LIMA, A. M. G. ; BORGES, ROMES ANTONIO		
artigoEmPeriodico	Roberto Mendes Finzi Neto	2014	http://dx.doi.org/10.1155/2014/401942	Probabilistic Neural Network and Fuzzy Cluster Analysis Methods Applied to Impedance-Based SHM for Damage Classification	Shock and Vibration	Steffen Jr, V. ; Palomino, L. V. ; FINZI NETO, R. M.	B1	
artigoEmPeriodico	Roberto Mendes Finzi Neto	2014	http://dx.doi.org/10.1177/1475921714564639	Impedance-based fault detection methodology for rotating machines	Structural Health Monitoring	CAVALINI, A. A. ; FINZI NETO, R. M. ; STEFFEN Jr, V.	A2	
trabalhoCompletoEmCongresso	Roberto Mendes Finzi Neto	2014		Electromechanical Impedance Based Crack Detection for a Rotating Machine	IMAC XXXII A Conference and Exposition on Structural Dynamics	CAVALINI, A. A. ; Steffen Jr, V. ; FINZI NETO, R. M.		
trabalhoCompletoEmCongresso	Roberto Mendes Finzi Neto	2014		FAULT DETECTION IN A ROTATING MACHINE BY USING THE ELECTROMECHANICAL IMPEDANCE METHOD	9th IFToMM International Conference on Rotordinamics	CAVALINI, A. A. ; Steffen Jr, V. ; FINZI NETO, R. M.		
trabalhoCompletoEmCongresso	Roberto Mendes Finzi Neto	2014		Assessment of Derivatives Short-Circuit Welding Monitoring With Near-infrared Vision System	95th FABTECH and AWS	Mota, Carolina Pimenta ; MACHADO, M. V. R. ; FINZI NETO, R. M. ; Oliveira V., L		
trabalhoCompletoEmCongresso	Roberto Mendes Finzi Neto	2014		Identificação de Danos em estruturas com rebites utilizando técnicas de impedância eletromecânica e ondas de Lamb	Congresso Nacional de Engenharia Mecânica - CONEM 2014	ROCHA, L. A. A. ; RABELO, D. S. ; Steffen Jr, V. ; FINZI NETO, R. M.		
