artigoEmPeriodico	2013		Controle de Temperatura baseado no Método PID para uso em Casas Inteligentes	Boletim Técnico da Faculdade de Tecnologia de São Paulo	AGUIAR, R. V. ; CASELLA, I. R. S.	B4	
artigoEmPeriodico	2013	http://dx.doi.org/10.1016/j.cherd.2013.11.016	Product diversification to enhance economic viability of second generation ethanol production in Brazil: The case of the sugar and ethanol joint production	Chemical Engineering Research & Design	Albarelli, Juliana Q. ; Ensinas, Adriano V. ; SILVA, MARIA A.	A2	
artigoEmPeriodico	2013		Fuzzy logic based vector control for three phase induction motor	Przeglad Elektrotechniczny	Azcue P., J. L. ; Sguarezi Filho, Alfeu J. ; RUPPERT FILHO, E.	Qualis nao identificado	Przeglad Elektrotechniczny
artigoEmPeriodico	2013		Direct Vector Control With Fuzzy Current Controller For Three-phase Induction Motor	Revista Eletrônica de Potência	Azcue P., J. L. ; Sguarezi Filho, Alfeu J. ; Ruppert Filho, Ernesto	Qualis nao identificado	Revista Eletrônica de Potência
artigoEmPeriodico	2013		A modified load angle based DTC-SVM scheme for three-phase induction motors	Przeglad Elektrotechniczny	Azcue P., Jose L. ; H. Gaziolla ; Sguarezi Filho, Alfeu J. ; Ruppert Filho, Ernesto	Qualis nao identificado	Przeglad Elektrotechniczny
artigoEmPeriodico	2013		AVALIAÇÃO DA GESTÃO DE UMIDADE EM ARTIGOS TÊXTEIS ATRAVÉS DO MMT	Química Têxtil	BORELLI, C. ; GASI, F. ; BITTENCOURT, E. ; VASCONCELOS, F. B.	B2	
artigoEmPeriodico	2013		Brazil?Africa Agricultural Cooperation Encounters: Drivers, Narratives and Imaginaries of Africa and Development	IDS Bulletin (Brighton. 1984)	CABRAL, Lidia. ; SHANKLAND, Alex ; FAVARETO, Arilson da Silva ; VAZ, Alcides	A2	
artigoEmPeriodico	2013		Estudo de caso: aspectos socioambientais da pequena central elétrica (PCH)-Queluz/SP, na bacia do rio Paraíba do Sul	RDG - Revista do Departamento de Geografia - USP	CANDIANI, Giovano ; PENTEADO, C. L. C. ; CENDRETTI, E. C. ; SANTOS, E. M. ; BIONDI, A. E. C.	B2	
artigoEmPeriodico	2013		Experimental Analysis of Five Quasi-Yagi Antenna Shapes	Przeglad Elektrotechniczny	Capovilla, C. E. ; ARAUJO, H. X. ; Sguarezi Filho, Alfeu J. ; KRETLY, L. C.	Qualis nao identificado	Przeglad Elektrotechniczny
artigoEmPeriodico	2013	http://dx.doi.org/10.1016/j.camwa.2013.06.030	A wind energy generator for smart grid applications using wireless-coded neuro-fuzzy power control	Computers & Mathematics with Applications (1987)	CAPOVILLA, C.E. ; CASELLA, I.R.S. ; SGUAREZI FILHO, A.J. ; AZCUE-PUMA, J.L. ; JACOMINI, R.V. ; RUPPERT, E.	Qualis nao identificado	Computers & Mathematics with Applications (1987)
artigoEmPeriodico	2013		Sistema Microprocessado para A Geração de Diferentes Técnicas de Modulação Digital	Boletim Técnico da Faculdade de Tecnologia de São Paulo	CASELLA, I. R. S.; PEREIRA, J. C. ; OLMO, V. H. C.	B4	
artigoEmPeriodico	2013		Comissioning Of The IEA-R1 Nuclear Reactor New Heat Exchanger	Journal of Energy and Power Engineering	CASTRO, A. J. A. ; umbehaun, p.e. ; CARVALHO, M.R. ; FRAJNDLICH, R. ; CASSIANO, D. A.	B4	Energy and Power Engineering
artigoEmPeriodico	2013	http://dx.doi.org/10.1016/j.esd.2013.08.003	Water reuse and recycling according to stream qualities in sugar-ethanol plants	Energy Sustainable Development	CHAVEZ-RODRIGUEZ, MAURO F. ; MOSQUEIRA-SALAZAR, KLEVER JOAO ; Ensinas, Adriano V. ; Nebra, Silvia A.	B1	
artigoEmPeriodico	2013	http://dx.doi.org/10.3280/tr2013-066006	Trajectories of public engagement: outreach projects in Sao Paulo, Brazil	TERRITORIO	COMARU, FRANCISCO ; MORETTI, RICARDO	Qualis nao identificado	TERRITORIO
artigoEmPeriodico	2013		Os desafios da inclusão da agricultura familiar no mercado de matéria-prima para o biodiesel no Brasil	Estudos Sociedade e Agricultura (UFRJ)	DINIZ, João Fabio ; FAVARETO, Arilson da Silva	B1	
artigoEmPeriodico	2013	http://dx.doi.org/10.3303/CET1335087	Thermo-Economic Optimization of Integrated First and Second Generation Sugarcane Ethanol Plant	Chemical Engineering Transactions	ENSINAS, A. V.; Ensinas, A.V. ; Codina, V. ; Maréchal, F. ; SILVA, M. A.	B2	
artigoEmPeriodico	2013		Desenvolvimento de uma Plataforma para Auxílio no Planejamento Celular	Boletim Técnico da Faculdade de Tecnologia de São Paulo	FERNANDES, T. G. ; CASTELLANI, R. A. ; CASELLA, I. R. S.	B4	
artigoEmPeriodico	2013		Educação, percepção ambiental e interferência midiática: a energia como exemplo	Communicare (São Paulo)	FORTUNATO, I. ; PENTEADO, C. L. C.	B2	
artigoEmPeriodico	2013		A IIRSA no contexto da apropriação do recurso material periférico	Novos Cadernos NAEA	JERONYMO, A. C. J. ; GUERRA, Sinclair Mallet Guy	B1	
artigoEmPeriodico	2013		Estruturas sociais no Semiárido e o mercado de biodiesel	Caderno CRH (UFBA. Impresso)	KAWAMURA, Yumi ; FAVARETO, Arilson da Silva ; ABRAMOVAY, Ricardo	A2	
artigoEmPeriodico	2013		Effect of the Outlet Air Reuse on Thermal Efficiency of a Pilot Plant Spray Dryer with Rotary Atomizer	Chemical Engineering Transactions	LEITE, J. T. C. ou TONELI, J. T. C. L.; Monteiro, L. B. ; Briso, M. A. J. ; JÚNIOR, DEOVALDO MORAES	B2	
artigoEmPeriodico	2013	http://dx.doi.org/10.1016/j.jngse.2013.07.001	Network flows modeling applied to the natural gas pipeline in Brazil	Journal of Natural Gas Science and Engineering	VASCONCELOS, CLAUDEMIR DUCA ; LOURENÇO, SÉRGIO RICARDO ; GRACIAS, ANTONIO CARLOS ; CASSIANO, DOUGLAS ALVES	B2	Journal of Materials Science and Engineering
artigoEmPeriodico	2013	http://dx.doi.org/10.1590/s1414-753x2013000300004	Impactos dos desastres naturais nos sistemas ambiental e socioeconômico: o que faz a diferença?	Ambiente & Sociedade (Online)	MATA-LIMA, H. ; ALVINO-BORBA, A. ; PINHEIRO, A. ; Mata-Lima, A. ; ALMEIDA, J. A.	B1	
artigoEmPeriodico	2013	http://dx.doi.org/10.3303/CET1335168	Optimal Design of Solar Assisted Hydrothermal Gasification for Microalgae to Synthetic Natural Gas Conversion	Chemical Engineering Transactions	MIAN, A. ; ENSINAS, A. V. ; AMBROSETTI, G. ; Maréchal, François	B2	
artigoEmPeriodico	2013	http://dx.doi.org/10.1016/j.enpol.2012.12.044	Construction time of PWRs	Energy Policy	MOREIRA, JOÃO M.L. ; GALLINARO, BRUNO ; CARAJILESCOV, PEDRO	A1	
artigoEmPeriodico	2013		O direito à água potável e os riscos de desabastecimento: um estudo do ABC paulista	Revista da Universidade Federal de Minas Gerais	MORETTI, R. S.; VARALLO, L. S. ; COMARU, F.	Qualis nao identificado	Revista da Universidade Federal de Minas Gerais
artigoEmPeriodico	2013	http://dx.doi.org/10.1016/j.esd.2013.08.001	Reduction of water consumption in an integrated first- and second-generation ethanol plant	Energy Sustainable Development	Mosqueira Salazar, K. J. ; Palacios-Bereche, Reynaldo ; Chavez-Rodriguez, Mauro F. ; SEABRA, J. E. A. ; Nebra, S.A.	B1	
artigoEmPeriodico	2013		Geração de energia e seus impactos socioambientais: o caso da UTE Piratininga - SP	Revista Brasileira de Energia	Nakagawa, Louise ; Comarú, Francisco ; MORANTE, Federico	B3	
artigoEmPeriodico	2013	http://dx.doi.org/10.1016/j.renene.2013.01.019	Improvement in microalgae lipid extraction using a sonication-assisted method	Renewable Energy	Neto, Ana Maria Pereira; SOTANA DE SOUZA, RAFAEL AUGUSTO ; LEON-NINO, AMANDA DENISSE ; DA COSTA, JOANA D'ARC APARECIDA ; TIBURCIO, RODOLFO SBROLINI ; NUNES, THAÍS ABREU ; SELLARE DE MELLO, THAÍS CRISTINA ; KANEMOTO, FERNANDO TAKASHI ; SALDANHA-CORRÊA, FLÁVIA MARISA PRADO ; GIANESELLA, SÔNIA MARIA FLORES	A1	
artigoEmPeriodico	2013		ESTUDOS SOBRE RISCOS GEOLÓGICOS E SUA INCORPORAÇÃO NO PLANEJAMENTO TERRITORIAL ? RELATO DA EXPERIÊNCIA DE FORMAÇÃO DE QUADROS TÉCNICOS NO ABC PAULISTA	Revista Brasileira de Geologia de Engenharia e Ambiental (RBGEA)	NOGUEIRA, F. ; MORETTI, R. S. ; PAIVA, C.	Qualis nao identificado	Revista Brasileira de Geologia de Engenharia e Ambiental (RBGEA)
artigoEmPeriodico	2013	http://dx.doi.org/10.1016/j.energy.2013.05.010	Exergetic analysis of the integrated first- and second-generation ethanol production from sugarcane	Energy (Oxford)	PALACIOS-BERECHE, REYNALDO ; MOSQUEIRA-SALAZAR, KLEVER JOAO ; Modesto, Marcelo ; Ensinas, Adriano V. ; Nebra, Silvia A. ; SERRA, LUIS M. ; LOZANO, MIGUEL-ANGEL	A1	
artigoEmPeriodico	2013		Energia em Debate: estudo da cobertura na mídia impressa e digital	Revista Brasileira de Energia	PENTEADO, C. L. C	B3	
artigoEmPeriodico	2013		Perspectivas sobre participação digital: uma análise de blogs de política no debate sobre o Enem	Aurora (PUCSP. Online)	PENTEADO, C. L. C.; NOBOA, L. F. N.	B3	
artigoEmPeriodico	2013		Decoupled Power Control for Doubly-Fed Induction Generator Using Sliding-Mode Control	Przeglad Elektrotechniczny	R. V. Jacomini ; F. S. Trindade ; Sguarezi Filho, Alfeu J. ; RUPPERT FILHO, E.	Qualis nao identificado	Przeglad Elektrotechniczny
artigoEmPeriodico	2013	http://dx.doi.org/10.1016/j.jpowsour.2008.06.032	Relative humidity control in polymer electrolyte membrane fuel cells without extra humidification	JOURNAL OF POWER SOURCES	RIASCOS, L. A. M	A1	
artigoEmPeriodico	2013	http://dx.doi.org/10.1021/ie301841q	External coefficient of heat transfer by convection in mixed vessels using vertical tube baffles.	Industrial & Engineering Chemistry Research	ROSA, VITOR ; SOUZA PINTO, THIAGO ; SANTOS, ALDO ; MOINO, CARLOS ; TAMIÃO, KARINA ; LIA, LUIZ ; TAMBOURGI, ELIAS ; LOPES, MARCÍLIO ; TONELI, Juliana ; JÚNIOR, DEOVALDO MORAES	A1	
artigoEmPeriodico	2013		Gestão Condominial da Habitação Social	Arquitextos (São Paulo)	SANCHES, D. ; MORETTI, R. S.	B1	
artigoEmPeriodico	2013		Programas de eficiencia energética na indústria brasileira	REVISTA BRASILEIRA DE ENERGIA	SANT'ANA, P. H. M.; BAJAY, S. W.	B3	
artigoEmPeriodico	2013	http://dx.doi.org/10.3303/CET1335183	Energy Consumption Versus Antioxidant Activity of Pressurized Fluid Extracts from Pfaffia glomerata Roots	Chemical Engineering Transactions	SANTOS, D. T. ; VARDANEGA, R. ; Albarelli, J.Q. ; ENSINAS, A. V. ; Maréchal, François ; MEIRELLES, M. A. A.	B2	
artigoEmPeriodico	2013		Caminhar brasileiro na geração de eletricidade na América Latina - Versão I	Latinidade (Rio de Janeiro)	SANTOS, E. C. S. dos ; DOTI, Marcelo Micki ; LIMA FILHO, P. A. ; GUERRA, Sinclair Mallet Guy	B4	
artigoEmPeriodico	2013	http://dx.doi.org/10.1063/1.4819234	Magnetic flux amplification by Lenz lenses	Review of Scientific Instruments	Schoenmaker, J. ; J.C. Teixeira ; PIROTA, K. R.	A2	
artigoEmPeriodico	2013		A Smart Grid Wireless Neuro-fuzzy Power Control For Wind Energy Systems	Eletrônica de Potência (Impresso)	Sguarezi Filho, Alfeu J.; Capovilla, C. E. ; Casella, I. R .S. ; R. V. Jacomini ; Azcue P., J. L. ; Ruppert Filho, Ernesto	B2	
artigoEmPeriodico	2013	http://dx.doi.org/10.5585/gep.v3i3.95	ASPECTOS ERGONÔMICOS NO PLANEJAMENTO E EXECUÇÃO DE PROJETOS: ESTUDO DE CASO DE UM CENTRO DE DISTRIBUIÇÃO DE PRODUTOS TÊXTEIS	Revista de Gestão e Projetos	SILVA, E. L. ; CASSIANO, D. A. ; HABER, J. ; LOURENÇO, S. R.	B3	
artigoEmPeriodico	2013	http://dx.doi.org/10.1515/ijeeps-2013-0100	Analysis of the Flicker Level Produced by a Fixed-Speed Wind Turbine	International Journal of Emerging Electric Power Systems	SUPPIONI, V. P. ; GRILO, A. P.	B3	
trabalhoCompletoEmCongresso	2013		AVALIAÇÃO DA ATIVIDADE DE RESÍDUOS DE BAIXA NO SISTEMA PRIMÁRIO E SISTEMAS AUXILIARES DE REATORES PWR COM PROPÓSITOS DE DESMANTELAMENTO NUCLEAR	International Atlantic Nuclear Conference-INAC 2013	.MELO, A. T. ; MAIORINO, J. R.		
trabalhoCompletoEmCongresso	2013		Hidro-IA: Ferramenta de Suporte à Decisão Baseado em Algoritmos Genéticos Aplicada no Sistema Hidrotérmico Brasileiro	X Latin-American Congress on Eletric Power Generation	ALENCAR, T. R. ; GRAMULIA JUNIOR, J. ; OTOBE JUNIOR, R. F. ; VITTORI, K. ; LEITE, P. T.		
trabalhoCompletoEmCongresso	2013		Direct-FOC with Fuzzy Current Control for Asynchronous Machine	International Conference on Industrial Technology	Azcue P., Jose L. ; Sguarezi Filho, Alfeu J. ; Ruppert Filho, Ernesto		
trabalhoCompletoEmCongresso	2013		SFO-DTC Scheme with Fuzzy Controller for Asynchronous Machine. In: 4th International Conference on Power Engineering, Energy and Electrical Drives. In: SFO-DTC Scheme with Fuzzy Controller for Asynchronous Machine	4th International Conference on Power Engineering	Azcue P., Jose L. ; Sguarezi Filho, Alfeu J. ; Ruppert Filho, Ernesto		
trabalhoCompletoEmCongresso	2013		Curtiu? O uso do Facebook nas eleições municipais de São Paulo 2012	V Congresso da Associação Nacional de Pesquisadores em Comunicação Política	BACHINI, Natasha ; PENTEADO, C. L. C. ; MARTINHO, S. G. ; AVANZI, C.		
trabalhoCompletoEmCongresso	2013		A Estimação do Valor Eficaz das Tensões Trifásicas em Pontos Estratégicos de um Sistema de Distribuição via Redes Neurais Artificiais	XV Encontro Regional Ibero-Americano do Cigré - XV ERIAC	BOTTURA, F. B. ; CAMARGO, F. S. P. ; OLESKOVICZ, M. ; SANTOS, R. C.		
trabalhoCompletoEmCongresso	2013		Monitoramento Remoto do Perfil da Tensão Eficaz em Cargas Dispostas em um Sistema de Distribuição Utilizando Redes Neurais Artificiais	X Conferencia Brasileira sobre Qualidade da Energia Elétrica - X CBQEE	BOTTURA, F. B. ; CAMARGO, F. S. P. ; OLESKOVICZ, M. ; SANTOS, R. C.		
trabalhoCompletoEmCongresso	2013		Thermo-economic optimization of Solid Oxide Fuel Cell - Gas Turbine system fuelled with gasified lignocellulosic biomass	ECOS 2013	CALIANDRO, PRISCILLA ; TOCK, LAURENCE ; ENSINAS, ADRIANO VIANA ; MARECHAL, FRANÇOIS		
trabalhoCompletoEmCongresso	2013		Eficiência energética no setor produtivo de uma indústria de injeção de plásticos	XIII Safety	CALVO, M. A. R. ; LOURENÇO, S. R. ; CASSIANO, D. A.		
trabalhoCompletoEmCongresso	2013		A utilização de energia elétrica industrial na cidade de Santo André e sua inter-relação com a exportação e o produto interno bruto (PIB) brasileiro	XIII Safety	CAMARGO JUNIOR, C. C. ; LOURENÇO, S. R.		
trabalhoCompletoEmCongresso	2013		SUGARCANE RESIDUAL BIOMASS CHARACTERIZATION AIMING ENERGETIC USE IN BOILERS	WASTES: Solutions	CAMARGO, J. M. O. ; León-Niño, A. D. ; TONELI, J. T. C.L. ; NETO, A. M. P. ; Nebra, S. A.		
trabalhoCompletoEmCongresso	2013		Alternatives and costs for the decommissioning of Angra Nuclear Power Plants	INAC - 2013 Intl. Nuclear Atlantic Conference	CARAJILESCOV, P. ; MOREIRA, João Manoel Losada ; MAIORINO, J. R.		
trabalhoCompletoEmCongresso	2013		Influência da temperatura de start up na eficiência energética de fornos para forjamento de peças de aço	XIII Safety	CASSIANO, D. A. ; BARACCO, R. P. ; LOURENÇO, S. R. ; GASI, F.		
trabalhoCompletoEmCongresso	2013		Performances Technico-économiques des procédés de production de biocarburants à partir de Jatropha	4ème Conférence Biocarburants/Bioénergies.	CHAPUIS, A. ; BLIN, J. ; Codina, V. ; Ensinas, A.V. ; LECOMTE, D.		
trabalhoCompletoEmCongresso	2013		HABITAÇÃO SOCIAL EM ÁREAS CENTRAIS E SUAS IMPLICAÇÕES PARA SAÚDE E ACESSO AO TRABALHO: HIPÓTESES E UMA AGENDA DE PESQUISAS PARA O BRASIL METROPOLITANO	Encontro Nacional da ANPUR	COMARU, FA		
trabalhoCompletoEmCongresso	2013		EFFICIENCY ANALYSIS OF SUGARCANE BAGASSE BOILERS THROUGH THE FIRST AND SECOND LAW OF THERMODYNAMICS	22nd International Congress of Mechanical Engineering (COBEM 2013)	Cortes - Rodriguez, Edgar Fernando ; Nebra, Silvia A. ; SOSA-ARNAO, J. H.		
trabalhoCompletoEmCongresso	2013		Adaptive Phasor Estimators Based on Recursive Least-Squares	Powertech - IEEE Power Energy Society	COSTA, F. F. ; SANTOS, R. C. ; COURY, D. V. ; FERNANDES, D. A. ; ALMEIDA, L. A. L.		
trabalhoCompletoEmCongresso	2013		Elasticity Indices for Economic Analysis: A Case Study for Hydrous Ethanol and Gasoline in Brazil	32nd USAEE	DE MELLO SANTANA, PAULO HENRIQUE		
trabalhoCompletoEmCongresso	2013		Thermo-economic and environmental model of microalgae-to-SNG conversion process through hydrothermal gasification	XIVeme Congrès SFGP	Ensinas, A.V.; ARRANDEL, K. ; MIAN, A. ; Maréchal, F.		
trabalhoCompletoEmCongresso	2013		EXPERIMENTAL RESULTS OF SLIDING-MODE POWER CONTROL FOR DOUBLY-FED INDUCTION	COBEP - Congresso Brasileiro de Eletrônica de Potência	F. S. Trindade ; R. V. Jacomini ; SGUAREZI FILHO, A. J. ; Ruppert Filho, Ernesto		
trabalhoCompletoEmCongresso	2013		Divisão e organização do trabalho nas atividades de reciclagem de resíduos sólidos urbanos: estudo de inclusão social e sustentabilidade	XIII Safety	FACO, J. F. B. ; HABER, J. ; TOMIOKA, J. ; LOURENÇO, S. R. ; BERTO JR.		
trabalhoCompletoEmCongresso	2013		Dinâmicas territoriais rurais no Brasil - evolução recente dos indicadores de desenvolvimento e um caso exemplar	XXIX Congresso da Associação Latinoamericana de Sociologia	FAVARETO, Arilson da Silva		
trabalhoCompletoEmCongresso	2013		Plataforma Computacional para Auxílio no Planejamento de Redes Celulares	Simpósio Brasileiro de Telecomunicações	FERNANDES, T. G. ; CASTELLANI, R. A. ; CASELLA, I. R. S.		
trabalhoCompletoEmCongresso	2013		Análise Crítica da Ampacidade em Linhas Aéreas Próximas a Parques Eólicos	XV ERIAC - Décimo Quinto Encontro Regional Ibero-americano do CIGRÉ	FERNANDEZ, E. ; ALBIZU, I. ; BEDIALAUNETA, M. T. ; MAZON, A. J. ; LEITE, P. T.		
trabalhoCompletoEmCongresso	2013		Os impactos e conflitos da regularização da energia elétrica em favelas brasileiras	XXIX Congreso Latinoamericano de Sociologia - ALAS 2013	FOURNIER, A. C. P. ; PENTEADO, C. L. C. ; MORANTE, Federico		
trabalhoCompletoEmCongresso	2013		O mito da generosidade: contradições da política externa brasileira no contexto da nacionalização do gás boliviano	V Simpósio Internacional Lutas Sociais na América Latina	FUSER, I		
trabalhoCompletoEmCongresso	2013		THE COMPLEXITY OF DESIGN FOR THE CREATION OF A BRA FOR MASTECTOMIZED WOMEN	IDEMi 13 - 3rd International Conference on Integration of Design	GRAVE, M. F. ; CARVALHO, M. ; GASI, F.		
trabalhoCompletoEmCongresso	2013		A direct torque control strategy based on load angle for induction motors	COBEP - Congresso Brasileiro de Eletrônica de Potência	H. Gaziolla ; Azcue P., J. L. ; SGUAREZI FILHO, A. J. ; RUPPERT FILHO, E.		
trabalhoCompletoEmCongresso	2013		Methodology for assessment of fault detection projects applied on power generation systems	26th International Conference on Efficiency	HERRERA, V. A. S. ; ROMERO, J. F. A.		
trabalhoCompletoEmCongresso	2013		A comparative study of induction motors and self-excited induction generators under faulty behavior	26th International Conference on Efficiency	HERRERA, V. A. S. ; ROMERO, J. F. A.		
trabalhoCompletoEmCongresso	2013		Planejamento do setor energético e considerações sociais nas concessionárias de energia do sudeste brasileiro	4° Latin-American Meeting of Energy Economics (ELAEE)	JUNGER, A. P. ; ROMERO, J. F. A. ; GUERRA, S. M. G.		
trabalhoCompletoEmCongresso	2013		Análise técnico-econômica e avaliação dos riscos financeiros para a introdução de microturbinas a gás natural no setor industrial: um estudo de caso no segmento de alimentos e bebidas	9º Congresso sobre Geração Distribuída e Energia no Meio Rural (AGRENER)	LANDINI, C. ; SANT'ANA, P. H. M.		
trabalhoCompletoEmCongresso	2013		IMPLEMENTAÇÃO E QUALIFICAÇÃO DO MCNP 5 ATRAVÉS DA INTERCOMPARAÇÃO COM O BENCHMARK PARA O CÁLCULO DOS SISTEMAS CRÍTICOS GODIVA E JEZEBEL	INAC 2013/ Jr. Poster Session	LARA, R. G. ; MAIORINO, J. R.		
trabalhoCompletoEmCongresso	2013		SUGARCANE RESIDUAL BIOMASS BRIQUETTING AIMING ENERGETIC USE	WASTES: Solutions	León-Niño, A. D. ; CAMARGO, J. M. O. ; NETO, A. M. P. ; TONELI, J. T. C.L. ; Nebra, S.A.		
trabalhoCompletoEmCongresso	2013		Analytic hierarchy process (AHP): aplicação em novos gasodutos no Brasil	XIII Safety	LIBRAIS, V. ; LOURENÇO, S. R.		
trabalhoCompletoEmCongresso	2013		Location of Distributed Generation by the Perspective of Sustainable Development	THE 10th LATIN-AMERICAN CONGRESS ON ELECTRICITY GENERATION AND TRANSMISSION - CLAGTEE 2013	LIMA, G. S. C. ; LEITE, Patricia Teixeira ; ROMERO, J. F. A. ; ZAMBON, K. L.		
trabalhoCompletoEmCongresso	2013		Localização de Geradores Eólicos sob a Ótica do Desenvolvimento Sustentável	XXII Seminário Nacional de Produção e Transmissão de Energia Elétrica	LIMA, G. S. C. ; LEITE, Patricia Teixeira ; ROMERO, J. F. A. ; ZAMBON, K. L.		
trabalhoCompletoEmCongresso	2013		O papel dos territórios nos arranjos de políticas públicas	XVIII Congresso do Centro Latinoamericano de Administração para o Desenvolvimento sobre Reforma do Estado e da Administração Pública	LOTTA, G. ; FAVARETO, Arilson da Silva		
trabalhoCompletoEmCongresso	2013		Avaliação da eficiência energética com uso de indicadores de eficiência energética em trocadores de calor a placas	1er Congreso Interamericano de Cambio Climatico	MAIA, M. F. C. B. ; KELLNER, E. ; LOURENÇO, S. R. ; MORAES JUNIOR, D.		
trabalhoCompletoEmCongresso	2013		A study on the effects of the use of thermal insulation in plate heat exchangers	XIII Safety	MAIA, M. F. C. B. ; LOURENÇO, S. R. ; MORAES JUNIOR, D.		
trabalhoCompletoEmCongresso	2013		Recycling and transmutation of spent fuel as a sustainable option for the nuclear energy development	International Nuclear Atlantic Conference	MAIORINO, J. R.; MOREIRA, João Manoel Losada		
trabalhoCompletoEmCongresso	2013	http://dx.doi.org/10.1109/ISGT-LA.2013.6554400	A Methodology for Training Artificial Neural Networks for Islanding Detection of Distributed Generators	Conference on Innovative Smart Grid Technologies	MERLIN, V. L. ; SANTOS, R. C. ; PAVANI, A. P. G. ; COURY, D. V. ; OLESKOVICZ, M. ; VIEIRA JUNIOR, J. C. M.		
trabalhoCompletoEmCongresso	2013		Effect of the rotation speed over the atomization range on a rotary disc spray dryer	6th International Granulation Workshop	Monteiro, L. B. ; DE MORAES JÚNIOR, DEOVALDO ; OLIVEIRA, R. A. ; TÓFANO DE CAMPOS LEITE TONELI, JULIANA		
trabalhoCompletoEmCongresso	2013		Integração energética ou integração de mercados. Qual é a melhor solução para a comercialização de energia elétrica?	IV Encuentros Latinoamericanos de Economía de la Energía (ELAEE)	Moreira, João M. L.; PINTO, R. T. S.		
trabalhoCompletoEmCongresso	2013		Reduction of Water Consumption in an Integrated First and Second Generation Ethanol Plant	XXVIII Congress of International Society of Sugar Cane Technologists	MOSQUEIRA-SALAZAR, KLEVER JOAO ; Palacios-Bereche, Reynaldo ; Chávez-Rodríguez, M.F. ; SEABRA, J. E. A. ; Nebra S.A.		
trabalhoCompletoEmCongresso	2013		Comparative study of municipal solid waste characteristics aiming the electricity production in steam cycles	2nd International Conference: WASTES: Solutions	NORDI, G. H. ; Palacios-Bereche, Reynaldo ; Nebra, S. A.		
trabalhoCompletoEmCongresso	2013		Controle de Velocidade de Motor Trifásico Utilizando Lógica Fuzzy - Analise Comparativa com PID	Brazil Automation ISA 2013 - 17o Congresso Internacional e Exposição de Automação	OTONI, T. ; ANDRADE, A. A. ; CASSIANO, D. A.		
trabalhoCompletoEmCongresso	2013		New alternatives for the fermentation process in the ethanol production from sugarcane: extractive and low temperature fermentation	26th International Conference on Efficiency	Palacios-Bereche, Reynaldo ; Ensinas, Adriano V. ; Modesto, Marcelo ; Nebra, S.A.		
trabalhoCompletoEmCongresso	2013		Double-Effect Distillation and Thermal Integration Applied to the Ethanol Production Process from Sugar Cane	3rd International Exergy	PALACIOS-BERECHE, REYNALDO ; ENSINAS, ADRIANO VIANA ; Modesto, Marcelo ; Nebra, Silvia A.		
trabalhoCompletoEmCongresso	2013		Democracia digital e experiências de eParticipação: construção do Índice de Participação Política e Influência no ciclo de Políticas Públicas	37º Encontro Anual da ANPOCS	PENTEADO, C. L. C.; ARAUJO, R. P. A. ; SANTOS, M. B. P.		
trabalhoCompletoEmCongresso	2013		Redes Sociais e Participação Política: estudo do debate sobre o novo Código Florestal no Facebook	V Congresso da Associação Nacional de Pesquisadores em Comunicação Política	PENTEADO, C. L. C.; AVANZI, C.		
trabalhoCompletoEmCongresso	2013		Mídia e Política: um palco para o desencantamento	V Congresso da Associação Nacional de Pesquisadores em Comunicação Política	PENTEADO, C. L. C.; NOBOA, L. F. N.		
trabalhoCompletoEmCongresso	2013		Workshop de Redes P2P, Dinâmicas, Sociais e Orientadas a Conteúdo	Workshop de Redes P2P	POCHET, G. F. ; LORENA, A. C. ; PENTEADO, C. L. C. ; KAMIENSKI, C.		
trabalhoCompletoEmCongresso	2013		Cadeira de rodas mais acessivel	1a Exposição acesso para todos	RIASCOS, L. A. M.; MOREIRA, L. ; CAETANO, D. ; Rafael F.P.		
trabalhoCompletoEmCongresso	2013		Cadeira de rodas mais acessível	Foro mundial dos Direitos Humanos	RIASCOS, L. A. M.; MOREIRA, L. ; CAETANO, D. ; Rafael F.P.		
trabalhoCompletoEmCongresso	2013		The impact of controlling DFIG-based Wind Turbines with no crowbar on the System Stability	Wind Integration Workshop	SALLES, M. C. ; AVILA, R. R. ; Sguarezi Filho, Alfeu J. ; A. P. Grilo P.		
trabalhoCompletoEmCongresso	2013		Caminhos brasileiro na geração de energia elétrica - Versão I	XVI FIEALC	SANTOS, E. C. S. dos ; DOTI, Marcelo Micke ; LIMA FILHO, P. A. ; GUERRA, Sinclair Mallet Guy		
trabalhoCompletoEmCongresso	2013		Exploração petrolífera no Equador: O parque Yasuni e a questão indigena	XXIX Congreso da ALAS 2013	SANTOS, E. C. S. dos ; GUERRA, Sinclair Mallet Guy		
trabalhoCompletoEmCongresso	2013		Desenvolvimentismo versus bien vivir: Exploração petrolifera no parque Yasuni equatoriano e a questão indigena	Evento da Universidad Autonóma d Guerrerro	SANTOS, E. C. S. dos ; LIMA FILHO, P. A. ; GUERRA, Sinclair Mallet Guy		
trabalhoCompletoEmCongresso	2013		Evolución tecnológica e impactos de la iluminación en viviendas rurales electrificadas	XXXVI Reunión de Trabajo de la Asociación Argentina de Energías Renovables y Medio Ambiente	SEGURA, Diana ; MORANTE, Federico		
trabalhoCompletoEmCongresso	2013		Consumo energético e emissões de gases de efeito estufa provenientes do uso e operação de edificações de escritórios de alto padrão na cidade de São Paulo	XIII Safety	SILVA, H. L. N. ; LOURENÇO, S. R.		
trabalhoCompletoEmCongresso	2013		Impacto social e desenvolvimento econômico: Um estudo de caso de remanejados	Centro de Investigaciones sobre Política Internacional/CIPI	SOUZA, J. M. ; SANTOS, E. C. S. dos ; LIMA FILHO, P. A. ; GUERRA, Sinclair Mallet Guy		
trabalhoCompletoEmCongresso	2013		Electromechanical Transient Analysis Considering the Effects of Wind Turbines Connected to the Network	Powertech	SOUZA, T. ; Sguarezi Filho, Alfeu J. ; F. S. Trindade ; Ruppert, Ernesto ; SALLES, M. C.		
trabalhoCompletoEmCongresso	2013		Determination of the magnetic properties of composites based on reluctance model	19th International Conference on the Computation of Electromagnetic Fields	TEIXEIRA, J. C.; PERIGO, E. A. ; PEREIRA, F. H. ; PASCON, J. R. ; NABETA, S. I.		
trabalhoCompletoEmCongresso	2013		Experiências no semiárido cearense na implantação de sistemas fotovoltaicos para irrigação: lições aprendidas	XXXVI Reunión de Trabajo de la Asociación Argentina de Energías Renovables y Medio Ambiente	VALER, Luis ; MORAES, Albemerc ; MORANTE, Federico ; ZILLES, Roberto ; FEDRIZZI, Maria Cristina		
trabalhoCompletoEmCongresso	2013		Análise da capacidade da rede nacional de gás natural à luz do plano decenal de expansão de energia	XIII Safety	VASCONCELOS, C. D. ; LOURENÇO, S. R.		
resumoExpandidoEmCongresso	2013	Análise do uso de simuladores energéticos para projetos de sistemas energéticos híbridos	XIII Safety, Health and Environment World Congress, 2013, Porto. Safety, Health and Environment World Congress (SHEWC). Porto: Science and Education Research Council	KAWAMURA, J. ; LOURENÇO, S. R.		
resumoExpandidoEmCongresso	2013	Análise do mapeamento do fluxo energético em processos de produção e avaliação dos indicadores energéticos para tomada de decisão relacionadas à eficiência energética	XIII Safety, Health and Environment World Congress, 2013, Porto. Safety, Health and Environment World Congress (SHEWC). Porto: Science and Education Research Council	KAWAMURA, J. ; LOURENÇO, S. R. ; MENEGHETTI, L. M.		
resumoExpandidoEmCongresso	2013	Analysis of the magnetic properties of a composite by using a 3D finite element method	X Latin American Workshop on Magnetism, Magnetic Materials and their Applications, 2013, Buenos Aires. X-LAW3M	TEIXEIRA, JULIO C; MARTIN, R. V. ; PERIGO, E. A. ; PASCON, J. R. ; NABETA, S. I.		
