
PB0:2014,25;
PB1:2014,1;
PB2:2014,2;
PB3:*itens sem ano,1;2014,3;
PB4:2014,10;
PB5:2014,13;
PB6:*itens sem ano,1;2014,22;
PB8:2014,16;
PT4:2014,3;
PT5:2014,10;
OA1:2014,1;2016,1;2017,2;
OA2:2013,1;2015,5;2016,18;2017,9;
OA4:2014,1;2017,1;
OA5:2013,6;2014,5;2016,11;2017,9;
OA6:2012,3;2013,2;2016,3;
OC2:2014,1;
OC3:2014,31;
OC4:2014,15;
OC5:2014,4;
OC6:2014,8;
Pj:2007,1;2009,2;2010,1;2011,2;2012,7;2013,16;2014,7;
PB:*itens sem ano,2;2014,92;
PT:2014,13;
OA:2012,3;2013,9;2014,7;2015,5;2016,33;2017,21;
OC:2014,59;
Ep:2014,13;
Eo:2014,6;