artigoEmPeriodico	Eriton Rodrigo Botero	2015	http://dx.doi.org/10.1016/j.ceramint.2015.07.199	Crystallinity, Morphology and High Dielectric Permittivity of NiO Nanosheets Filling Poly(vinylidene fluoride)	Ceramics International	AMORESI, RAFAEL A.C. ; FELIX, ANDERSON A. ; BOTERO, ERITON R. ; DOMINGUES, NELSON L.C. ; FALCÃO, EVARISTO A. ; ZAGHETE, MARIA A. ; RINALDI, ANDRELSON W.	A1	
artigoEmPeriodico	Eriton Rodrigo Botero	2015	http://dx.doi.org/10.1080/10584587.2015.1092626	Thermal Behavior of Electrically Induced Birefringence of La-Doped PMN-PT Ceramics	Integrated Ferroelectrics (Print)	MILTON, FLAVIO P. ; LONDONO, FERNANDO A. ; BOTERO, ERITON R. ; EIRAS, J. A. ; Garcia, Ducinei	B1	
artigoEmPeriodico	Eliana Janet Sanjinez Argandoña	2015	http://dx.doi.org/10.1007/s00210-014-1069-y	Antiulcerogenic activity of Carica papaya seed in rats	Naunyn-Schmiedeberg´s Archives of Pharmacology	PINTO, LORRAINE APARECIDA ; CORDEIRO, KÁTIA WOLFF ; CARRASCO, VIVIANE ; CAROLLO, CARLOS ALEXANDRE ; CARDOSO, CLÁUDIA ANDRÉA LIMA ; ARGADOÑA, ELIANA JANET SANJINEZ ; FREITAS, KARINE DE CÁSSIA	A2	Naunyn-Schmiedeberg's Archives of Pharmacology
artigoEmPeriodico	Eliana Janet Sanjinez Argandoña	2015	http://dx.doi.org/10.5897/AJFS2014.1212	Nutrients content, characterization and oil extraction from Acrocomia aculeata (Jacq.) Lodd. fruits	African Journal of Food Science	LESCANO, C. H. ; OLIVEIRA, I. P. ; SILVA, L. R. ; BALDIVIA, D. S. ; SANJINEZ-ARGANDOÑA, E. J. ; ARRUDA, E. J. ; MORAES, I. C. F. ; LIMA, F. F.	A2	Journal of Food Science
artigoEmPeriodico	Eliana Janet Sanjinez Argandoña	2015		DESIDRATAÇÃO DA POLPA DE Campomanesia Adamantium Cambess. O. Berg POR LIOFILIZAÇÃO	INTERBIO	OLIVEIRA, V. S. ; SANJINEZ-ARGANDOÑA, E. J. ; OSHIRO, A. M. ; CARNEVALI, T. O. ; HONORATO, C. A.	Qualis nao identificado	INTERBIO
artigoEmPeriodico	Eduardo José de Arruda	2015	http://dx.doi.org/10.14295/BA.v10.141	Avaliação da Susceptibilidade de Populações de Aedes aegypti (Linnaeus) (Diptera: Culicidae) ao Inseticida Temephos nos Municípios de Maracaju e Naviraí, MS	BioAssay (Piracicaba)	SILVA, E.L. ; ARRUDA, E. J. ; ANDRADE, C.F.S. ; FERNANDES, M.F. ; TEIXEIRA, T.Z. ; SCUDELER, C.G.S ; CABRINI, I.	B4	
artigoEmPeriodico	Eduardo José de Arruda	2015	http://dx.doi.org/10.4236/aid.2015.51005	Evaluation of Toxicity of Phenolic Compounds Using <i>Aedes aegypti</i> (Diptera: Culicidae) and <i>Artemia salina</i>	Advances in Infectious Diseases	CATELAN, T. B. S. ; ARRUDA, E. J. ; OLIVEIRA, L. C. S. ; RAMINELLI, C. ; CABRINI, I. ; GABAN, C. R. G. ; ARAKAKI, A. H. ; NOVA, P. C. C. V.	Qualis nao identificado	Advances in Infectious Diseases
artigoEmPeriodico	Eduardo José de Arruda	2015	http://dx.doi.org/10.5897/AJFS2014.1212	Nutrients content, characterization and oil extraction from Acrocomia aculeata (Jacq.) Lodd. fruits	African Journal of Food Science	LESCANO, C. H. ; OLIVEIRA, I. P. ; SILVA, L. R. ; BALDIVIA, D. S. ; SANJINEZ-ARGANDOÑA, E. J. ; ARRUDA, E. J. ; MORAES, I. C. F. ; LIMA, F. F.	A2	Journal of Food Science
artigoEmPeriodico	Eduardo José de Arruda	2015	http://dx.doi.org/10.1016/j.eti.2015.02.002	Buriti palm stem as a potential renewable source for activated carbon production	Environmental Technology & Innovation	DE ANDRADE, ROBSON CARLOS ; ALMEIDA, CRISTIANE FREITAS ; SUEGAMA, PATRÍCIA HATSUE ; DE ARRUDA, EDUARDO JOSÉ ; ARROYO, PEDRO AUGUSTO ; DE CARVALHO, CLÁUDIO TEODORO	A2	Environmental Technology
artigoEmPeriodico	Eduardo José de Arruda	2015	http://dx.doi.org/10.5376/jmr.2015.05.0006	Evaluation of toxicity of Bordeaux Mixture in <i>Aedes aegypti</i> larvae (L. 1672) (Diptera: Culicidae) and Gram-negative and Gram-positive bacteria	Journal of Mosquito Research	SILVA, A.K ; ARRUDA, E. J. ; FONSECA, G.G ; CARVALHO, C. T. ; SILVA, C. M. ; NOVA, P. C. C. V. ; GABAN, C. R. G. ; CABRINI, I.	Qualis nao identificado	Journal of Mosquito Research
artigoEmPeriodico	Eduardo José de Arruda	2015	http://dx.doi.org/10.1016/j.poly.2015.07.005	New metalorgano-chalcogenide compounds based on polymeric frameworks constructed by Se-Hg intermolecular interactions: Preparation, structural characterization, and Raman evaluation	Polyhedron	FINOTO, SIMONE ; MACHULEK, AMILCAR ; CAIRES, ANDERSON RODRIGUES LIMA ; DE ARRUDA, EDUARDO J. ; CASAGRANDE, GLEISON ANTÔNIO ; RAMINELLI, CRISTIANO ; ANDRADE, L.H.C. ; LIMA, S.M.	A2	
artigoEmPeriodico	Eduardo José de Arruda	2015	http://dx.doi.org/10.1039/c5ra02798e	Synthesis, characterization, thermal behavior and biological activity of ozonides from vegetable oils	RSC Advances: an international journal to further the chemical sciences	KOGAWA, NATHÁLIA RODRIGUES DE ALMEIDA ; DE ARRUDA, EDUARDO JOSÉ ; MICHELETTI, ANA CAMILA ; MATOS, MARIA DE FÁTIMA CEPA ; DE OLIVEIRA, LINCOLN CARLOS SILVA ; DE LIMA, DÊNIS PIRES ; CARVALHO, NADIA CRISTINA PEREIRA ; OLIVEIRA, PAOLA DIAS ; CUNHA, MARILLIN DE CASTRO ; OJEDA, MARIAH ; BEATRIZ, ADILSON	B2	
artigoEmPeriodico	Eduardo José de Arruda	2015		A síntese de novos ativos larvicidas para o controle populacional do Aedes aegypti (Diptera: Culicidae)	Revista Brasileira de Inovação Tecnologica em Saúde	CARBONARO, E. S. ; Arruda, E.J. ; OLIVEIRA, Lincoln Carlos Silva de ; NOVA, P. C. C. V. ; ARAKAKI, Andreia Haruko ; MACHULEK, A.	B3	
artigoEmPeriodico	Eduardo José de Arruda	2015	http://dx.doi.org/10.17807/orbital.v7i3.746	Larval Susceptibility of Two Culex quinquefasciatus Populations (Diptera: Culicidae) Temephos® in the City of Naviraí, MS, Brazil	Orbital: the Electronic Journal of Chemistry	SCUDELER, C.G.S ; SILVA, T. G. ; FERNANDES, M. F. ; TEIXEIRA, T.Z. ; ANDRADE, C.F.S. ; SILVA, I. ; ARRUDA, E. J.	B3	
artigoEmPeriodico	Eduardo José de Arruda	2015	http://dx.doi.org/10.17807/orbital.v7i4.735	Insecticidal activity of Cu(II)-NTA in Aedes aegypti larvae (Diptera: Culicidae)	Orbital: the Electronic Journal of Chemistry	LIMA, A.R ; Arruda, E.J. ; CABRINI, I. ; CARVALHO, C. T. ; FERNANDES, M. F. ; KATO, M. F. H. ; ANDRADE, C.F.S. ; SILVA, C. M.	B3	
artigoEmPeriodico	Eduardo José de Arruda	2015		Morphological Changes in the Digestive System of Aedes aegypti L. Induced by [Cu(EDTA)]2- Complex Ions	Journal of Mosquito Research	GABAN, C. R. G. ; DOURADO, D.M. ; SILVA, L.M.G.E ; NOVA, P. C. C. V. ; CABRINI, I. ; ARRUDA, E. J.	Qualis nao identificado	Journal of Mosquito Research
artigoEmPeriodico	Eduardo José de Arruda	2015		Insecticidal Activity of [Cu(H2NTA)2].2H2O in Aedes aegypti larvae (Diptera: Culicidae)	ORBITAL: THE ELECTRONIC JOURNAL OF CHEMISTRY	LIMA, A. R. ; ARRUDA, E. J. ; CARVALHO, C. T. ; SILVA, C. M. ; FERNANDES, M. F. ; KATO, M. F. H. ; CABRINI, I. ; ANDRADE, C. F. S.	B3	
artigoEmPeriodico	Eduardo José de Arruda	2015	http://dx.doi.org/10.5897/AJFS2014.1212	Nutrients content, characterization and oil extraction from Acrocomia aculeata (Jacq.) Lodd. fruits	African Journal of Food Science	LESCANO, C. H. ; OLIVEIRA, I. P. ; SILVA, L. R. ; BALDIVIA, D. S. ; SANJINEZ-ARGANDOÑA, E. J. ; ARRUDA, E. J. ; MORAES, I. C. F. ; LIMA, F. F.	A2	Journal of Food Science
resumoExpandidoEmCongresso	Eduardo José de Arruda	2015	Metal complexes nanocapsules for long-term control of mosquitoes in breeding	13 CBPol - Natal, RN -, 2015, Natal, RN. Anais online. Natal, RN: UFRN	ARRUDA, E. J.; BEPPU, M. M. ; MONTEIRO, F. J. M. ; GRANJA, P. L. ; SANTOS, T.A.		
resumoExpandidoEmCongresso	Eduardo José de Arruda	2015	Obtenção e caracterização de membranas de de quitosana funcionalizada com aminoácidos para adsorção de celulase	13 Congresso Brasileiro de Polimero - 13 CBPol, 2015, Natal, RN. Anais online. Natal, RN: UFRN	MAHL, C.R.A ; BOGGIONE, M.J. ; FARRUGGIA, B.M. ; BEPPU, M. M. ; ARRUDA, E. J.		
artigoEmPeriodico	Anderson Rodrigues Lima Caires	2015	http://dx.doi.org/10.1155/2015/803705	Oxidative Stability of Baru ( <i>Dipteryx alata</i> Vogel) Oil Monitored by Fluorescence and Absorption Spectroscopy	Journal of Spectroscopy	SILVA, V. D. ; CONCEICAO, J. N. ; OLIVEIRA, I. P. ; LESCANO, C. H. ; MUZZI, R. M. ; FILHO, O. P. S. ; CONCEIÇÃO, E. N. ; CASAGRANDE, G.A. ; CAIRES, A.R.L.	Qualis nao identificado	Journal of Spectroscopy
artigoEmPeriodico	Anderson Rodrigues Lima Caires	2015	http://dx.doi.org/10.1007/s11746-015-2606-7	Thermal Oxidation Analysis of Forage Turnip (Raphanus sativus L. var. oleiferus Metzg.) Oil	Journal of the American Oil Chemists' Society	OLIVEIRA, IVAN PIRES ; SOUZA, AUGUSTO FERREIRA ; LESCANO, CAROLINE HONAISER ; Caires, Anderson Rodrigues Lima ; MUZZI, ROZANNA MARQUES	A2	
artigoEmPeriodico	Anderson Rodrigues Lima Caires	2015	http://dx.doi.org/10.1016/j.jphotochem.2014.12.001	Interaction between chlorophyll and silver nanoparticles: A close analysis of chlorophyll fluorescence quenching	Journal of Photochemistry and Photobiology. A, Chemistry	FALCO, W.F. ; QUEIROZ, A.M. ; Fernandes, J. ; BOTERO, E.R. ; FALCÃO, E.A. ; Guimarães, F.E.G. ; M?PEKO, J.-C. ; Oliveira S. L. ; Colbeck, I. ; CAIRES, A. R. L.	A2	
artigoEmPeriodico	Anderson Rodrigues Lima Caires	2015	http://dx.doi.org/10.1016/j.saa.2014.12.037	Fluorescence analysis of iodinated acetophenone derivatives	Spectrochimica Acta. Part A, Molecular and Biomolecular Spectroscopy (Print)	CRIVELARO, F. ; OLIVEIRA, M.R.S. ; LIMA, S.M. ; ANDRADE, L.H.C. ; CASAGRANDE, G.A. ; RAMINELLI, C. ; CAIRES, A.R.L.	A2	
artigoEmPeriodico	Anderson Rodrigues Lima Caires	2015	http://dx.doi.org/10.1007/s10895-014-1478-9	Can the Chlorophyll-a Fluorescence be Useful in Identifying Acclimated Young Plants from Two Populations of Cecropia Pachystachya Trec. (Urticaceae), Under Elevated CO2 Concentrations?	Journal of Fluorescence	Santiago, E. F. ; LARENTIS, T. C. ; BARBOSA, V. M. ; CAIRES, A. R. L. ; MORAIS, G. A. ; SÚAREZ, Y. R.	A2	
artigoEmPeriodico	Anderson Rodrigues Lima Caires	2015	http://dx.doi.org/10.1016/j.poly.2015.07.005	New metalorgano-chalcogenide compounds based on polymeric frameworks constructed by Se-Hg intermolecular interactions: preparation, structural characterization, and Raman evaluation	Polyhedron	FINOTO, SIMONE ; JUNIOR, AMILCAR MACHULEK ; CAÍRES, ANDERSON RODRIGUES LIMA ; DE ARRUDA, EDUARDO J. ; CASAGRANDE, GLEISON ANTÔNIO ; RAMINELLI, CRISTIANO ; ANDRADE, L.H.C. ; LIMA, S.M.	A2	
trabalhoCompletoEmCongresso	Anderson Rodrigues Lima Caires	2015	http://dx.doi.org/10.1364/boda.2015.jt3a.27	Size-Dependent Interaction of Gold Nanoparticles with Tryptophan: A Spectroscopic Analysis	BioOptics: Design and Application	SILVA, GELSON ; FERNANDES, JOELSON ; CAIRES, ANDERSON R.		
resumoExpandidoEmCongresso	Anderson Rodrigues Lima Caires	2015	ESPECTROSCOPIA DE FLUORESCÊNCIA APLICADA AO MONITORAMENTO DA QUALIDADE DA ÁGUA NA PISCICULTURA	XXI Simpósio Brasileiro de Recursos Hídricos-SBRH, 2015, Brasília. XXI Simpósio Brasileiro de Recursos Hídricos-SBRH	FIGUEIRO, C. S. M. ; RUSSO, M. R. ; CAIRES, A. R. L. ; ROJAS, S. S.		
artigoEmPeriodico	Alexeia Barufatti Grisolia	2015	http://dx.doi.org/10.4136/ambi-agua.1500	Uso de biomarcadores para monitoramento das águas do Córrego Arara no município de Rio Brilhante, MS, Brasil	Revista Ambiente & Água	MACEDA, E. B. ; VAINI, J. O. ; CANDIDO, L. S. ; GRISOLIA, A. B.	B1	
artigoEmPeriodico	Alexeia Barufatti Grisolia	2015		Analysis of polymorphisms in the mitochondrial ND5 gene in Pantaneira and Creole breeds of sheep	African Journal of Biotechnology	Oliveira J.A. ; CRISPIM, B. A. ; EGITO, A. A. ; Vargas FMV ; Seno, L. O. ; GRISOLIA, A. B.	B2	
artigoEmPeriodico	Alexeia Barufatti Grisolia	2015	http://dx.doi.org/10.1016/j.riam.2014.06.003	Genotypic variability and antifungal susceptibility of Candida tropicalis isolated from patients with candiduria	Revista Iberoamericana de Micología	DE ALMEIDA, ADRIANA ARAÚJO ; NAKAMURA, SANDRA SAYURI ; FIORINI, ADRIANA ; Grisolia, Alexéia Barufatti ; SVIDZINSKI, TEREZINHA INEZ ESTIVALET ; DE OLIVEIRA, KELLY MARI PIRES	B1	Revista Iberoamericana
artigoEmPeriodico	Alexeia Barufatti Grisolia	2015	http://dx.doi.org/10.1007/s10661-015-4475-9	The influence of industrial and agricultural waste on water quality in the Água Boa stream (Dourados, Mato Grosso do Sul, Brazil)	Environmental Monitoring and Assessment (Print)	ROCHA, M. P. ; DOURADO, P. L. ; GRISOLIA, A. B. ; RODRIGUES, M. S. ; RAPOSO JUNIOR, J. L. ; OLIVEIRA, K. M. P.	A1	
artigoEmPeriodico	Alexeia Barufatti Grisolia	2015	http://dx.doi.org/10.1016/j.ecoenv.2015.06.031	Genetic instability in plants associated with vehicular traffic and climatic variables	Ecotoxicology and Environmental Safety	SPOSITO, J. C. V. ; CRISPIM, B. A. ; Mussury R.M. ; GRISOLIA, A. B.	A1	
resumoExpandidoEmCongresso	Alexeia Barufatti Grisolia	2015	Análises Preliminares Da Qualidade De Águas Subterrâneas Nos Municípios De Caarapó E Itaporã, MS, Brasil	IV Congresso Internacional de Meio Ambiente Subterrâneo, 2015, São Paulo. IV Congresso Internacional de Meio Ambiente Subterrâneo	Crispim, Bruno do Amaral ; SPOSITO, J. C. V. ; MARAN, N. H. ; GRISOLIA, A. B.		
artigoEmPeriodico	Zefa Valdivina Pereira	2015	http://dx.doi.org/10.1139/cjb-2014-0212	Colleters in 10 species belonging to three tribes of Rubiaceae: morphoanatomical diversity and potential as useful characters for taxonomy	Botany (Ottawa. Print)	Lopes-Mattos, K. L. B. ; OTUKI, S. A. P. ; AZEVEDO, Aristea Alves ; PEREIRA, Z. V. ; MEIRA, R. M. S. A.	Qualis nao identificado	Botany (Ottawa. Print)
artigoEmPeriodico	Zefa Valdivina Pereira	2015	http://dx.doi.org/10.14393/BJ-v31n4a2015-26088	Gas exchange and photosynthetic activity in Hancornia speciosa gomes seedlings under water deficit conditions and during rehydration	Bioscience Journal (Online)	SCALON, SILVANA DE PAULA QUINTÃO ; KODAMA, FÁVIA MITSUKO ; DRESCH, DAIANE MUGNOL ; MUSSURY, ROSILDA MARA ; PEREIRA, ZEFA VALDIVINA PEREIRA	B1	
artigoEmPeriodico	Zefa Valdivina Pereira	2015	http://dx.doi.org/10.5935/0100-4042.20150093	CHEMICAL CONSTITUENTS, ANTI-INFLAMMATORY, AND FREE-RADICAL SCAVENGING ACTIVITIES OF <i>Guettarda viburnoides</i> CHAM.	Química Nova (Impresso)	NARESSI, MARIA AUGUSTA ; MANHOLER, DANIELE DOMINGOS ; AMES, FRANCIELE QUEIROZ ; BERSANI-AMADO, CIOMAR APARECIDA ; FORMAGIO, ANELISE SAMARA NAZARI ; PEREIRA, ZEFA VALDIVINA ; COSTA, WILLIAN FERREIRA DA ; BALDOQUI, DEBORA CRISTINA ; SARRAGIOTTO, MARIA HELENA	A2	
artigoEmPeriodico	Zefa Valdivina Pereira	2015	http://dx.doi.org/10.1007/s40415-015-0234-y	Effect of shade on emergence, initial growth, and seedling quality in Physocalymma scaberrimum	Revista Brasileira de Botânica (Impresso)	DA SILVA, FRANCIELI MOREIRA ; DRESCH, DAIANE MUGNOL ; PEREIRA, ZEFA VALDIVINA ; MUSSURY, ROSILDA MARA ; SCALON, SILVANA DE PAULA QUINTÃO	B2	
artigoEmPeriodico	Zefa Valdivina Pereira	2015		PROGRAMA DE RESTAURAÇÃO DE NASCENTES DO BIOMA CERRADO NO ASSENTAMENTO RURAL SANTA CLARA II, JUTI, MATO GROSSO DO SUL	Realização - Revista Online de Extensão da UFGD	CORREIA, C. T. N. ; PIVA, M. ; REIS, P. S. ; DORCE, M. V. ; FROES, C. Q. ; BAZANELLA, J. D. ; PEREIRA, ZEFA VALDIVINA	Qualis nao identificado	Realização - Revista Online de Extensão da UFGD
trabalhoCompletoEmCongresso	Zefa Valdivina Pereira	2015		Experiencias em restauração ecológica em área de preservação permanente no estado de Mato Grosso do Sul	VI Simpósio de Restauracão Ecológica	PEREIRA, Z. V.; SANGALLI, A. ; PADOVAN, M. P.		
trabalhoCompletoEmCongresso	Zefa Valdivina Pereira	2015		Banco de Semenets Crioulas: extrategia para promover a agroecologia e sustentabilidade de comunidades rurais em Juti Mato Grosso do Sul	11 FEIRA DE SEMENTES NATIVAS E CRIOULAS E DE PRODUTOS AGROECOLÓGICOS E 4 SEMINÁRIO SOBRE USO E CONSERVAÇÃO DO CERRADO DO SUL DO MS	LOBTCHENKO, G. ; CORREIA, C. T. N. ; SANTOS, J. M. ; CLEMENTINO, J. A. ; ALVES JUNIOR, V. V. ; PEREIRA, ZEFA VALDIVINA		
trabalhoCompletoEmCongresso	Zefa Valdivina Pereira	2015		ESCOLA SUSTENTÁVEL: UMA EXPERIENCIA EM UMA ESCOLA ESTADUAL DO MUNICÍPIO DE DOURADOS MS	11 FEIRA DE SEMENTES NATIVAS E CRIOULAS E DE PRODUTOS AGROECOLÓGICOS E 4 SEMINÁRIO SOBRE USO E CONSERVAÇÃO DO CERRADO DO SUL DO MS	GIUNCO, A. J. ; VOLOBUFF, C. R. F. ; COELHO, D. V. B. S. A. ; CAMARGO, V. G. ; PEREIRA, ZEFA VALDIVINA ; ALVES JUNIOR, V. V.		
trabalhoCompletoEmCongresso	Zefa Valdivina Pereira	2015		formação para práticas sstentáveis em hrotas das escolas municipais de Dourados, MS	11 FEIRA DE SEMENTES NATIVAS E CRIOULAS E DE PRODUTOS AGROECOLÓGICOS E 4 SEMINÁRIO SOBRE USO E CONSERVAÇÃO DO CERRADO DO SUL DO MS	SILVA, A. P. V. ; MONTEIRO, E. S. ; RENOVATO, J. P. ; GARCIA, L. T. ; NOLASCO, L. G. ; ALVES JUNIOR, V. V. ; PEREIRA, ZEFA VALDIVINA		
trabalhoCompletoEmCongresso	Zefa Valdivina Pereira	2015		O USO DE ALTERNAITVAS LÚDICAS NO PROCESSO DE ENSINO E APRENDIZAGEM DE SUSTENTABILIDADE:RECICLAGEM	11 FEIRA DE SEMENTES NATIVAS E CRIOULAS E DE PRODUTOS AGROECOLÓGICOS E 4 SEMINÁRIO SOBRE USO E CONSERVAÇÃO DO CERRADO DO SUL DO MS	NASCIMENTO, D. A. S. ; SANTOS, I. R. ; SILVA, S. G. ; ALFREDO, T. M. ; PEREIRA, ZEFA VALDIVINA ; ALVES JUNIOR, V. V.		
trabalhoCompletoEmCongresso	Zefa Valdivina Pereira	2015		SEMEANDO A IMPORTÂNCIA DA VEGETAÇÃO DURANTE UMA COLÔNIA DE FÉRIAS	11 FEIRA DE SEMENTES NATIVAS E CRIOULAS E DE PRODUTOS AGROECOLÓGICOS E 4 SEMINÁRIO SOBRE USO E CONSERVAÇÃO DO CERRADO DO SUL DO MS	JUNGLOS, F. S. ; JUNGLOS, M. S. ; PEREIRA, N. S. ; BRANDANI, J. Z. ; PEREIRA, ZEFA VALDIVINA ; ALVES JUNIOR, V. V. ; MORAIS, G. A.		
trabalhoCompletoEmCongresso	Zefa Valdivina Pereira	2015		SUSTENTABILIDADE NAS ESCOLAS: UMA FERRAMENTA EFICAZ DE MUDANÇA	11 FEIRA DE SEMENTES NATIVAS E CRIOULAS E DE PRODUTOS AGROECOLÓGICOS E 4 SEMINÁRIO SOBRE USO E CONSERVAÇÃO DO CERRADO DO SUL DO MS	GODOI, K. S. P. ; NASCIMENTO, K. F. D. ; MENEGATI, S. E. L. T. ; AGOSTINHO, P. R. ; PEREIRA, ZEFA VALDIVINA ; ALVES JUNIOR, V. V.		
resumoExpandidoEmCongresso	Zefa Valdivina Pereira	2015	DESENVOLVIMENTO INICIAL DE ESPÉCIES ARBÓREAS NATIVAS EM PLANTIO DE RECOMPOSIÇÃO DE MATA CILIAR	XII Congresso de Ecologia do Brasil, 2015, São Lourenço. XII Congresso de Ecologia do Brasil	REZENDE, G. B. ; LOBTCHENKO, J. C. P. ; ROCHA, L. P. ; CORREIA, C. T. N. ; PEREIRA, Z. V.		
resumoExpandidoEmCongresso	Zefa Valdivina Pereira	2015	AVALIAÇÃO DO POTENCIAL DA CHUVA DE SEMENTES COMO ALTERNATIVA PARA RESTAURAÇÃO FLORESTAL DE UMA ÁREA DE PRESERVAÇÃO PERMANENTE NA FAZENDA EXPERIMENTA DA UFGD	XII Congresso de Ecologia do Brasil, 2015, São Lourenço. XII Congresso de Ecologia do Brasil	LOBTCHENKO, J. C. P. ; ROCHA, L. P. ; SANGALLI, A. ; PEREIRA, Z. V.		
resumoExpandidoEmCongresso	Zefa Valdivina Pereira	2015	CARACTERIZAÇÃO DA REGENERAÇÃO NATURAL DE UMA ÁREA DE PRESERVAÇÃO PERMANENTE DE MATA CILIAR DO RIO AMAMABIA, MUNICÍPIO DE AMAMABAI, MS	XII XONGRESSO DE ECOLOGIA DO BRASIL, 2015, SÃO LOURENÇO. ANAIS DO XII CONGRESSO DE ECOLOGIA DO BRASIL	CORREIA, C. T. N. ; ROCHA, L. P. ; LOBTCHENKO, J. C. P. ; LOBTCHENKO, G. ; PEREIRA, ZEFA VALDIVINA		
resumoExpandidoEmCongresso	Zefa Valdivina Pereira	2015	AVALIAÇÃO DO BANCO DE SEMENTES COMO ALTERNATIVA PARA RESTAURAÇÃO FLORESTAL NO SÍTIO OURO BRANCO DO MUNICÍPIO DE AMAMBAI, MS	XII XONGRESSO DE ECOLOGIA DO BRASIL, 2015. ANAIS DO XII CONGRESSO DE ECOLOGIA DO BRASIL	ROCHA, L. P. ; LOBTCHENKO, J. C. P. ; LOBTCHENKO, G. ; PEREIRA, ZEFA VALDIVINA		
artigoEmPeriodico	Silvia Maria Martelli	2015		Characterization and evaluation of physicochemical and antimicrobial properties of zein nanoparticles loaded with phenolics monoterpenes	Colloids and Surfaces. A, Physicochemical and Engineering Aspects (Print)	ROSA, C. G. ; MACIEL, M. V. ; CARVALHO, S. M. ; MELO, A. P. Z. ; JAMMES, B. ; SILVA, T. ; MARTELLI, S. M. ; VILLETTI, M. ; BERTOLDI, F. C. ; BARRETO, P. L. M.	A2	
artigoEmPeriodico	Silvia Maria Martelli	2015	http://dx.doi.org/10.1016/j.postharvbio.2015.05.015	Edible films and coatings based on starch/gelatin: Film properties and effect of coatings on quality of refrigerated Red Crimson grapes	Postharvest Biology and Technology (Print)	FAKHOURI, FARAYDE MATTA ; MARTELLI, SILVIA MARIA ; CAON, THIAGO ; VELASCO, JOSÉ IGNACIO ; MEI, LUCIA HELENA INNOCENTINI	A2	
resumoExpandidoEmCongresso	Seila Rojas de Souza	2015	ESPECTROSCOPIA DE FLUORESCÊNCIA APLICADA AO MONITORAMENTO DA QUALIDADE DA ÁGUA NA PISCICULTURA	XXI Simpósio Brasileiro de Recursos Hídricos-SBRH, 2015, Brasília - DF. Resumos - XXI Simpósio Brasileiro de Recursos Hídricos-SBRH. Brasília - DF: ABRH	FIGUEIRO, C. S. M. ; RUSSO, M. R. ; CAIRES, A. R. L. ; ROJAS, S. S.		
artigoEmPeriodico	Rozanna Marques Muzzi	2015	http://dx.doi.org/10.4238/2015.January.26.13	Assessment of the cytotoxic, genotoxic, and mutagenic potential of Acrocomia aculeata in rats	Genetics and Molecular Research	TRAESEL, G.K. ; CASTRO, L.H.A. ; SILVA, P.V.B. ; MUZZI, R.M. ; KASSUYA, C.A.L. ; ARENA, A.C. ; OESTERREICH, S.A.	A2	
artigoEmPeriodico	Rozanna Marques Muzzi	2015	http://dx.doi.org/10.1007/s11746-015-2606-7	Thermal Oxidation Analysis of Forage Turnip (Raphanus sativus L. var. oleiferus Metzg.) Oil	Journal of the American Oil Chemists' Society (Online)	OLIVEIRA, IVAN PIRES ; SOUZA, AUGUSTO FERREIRA ; LESCANO, CAROLINE HONAISER ; CAIRES, ANDERSON RODRIGUES LIMA ; MUZZI, ROZANNA MARQUES	B2	
artigoEmPeriodico	Rozanna Marques Muzzi	2015	http://dx.doi.org/10.1155/2015/803705	Oxidative Stability of Baru ( <i>Dipteryx alata</i> Vogel) Oil Monitored by Fluorescence and Absorption Spectroscopy	Journal of Spectroscopy	SILVA, VANESSA D. ; CONCEIÇÃO, JOSÉ N. ; OLIVEIRA, IVAN P. ; LESCANO, CAROLINE H. ; MUZZI, ROZANNA M. ; FILHO, OMAR P. S. ; CONCEIÇÃO, EDEMILSON C. ; CASAGRANDE, GLEISON A. ; CAIRES, ANDERSON R. L.	Qualis nao identificado	Journal of Spectroscopy
artigoEmPeriodico	Rodrigo Simões Ribeiro Leite	2015	http://dx.doi.org/10.5897/ajb2014.14062	Bioprospecting of yeasts for amylase production in solid state fermentation and evaluation of the catalytic properties of enzymatic extracts	African Journal of Biotechnology	OLIVEIRA, A. P. A. ; SILVESTRE, M. A. ; ALVES-PRADO, H. F. ; RODRIGUES, A. ; PAZ, M. F. ; FONSECA, G. G. ; LEITE, R. S. R.	B2	
artigoEmPeriodico	Rodrigo Simões Ribeiro Leite	2015	http://dx.doi.org/10.1016/j.ejbt.2015.05.007	Production of β-glucosidase on solid-state fermentation by Lichtheimia ramosa in agroindustrial residues: Characterization and catalytic properties of the enzymatic extract	Electronic Journal of Biotechnology	GARCIA, N. F. L. ; SANTOS, F. R. S. ; GONCALVES, F. A. ; PAZ, M. F. ; FONSECA, G. G. ; LEITE, R. S. R.	B1	
artigoEmPeriodico	Rodrigo Simões Ribeiro Leite	2015		Production and characterization of β-glucosidase obtained by the solid-state cultivation of the thermophilic fungus Thermomucor indicae-seudaticae N31	Applied Biochemistry and Biotechnology	PEREIRA, J. C. ; LEITE, R. S. R. ; ALVES-PRADO, H. F. ; BOCCHINI, D. A. ; GOMES, E. ; DA-SILVA, R.	A1	
artigoEmPeriodico	Patricia Hatsue Suegama	2015		Effect of Different Dopants in Films TEOS/MPTS Used o Protect the Carbon Steel	Materials Science Forum	SILVA, F. S. ; SUEGAMA, P. H. ; SILVA, W. P. ; RINALDO, A. W. ; MATSUMOTO, M. Y. ; SALAZAR, L. G.	B2	
artigoEmPeriodico	Patricia Hatsue Suegama	2015	http://dx.doi.org/10.1016/j.eti.2015.02.002	Buriti palm stem as a potential renewable source for activated carbon production	Environmental Technology & Innovation	DE ANDRADE, ROBSON CARLOS ; DE ALMEIDA, CRISTIANE FREITAS ; SUEGAMA, PATRÍCIA HATSUE ; DE ARRUDA, EDUARDO JOSÉ ; ARROYO, PEDRO AUGUSTO ; DE CARVALHO, CLÁUDIO TEODORO	A2	Environmental Technology
artigoEmPeriodico	Patricia Hatsue Suegama	2015	http://dx.doi.org/10.1016/j.inoche.2015.09.022	Synthesis and X-ray structural characterization of square-pyramidal copper(II) complex with aminoguanidine derivative	Inorganic Chemistry Communications	ANDRADE, GEZIEL R. ; KUNSMINSKAS, JÉSSICA ; PIZZUTI, LUCAS ; ANJOS, ADEMIR DOS ; INGLEZ, SIMONE D. ; TIRLONI, BÁRBARA ; SUEGAMA, PATRÍCIA H.	Qualis nao identificado	Inorganic Chemistry Communications
trabalhoCompletoEmCongresso	Patricia Hatsue Suegama	2015		ESTUDO DE DIFERENTES FILMES DE TEOS E GPTMS SOBRE A LIGA DE MAGNÉSIO AZ31 EM SOLUÇÃO DE CLORETO	Ebrats	PERES, R. N. ; MONTEMOR, M. F. ; de Melo, H.G. ; SUEGAMA, P. H. ; Benedetti, A.V.		
trabalhoCompletoEmCongresso	Patricia Hatsue Suegama	2015		ESTUDO ELETROQUÍMICO DE FILMES HÍBRIDOS À BASE DE TEOS E GPTMS SOBRE LIGA DE ALUMÍNIO	Ebrats	ARANHA, B. S. R. ; Fugivara, C. S. ; Benedetti, A.V. ; SUEGAMA, P. H.		
trabalhoCompletoEmCongresso	Patricia Hatsue Suegama	2015		Revestimentos híbridos siloxano-PMMA dopados com íons Ce (III) ou Ce (IV) sobre aço estanhado, um estudo comparativo contra a corrosão	Ebrats	CRUZ, F. M. L. ; SUEGAMA, P. H. ; Fugivara, C. S. ; BENEDETTI, A. V.		
artigoEmPeriodico	Nelson Luís de Campos Domingues	2015	http://dx.doi.org/10.1039/c4ra16222f	An efficient aqueous phase synthesis of benzimidazoles/benzothiazoles in the presence of β-cyclodextrin	RSC Advances: an international journal to further the chemical sciences	KATLA, R. ; CHOWRASIA, R. ; MANJARI, P. S. ; DOMINGUES, NELSON LUIS DE CAMPOS	B2	
artigoEmPeriodico	Nelson Luís de Campos Domingues	2015	http://dx.doi.org/10.1016/j.ceramint.2015.07.199	Crystallinity, Morphology and High Dielectric Permittivity of NiO Nanosheets Filling Poly(vinylidene fluoride)	Ceramics International	AMORESI, RAFAEL A.C. ; FELIX, ANDERSON A. ; BOTERO, ERITON R. ; Domingues, Nelson L.C. ; FALCÃO, EVARISTO A. ; ZAGHETE, MARIA A. ; RINALDI, ANDRELSON W.	A1	
artigoEmPeriodico	Nelson Luís de Campos Domingues	2015	http://dx.doi.org/10.4028/www.scientific.net/MSF.805.167	Effect of Different Dopants in Films TEOS / MPTS Used to Protect the Carbon Steel	Materials Science Forum	SILVA, F. S. ; SUEGAMA, P. H. ; Da SILVA, W. P. ; RINALDI, A. W. ; DOMINGUES, N. L. C. ; MATSUMOTO, M. Y. ; SALAZAR, L. G.	B2	
artigoEmPeriodico	Nelson Luís de Campos Domingues	2015	http://dx.doi.org/10.1002/chin.201538033	ChemInform Abstract: An Efficient Aqueous Phase Synthesis of Benzimidazoles/Benzothiazoles in the Presence of β-Cyclodextrin.	ChemInform	KATLA, RAMESH ; CHOWRASIA, RAKHI ; MANJARI, PADMA SUNITHA ; DOMINGUES, NELSON LUIS C.	Qualis nao identificado	ChemInform
resumoExpandidoEmCongresso	Márcia Regina Russo	2015	Espectroscopia de fluorescência aplicada ao monitoramento da qualidade de água na piscicultura	XXI Simpósio Brasileiro de Recursos Hídricos, 2015, Brasília. XXI Simpósio Brasileiro de Recursos Hídricos Segurança Hídrica e Desenvolvimento Sustentável: Desafios do Conhecimento e da Gestão. Brasília	FIGUEIRO, C. S. M. ; Russo, Márcia Regina ; CAIRES, A. R. L. ; SOUZA, S. R.		
resumoExpandidoEmCongresso	Márcia Regina Russo	2015	Microalgae growth rate cultivated in sinthetic medium with vinasse	IV SOLABIAA Congresso Latino Americano, 2015, Florianópolis. IV SOLABIAA Congresso Latino Americano	Carvalho, E. M. ; PEREIRA, N. S. ; Russo, Márcia Regina ; RIBEIRO, D. M. ; Fonseca, G. G.		
artigoEmPeriodico	Lucas Pizzuti	2015	http://dx.doi.org/10.2174/1389557515666150101102606	Recent Advances on the Green Synthesis and Antioxidant Activities of Pyrazoles	Mini-Reviews in Medical Chemistry	DIAS, D. ; PACHECO, B. ; CUNICO, W. ; PIZZUTI, L. ; PEREIRA, C. M. P.	A2	
artigoEmPeriodico	Lucas Pizzuti	2015	http://dx.doi.org/10.1080/00397911.2014.978504	Ultrasound-Promoted Environmentally Friendly Synthesis of 5-(3,3,3-Trifluoro-2-oxopropylidene)pyrrolidin-2-ones	Synthetic Communications	FRANCO, MÁRCIA S. F. ; CASAGRANDE, GLEISON A. ; RAMINELLI, CRISTIANO ; MOURA, SIDNEI ; ROSSATTO, MARCELO ; QUINA, FRANK H. ; PEREIRA, CLAUDIO M. P. ; FLORES, ALEX F. C. ; Pizzuti, Lucas	Qualis nao identificado	Synthetic Communications
artigoEmPeriodico	Lucas Pizzuti	2015	http://dx.doi.org/10.5935/0103-5053.20150078	Straightforward and Clean Ultrasound-Promoted Synthesis of 2-(4,5-Dihydro-1 -pyrazol-1-yl)pyrimidines	Journal of the Brazilian Chemical Society (Impresso)	KUHN, B. P. ; MALAVOLTA, J. L. ; CASAGRANDE, G. A. ; RAMINELLI, C. ; QUINA, F. H. ; PEREIRA, C. M. P. ; FLORES, A. F. C. ; PIZZUTI, L.	A2	
artigoEmPeriodico	Lucas Pizzuti	2015	http://dx.doi.org/10.1016/j.inoche.2015.09.022	Synthesis and X-ray structural characterization of square-pyramidal copper(II) complex with aminoguanidine derivative	Inorganic Chemistry Communications	ANDRADE, GEZIEL R. ; KUNSMINSKAS, JÉSSICA ; Pizzuti, Lucas ; ANJOS, ADEMIR DOS ; INGLEZ, SIMONE D. ; TIRLONI, BÁRBARA ; SUEGAMA, PATRÍCIA H.	Qualis nao identificado	Inorganic Chemistry Communications
artigoEmPeriodico	Kelly Mari Pires de Oliveira	2015	http://dx.doi.org/10.1007/s10661-015-4475-9	The influence of industrial and agricultural waste on water quality in the Água Boa stream (Dourados, Mato Grosso do Sul, Brazil)	Environmental Monitoring and Assessment (Print)	ROCHA, M. P. ; DOURADO, P. L. ; GRISOLIA, A. B. ; RODRIGUES, M. S. ; RAPOSO JUNIOR, J. L. ; OLIVEIRA, K. M. P.	A1	
resumoExpandidoEmCongresso	Kelly Mari Pires de Oliveira	2015	Análises Preliminares Da Qualidade De Águas Subterrâneas Nos Municípios De Caarapó E Itaporã, MS, Brasil	IV Congresso Internacional de Meio Ambiente Subterrâneo, 2015, São Paulo. IV Congresso Internacional de Meio Ambiente Subterrâneo. São Paulo	Crispim, Bruno do Amaral ; SPOSITO, J. C. V. ; MARAN, N. H. ; GRISOLIA, A. B.		
artigoEmPeriodico	Kelly Cristina da Silva Brabes	2015		Nitrogen metabolism in steers under grazing during the rainy/dry transition period	Archivos de Zootecnia (Internet)	GOES, R. H. T. E. B. ; GANDRA, J. R. ; MARQUEZ, A.F ; OLIVEIRA, E. R. ; FERNANDES, H. ; CARDOSO, T. L. ; BRABES, K. C. S. ; YOSHIHARA, M.	B3	
artigoEmPeriodico	Kelly Cristina da Silva Brabes	2015		Metabolismo nitrogenado em bovinos suplementados a pasto durante a transição águas seca	Archivos de Zootecnia (Internet)	GOES, R. H. T. B. ; GANDRA, J. R. ; MARQUEZ, A. F. ; OLIVEIRA, E. R. ; FERNANDES, H. J. ; CARDOSO, T. J. L. ; BRABES, K. C. S. ; YOSHIHARA, M. M.	B3	
artigoEmPeriodico	Gustavo Graciano Fonseca	2015	http://dx.doi.org/10.1016/j.jece.2014.12.011	Production of biodiesel via methyl and ethyl routes from Nile tilapia and hybrid Sorubim crude oils	Journal of Environmental Chemical Engineering	MENEGAZZO, M. L. ; LUCAS, B. F. ; ALCALDE, L. B. ; PETENUCI, M. E. ; FONSECA, G. G.	Qualis nao identificado	Journal of Environmental Chemical Engineering
artigoEmPeriodico	Gustavo Graciano Fonseca	2015	http://dx.doi.org/10.1007/s11746-014-2569-0	Characterization and monitoring of the oxidative stability of pork grease	Journal of the American Oil Chemists' Society	PETENUCI, M. E. ; FONSECA, G. G.	A2	
artigoEmPeriodico	Gustavo Graciano Fonseca	2015	http://dx.doi.org/10.1007/s13197-013-1056-1	Optimization of parameters for obtaining surimi-like material from mechanically separated chicken meat using response surface methodology	Journal of Food Science and Technology	CORTEZ-VEGA, W. R. ; FONSECA, G. G. ; PRENTICE, C.	B2	
artigoEmPeriodico	Gustavo Graciano Fonseca	2015	http://dx.doi.org/10.5897/AJB2014.14062	Bioprospecting of yeasts for amylase production in solid state fermentation and evaluation of the catalytic properties of enzymatic extracts	African Journal of Biotechnology	DE OLIVEIRA, A. P. A. ; SILVESTRE, M. A. ; ALVES-PRADO, H. F. ; RODRIGUES, A. ; DA PAZ, M. F. ; FONSECA, G. G. ; LEITE, R. S. R.	B2	
artigoEmPeriodico	Gustavo Graciano Fonseca	2015	http://dx.doi.org/10.5376/jmr.2015.05.0006	Evaluation of toxicity of Bordeaux Mixture in Aedes aegypti larvae (L. 1672) (Diptera: Culicidae) and Gram-negative and Gram-positive bacteria	Journal of Mosquito Research	DA SILVA, A. K. ; DE ARRUDA, E. J. ; FONSECA, G. G. ; DE CARVALHO, C. T. ; DA SILVA, C. M. ; VILA NOVA, P. C. C. ; GABAN, C. R. G. ; CABRINI, I.	Qualis nao identificado	Journal of Mosquito Research
artigoEmPeriodico	Gustavo Graciano Fonseca	2015	http://dx.doi.org/10.1016/j.ejbt.2015.05.007	Production of β -glucosidase on solid-state fermentation by Lichtheimia ramosa in agroindustrial residues: Characterization and catalytic properties of the enzymatic extract	Electronic Journal of Biotechnology	GARCIA, N. F. L. ; SANTOS, F. R. S. ; GONÇALVES, F. A. ; DA PAZ, M. F. ; FONSECA, G. G. ; LEITE, R. S. R.	B1	
artigoEmPeriodico	Gustavo Graciano Fonseca	2015	http://dx.doi.org/10.1016/j.susmat.2015.09.001	Turning pork processing waste into value-added chemicals for the food industry	Sustainable Materials and Technologies	DE AMORIM, C. D. ; CAMILO, A. G. ; DE OLIVEIRA, C. ; PETENUCCI, M. E. ; FONSECA, G. G.	Qualis nao identificado	Sustainable Materials and Technologies
trabalhoCompletoEmCongresso	Gustavo Graciano Fonseca	2015	http://dx.doi.org/10.17648/sinaferm-2015-33842	Bioconversão de resíduos de laranja, maracujá e uva por Lichtheimia ramosa via bioprocesso em estado sólido	XX Simpósio Nacional de Bioprocessos	SILVA, P. G. P. ; SILVA, G. F. A. ; DANTAS, D. P. ; SILVA, C. A. A. ; FONSECA, G. G.		
trabalhoCompletoEmCongresso	Gustavo Graciano Fonseca	2015	http://dx.doi.org/10.17648/sinaferm-2015-33726	Caracterização fisiológica e do perfil de ácidos graxos das microalgas Pseudokirchneriella subcapitata, Scenedesmus spinosus e Scenedesmus acuminatus	XX Simpósio Nacional de Bioprocessos	NASCIMENTO, V. M. ; NASCIMENTO, K. M. ; SILVA, C. A. A. ; FONSECA, G. G.		
trabalhoCompletoEmCongresso	Gustavo Graciano Fonseca	2015	http://dx.doi.org/10.17648/sinaferm-2015-33749	Cinéticas de crescimento, consumo de açúcar e formação de metabólitos de leveduras isoladas em usinas da Região Centro-Oeste utilizando frutose como fonte de carbono	XX Simpósio Nacionall de Bioprocessos	SILVA, C. A. A. ; OKA, M. L. ; FONSECA, G. G.		
trabalhoCompletoEmCongresso	Gustavo Graciano Fonseca	2015	http://dx.doi.org/10.17648/sinaferm-2015-33750	Estudo cinético de leveduras isoladas de frutas da Região Centro-Oeste utilizando frutose como fonte de carbono	XX Simpósio Nacionall de Bioprocessos	SILVA, C. A. A. ; OKA, M. L. ; FONSECA, G. G.		
trabalhoCompletoEmCongresso	Gustavo Graciano Fonseca	2015	http://dx.doi.org/10.17648/sinaferm-2015-33729	Avaliação fisiológica do crescimento da Saccharomyces cerevisiae CAT-1 em diferentes fontes de carbono à 30 e 37°C	XX Simpósio Nacional de Bioprocessos	NASCIMENTO, V. M. ; FONSECA, G. G.		
resumoExpandidoEmCongresso	Gustavo Graciano Fonseca	2015	Avaliação do crescimento de Burkholderia sacchari (LFM 101) com os substratos sacarose e glicose em diferentes temperaturas	IV Simposío Internacional sobre Gerenciamento de Resíduos Agropecuários e Agroindustriais - SIGERA, 2015, Rio de Janeiro. Anais do IV SIGERA	NASCIMENTO, V. M. ; ANDRADE, C. S. ; FONSECA, G. G.		
resumoExpandidoEmCongresso	Gustavo Graciano Fonseca	2015	Efeito da temperatura nos parâmetros cinéticos com Burkholderia sacchari LFM 101 e Ralstonia eutropha LFM 026	IV Simposío Internacional sobre Gerenciamento de Resíduos Agropecuários e Agroindustriais - SIGERA, 2015, Rio de Janeiro. Anais do IV SIGERA	NASCIMENTO, V. M. ; ANDRADE, C. S. ; FONSECA, G. G.		
resumoExpandidoEmCongresso	Gustavo Graciano Fonseca	2015	Estudo da fisiologia de três linhagens de microalgas das espécies Pseudokirchneriella subcapitata, Scenedesmus spinosus e Scenedesmus acuminatus	IV Simposío Internacional sobre Gerenciamento de Resíduos Agropecuários e Agroindustriais - SIGERA, 2015, Rio de Janeiro. Anais do IV SIGERA	NASCIMENTO, V. M. ; NASCIMENTO, K. M. ; FONSECA, G. G.		
resumoExpandidoEmCongresso	Gustavo Graciano Fonseca	2015	Assessment of metals biorremediation potential by Pseudokirchneriella subcapitata	IV Congresso Latino Americano da Sociedad Latinoamericana de Biotecnología Ambiental y Algal - SOLABIAA, 2015, Florianópolis. Anais do IV Congresso da SOLABIAA	DE CARVALHO, E. M. ; KONRADT-MORAES, L. C. ; PEREIRA, N. S. ; OTTONELLI, F. ; ANSILAGO, M. ; FONSECA, G. G.		
resumoExpandidoEmCongresso	Gustavo Graciano Fonseca	2015	Lipid composition of six microalgae isolated in the Brazilian Midwest Region after grown in open ponds	IV Congresso Latino Americano da Sociedad Latinoamericana de Biotecnología Ambiental y Algal - SOLABIAA, 2015, Florianópolis. Anais do IV Congresso da SOLABIAA	RIBEIRO, D. M. ; SILVA, C. A. A. ; DE CARVALHO, E. M. ; FONSECA, G. G.		
resumoExpandidoEmCongresso	Gustavo Graciano Fonseca	2015	Cultivation of Chlorella sorokiniana in alternative media with agricultural fertilizer and vinasse	IV Congresso Latino Americano da Sociedad Latinoamericana de Biotecnología Ambiental y Algal - SOLABIAA, 2015, Florianópolis. Anais do IV Congresso da SOLABIAA	DE CARVALHO, E. M. ; PEREIRA, N. S. ; RIBEIRO, D. M. ; FONSECA, G. G. ; MENEGAZZO, M. L.		
resumoExpandidoEmCongresso	Gustavo Graciano Fonseca	2015	Analysis of Chlorella sorokiniana growth in different photoperiods	IV Congresso Latino Americano da Sociedad Latinoamericana de Biotecnología Ambiental y Algal - SOLABIAA, 2015, Florianópolis. Anais do IV Congresso da SOLABIAA	RIBEIRO, D. M. ; DE OLIVEIRA, N. N. ; MARQUES, O. G. B. ; FONSECA, G. G.		
resumoExpandidoEmCongresso	Gustavo Graciano Fonseca	2015	Kinetics of Chlorella sorokiniana in different growth media	IV Congresso Latino Americano da Sociedad Latinoamericana de Biotecnología Ambiental y Algal - SOLABIAA, 2015, Florianópolis. Anais do IV Congresso da SOLABIAA	RIBEIRO, D. M. ; DE OLIVEIRA, N. N. ; MARQUES, O. G. B. ; FONSECA, G. G.		
resumoExpandidoEmCongresso	Gustavo Graciano Fonseca	2015	Flocculation performance of Chlorella sorokiniana biomass from different concentrations ferric chloride	IV Congresso Latino Americano da Sociedad Latinoamericana de Biotecnología Ambiental y Algal - SOLABIAA, 2015, Florianópolis. Anais do IV Congresso da SOLABIAA	MENEGAZZO, M. L. ; RIBEIRO, D. M. ; MARQUES, O. G. B. ; DE OLIVEIRA, N. N. ; FONSECA, G. G.		
resumoExpandidoEmCongresso	Gustavo Graciano Fonseca	2015	Evaluation of different flocculant agents for Chlorella sorokiniana biomass recovery	IV Congresso Latino Americano da Sociedad Latinoamericana de Biotecnología Ambiental y Algal - SOLABIAA, 2015, Florianópolis. Anais do IV Congresso da SOLABIAA	MENEGAZZO, M. L. ; RIBEIRO, D. M. ; DE OLIVEIRA, N. N. ; MARQUES, O. G. B. ; DE CARVALHO, E. M. ; FONSECA, G. G.		
resumoExpandidoEmCongresso	Gustavo Graciano Fonseca	2015	Nile tilapia growth and survival in several conditions of feeding, microalgae supply and water aeration	IV Congresso Latino Americano da Sociedad Latinoamericana de Biotecnología Ambiental y Algal - SOLABIAA, 2015, Florianópolis. Anais do IV Congresso da SOLABIAA	RIBEIRO, D. M. ; DE CARVALHO, E. M. ; FONSECA, G. G.		
resumoExpandidoEmCongresso	Gustavo Graciano Fonseca	2015	Microalgae growth rate cultivated in synthetic medium with vinasse	IV Congresso Latino Americano da Sociedade Latinoamericana de Biotecnología Ambiental y Algal - SOLABIAA, 2015, Florianópolis. Anais do IV Congresso da SOLABIAA	Carvalho, E. M. ; PEREIRA, N. S. ; Russo, Márcia Regina ; RIBEIRO, D. M. ; Fonseca, G. G.		
artigoEmPeriodico	Gleison Antonio Casagrande	2015	http://dx.doi.org/10.1016/j.poly.2015.01.009	Tributyltin(IV) complexes with amino acid-derived Schiff bases: X-ray and solution structures	Polyhedron	LIMA, VINER SOUSA ; Lemos, Sebastião S. ; CASAGRANDE, GLEISON ANTÔNIO	A2	
artigoEmPeriodico	Gleison Antonio Casagrande	2015	http://dx.doi.org/10.1155/2015/803705	Oxidative Stability of Baru ( <i>Dipteryx alata</i> Vogel) Oil Monitored by Fluorescence and Absorption Spectroscopy	Journal of Spectroscopy	SILVA, VANESSA D. ; CONCEIÇÃO, JOSÉ N. ; OLIVEIRA, IVAN P. ; LESCANO, CAROLINE H. ; MUZZI, ROZANNA M. ; FILHO, OMAR P. S. ; CONCEIÇÃO, EDEMILSON C. ; CASAGRANDE, GLEISON A. ; CAIRES, ANDERSON R. L.	Qualis nao identificado	Journal of Spectroscopy
artigoEmPeriodico	Gleison Antonio Casagrande	2015	http://dx.doi.org/10.5935/0103-5053.20150078	Straightforward and Clean Ultrasound-Promoted Synthesis of 2-(4,5-Dihydro-1 <i>H</i> -pyrazol-1-yl)pyrimidines	Journal of the Brazilian Chemical Society (Impresso)	KUHN, BRUNA P. ; MALAVOLTA, JULIANA L. ; CASAGRANDE, GLEISON A. ; RAMINELLI, CRISTIANO ; QUINA, FRANK H. ; PEREIRA, CLAUDIO M. P. ; FLORES, ALEX F. C. ; PIZZUTI, LUCAS	A2	
artigoEmPeriodico	Gleison Antonio Casagrande	2015	http://dx.doi.org/10.1016/j.poly.2015.07.005	New metalorgano-chalcogenide compounds based on polymeric frameworks constructed by Se-Hg intermolecular interactions: preparation, structural characterization, and Raman evaluation	Polyhedron	FINOTO, SIMONE ; JUNIOR, AMILCAR MACHULEK ; CAÍRES, ANDERSON RODRIGUES LIMA ; DE ARRUDA, EDUARDO J. ; CASAGRANDE, GLEISON ANTÔNIO ; RAMINELLI, CRISTIANO ; ANDRADE, L.H.C. ; LIMA, S.M.	A2	
artigoEmPeriodico	Gleison Antonio Casagrande	2015	http://dx.doi.org/10.1021/acs.joc.5b01634	Total Syntheses of Aporphine Alkaloids via Benzyne Chemistry: An Approach to the Formation of Aporphine Cores	Journal of Organic Chemistry	ROSSINI, ALLAN F. C. ; MURACA, ANA CAROLINA A. ; CASAGRANDE, GLEISON A. ; RAMINELLI, CRISTIANO	A1	
artigoEmPeriodico	Gleison Antonio Casagrande	2015	http://dx.doi.org/10.1080/00397911.2014.978504	Ultrasound-Promoted Environmentally Friendly Synthesis of 5-(3,3,3-Trifluoro-2-oxopropylidene)pyrrolidin-2-ones	Synthetic Communications	FRANCO, MÁRCIA S. F. ; CASAGRANDE, GLEISON A. ; RAMINELLI, CRISTIANO ; MOURA, SIDNEI ; ROSSATTO, MARCELO ; QUINA, FRANK H. ; PEREIRA, CLAUDIO M. P. ; FLORES, ALEX F. C. ; PIZZUTI, LUCAS	Qualis nao identificado	Synthetic Communications
