6044829688364510
8412910896645131
0716771025413208
5948026032234295
0079256657930157
2009178552110784
4706764165201980
8068967021078220
1782569030717318
8784747983736229
0161193498921169
1212935991051864
0542856843670457
7242800381090361
4202563137753057
7193007113950510
9045172924828056
9605929364778627
7539097260489375
5374456076284948
1165841155513709
8833989058164529
2112666591296772
3700275799130328
7518889908309964
1683946841732653
5198051111079064
9049801786452708
1324818589052600
7549249332683267
3715732737053023
8341155302780881
3130012046105039
4766228723280685
8898751651321848
0432790306636052
8692948387211118
9050852396834206
4327070396737714
7752079608717875
8225926967437389
0503951735155553
1946853825230776
3505301292906591
2973582366436613
8075656060915022
8555438676904420
6823943397416205
3514713413919126
1923726000036625
2668590545344339
8203830384534300
7651577440736372
6572270181994359
7155568250048145
5895725625196178
0745185975863082
0347366364982108
4546530415335497
5620712320966012
0971665184192461
4107269401919018
2861500078352324
8820947788769236
6223650065092192
8139257279715471
3378291494578499
3684972673732496
6616917698118559
5219116879161351
3304154536210618
6913799864277174
6655162251789281
8110689415962084
1151386536806744
2631783432021093
7998615537688819
4037944185551242
2435494212826897
3332963373225975
2898896705994604
2057878503944594
8214020807508315
0145402742926556
9606597099579919
1266364620964830
5136450243559459
5535453881365083
7623097319729313
5954887376447595
8529549983857097
8161148559048978
1103315275734608
8251907460764870
9449050592074451
7776928048794987
2477697683880986
7091241742851920
3031106093455749
7617205350746681
2637587306672213
4252331837170383
7904227795652627
1696410872979041
0019882343930293
0029279904716491
7550222282988138
8430230052998397
2451112020252124
2603433458436438
7630802870812554
5712381962457273
6133512943741265
5866266374975891
5462321896509820
4632325487404310
7234893247153165
3708959083492393
0949938974763594
3058224820874544
0062536636901836
6155542247540044
0373507977334532
2317021920350656
7047040108175200
5196560719753785
2803839354101568
8531347816852302
9280947037877083
0998856470674106
9260223157019357
8126399092444049
8090582956247122
0521351175000530
0991023463117569
1123962153173475
7026868310316429
8530211624182009
2865871743692172
6051298173233516
3427734317711826
1702312021694600
6981448637456391
7085140734745140
7703212554881526
1088509134004151
4604730511712236
0788886244198151
0274178372961922
8472145398853384
5557786480904660
3407014088247394
7530292917115709
7041704870439460
8783146273482678
3886687872358496
0927675770493246
1892359871207408
8458559657676452
4063717218442788
4093434024800304
9117130397620962
5306259343115797
4939970055152393
4921948374820065
0973880090358550
8977416820058807
5722353488752184
4140606859576960
3106450826381250
6457412713967642
7012237254246869
4795342927264998
2937413804518289
6039969237116219
0468589747802950
3210207943263219
2325513222088331
8319757799686793
5113935848475803
4846690266026337
8630822520302072
8634326327859174
7419420154039269
0471254896930154
9912520582348936
2920234589651417
6637901257491897
6129633718740607
4481982189769819
1633356815365599
1610292752294501
7466489105484693
9332634618038514
8538509657578022
7383864903254712
6414820455474574
8447389622669448
0178691792160067
2262428543098100
0321810870289180
3989136572460030
9873080158296471
8348645460666798
7265238318658512
4124346305938011
4114396917531479
1394679914888559
9549998755426589
2572761755116854
9329363278429665
1062288233305087
6722792062925274
8267128111208692
9314687444273899
3738323217529957
9263678138342912
8234774027720586
5584298681870865
4352323080338671
4576069940870025
8300104149950615
3847849315919867
5959605600775727
8476575922654310
2008100603446246
6466841023506131
3319303431365448
8248773159874825
3145887794256034
4646025058111977
0222151895705201
7047327865260487
3566001996464557
5350295641539652
0468680446318770
4424872954526400
6202929118529990
6761091964951329
7767824212182968
6653223814715498
6951024095933880
0034030372199818
6593457386037361
8299607666463460
6320661844629609
3030415754184876
2261974732942538
3603810130381168
5956440060368750
3863426896630725
7418621942217628
8547747556446020
7111504508400705
7998391975397420
9484401345005940
1863712593088898
2792298403077417
2150692115402138
0809795245116090
0796631278242405
2161403193721501
1499945269256881
1159954352174167
6608978470374335
0182914969079164
7950278260955247
5020682833270042
8858899554017702
3515599641260747
5922292543732403
8087755201222731
9406249573384398
8810347636088336
1435152908552231
6908955081859410
6926188473133379
3120351137765077
0762449692911714
9897023410899133
5452385625669684
6833721744326745
7275608974248322
4631897083204478
2414624750526653
8214321562951683
3797657414301904
3581864219059201
5623031966581265
7874219646236728
0331437242477234
5735444075605663
6666844765040039
5127355557632855
2437516591585177
8634105888282917
4391197171230248
1515642850517082
3778138554788107
1042989576765748
7887148115540704
9028112104624552
4375874809560039
1113361254962972
0697584778581034
8915470473628534
3744329382300316
8302605179522059
0211880658331763
4274221735676846
3385815317473947
3624370723788970
0719465062354576
5032620526845639
3934620234152277
7728155732757383
4039866839758945
1009866382389939
2837495734632267
3751517379406367
7074693237834292
8507741729691974
7968948305640832
6764097632845133
0813392572852313
5103552511601104
3110129398595336
7283544676869214
4236680571680972
2523038677287585
2415237219553726
6167139251930937
2797127887030838
0201903901243712
4180695152907609
0908852125279204
5030383787014962
7389849773667132
8537804438346984
5132432131439450
0016066069380492
0265317847634516
5236758856687873
4808722213197736
2909051013797704
3047457698887253
3686662494592840
1215582603223545
8752647892614261
6845648360120456
2019448857205643
5969653098289575
0817052839702046
3046177016454356
6354441856759559
8974631592328450
5038299428396491
5382181502080526
8436215509083608
2770898068187186
2828592893802233
5451338828358719
5903461383060853
9402025760601479
9070902778653766
3344992703482158
7746094938977989
4875352337860036
6662648331555347
8203422993081223
9532288619231634
2775869273146874
3953815594775357
2689760395534218
5737574588414921
2308714708568580
5163665080350129
1855232571882443
9574995170775779
6448216748598848
6809940830015445
3314759970388496
6680603267238159
6110172901409508
4490649927713999
4701300518338016
0513770505200043
8840111670069283
8346461703696436
8048143943208747
0633644279982562
6914969526213393
1769008264876945
3688939087269891
1562915095329917
4902886245155081
5415465196852551
5708935097780101
7222370193340207
8579810224870560
1636188020710478
7705186445894118
2339710145228308
0334597213491571
3696971449624282
6750588568590985
4541651895660086
7554176856296746
4455429740861414
7759622872412835
7727798705541100
3850969644550013
6654322105767426
6968617397565912
8353667393134054
3910065518034212
7561986686696629
1190376948659068
2495960635564866
8659496864305621
7312160205229970
4639371724772806
6041217501405985
5447821387964479
9654554014787399
2067865527733126
9976563324613037
2540617211599727
9829473981506760
3026908082720993
2741126933670777
9852304768528522
4884496518307847
3326079765076830
5050735541590917
3892896473273324
1258728506672003
0366398884876006
9659972316642270
0791055012061414
6792694937182142
3550295705331011
5479502253831840
4016427560803565
0389801192655498
4286979118769528
5251120101953610
1154855970506383
5838290185532582
7068584044556813
1191163294952870
6155783306428938
2455279297331399
3462216438517585
4915694295850733
5762548246076451
9859737944357808
5998337634888263
8972156925083094
9721334094817060
8711369609923178
8513697873853465
3921457328954723
4518118957105814
4851782110391776
5922029781677490
9977494986476816
1518128177005930
1713831308461293
8899775426231131
3427324302130093
1629411558433107
3660408788864383
0792866470704558
8618651057411791
8309582507141089
2035016419817481
4429442553061784
5874244280992286
0807675554407664
2292892414474989
8828875564145245
3815338174165832
2325496737187839
2062982268663101
1691968725162119
5132312515165321
8308188020990220
3732941691307685
6443430122330366
6473143468648095
1677974893141092
0032876104097296
0956074708995272
5990189383563490
2820925324313998
5568527970192787
8253200752492245
6188672029108693
7453441092375077
8922528250830998
0495683068319877
1268644360247928
6233295925021911
2528349851496767
7178250327574596
3737911374657753
4559719909254832
5467407206548408
4843998426062045
9135079089324008
7741232680107611
7216452200421570
1650308220188116
1691882914063691
3877284050511579
0920319108540253
3153931165773039
5236161633207209
8239119887045113
0408209083350066
4705917965262397
4731349173493365
5134320818291591
9325751411452030
0729220781785349
6808748763310450
8445007688411345
4791608102901220
1549039977162962
6674202174474736
1210845630692827
2554553725711909
8633716571913677
8530481502111067
4615245702160544
1244815830164728
7140925853660088
0690724997310610
8614057842286669
9971202585286967
5582712147577935
9991374083045897
2745586445705811
2570616590445503
3876420272040805
5299248843498395
0518135899902686
0446596400174628
3183000540374121
7357691451348243
8092022612936772
6803497925755664
8705072542071095
1335981490878372
7117346429670560
7325148057359803
4300201078050323
3681774705905754
3481569066975308
8371389172266454
2755437585364352
3608822139816010
2866324870100182
4714903275774963
9973712547744926
7786447092297659
9691540083091933
2462623168172176
6024108921842609
8554095610160109
5781888152048223
4163259340335501
9104066455540094
6475585105456744
4708503747939068
0262640129947664
4792214924836580
9949657464750472
3299204309097010
9536969817064052
7952256997221383
1844700574956958
9425271834457058
9424175688206545
0877244601396115
1329358127123010
6253402177068678
9084656743770950
5731582336013452
4455305449807628
8384520748229709
1734590811181243
2368005158362357
9126810929703476
4044238045089748
6500182188147733
3646691197416414
5929693866996351
8831577546033673
1202040477562970
6087809122239272
4212280532558083
2482924502296959
5060088077541272
6832489967376923
1440515802169400
1668340601837069
9707088533773270
1781693799683797
7416526225245942
4947860249518663
8210856709317762
4600955286343582
0646280144981793
6949879982808858
8880074921989984
2728337803011388
9804496328103850
2911147107984374
9899842815007015
6858469753675117
9297993708707609
8589586829431235
8711422596876190
4340389450218214
7033396508863382
9156111627025084
8465213281822400
0003590616508894
6941025639470918
5417020939816139
6433045915674614
8566388833371298
6496786321004266
1891733275794893
3024039993146755
3843808283191006
7576104690143577
7229167189686943
1292720527914401
1746231382891944
3051183459850022
2697800806494980
3126145104991897
0980524274591745
0022372882780892
1832868322852572
8635194231800099
9350392271118252
4638059667142610
0640997586726641
1699953890186284
3988479497247371
1801930790350048
3174947703949142
5460486349553262
8276243253012797
5482602985686580
0865862208780165
9002023688669278
1320921457247658
2125771574338340
4397388543222105
7414196674887967
3336529728610160
1277358973839446
9929269532617448
2112399377231154
0159778750215085
4895987709675501
