1512717941866097
1185487031019435
0270661833822671
8911936841113704
1766896412449188
2431901858566512
0054945070201197
4578693731159389
7247460085720503
8610703960852975
6256072821309272
4946117471548540
9907968103431589
5161688186852047
2131496810770098
3620084512865554
