0777127477216804
8066660068004635
8678853721350456
6971552310197488
6861243621820410
8886485096957731
9966205713012870
9933939386282163
9511610526352732
1696460650494488
6263913436052996
1054028764485947
6583995948000666
2150241303883701
7221866306191176
1491511220538716
