
PB0:2015,49;
PB2:2015,1;
PB3:*itens sem ano,1;2015,1;
PB4:2015,32;
PB5:2015,12;
PB6:2015,19;
PB8:2015,31;
PT3:*itens sem ano,1;
PT4:2015,3;
PT5:*itens sem ano,4;2015,14;
OA0:2015,1;2017,2;
OA1:2004,1;2010,1;2011,4;2012,6;2013,2;2014,10;2015,16;2016,18;2017,5;
OA2:2009,1;2013,2;2014,2;2015,4;2016,15;2017,8;
OA4:2015,1;2016,2;2017,1;
OA5:2008,1;2015,1;2016,3;2017,7;
OA6:2017,4;
OC0:2015,2;
OC1:2015,7;
OC2:2015,17;
OC3:2015,1;
OC4:2015,7;
OC5:2015,19;
OC6:2015,15;
Pm:2015,2;
Pj:1997,1;1998,1;2000,1;2001,1;2002,1;2008,1;2009,2;2010,3;2011,3;2012,8;2013,9;2014,13;2015,10;
PB:*itens sem ano,1;2015,145;
PT:*itens sem ano,5;2015,17;
OA:2004,1;2008,1;2009,1;2010,1;2011,4;2012,6;2013,4;2014,12;2015,23;2016,38;2017,27;
OC:2015,68;
Ep:2015,49;
Eo:2015,11;