5451087590848842
6812943821298890
0388415023699226
4458297213334898
3009425852002651
9277814890785373
7446082583928169
7280659565444014
9495463871630627
9774109887296955
4879855586762572
7897779819494573
5570543667939997
8361766779633132
8741169700236686
0320385790880256
8056542335438905
