strict digraph grafo3 {
	graph [bb="0,0,2260,145",
		id=grafo3,
		overlap=False
	];
	node [fontsize=8,
		label="\N",
		shape=rectangle,
		style=filled
	];
	0	 [URL="http://lattes.cnpq.br/6280703103205032",
		color="#17272B",
		fontcolor="#FFFFFF",
		height=0.23611,
		label="Elidia Maria Guerra [3]",
		pos="50,136.5",
		width=1.2778];
	2	 [URL="http://lattes.cnpq.br/6247805873454988",
		color="#17272B",
		fontcolor="#FFFFFF",
		height=0.23611,
		label="Dane Tadeu Cestarolli [3]",
		pos="50,72.5",
		width=1.3889];
	0 -> 2	 [arrowhead=normal,
		arrowsize=0.75,
		fontsize=8,
		label=1.0,
		lp="39.5,104.5",
		penwidth=3.5,
		pos="e,43.038,81.264 43.716,127.85 40.1,122.93 35.905,116.23 34,109.5 31.893,102.06 34.771,94.165 38.64,87.672"];
	2 -> 0	 [arrowhead=normal,
		arrowsize=0.75,
		fontsize=8,
		label=1.0,
		lp="55.5,104.5",
		penwidth=3.5,
		pos="e,50,127.9 50,81.165 50,90.864 50,107.8 50,120.19"];
	1	 [URL="http://lattes.cnpq.br/1882302261569108",
		color="#17272B",
		fontcolor="#FFFFFF",
		height=0.23611,
		label="Daniela Leite Fabrino [0]",
		pos="163,136.5",
		width=1.3611];
	3	 [URL="http://lattes.cnpq.br/5561482457720983",
		color="#17272B",
		fontcolor="#FFFFFF",
		height=0.23611,
		label="Renata C. Zanetti Lofrano [2]",
		pos="286,136.5",
		width=1.5556];
	9	 [URL="http://lattes.cnpq.br/7204534064025448",
		color="#17272B",
		fontcolor="#FFFFFF",
		height=0.23611,
		label="Boutros Sarrouh [2]",
		pos="226,72.5",
		width=1.1111];
	3 -> 9	 [arrowhead=normal,
		arrowsize=0.75,
		fontsize=8,
		label=0.75,
		lp="240.5,104.5",
		penwidth=2.75,
		pos="e,225.6,81.184 259.26,127.95 249.63,123.95 239.54,118.04 233,109.5 228.49,103.61 226.64,95.634 225.95,88.684"];
	19	 [URL="http://lattes.cnpq.br/5009735328331739",
		color="#17272B",
		fontcolor="#FFFFFF",
		height=0.23611,
		label="Juliano Lemos Bicas [1]",
		pos="287,8.5",
		width=1.3056];
	3 -> 19	 [arrowhead=normal,
		arrowsize=0.75,
		fontsize=8,
		label=0.25,
		lp="294.5,72.5",
		penwidth=1.25,
		pos="e,286.94,17.125 286.06,128 286.22,107.82 286.66,52.112 286.88,24.883"];
	9 -> 3	 [arrowhead=normal,
		arrowsize=0.75,
		fontsize=8,
		label=0.75,
		lp="267.5,104.5",
		penwidth=2.75,
		pos="e,278.64,127.9 233.42,81.165 243.35,91.424 261.11,109.78 273.21,122.29"];
	9 -> 19	 [arrowhead=normal,
		arrowsize=0.75,
		fontsize=8,
		label=0.25,
		lp="243.5,40.5",
		penwidth=1.25,
		pos="e,262.64,17.076 226.37,63.794 227.11,55.892 229.35,43.637 236,35.5 241.14,29.209 248.2,24.284 255.43,20.495"];
	19 -> 3	 [arrowhead=normal,
		arrowsize=0.75,
		fontsize=8,
		label=0.5,
		lp="313.5,72.5",
		penwidth=2.0,
		pos="e,291.49,127.66 292.1,17.393 295.12,22.397 298.77,29.11 301,35.5 307.77,54.919 307.81,61.015 306,81.5 304.88,94.092 305.33,97.625 \
301,109.5 299.56,113.44 297.55,117.47 295.46,121.14"];
	19 -> 9	 [arrowhead=normal,
		arrowsize=0.75,
		fontsize=8,
		label=0.5,
		lp="266.5,40.5",
		penwidth=2.0,
		pos="e,233.48,63.898 279.46,17.165 269.37,27.424 251.31,45.775 239,58.286"];
	4	 [URL="http://lattes.cnpq.br/9089252583772519",
		color="#17272B",
		fontcolor="#FFFFFF",
		height=0.23611,
		label="Ana M. D. C. de Miranda Oliveira [0]",
		pos="429,136.5",
		width=1.9167];
	5	 [URL="http://lattes.cnpq.br/9892291082782946",
		color="#17272B",
		fontcolor="#FFFFFF",
		height=0.23611,
		label="Ana C. Bernardes Silva [1]",
		pos="568,136.5",
		width=1.4306];
	21	 [URL="http://lattes.cnpq.br/7513217329977595",
		color="#17272B",
		fontcolor="#FFFFFF",
		height=0.23611,
		label="Heraldo Nunes Pitanga [1]",
		pos="568,72.5",
		width=1.4167];
	5 -> 21	 [arrowhead=normal,
		arrowsize=0.75,
		fontsize=8,
		label=1.0,
		lp="557.5,104.5",
		penwidth=3.5,
		pos="e,561.04,81.264 561.72,127.85 558.1,122.93 553.91,116.23 552,109.5 549.89,102.06 552.77,94.165 556.64,87.672"];
	21 -> 5	 [arrowhead=normal,
		arrowsize=0.75,
		fontsize=8,
		label=1.0,
		lp="573.5,104.5",
		penwidth=3.5,
		pos="e,568,127.9 568,81.165 568,90.864 568,107.8 568,120.19"];
	6	 [URL="http://lattes.cnpq.br/4448350387455509",
		color="#17272B",
		fontcolor="#FFFFFF",
		height=0.23611,
		label="Andre L. Barroso de Magalhaes [0]",
		pos="703,136.5",
		width=1.8056];
	7	 [URL="http://lattes.cnpq.br/4505221784644374",
		color="#17272B",
		fontcolor="#FFFFFF",
		height=0.23611,
		label="Telde Natel Custódio [0]",
		pos="834,136.5",
		width=1.3333];
	8	 [URL="http://lattes.cnpq.br/5854072268825877",
		color="#17272B",
		fontcolor="#FFFFFF",
		height=0.23611,
		label="Bruno Meireles Xavier [0]",
		pos="951,136.5",
		width=1.4167];
	10	 [URL="http://lattes.cnpq.br/1697965677198993",
		color="#17272B",
		fontcolor="#FFFFFF",
		height=0.23611,
		label="Antonio Helvecio Totola [0]",
		pos="1074,136.5",
		width=1.5];
	11	 [URL="http://lattes.cnpq.br/1288764472574843",
		color="#17272B",
		fontcolor="#FFFFFF",
		height=0.23611,
		label="Silvana de Queiroz Silva [0]",
		pos="1200,136.5",
		width=1.5];
	12	 [URL="http://lattes.cnpq.br/8339793010218033",
		color="#17272B",
		fontcolor="#FFFFFF",
		height=0.23611,
		label="Sandra de Cassia Dias [0]",
		pos="1322,136.5",
		width=1.375];
	13	 [URL="http://lattes.cnpq.br/6615103620821876",
		color="#17272B",
		fontcolor="#FFFFFF",
		height=0.23611,
		label="Rogério Antonio Picoli [0]",
		pos="1441,136.5",
		width=1.4167];
	14	 [URL="http://lattes.cnpq.br/1409264122407992",
		color="#17272B",
		fontcolor="#FFFFFF",
		height=0.23611,
		label="André Aguiar Mendes [0]",
		pos="1560,136.5",
		width=1.375];
	15	 [URL="http://lattes.cnpq.br/0381402687491195",
		color="#17272B",
		fontcolor="#FFFFFF",
		height=0.23611,
		label="Marcelo P. de Arruda Ribeiro [2]",
		pos="1689,136.5",
		width=1.7083];
	17	 [URL="http://lattes.cnpq.br/7999741482353508",
		color="#17272B",
		fontcolor="#FFFFFF",
		height=0.23611,
		label="Marcel Otavio Cerri [2]",
		pos="1689,72.5",
		width=1.2917];
	15 -> 17	 [arrowhead=normal,
		arrowsize=0.75,
		fontsize=8,
		label=1.0,
		lp="1678.5,104.5",
		penwidth=3.5,
		pos="e,1682,81.264 1682.7,127.85 1679.1,122.93 1674.9,116.23 1673,109.5 1670.9,102.06 1673.8,94.165 1677.6,87.672"];
	17 -> 15	 [arrowhead=normal,
		arrowsize=0.75,
		fontsize=8,
		label=1.0,
		lp="1694.5,104.5",
		penwidth=3.5,
		pos="e,1689,127.9 1689,81.165 1689,90.864 1689,107.8 1689,120.19"];
	16	 [URL="http://lattes.cnpq.br/9739061759678313",
		color="#17272B",
		fontcolor="#FFFFFF",
		height=0.23611,
		label="Marcelo Batista da Silva [0]",
		pos="1822,136.5",
		width=1.4861];
	18	 [URL="http://lattes.cnpq.br/4199377950118224",
		color="#17272B",
		fontcolor="#FFFFFF",
		height=0.23611,
		label="Luiz G. Martins da Silva [0]",
		pos="1947,136.5",
		width=1.4861];
	20	 [URL="http://lattes.cnpq.br/3756997395982734",
		color="#17272B",
		fontcolor="#FFFFFF",
		height=0.23611,
		label="José Carlos de Magalhães [0]",
		pos="2074,136.5",
		width=1.5417];
	22	 [URL="http://lattes.cnpq.br/1123705010561141",
		color="#17272B",
		fontcolor="#FFFFFF",
		height=0.23611,
		label="Ênio N. de Oliveira Júnior [0]",
		pos="2204,136.5",
		width=1.5556];
}
