strict graph grafo2 {
	graph [bb="0,0,2260,145",
		id=grafo2,
		overlap=False
	];
	node [fontsize=8,
		label="\N",
		shape=rectangle,
		style=filled
	];
	0	 [URL="http://lattes.cnpq.br/6280703103205032",
		color="#17272B",
		fontcolor="#FFFFFF",
		height=0.23611,
		label="Elidia Maria Guerra [3]",
		pos="50,136.5",
		width=1.2778];
	2	 [URL="http://lattes.cnpq.br/6247805873454988",
		color="#17272B",
		fontcolor="#FFFFFF",
		height=0.23611,
		label="Dane Tadeu Cestarolli [3]",
		pos="50,72.5",
		width=1.3889];
	0 -- 2	 [fontsize=8,
		label=3.0,
		lp="55.5,104.5",
		pos="50,127.9 50,116 50,93.102 50,81.165"];
	1	 [URL="http://lattes.cnpq.br/1882302261569108",
		color="#17272B",
		fontcolor="#FFFFFF",
		height=0.23611,
		label="Daniela Leite Fabrino [0]",
		pos="163,136.5",
		width=1.3611];
	3	 [URL="http://lattes.cnpq.br/5561482457720983",
		color="#17272B",
		fontcolor="#FFFFFF",
		height=0.23611,
		label="Renata C. Zanetti Lofrano [2]",
		pos="286,136.5",
		width=1.5556];
	9	 [URL="http://lattes.cnpq.br/7204534064025448",
		color="#17272B",
		fontcolor="#FFFFFF",
		height=0.23611,
		label="Boutros Sarrouh [2]",
		pos="235,72.5",
		width=1.1111];
	3 -- 9	 [fontsize=8,
		label=2.0,
		lp="269.5,104.5",
		pos="279.75,127.9 269.96,116 251.12,93.102 241.3,81.165"];
	19	 [URL="http://lattes.cnpq.br/5009735328331739",
		color="#17272B",
		fontcolor="#FFFFFF",
		height=0.23611,
		label="Juliano Lemos Bicas [1]",
		pos="285,8.5",
		width=1.3056];
	3 -- 19	 [fontsize=8,
		label=1.0,
		lp="291.5,72.5",
		pos="285.94,128 285.76,105.64 285.24,39.637 285.06,17.125"];
	9 -- 19	 [fontsize=8,
		label=1.0,
		lp="268.5,40.5",
		pos="241.13,63.898 250.73,51.998 269.19,29.102 278.82,17.165"];
	4	 [URL="http://lattes.cnpq.br/9089252583772519",
		color="#17272B",
		fontcolor="#FFFFFF",
		height=0.23611,
		label="Ana M. D. C. de Miranda Oliveira [0]",
		pos="429,136.5",
		width=1.9167];
	5	 [URL="http://lattes.cnpq.br/9892291082782946",
		color="#17272B",
		fontcolor="#FFFFFF",
		height=0.23611,
		label="Ana C. Bernardes Silva [1]",
		pos="568,136.5",
		width=1.4306];
	21	 [URL="http://lattes.cnpq.br/7513217329977595",
		color="#17272B",
		fontcolor="#FFFFFF",
		height=0.23611,
		label="Heraldo Nunes Pitanga [1]",
		pos="568,72.5",
		width=1.4167];
	5 -- 21	 [fontsize=8,
		label=1.0,
		lp="573.5,104.5",
		pos="568,127.9 568,116 568,93.102 568,81.165"];
	6	 [URL="http://lattes.cnpq.br/4448350387455509",
		color="#17272B",
		fontcolor="#FFFFFF",
		height=0.23611,
		label="Andre L. Barroso de Magalhaes [0]",
		pos="703,136.5",
		width=1.8056];
	7	 [URL="http://lattes.cnpq.br/4505221784644374",
		color="#17272B",
		fontcolor="#FFFFFF",
		height=0.23611,
		label="Telde Natel Custódio [0]",
		pos="834,136.5",
		width=1.3333];
	8	 [URL="http://lattes.cnpq.br/5854072268825877",
		color="#17272B",
		fontcolor="#FFFFFF",
		height=0.23611,
		label="Bruno Meireles Xavier [0]",
		pos="951,136.5",
		width=1.4167];
	10	 [URL="http://lattes.cnpq.br/1697965677198993",
		color="#17272B",
		fontcolor="#FFFFFF",
		height=0.23611,
		label="Antonio Helvecio Totola [0]",
		pos="1074,136.5",
		width=1.5];
	11	 [URL="http://lattes.cnpq.br/1288764472574843",
		color="#17272B",
		fontcolor="#FFFFFF",
		height=0.23611,
		label="Silvana de Queiroz Silva [0]",
		pos="1200,136.5",
		width=1.5];
	12	 [URL="http://lattes.cnpq.br/8339793010218033",
		color="#17272B",
		fontcolor="#FFFFFF",
		height=0.23611,
		label="Sandra de Cassia Dias [0]",
		pos="1322,136.5",
		width=1.375];
	13	 [URL="http://lattes.cnpq.br/6615103620821876",
		color="#17272B",
		fontcolor="#FFFFFF",
		height=0.23611,
		label="Rogério Antonio Picoli [0]",
		pos="1441,136.5",
		width=1.4167];
	14	 [URL="http://lattes.cnpq.br/1409264122407992",
		color="#17272B",
		fontcolor="#FFFFFF",
		height=0.23611,
		label="André Aguiar Mendes [0]",
		pos="1560,136.5",
		width=1.375];
	15	 [URL="http://lattes.cnpq.br/0381402687491195",
		color="#17272B",
		fontcolor="#FFFFFF",
		height=0.23611,
		label="Marcelo P. de Arruda Ribeiro [2]",
		pos="1689,136.5",
		width=1.7083];
	17	 [URL="http://lattes.cnpq.br/7999741482353508",
		color="#17272B",
		fontcolor="#FFFFFF",
		height=0.23611,
		label="Marcel Otavio Cerri [2]",
		pos="1689,72.5",
		width=1.2917];
	15 -- 17	 [fontsize=8,
		label=2.0,
		lp="1694.5,104.5",
		pos="1689,127.9 1689,116 1689,93.102 1689,81.165"];
	16	 [URL="http://lattes.cnpq.br/9739061759678313",
		color="#17272B",
		fontcolor="#FFFFFF",
		height=0.23611,
		label="Marcelo Batista da Silva [0]",
		pos="1822,136.5",
		width=1.4861];
	18	 [URL="http://lattes.cnpq.br/4199377950118224",
		color="#17272B",
		fontcolor="#FFFFFF",
		height=0.23611,
		label="Luiz G. Martins da Silva [0]",
		pos="1947,136.5",
		width=1.4861];
	20	 [URL="http://lattes.cnpq.br/3756997395982734",
		color="#17272B",
		fontcolor="#FFFFFF",
		height=0.23611,
		label="José Carlos de Magalhães [0]",
		pos="2074,136.5",
		width=1.5417];
	22	 [URL="http://lattes.cnpq.br/1123705010561141",
		color="#17272B",
		fontcolor="#FFFFFF",
		height=0.23611,
		label="Ênio N. de Oliveira Júnior [0]",
		pos="2204,136.5",
		width=1.5556];
}
