
PB0:2016,28;
PB1:2016,1;
PB2:2016,5;
PB4:2016,33;
PB5:2016,2;
PB6:2016,23;
PB8:2016,9;
PT4:2016,5;
PT5:*itens sem ano,1;
OA1:2004,1;2013,1;2014,5;2015,6;2016,6;2017,3;
OA2:2003,2;2005,2;2014,3;2015,7;2016,20;2017,8;
OA4:2016,2;2017,1;
OA5:2014,1;2015,4;2016,14;2017,14;
OA6:2016,12;
OC1:2016,1;
OC2:2016,15;
OC4:2016,24;
OC5:2016,26;
OC6:2016,9;
Pm:2016,6;
Pj:2008,1;2009,1;2010,10;2011,1;2012,3;2013,7;2014,9;2015,2;2016,8;
PB:2016,101;
PT:*itens sem ano,1;2016,5;
OA:2003,2;2004,1;2005,2;2013,1;2014,9;2015,17;2016,54;2017,26;
OC:2016,75;
Ep:2016,16;
Eo:2016,2;