artigoEmPeriodico	João Inácio Soletti	2015	http://dx.doi.org/10.1016/j.indcrop.2015.06.013	Biodiesel production from Sterculia striata oil by ethyl transesterification method	Industrial Crops and Products (Print)	FILHO, J. C. G. ; PEITER, A. S. ; PIMENTEL, W. R. O. ; SOLETTI, J. I. ; CARVALHO, S. H. V. ; MEILI, L.	A2	
trabalhoCompletoEmCongresso	João Inácio Soletti	2015		Estudo do Equilíbrio Líquido-Líquido em Sistemas Biodiesel de Pinhão Manso-Álcool (Metanol/Etanol)-Glicerina: Modelagem Matemática	VIII Congresso Brasileiro de Termodinâmica Aplicada	COELHO, D. G. ; COLLE, R. ; TOLEDO, I. E. P. ; LIRA, A. B. ; CARVALHO, S. H. V. ; SOLETTI, J. I.		
trabalhoCompletoEmCongresso	João Inácio Soletti	2015		Estudo do tratamento de água contaminada com pigmento utilizando resíduo de graviola como agente asorvente	Congresso Brasileiro de Sistemas Particulados - ENEMP 2015	MEILI, L. ; COSTA, M. T. ; ALMEIDA, R. L. ; CARVALHO, S. H. V. ; Soletti, J.I. ; ABUD, A. K. S.		
trabalhoCompletoEmCongresso	João Inácio Soletti	2015		Tratamento de solução aquosa contaminada com íons fluoreto via adsorção	Congresso Brasileiro de Sistemas Particulados - ENEMP-2015	MEILI, L. ; CRUZ, R. R. A. ; Soletti, J.I. ; CARVALHO, S. H. V.		
trabalhoCompletoEmCongresso	João Inácio Soletti	2015		Estudo do processo de purificação de efluentes oleosos da industria de petróleo	Congresso Brasileiro de Sistemas Particulados - ENEMP-2015	MEILI, L. ; FILHO, J. C. G. ; Carvalho, S.H.V. ; Soletti, J.I. ; PEITER, A. S. ; MARINHO, J. L. G.		
trabalhoCompletoEmCongresso	João Inácio Soletti	2015		Utilização da Fibra do Ouricuri (Syagrus Coronata) na remoção do corante azul de metileno: variáveis de processo e isoterma de adsorção	Congresso Brasileiro de Sistemas Particulados - ENEMP-2015	SILVA, T. S. ; HENRIQUE, D. C. ; MEILI, L. ; Soletti, J.I. ; CARVALHO, S. H. V.		
trabalhoCompletoEmCongresso	João Inácio Soletti	2015		Uso do sedimentador lamelado aplicados ao tratamento de efluente da industria de tintas	Congresso Brasileiro de Sistemas Particulados - ENEMP-2015	Soletti, J.I.; CARVALHO, S. H. V. ; VIEIRA, W. T. ; GABRIEL, R.		
trabalhoCompletoEmCongresso	João Inácio Soletti	2015		Tratameto de um efluente da industria do coco em unidade piloto de flotação por ar dissolvido	Congresso Brasileiro de Sistemas Particulados - ENEMP-2015	Soletti, J.I.; CARVALHO, S. H. V. ; SOUZA NETO, A. ; FERNANDES, M. ; BERGAMASCO, R.		
trabalhoCompletoEmCongresso	João Inácio Soletti	2015		Influencia da temperatura nos rendimentos dos produtos da pirolise do endocarpo do ouricuri (Syagrus Coronata (MART) Becc)	Congresso Brasileiro de Sistemas Particulados - ENEMP-2015	MEILI, L. ; SANTOS, L. E. R. ; SANTOS, R. ; ANDRADE, R. G. S. A. ; Soletti, J.I. ; CARVALHO, S. H. V.		
trabalhoCompletoEmCongresso	João Inácio Soletti	2015	http://dx.doi.org/10.20906/CPS/CILAMCE2015-0780	SIMULAÇÃO DE UMA COLUNA DE ESGOTAMENTO PARA REMOÇÃO DE 1,2-DICLOROETANO (1,2-DCE) UTILIZANDO AR ATMOSFÉRICO	XXXVI Iberian Latin American Congress on Computational Methods in Engineering	FILHO, FLÁVIO ; ARAÚJO, MARLYSSON ; SOLETTI, JOÃO ; NETO, JÚLIO ; CARVALHO, SANDRA		
trabalhoCompletoEmCongresso	João Inácio Soletti	2015		Predição de propriedades físicas do biodiesel e suas misturas com diesel mineral frente a variação de temperatura	VIII Congresso Brasileiro de Termodinâmica Aplicada	GABRIEL, R. ; SANTOS, M. E. S. O. ; FARIAS, M. B. ; VIEIRA, W. T. ; TOLEDO, I. E. P. ; SOLETTI, J. I. ; CARVALHO, S. H. V.		
trabalhoCompletoEmCongresso	João Inácio Soletti	2015		Emprego da fibra do ouricuri (Syagrus Coronata) como adsorvente alternativo para a remoção do corante azul de metileno	VI Encontro Regional da SBQ Nordeste	SILVA, T. S. ; HENRIQUE, D. C. ; MEILI, L. ; SOLETTI, J. I. ; CARVALHO, S. H. V.		
resumoExpandidoEmCongresso	João Inácio Soletti	2015	Modelagem do comportamento da viscosidade de diferentes blendas biodiesel de coco/diesel frente a variação de temperatura	8o Congresso Nacional de Biocombustíveis. Tecnologia, Sociedade e Ambiente, 2015, Cuiabá. Trabalhos do 8o BIOCOM	SILVA, V. G. S. ; BEZERRA, T. R. ; SOLETTI, J. I. ; Carvalho, S.H.V. ; MEILI, L. ; GABRIEL, R. ; LIMA, A. K. S. ; SANTOS, G. E. S.		
resumoExpandidoEmCongresso	João Inácio Soletti	2015	Modelagem Empírica no Estudo do Comportamento da Densidade de Diferentes Misturas de Biodiesel de Coco/Diesel de Petróleo a Diferentes Temperaturas	8o Congresso Nacional de Biocombustíveis. Tecnologia, Sociedade e Ambiente, 2015, Cuiabá. Trabalhos do 8o BIOCOM	BARBOSA, L. S. ; HITA, T. B. ; CARVALHO, S. H. V. ; SOLETTI, J. I. ; GABRIEL, R. ; LIMA, A. K. S. ; MEILI, L. ; SANTOS, G. E. S.		
artigoEmPeriodico	Eduardo Calil de Oliveira	2015	http://dx.doi.org/10.1051/shsconf/20151602001	Etude comparative des formes de discours rapportés dans des contes des origines chez des scripteurs français et brésiliens (7-8 ans) : premiers résultats	SHS Web of Conferences	BORÉ, CATHERINE ; OLIVEIRA, Eduardo Calil de ; AMORIM, ET KARINY LOUIZA	C	
artigoEmPeriodico	Eduardo Calil de Oliveira	2015		A constituição tópico-discursiva de histórias em quadrinhos na sala de aula por alunas recém alfabetizadas	Revista (Con) Textos Linguísticos (UFES)	DIKSON, D. ; CALIL, Eduardo	B2	
trabalhoCompletoEmCongresso	Eduardo Calil de Oliveira	2015		THE MEANING OF WORDS AND HOW THEY RELATE TO THE ONGOING TEXT: A STUDY OF SEMANTIC COMMENTS MADE BY TWO 7-YEAR-OLD SCHOOLCHILDREN	INTERNATIONAL SYMPOSIUM FOR EDUCATIONAL LITERACY (SILE/ISEL(	CALIL, E.		
artigoEmPeriodico	Patrick Henrique da Silva Brito	2015	http://dx.doi.org/10.1007/s00766-015-0222-6	Applications of ontologies in requirements engineering: a systematic review of the literature	Requirements Engineering (London. Print)	DERMEVAL, DIEGO ; VILELA, JÉSSYKA ; Bittencourt, Ig Ibert ; CASTRO, JAELSON ; ISOTANI, SEIJI ; Brito, Patrick ; SILVA, ALAN	Qualis nao identificado	Requirements Engineering (London. Print)
trabalhoCompletoEmCongresso	Patrick Henrique da Silva Brito	2015	http://dx.doi.org/10.1145/2695664.2695928	A decision-making tool to support architectural designs based on quality attributes	the 30th Annual ACM Symposium	LOPES SILVA, ITALO CARLO ; Brito, Patrick H. S. ; DOS S. NETO, BALDOINO F. ; Costa, Evandro ; SILVA, ANDRE ALMEIDA		
trabalhoCompletoEmCongresso	Patrick Henrique da Silva Brito	2015		Falibras Translator: Towards More Health Care Humanization for Deaf People	XV Workshop de Informática Médica | XXXV Congresso da Sociedade Brasileira de Computação (CSBC 2015)	Vitor Marcolino ; Natália M. Franco ; Patrick H. S. Brito ; Luis C. Coradine		
resumoExpandidoEmCongresso	Patrick Henrique da Silva Brito	2015	FALIBRAS: Automatic translator to promote inclusion of deaf people on the web	1st International Workshop on Assistive Technology, 2015, Vitoria. Proceedings of the 1st International Workshop on Assistive Technology (IWAT 2015)	Patrick H. S. Brito; Luis C. Coradine ; Orivaldo Tavares ; José Mario De Martino		
artigoEmPeriodico	Evandro de Barros Costa	2015	http://dx.doi.org/10.1016/j.eswa.2014.09.022	AutoRefactoring: A platform to build refactoring agents	Expert Systems with Applications	SANTOS NETO, Baldoino Fonseca dos ; RIBEIRO, MÁRCIO ; SILVA, VIVIANE TORRES DA ; BRAGA, CHRISTIANO ; LUCENA, CARLOS JOSÉ PEREIRA DE ; COSTA, EVANDRO DE BARROS	A1	
artigoEmPeriodico	Evandro de Barros Costa	2015		A Meta-Information Extractor for Interrogative Sentences	Lecture Notes in Computer Science	SOUZA, C. C. ; MAIA, J. ; SILVA, L. ; MAGALHAES, J. J. ; BARROS, H. ; COSTA, E. B. ; FECHINE, J. M.	B1	
artigoEmPeriodico	Evandro de Barros Costa	2015		Identificação dos Traços de Personalidade de Alunos com Base em Postagens no Facebook	Tecnologias, Sociedade e Conhecimento	AGUIAR, J. J. B. ; FECHINE, J. M. ; COSTA, E. B.	Qualis nao identificado	Tecnologias, Sociedade e Conhecimento
trabalhoCompletoEmCongresso	Evandro de Barros Costa	2015		Recommending Scientific Papers: Investigating the User Curriculum	The Twenty-Eighth International Flairs Conference	Magalhaes, J. J. ; C. C. Souza ; COSTA, E. B. ; Fechine, J. M.		
trabalhoCompletoEmCongresso	Evandro de Barros Costa	2015	http://dx.doi.org/10.1145/2695664.2695928	A decision-making tool to support architectural designs based on Quality Attributes	30th ACM/SIGAPP Symposium On Applied Computing	LOPES SILVA, ITALO CARLO ; Brito, Patrick H. S. ; DOS S. NETO, BALDOINO F. ; Costa, Evandro ; SILVA, ANDRE ALMEIDA		
trabalhoCompletoEmCongresso	Evandro de Barros Costa	2015		A predictive model for identifying students with dropout profiles in online courses	Workshop on Tools and Technologies in Statistics,Machine Learning and Information Retrievalfor Educational Data Mining 'SMLIR' (in conjunction with The 8th International Conference on Educational Data Mining EDM 2015)	SANTANA, M. A. ; COSTA, EVANDRO DE BARROS ; SANTOS NETO, Baldoino Fonseca dos ; SILVA, I. ; REGO, J. B. A.		
trabalhoCompletoEmCongresso	Evandro de Barros Costa	2015		Simulated learners in peers assessment for introductory programming courses	2nd AIED Workshop on Simulated Learners (in conjunction with Artificial Intelligence in Education Conference)	BARBOSA, A. DE A. ; COSTA, EVANDRO DE BARROS		
trabalhoCompletoEmCongresso	Evandro de Barros Costa	2015		Análise Comparativa de Abordagens de Associação entre os Estilos de Aprendizagem de Felder-Silverman e os Metadados do Padrão IEEE LOM	IV Workshop de Desafios da Computação Aplicada à Educação (DesafIE) - XXXV Congresso da Sociedade Brasileira de Computação (CSBC)	AGUIAR, J. J. ; Fechine, Fechine ; COSTA, EVANDRO DE BARROS		
trabalhoCompletoEmCongresso	Evandro de Barros Costa	2015		Identificando os Traços de Personalidade de Estudantes de um Curso Técnico em Informática	XXIII Workshop sobre Educação em Computação (WEI) - XXXV Congresso da Sociedade Brasileira de Computação (CSBC)	AGUIAR, J. J. ; Fechine, J. M. ; COSTA, EVANDRO DE BARROS		
trabalhoCompletoEmCongresso	Evandro de Barros Costa	2015		A Meta-Information Extractor for Interrogative Sentences	Computational Science and Its Applications -- ICCSA 2015	C. C. Souza ; Magalhaes, J. J. ; Barros, H. J. dos S. ; Fechine, Fechine ; COSTA, EVANDRO DE BARROS		
trabalhoCompletoEmCongresso	Evandro de Barros Costa	2015	http://dx.doi.org/10.1109/FIE.2015.7344308	An interactive learning environment for assisting students in solving problems on designing of logic digital circuits by using Multiple Representations	Frontiers in Education Conference	COSTA, EVANDRO DE BARROS; ROCHA, H. J. B.		
trabalhoCompletoEmCongresso	Evandro de Barros Costa	2015		Using Decision Trees for Detecting Code Smells	26th IEEE International Symposium on Software Reliability Engineering (ISSRE 2015)	AMORIM, L. ; FONSECA, B. ; ANTUNES, N. ; RIBEIRO, Marcio ; Costa, Evandro		
trabalhoCompletoEmCongresso	Evandro de Barros Costa	2015	http://dx.doi.org/10.1109/FIE.2015.7344102	A Tree Inclusion Analyzer for Examining Introductory Programming Codes	Frontiers in Education Conference	SILVA, Marlos Tacio ; Costa, Evandro de B. ; MIRANDA, M. ; SILVA, E. T.		
artigoEmPeriodico	Luis Cláudius Coradine	2015	http://dx.doi.org/10.1016/j.bspc.2015.05.008	Comparative analysis of strategies for feature extraction and classification in SSVEP BCIs	Biomedical Signal Processing and Control (Print)	CARVALHO, SARAH N. ; COSTA, THIAGO B.S. ; URIBE, LUISA F.S. ; SORIANO, DIOGO C. ; YARED, GLAUCO F.G. ; CORADINE, LUIS C. ; ATTUX, ROMIS	Qualis nao identificado	Biomedical Signal Processing and Control (Print)
artigoEmPeriodico	Luis Cláudius Coradine	2015	http://dx.doi.org/10.1016/j.sigpro.2015.01.010	An immune-inspired, information-theoretic framework for blind inversion of Wiener systems	Signal Processing (Print)	SILVA, DANIEL G. ; MONTALVÃO, JUGURTA ; ATTUX, ROMIS ; CORADINE, LUÍS C.	B1	IET Signal Processing (Print)
trabalhoCompletoEmCongresso	Luis Cláudius Coradine	2015	http://dx.doi.org/10.1007/978-3-642-02319-4_47	FALIBRAS: Automatic translator to promote inclusion of deaf people on the web	1st International Workshop on Assistive Technology	BRITO, P. H. S. ; CORADINE, L. C. ; TAVARES, O. L. ; MARTINO, J. M.		
artigoEmPeriodico	Alejandro César Frery Orgambide	2015	http://dx.doi.org/10.1108/EC-04-2014-0092	Thermomechanical Effect of Vertical Well Drilling in Salt Rocks in Selected Cases	ENGINEERING COMPUTATIONS	LIRA, W.W.M. ; GONCALVES, G. G. ; ARAUJO, C. N. ; RAMOS, A. ; FRERY, A.C.	B1	
artigoEmPeriodico	Alejandro César Frery Orgambide	2015	http://dx.doi.org/10.1109/JSTARS.2014.2346017	Parameter Estimation in SAR Imagery Using Stochastic Distances and Asymmetric Kernels	IEEE Journal of Selected Topics in Applied Earth Observations and Remote Sensing	Gambini, Juliana ; CASSETTI, JULIA ; LUCINI, MARIA MAGDALENA ; Frery, Alejandro C.	Qualis nao identificado	IEEE Journal of Selected Topics in Applied Earth Observations and Remote Sensing
artigoEmPeriodico	Alejandro César Frery Orgambide	2015	http://dx.doi.org/10.1109/JSTARS.2015.2420683	Modifying the Yamaguchi Four-Component Decomposition Scattering Powers Using a Stochastic Distance	IEEE Journal of Selected Topics in Applied Earth Observations and Remote Sensing	BHATTACHARYA, AVIK ; MUHURI, A. ; DE, S. ; MANICKAM, S. ; FRERY, A.C.	Qualis nao identificado	IEEE Journal of Selected Topics in Applied Earth Observations and Remote Sensing
artigoEmPeriodico	Alejandro César Frery Orgambide	2015	http://dx.doi.org/10.1098/rsta.2015.0118	Classification of complex Wishart matrices with a diffusion-reaction system guided by stochastic distances	PHILOSOPHICAL TRANSACTIONS OF THE ROYAL SOCIETY A-MATHEMATICAL PHYSICAL AND ENGINEERING SCIENCES	GÓMEZ, L. ; ALVAREZ, L. ; MAZORRA, L. ; Frery, Alejandro C.	A2	
artigoEmPeriodico	Alejandro César Frery Orgambide	2015	http://dx.doi.org/10.1016/j.knosys.2015.07.030	Optical images-based edge detection in Synthetic Aperture Radar images	Knowledge-Based Systems	SILVA, GILBERTO P. ; Frery, Alejandro C. ; SANDRI, SANDRA ; BUSTINCE, HUMBERTO ; BARRENECHEA, EDURNE ; MARCO-DETCHART, CÉDRIC	B1	
artigoEmPeriodico	Alejandro César Frery Orgambide	2015	http://dx.doi.org/10.1140/epjb/e2015-60384-x	Characterization of vehicle behavior with information theory	The European Physical Journal. B, Condensed Matter Physics (Print)	AQUINO, ANDRE L.L. ; CAVALCANTE, TAMER S.G. ; ALMEIDA, ELIANA S. ; Frery, Alejandro C. ; ROSSO, OSVALDO A.	B1	
artigoEmPeriodico	Alejandro César Frery Orgambide	2015	http://dx.doi.org/10.1109/jstars.2014.2323713	When Data Do Not Bring Information: A Case Study in Markov Random Fields Estimation	IEEE Journal of Selected Topics in Applied Earth Observations and Remote Sensing	GIMENEZ, JAVIER ; Frery, Alejandro C. ; FLESIA, ANA GEORGINA	Qualis nao identificado	IEEE Journal of Selected Topics in Applied Earth Observations and Remote Sensing
trabalhoCompletoEmCongresso	Alejandro César Frery Orgambide	2015	http://dx.doi.org/10.5151/edupro-cbs21-014	Cidades Inteligentes, um Novo Paradigma da Sociedade do Conhecimento	Cuba e Brasil no Século XXI	AQUINO, ANDRE L.L. ; Ramos, Heitor S. ; PEREIRA, LEONARDO V. ; Frery, Alejandro C.		
trabalhoCompletoEmCongresso	Alejandro César Frery Orgambide	2015	http://dx.doi.org/10.1109/IWOBI.2015.7160147	Classification of PolSAR Imagery by Solving a Diffusion-Reaction System	International Work Conference on Bioinspired Intelligence (IWOBI)	GÓMEZ, L. ; ALVAREZ, L. ; MAZORRA, L. ; Frery, Alejandro C		
trabalhoCompletoEmCongresso	Alejandro César Frery Orgambide	2015	http://dx.doi.org/10.1109/IGARSS.2015.7325744	Integration of information-theoretic tools for PolSAR image processing and analysis	IGARSS 2015 2015 IEEE International Geoscience and Remote Sensing Symposium	SANT'ANNA, SIDNEI ; FREITAS, CORINA DA C. ; TORRES, Leonardo ; Frery, Alejandro C.		
trabalhoCompletoEmCongresso	Alejandro César Frery Orgambide	2015	http://dx.doi.org/10.1109/IGARSS.2015.7325807	Finding structures in ratio images	IGARSS 2015 2015 IEEE International Geoscience and Remote Sensing Symposium	Frery, Alejandro C.; OSPINA, RAYDONAL ; DENIZ, LUIS GOMEZ		
trabalhoCompletoEmCongresso	Alejandro César Frery Orgambide	2015	http://dx.doi.org/10.1109/IGARSS.2015.7326470	Comparison of nonlocal means despeckling based on stochastic measures	IGARSS 2015 2015 IEEE International Geoscience and Remote Sensing Symposium	GRIMSON, RAFAEL ; MORANDEIRA, NATALIA S. ; Frery, Alejandro C.		
artigoEmPeriodico	Ig Ibert Bittencourt Santana Pinto	2015	http://dx.doi.org/10.1016/j.eswa.2015.02.020	Ontology-based Feature Modeling: An Empirical Study in Changing Scenarios	Expert Systems with Applications	Dermeval, Diego ; TENÓRIO, THYAGO ; BITTENCOURT, IG IBERT ; Silva, Alan ; Isotani, Seiji ; RIBEIRO, MÁRCIO	A1	
artigoEmPeriodico	Ig Ibert Bittencourt Santana Pinto	2015	http://dx.doi.org/10.1109/tla.2015.7164227	Personalization of Gamification in Collaborative Learning Contexts using Ontologies	Revista IEEE América Latina	CHALCO, G. ; MOREIRA, D. A. ; BITTENCOURT, IG, I. ; Mizoguchi, Riichiro ; ISOTANI, S.	B1	
artigoEmPeriodico	Ig Ibert Bittencourt Santana Pinto	2015	http://dx.doi.org/10.5753/rbie.2015.23.02.190	AssistLIBRAS: Uma Ferramenta de Autoria para a Construção de Sinais da LIBRAS	Revista Brasileira de Informática na Educação	ROCHA, D. ; BITTENCOURT, IG, I. ; SILVA, Rafael de Amorim	B1	
artigoEmPeriodico	Ig Ibert Bittencourt Santana Pinto	2015	http://dx.doi.org/10.5753/rbie.2015.23.03.113	Estado da Arte sobre Afetividade na Formação de Grupos em Ambientes Colaborativos de Aprendizagem	Revista Brasileira de Informática na Educação	REIS, R. ; RODRIGUEZ, C. L. ; LYRA, K. T. ; Patrícia Jacques ; I. BITTENCOURT, IG ; Isotani, Seiji	B1	
artigoEmPeriodico	Ig Ibert Bittencourt Santana Pinto	2015	http://dx.doi.org/10.1109/tla.2015.7069116	Ontology Driven Software Engineering: A Review of Challenges and Opportunities	Revista IEEE América Latina	Isotani, Seiji ; Bittencourt, Ig Ibert ; BARBOSA, E. F. ; Dermeval, Diego ; PAIVA, R.	B1	
trabalhoCompletoEmCongresso	Ig Ibert Bittencourt Santana Pinto	2015	http://dx.doi.org/10.1145/2695664.2695874	Improving pedagogical recommendations by classifying students according to their interactional behavior in a gamified learning environment	the 30th Annual ACM Symposium	PAIVA, RANILSON O. ARAÚJO ; BITTENCOURT, IG IBERT ; DA SILVA, ALAN PEDRO ; Isotani, Seiji ; JAQUES, PATRICIA		
trabalhoCompletoEmCongresso	Ig Ibert Bittencourt Santana Pinto	2015		Challenges of Flow Theory Applied to Computers in Education	Workshop de Desafios da Computação Aplicada à Educação	SANTOS, W. O. ; BITTENCOURT, IG, I. ; Isotani, Seiji ; MARQUES, L. ; Frango, I		
trabalhoCompletoEmCongresso	Ig Ibert Bittencourt Santana Pinto	2015		Desafios no uso de Dados Abertos Conectados na Educação Brasileira	Workshop de Desafios da Computação Aplicada à Educação	ALCANTARA, W. ; BANDEIRA, J. M. ; BARBOSA, A. ; AVILA, T. ; BITTENCOURT, IG, I. ; Isotani, Seiji		
trabalhoCompletoEmCongresso	Ig Ibert Bittencourt Santana Pinto	2015	http://dx.doi.org/10.1109/icalt.2015.95	Affective States in CSCL Environments: A Systematic Mapping of the Literature	2015 IEEE 15th International Conference on Advanced Learning Technologies (ICALT)	REIS, RACHEL CARLOS DUQUE ; RODRIGUEZ, CARLA LOPES ; LYRA, KAMILA TAKAYAMA ; JAQUES, PATRICIA AUGUSTIN ; BITTENCOURT, IG IBERT ; Isotani, Seiji		
trabalhoCompletoEmCongresso	Ig Ibert Bittencourt Santana Pinto	2015	http://dx.doi.org/10.5753/cbie.sbie.2015.1012	Relação entre os Estados Afetivos e as Teorias de Aprendizagem na Formação de Grupos em Ambientes CSCL	XXVI Simpósio Brasileiro de Informática na Educação	REIS, RACHEL ; RODRIGUEZ, CARLA ; CHALCO, GEISER ; JAQUES, PATRICIA ; BITTENCOURT, IG IBERT ; Isotani, Seiji		
trabalhoCompletoEmCongresso	Ig Ibert Bittencourt Santana Pinto	2015	http://dx.doi.org/10.5753/cbie.sbie.2015.692	Análise, Projeto, Desenvolvimento e Avaliação de Jogos Sérios e Afins: uma revisão de desafios e oportunidades	XXVI Simpósio Brasileiro de Informática na Educação	ROCHA, RAFAELA VILELA DA ; BITTENCOURT, IG IBERT ; Isotani, Seiji		
trabalhoCompletoEmCongresso	Ig Ibert Bittencourt Santana Pinto	2015	http://dx.doi.org/10.5753/cbie.sbie.2015.489	Metodologia de Desenvolvimento de Jogos Sérios: Especificação de Ferramentas de Apoio Open Source	XXVI Simpósio Brasileiro de Informática na Educação	ROCHA, RAFAELA VILELA DA ; ZEM-LOPES, APARECIDA MARIA ; PEDRO, LAÍS ZAGATTI ; BITTENCOURT, IG IBERT ; Isotani, Seiji		
trabalhoCompletoEmCongresso	Ig Ibert Bittencourt Santana Pinto	2015	http://dx.doi.org/10.5753/cbie.sbie.2015.657	Avaliação de Jogos Educativos: Uma Abordagem no Ensino de Matemática	XXVI Simpósio Brasileiro de Informática na Educação	OLIVEIRA, WILK ; NETO, SEBASTIÃO ; JUNOIR, CLOVIS GOMES DA SILVA ; BITTENCOURT, IG IBERT		
trabalhoCompletoEmCongresso	Ig Ibert Bittencourt Santana Pinto	2015	http://dx.doi.org/10.5753/cbie.sbie.2015.667	Uma análise do impacto da utilização de técnicas de gamificação como estratégia didática no aprendizado dos alunos	XXVI Simpósio Brasileiro de Informática na Educação	NETO, AMAURY ; SILVA, Alan Pedro da ; BITTENCOURT, IG IBERT		
trabalhoCompletoEmCongresso	Ig Ibert Bittencourt Santana Pinto	2015	http://dx.doi.org/10.1109/SBES.2015.15	OntoQAI: An Ontology to Support Quality Assurance Inspections	2015 29th Brazilian Symposium on Software Engineering (SBES)	SILVA, JOAO PABLO SILVA DA ; DALLOGLIO, PABLO ; PINTO, SERGIO CRESPO COELHO DA SILVA ; BITTENCOURT, IG IBERT ; MERGEN, SERGIO LUIS SARDI		
trabalhoCompletoEmCongresso	Ig Ibert Bittencourt Santana Pinto	2015	http://dx.doi.org/10.1145/2695664.2695775	A survey analysis on goal orientation changes in an information systems distance course	the 30th Annual ACM Symposium	MALTA, CHEOPS ARAUJO ; PAIVA, RANILSON O. ARAÚJO ; DA SILVA, ALAN PEDRO ; BITTENCOURT, IG IBERT ; DE OLIVEIRA FILHO, ANANIAS QUEIROGA		
trabalhoCompletoEmCongresso	Ig Ibert Bittencourt Santana Pinto	2015	http://dx.doi.org/10.5753/cbie.wcbie.2015.95	AVALIAÇÃO AUTOMÁTICA DE ATIVIDADES ESCRITAS BASEADA EM ALGORITMO GENÉTICO E PROCESSAMENTO DE LINGUAGEM NATURAL: Avaliador Ortográfico-Gramatical	Concurso de Teses e Dissertações em Informática na Educação	JOSÉ, JÁRIO ; PAIVA, RANILSON ; BITTENCOURT, IG IBERT		
trabalhoCompletoEmCongresso	Ig Ibert Bittencourt Santana Pinto	2015	http://dx.doi.org/10.5753/cbie.wcbie.2015.334	Desafios com Palitos: Um Jogo Para o Ensino de Conceitos Específicos de Matemática	I Concurso Integrado de Desenvolvimento de Soluções de Tecnologia e Objetos de Aprendizagem para a Educação	OLIVEIRA, WILK ; BORGES, DANIEL ; JOSÉ, JÁRIO ; BITTENCOURT, IG IBERT ; JUNOIR, CLOVIS GOMES DA SILVA		
trabalhoCompletoEmCongresso	Ig Ibert Bittencourt Santana Pinto	2015	http://dx.doi.org/10.5753/cbie.wcbie.2015.342	Conquistando com o Resto: Um Jogo Para o Ensino de Conceitos de Divisão	I Concurso Integrado de Desenvolvimento de Soluções de Tecnologia e Objetos de Aprendizagem para a Educação	OLIVEIRA, WILK ; JOSÉ, JÁRIO ; BORGES, DANIEL ; BITTENCOURT, IG IBERT ; JUNOIR, CLOVIS GOMES DA SILVA		
trabalhoCompletoEmCongresso	Ig Ibert Bittencourt Santana Pinto	2015	http://dx.doi.org/10.1109/FIE.2015.7344074	Badges and XP: An observational study about learning	2015 IEEE Frontiers in Education Conference (FIE)	PAIVA, RANILSON ; BARBOSA, ARMANDO ; BATISTA, EZEQUIEL ; PIMENTEL, DANIEL ; BITTENCOURT, IG IBERT		
resumoExpandidoEmCongresso	Ig Ibert Bittencourt Santana Pinto	2015	Quality Evaluation of Web-Based Educational Software: A Systematic Mapping	2015 IEEE 15th International Conference on Advanced Learning Technologies (ICALT), 2015	LOPES, APARECIDA M. ZEM ; PEDRO, LAIS Z. ; Isotani, Seiji ; BITTENCOURT, IG I.		
artigoEmPeriodico	Alan Pedro da Silva	2015	http://dx.doi.org/10.1007/s00766-015-0222-6	Applications of ontologies in requirements engineering: a systematic review of the literature	Requirements Engineering (London. Print)	DERMEVAL, Diego ; VILELA, JÉSSYKA ; Bittencourt, Ig Ibert ; CASTRO, JAELSON ; ISOTANI, Seiji ; BRITO, PATRICK ; SILVA, ALAN	Qualis nao identificado	Requirements Engineering (London. Print)
artigoEmPeriodico	Alan Pedro da Silva	2015	http://dx.doi.org/10.1016/j.eswa.2015.02.020	Ontology-based feature modeling: An empirical study in changing scenarios	Expert Systems with Applications	DERMEVAL, Diego ; TENÓRIO, THYAGO ; Bittencourt, Ig Ibert ; SILVA, ALAN ; ISOTANI, Seiji ; RIBEIRO, MÁRCIO	A1	
trabalhoCompletoEmCongresso	Alan Pedro da Silva	2015	http://dx.doi.org/10.1145/2695664.2695775	A survey analysis on goal orientation changes in an information systems distance course	the 30th Annual ACM Symposium	MALTA, CHEOPS ARAUJO ; PAIVA, RANILSON O. ARAÚJO ; DA SILVA, ALAN PEDRO ; Bittencourt, Ig Ibert ; DE OLIVEIRA FILHO, ANANIAS QUEIROGA		
artigoEmPeriodico	Fábio Paraguaçu Duarte da Costa	2015	http://dx.doi.org/10.5753/rbie.2015.23.02.175	Um jogo digital baseado no construcionismo	Revista Brasileira de Informática na Educação	DOMÍNGUEZ, ARTURO HERNÁNDEZ ; FILHO, CARLOS A. C. LESSA ; PARAGUAÇU, FABIO ; OLIVEIRA, PATRÍCIA	B1	
trabalhoCompletoEmCongresso	Fábio Paraguaçu Duarte da Costa	2015	http://dx.doi.org/10.5753/cbie.sbie.2015.917	Experimento de uma ferramenta de fórum baseado em mapas conceituais: uma nova forma de interação	XXVI Simpósio Brasileiro de Informática na Educação	MIRANDA, SUNNY ; FERREIRA, FERNANDA ; COSTA, EVANDRO ; PARAGUAÇU, FÁBIO		
trabalhoCompletoEmCongresso	Fábio Paraguaçu Duarte da Costa	2015		A ferramenta Fórum bMC e seus protocolos	Congresso nacional EDaPECI. Volume 3	Miranda, S. ; JOSIRENE, F. ; PARAGUAÇU, F. ; COSTA, E. B.		
artigoEmPeriodico	Arturo Hernández-Domínguez	2015	http://dx.doi.org/10.5753/rbie.2015.23.02.175	Um jogo digital baseado no construcionismo	Revista Brasileira de Informática na Educação	DOMÍNGUEZ, ARTURO HERNÁNDEZ ; FILHO, CARLOS A. C. LESSA ; PARAGUAÇU, FABIO ; OLIVEIRA, PATRÍCIA	B1	
trabalhoCompletoEmCongresso	Arturo Hernández-Domínguez	2015		Análise das Causas da Evasão na Educação a Distância em uma Instituição Federal de Ensino Superior	SBIE (Simpósio Brasileiro de Informática na Educação) evento do CBIE 2015 (IV Congresso Brasileiro de Informática na Educação)	REINO, L. R. A. C. ; HERNÁNDEZ-DOMÍNGUEZ, A. ; FREITAS JUNIOR, O. G. ; CARVALHO, V. D. H. ; BARROS, A. M. ; BRAGA, M. M.		
artigoEmPeriodico	Aydano Pamponet Machado	2015		Desempenho funcional do exercício de agachamento	Caderno de Graduação Ciências Biológicas e da Saúde	GUSMAO, T. M. R. ; RIBEIRO, K. L. S. ; GRANJA, K. S. B. ; SANTANA, H. G. F. ; MACHADO A.P.	C	Cadernos de Graduação de Ciências Biológicas e da Saúde
artigoEmPeriodico	Aydano Pamponet Machado	2015		Correlação do exercício de agachamento na melhora do desempenho funcional da marcha	Caderno de Graduação - Ciências Biológicas e da Saúde	BARROS, K. L. ; GUSMAO, T. M. R. ; SANTANA, H. G. F. ; MACHADO A.P.	C	Cadernos de Graduação de Ciências Biológicas e da Saúde
trabalhoCompletoEmCongresso	Aydano Pamponet Machado	2015		A Model-Driven Approach to Customize the Vocabulary of Communication Boards: Towards a more humanization of Health Care	15th World Congress on Health and Biomedical Informatics - MEDINFO	FRANCO, N. M. ; MEDEIROS, G. F. ; ALVES, E. ; MURTA, A. S. ; MACHADO A.P. ; FIDALGO, R. N.		
trabalhoCompletoEmCongresso	Aydano Pamponet Machado	2015		Atualização local automática de pesos de atributos para recuperação de nódulos pulmonares similares	XXVIII Conference on Graphics	LUCENA, D. J. F. ; FERREIRA JUNIOR, J. R. ; OLIVEIRA, M. C. ; MACHADO A.P.		
artigoEmPeriodico	Jorge Artur Peçanha de Miranda Coelho	2015	http://dx.doi.org/10.21527/2237-6453.2015.31.259-294	A Influência das Redes de Cooperação no Desenvolvimento de Micro e Pequenas Empresas (MPEs)	Desenvolvimento em Questão	SOUZA, G. H. S. ; LIMA, N. C. ; COELHO, J. A. P. M. ; OLIVEIRA, S. V. W. B. ; MILITO, C. M.	B2	
trabalhoCompletoEmCongresso	Marcus de Melo Braga	2015		Reestruturando o Modelo de Universidade Pública Brasileira para Atender aos Novos Desafios Gerenciais	XV Coloquio Internacional de Gestión Universitaria	FREITAS JUNIOR, O. G. ; BARROS, P. A. M. ; BARBIRATO, J. C. C. ; BRAGA, MARCUS DE MELO ; CARVALHO, V. D. H.		
trabalhoCompletoEmCongresso	Marcus de Melo Braga	2015		Estrategias para Incentivar la Participación de Alumnos en Educación a Distancia	IV Congresso Brasileiro de Informática na Educação	MARCUS DE MELO BRAGA; TAKIMOTO, T. ; SILVA, D. P. ; FREITAS JUNIOR, O. G. ; BARROS, P. A. M.		
trabalhoCompletoEmCongresso	Marcus de Melo Braga	2015		Análise das Causas da Evasão na Educação a Distância em uma Instituição Federal de Ensino Superior	SBIE (Simpósio Brasileiro de Informática na Educação) evento do CBIE 2015 (IV Congresso Brasileiro de Informática na Educação)	REINO, L. R. A. C. ; DOMINGUEZ, A. H. ; FREITAS JUNIOR, O. G. ; CARVALHO, V. D. H. ; BARROS, P. A. M. ; MARCUS DE MELO BRAGA		
trabalhoCompletoEmCongresso	Marcus de Melo Braga	2015		Ranking the Portals of Brazilian Federal Universities with Multicriteria Analysis	II World Congress on System Engineering and Information Technology	CARVALHO, V. D. H. ; FREITAS JUNIOR, O. G. ; MARCUS DE MELO BRAGA ; BARROS, P. A. M. ; AVILA, T. J. T.		
trabalhoCompletoEmCongresso	Marcus de Melo Braga	2015		Implementing Communities of Practice in a Public Organization: Lessons Learned	II World Congress on System Engineering and Information Technology	SILVA, D. P. ; MARCUS DE MELO BRAGA ; FREITAS JUNIOR, O. G. ; BARROS, P. A. M.		
artigoEmPeriodico	Henrique Pacca Loureiro Luna	2015	http://dx.doi.org/10.1007/s11067-014-9276-0	Hub Location Problems with Price Sensitive Demands	Networks and Spatial Economics	O?KELLY, MORTON E. ; LUNA, HENRIQUE PACCA L. ; DE CAMARGO, RICARDO S. ; DE MIRANDA, GILBERTO	Qualis nao identificado	Networks and Spatial Economics
trabalhoCompletoEmCongresso	Henrique Pacca Loureiro Luna	2015	http://dx.doi.org/10.1016/B978-0-08-022010-9.50014-1	Extensão ótima da rede de distribuição de energia elétrica utilizando modelos de redes de acesso local	XLVII Simpósio Brasileiro de Pesquisa Operacional	Silva, P. W. L. da ; Luna, H. P. L.		
artigoEmPeriodico	Heitor Soares Ramos Filho	2015	http://dx.doi.org/10.1109/tc.2014.2308176	A Reactive and Scalable Unicast Solution for Video Streaming over VANETs	IEEE Transactions on Computers (Print)	Rezende, Cristiano ; Boukerche, Azzedine ; Ramos, Heitor S. ; Loureiro, Antonio A.F.	A2	
trabalhoCompletoEmCongresso	Heitor Soares Ramos Filho	2015	http://dx.doi.org/10.1109/iscc.2015.7405590	An intelligent transportation system for detection and control of congested roads in urban centers	2015 IEEE Symposium on Computers and Communication (ISCC)	BRENNAND, CELSO A. R. L. ; DE SOUZA, ALLAN M. ; MAIA, GUILHERME ; Boukerche, Azzedine ; Ramos, Heitor ; Loureiro, Antonio A.F. ; Villas, Leandro A.		
artigoEmPeriodico	Andre Luiz Lins de Aquino	2015	http://dx.doi.org/10.1016/j.peva.2015.01.006	A rate control video dissemination solution for extremely dynamic vehicular ad hoc networks	Performance Evaluation	Guilherme Maia ; Leandro A. Villas ; Andre L. L. Aquino ; Aline C. Viana ; LOUREIRO, ANTONIO A. F.	A2	
artigoEmPeriodico	Andre Luiz Lins de Aquino	2015	http://dx.doi.org/10.1007/s11036-015-0571-x	Smart Traffic Light for Low Traffic Conditions	Mobile Networks and Applications	SILVA, C. M. ; Andre L. L. Aquino ; MEIRA JR., W.	B1	Journal on Special Topics in Mobile Networks and Applications
artigoEmPeriodico	Andre Luiz Lins de Aquino	2015	http://dx.doi.org/10.1016/j.comcom.2015.01.021	Deployment of roadside units based on partial mobility information	Computer Communications	SILVA, C. M. ; André L. L Aquino ; MEIRA, WAGNER	A2	
artigoEmPeriodico	Andre Luiz Lins de Aquino	2015	http://dx.doi.org/10.1140/epjb/e2015-60384-x	Characterization of vehicle behavior with information theory	The European Physical Journal. B, Condensed Matter Physics (Print)	AQUINO, ANDRE L.L. ; CAVALCANTE, TAMER S.G. ; ALMEIDA, ELIANA S. ; Frery, Alejandro C. ; ROSSO, OSVALDO A.	B1	
trabalhoCompletoEmCongresso	Andre Luiz Lins de Aquino	2015		Estratégia de Redução de Dados Baseada em Amostragem para Redes de Sensores Sem Fio Tolerantes a Atrasos com Conexões Intermitentes	XV Escola Regional de Computação Bahia-Alagoas-Sergipe	VASCONCELOS, I. L. C. ; LIMA, D. H. S. ; FIGUEIREDO, CARLOS M.S. ; Andre L. L. Aquino		
trabalhoCompletoEmCongresso	Andre Luiz Lins de Aquino	2015		A Sampling Algorithm for Intermittently Connected Delay Tolerant Wireless Sensor Networks	IEEE Symposium on Computers and Communications	VASCONCELOS, I. L. C. ; LIMA, D. H. S. ; FIGUEIREDO, CARLOS M.S. ; Andre L.L. Aquino		
trabalhoCompletoEmCongresso	Andre Luiz Lins de Aquino	2015		A Coverage Algorithm for Intermittently Connected Delay Tolerant Wireless Sensor Networks	IFIP International Conference on New Technologies	VASCONCELOS, I. L. C. ; LIMA, D. H. S. ; Carlos M. S. Figueiredo ; Aquino, Andre L. L.		
trabalhoCompletoEmCongresso	Andre Luiz Lins de Aquino	2015		Evaluation of parking space detection systems using wireless cameras	7 Simpósio Brasileiro de Computação Ubíqua e Pervasiva	LIMA, D. H. S. ; Eliana Silva de Almeida ; Aquino, Andre L. L.		
trabalhoCompletoEmCongresso	Andre Luiz Lins de Aquino	2015		Avaliando o Desempenho de Redes Veiculares Heterogêneas	7 Simpósio Brasileiro de Computação Ubíqua e Pervasiva	SILVA, C. M. ; Aquino, Andre L. L. ; MEIRA JR., W.		
