strict graph grafo1 {
	graph [bb="0,0,1403.5,233",
		id=grafo1,
		overlap=False
	];
	node [fontsize=8,
		label="\N",
		shape=rectangle,
		style=filled
	];
	0	 [URL="http://lattes.cnpq.br/0891028206544818",
		color="#17272B",
		fontcolor="#FFFFFF",
		height=0.23611,
		label="Adriano De Cezaro [0]",
		pos="45,224.5",
		width=1.25];
	1	 [URL="http://lattes.cnpq.br/2005674046432508",
		color="#17272B",
		fontcolor="#FFFFFF",
		height=0.23611,
		label="Bárbara D. do Amaral Rodriguez [1]",
		pos="397,116.5",
		width=1.8611];
	16	 [URL="http://lattes.cnpq.br/1129100746134234",
		color="#17272B",
		fontcolor="#FFFFFF",
		height=0.23611,
		label="Leonardo Ramos Emmendorfer [3]",
		pos="412,62.5",
		width=1.7917];
	1 -- 16	 [pos="399.21,107.83 402.05,97.996 406.94,81.051 409.78,71.204"];
	18	 [URL="http://lattes.cnpq.br/6854950768271660",
		color="#17272B",
		fontcolor="#FFFFFF",
		height=0.23611,
		label="Elizaldo Domingues dos Santos [61]",
		pos="412,8.5",
		width=1.8611];
	16 -- 18	 [pos="412,53.827 412,43.996 412,27.051 412,17.204"];
	2	 [URL="http://lattes.cnpq.br/4677312523064693",
		color="#17272B",
		fontcolor="#FFFFFF",
		height=0.23611,
		label="Antonio G. Oliveira Goulart [0]",
		pos="594,224.5",
		width=1.6389];
	3	 [URL="http://lattes.cnpq.br/6965119196945931",
		color="#17272B",
		fontcolor="#FFFFFF",
		height=0.23611,
		label="Alessandro de Lima Bicho [0]",
		pos="728,224.5",
		width=1.5694];
	4	 [URL="http://lattes.cnpq.br/1660157566796755",
		color="#17272B",
		fontcolor="#FFFFFF",
		height=0.23611,
		label="Marcelo Moraes Galarça [2]",
		pos="321,224.5",
		width=1.4861];
	4 -- 18	 [pos="374.26,215.98 460.96,202.53 626.46,171.4 661,125.5 680.24,99.93 681.56,78.017 661,53.5 638.18,26.299 544.79,15.905 479.12,11.94"];
	14	 [URL="http://lattes.cnpq.br/2535324018884724",
		color="#17272B",
		fontcolor="#FFFFFF",
		height=0.23611,
		label="Luiz A. Oliveira Rocha [48]",
		pos="345,170.5",
		width=1.4861];
	4 -- 14	 [pos="324.54,215.83 329.08,206 336.9,189.05 341.44,179.2"];
	15	 [URL="http://lattes.cnpq.br/3761060945802171",
		color="#17272B",
		fontcolor="#FFFFFF",
		height=0.23611,
		label="Liércio André Isoldi [68]",
		pos="225,116.5",
		width=1.3472];
	4 -- 15	 [pos="301.75,215.93 285.68,208.74 263.18,196.48 249,179.5 235.24,163.02 228.8,137.76 226.32,125.18"];
	14 -- 16	 [pos="398.5,165.39 425.51,160.28 456.07,149.22 473,125.5 488.61,103.62 453.02,82.194 429.89,71.167"];
	14 -- 18	 [pos="398.42,169.55 475.04,168.36 610.29,161.11 641,125.5 661.9,101.27 661.38,78.17 641,53.5 620.76,29 539.21,18.001 479.17,13.159"];
	14 -- 15	 [pos="327.55,161.94 304.8,152.08 265.23,134.93 242.47,125.07"];
	17	 [URL="http://lattes.cnpq.br/5324300115339036",
		color="#17272B",
		fontcolor="#FFFFFF",
		height=0.23611,
		label="Jeferson Avila Souza [19]",
		pos="233,62.5",
		width=1.3889];
	14 -- 17	 [pos="337.35,161.75 325.61,149.9 302.35,126.63 282,107.5 268.17,94.5 251.67,79.859 241.78,71.171"];
	15 -- 16	 [pos="252.19,107.94 287.65,98.08 349.31,80.934 384.78,71.07"];
	15 -- 18	 [pos="238.45,107.88 272.95,88.319 364.3,36.536 398.67,17.054"];
	15 -- 17	 [pos="226.18,107.83 227.69,97.996 230.3,81.051 231.81,71.204"];
	17 -- 18	 [pos="259.03,53.939 292.97,44.08 351.99,26.934 385.94,17.07"];
	5	 [URL="http://lattes.cnpq.br/8800859024101679",
		color="#17272B",
		fontcolor="#FFFFFF",
		height=0.23611,
		label="Silvia S. da Costa Botelho [2]",
		pos="576,116.5",
		width=1.5556];
	5 -- 16	 [pos="552.15,107.94 521.06,98.08 466.98,80.934 435.88,71.07"];
	6	 [URL="http://lattes.cnpq.br/5895086145314795",
		color="#17272B",
		fontcolor="#FFFFFF",
		height=0.23611,
		label="Sebastião C. Pinheiro Gomes [1]",
		pos="571,62.5",
		width=1.6944];
	5 -- 6	 [pos="575.26,107.83 574.32,97.996 572.69,81.051 571.74,71.204"];
	7	 [URL="http://lattes.cnpq.br/5484986495253646",
		color="#17272B",
		fontcolor="#FFFFFF",
		height=0.23611,
		label="Paulo R. de Freitas Teixeira [3]",
		pos="167,224.5",
		width=1.625];
	7 -- 18	 [pos="163.78,215.88 160.32,207.25 155.04,192.65 153,179.5 144.29,123.4 131.48,91.118 174,53.5 198.82,31.539 283.43,19.936 344.71,14.264"];
	7 -- 14	 [pos="192.88,215.94 226.63,206.08 285.32,188.93 319.09,179.07"];
	7 -- 15	 [pos="171.17,215.88 181.87,196.32 210.21,144.54 220.87,125.05"];
	7 -- 17	 [pos="164.68,215.86 159.24,196.39 147.52,143.9 167,107.5 176.49,89.773 196.62,77.955 212.17,71.071"];
	8	 [URL="http://lattes.cnpq.br/1606080164385644",
		color="#17272B",
		fontcolor="#FFFFFF",
		height=0.23611,
		label="Nisia Krusche [0]",
		pos="839,224.5",
		width=1.0139];
	9	 [URL="http://lattes.cnpq.br/5467937882227675",
		color="#17272B",
		fontcolor="#FFFFFF",
		height=0.23611,
		label="Elisa H. Leão Fernandes [1]",
		pos="947,224.5",
		width=1.4722];
	11	 [URL="http://lattes.cnpq.br/7670196776586335",
		color="#17272B",
		fontcolor="#FFFFFF",
		height=0.23611,
		label="Wiliam Correa Marques [1]",
		pos="947,170.5",
		width=1.4722];
	9 -- 11	 [pos="947,215.83 947,206 947,189.05 947,179.2"];
	10	 [URL="http://lattes.cnpq.br/6388431281829634",
		color="#17272B",
		fontcolor="#FFFFFF",
		height=0.23611,
		label="Renato G. de Souza Rodrigues [0]",
		pos="1081,224.5",
		width=1.75];
	12	 [URL="http://lattes.cnpq.br/9208597675311324",
		color="#17272B",
		fontcolor="#FFFFFF",
		height=0.23611,
		label="Viviane L. Dias de Mattos [3]",
		pos="1218,224.5",
		width=1.5556];
	20	 [URL="http://lattes.cnpq.br/4740997358938163",
		color="#17272B",
		fontcolor="#FFFFFF",
		height=0.23611,
		label="Catia M. d. Santos Machado [4]",
		pos="1283,170.5",
		width=1.6528];
	12 -- 20	 [pos="1227.6,215.83 1239.9,206 1261.1,189.05 1273.4,179.2"];
	13	 [URL="http://lattes.cnpq.br/1131858526704034",
		color="#17272B",
		fontcolor="#FFFFFF",
		height=0.23611,
		label="Mauro de Vasconcellos Real [12]",
		pos="455,224.5",
		width=1.7222];
	13 -- 18	 [pos="509.61,215.97 583.11,205.57 705.49,187.22 712,179.5 748.1,136.69 748.61,95.874 712,53.5 682.53,19.394 558.24,11.229 479.18,9.56"];
	13 -- 14	 [pos="438.77,215.83 417.85,205.94 381.71,188.86 360.94,179.04"];
	13 -- 15	 [pos="392.82,216.54 358.3,210.58 315.66,199.6 282,179.5 258.4,165.41 238.72,138.58 229.93,125.32"];
	19	 [URL="http://lattes.cnpq.br/4984043849101331",
		color="#17272B",
		fontcolor="#FFFFFF",
		height=0.23611,
		label="Diana Francisca Adamatti [1]",
		pos="1348,224.5",
		width=1.5417];
	19 -- 20	 [pos="1338.4,215.83 1326.1,206 1304.9,189.05 1292.6,179.2"];
}
