strict graph grafo1 {
	graph [bb="0,0,867,287",
		id=grafo1,
		overlap=False
	];
	node [fontsize=8,
		label="\N",
		shape=rectangle,
		style=filled
	];
	0	 [URL="http://lattes.cnpq.br/9061294064223770",
		color="#17272B",
		fontcolor="#FFFFFF",
		height=0.23611,
		label="Hilka P. Vier Machado [2]",
		pos="525,116.5",
		width=1.4167];
	18	 [URL="http://lattes.cnpq.br/2212790934134878",
		color="#17272B",
		fontcolor="#FFFFFF",
		height=0.23611,
		label="Rejane Sartori [7]",
		pos="485,62.5",
		width=1.0278];
	0 -- 18	 [pos="519.1,107.83 511.54,97.996 498.5,81.051 490.93,71.204"];
	19	 [URL="http://lattes.cnpq.br/9950007997056231",
		color="#17272B",
		fontcolor="#FFFFFF",
		height=0.23611,
		label="Jose F. de Assis Dias [1]",
		pos="636,8.5",
		width=1.3333];
	18 -- 19	 [pos="506.96,53.939 535.59,44.08 585.38,26.934 614.02,17.07"];
	1	 [URL="http://lattes.cnpq.br/4730728276213666",
		color="#17272B",
		fontcolor="#FFFFFF",
		height=0.23611,
		label="Tania Regina Corredato [0]",
		pos="312,278.5",
		width=1.4583];
	2	 [URL="http://lattes.cnpq.br/9600322657151582",
		color="#17272B",
		fontcolor="#FFFFFF",
		height=0.23611,
		label="Siderly do C. Dahle de Almeida [3]",
		pos="517,170.5",
		width=1.8056];
	2 -- 18	 [pos="502.46,161.98 489.92,154.59 472.66,142.02 465,125.5 456.34,106.83 470.1,83.368 478.78,71.366"];
	13	 [URL="http://lattes.cnpq.br/4229317394755159",
		color="#17272B",
		fontcolor="#FFFFFF",
		height=0.23611,
		label="Cláudia H. Martins Menegassi [7]",
		pos="657,116.5",
		width=1.75];
	2 -- 13	 [pos="537.36,161.94 563.9,152.08 610.06,134.93 636.62,125.07"];
	13 -- 18	 [pos="631.99,107.94 599.38,98.08 542.67,80.934 510.04,71.07"];
	16	 [URL="http://lattes.cnpq.br/5000143365122255",
		color="#17272B",
		fontcolor="#FFFFFF",
		height=0.23611,
		label="Paulo M. Ferraresi Pegino [1]",
		pos="657,62.5",
		width=1.5556];
	13 -- 16	 [pos="657,107.83 657,97.996 657,81.051 657,71.204"];
	3	 [URL="http://lattes.cnpq.br/6066036778785137",
		color="#17272B",
		fontcolor="#FFFFFF",
		height=0.23611,
		label="Rita C. Galarraga Berardi [1]",
		pos="55,278.5",
		width=1.5278];
	12	 [URL="http://lattes.cnpq.br/9691936279245790",
		color="#17272B",
		fontcolor="#FFFFFF",
		height=0.23611,
		label="Ely Mitie Massuda [8]",
		pos="74,224.5",
		width=1.2361];
	3 -- 12	 [pos="57.804,269.83 61.396,260 67.587,243.05 71.185,233.2"];
	14	 [URL="http://lattes.cnpq.br/5717675257150655",
		color="#17272B",
		fontcolor="#FFFFFF",
		height=0.23611,
		label="Cassia K. Favoretto Costa [7]",
		pos="77,170.5",
		width=1.5417];
	12 -- 14	 [pos="74.443,215.83 75.01,206 75.987,189.05 76.556,179.2"];
	4	 [URL="http://lattes.cnpq.br/6057786496252191",
		color="#17272B",
		fontcolor="#FFFFFF",
		height=0.23611,
		label="Renato L. de Souza Dutra [0]",
		pos="438,278.5",
		width=1.5417];
	5	 [URL="http://lattes.cnpq.br/1994819710029365",
		color="#17272B",
		fontcolor="#FFFFFF",
		height=0.23611,
		label="Régio M. Toesca Gimenes [5]",
		pos="185,278.5",
		width=1.5694];
	5 -- 12	 [pos="168.62,269.83 147.51,259.94 111.05,242.86 90.085,233.04"];
	5 -- 14	 [pos="178.09,269.64 167.45,257.64 146.26,234.18 127,215.5 113.22,202.14 96.289,187.6 86.086,179.04"];
	7	 [URL="http://lattes.cnpq.br/6723952614607082",
		color="#17272B",
		fontcolor="#FFFFFF",
		height=0.23611,
		label="Nelson N. Tenório Junior [8]",
		pos="389,224.5",
		width=1.5278];
	5 -- 7	 [pos="214.66,269.94 253.34,260.08 320.61,242.93 359.3,233.07"];
	8	 [URL="http://lattes.cnpq.br/2440614529345924",
		color="#17272B",
		fontcolor="#FFFFFF",
		height=0.23611,
		label="Luiz Tatto [4]",
		pos="183,170.5",
		width=0.84722];
	5 -- 8	 [pos="184.86,269.88 184.49,250.32 183.51,198.54 183.14,179.05"];
	7 -- 18	 [pos="393.63,215.78 409.89,188.69 464.23,98.11 480.42,71.14"];
	7 -- 19	 [pos="444.21,216.44 532.5,203.8 698.66,174 729,125.5 737.83,111.39 738.33,76.703 722,53.5 708.77,34.712 685.07,23.432 665.9,17.004"];
	7 -- 13	 [pos="444.02,219.52 486.25,214.63 544.94,203.73 591,179.5 617.16,165.74 640.49,138.75 651.04,125.39"];
	7 -- 8	 [pos="359.05,215.94 319.99,206.08 252.06,188.93 212.99,179.07"];
	11	 [URL="http://lattes.cnpq.br/4863318065551221",
		color="#17272B",
		fontcolor="#FFFFFF",
		height=0.23611,
		label="Flávio Bortolozzi [4]",
		pos="321,116.5",
		width=1.1667];
	7 -- 11	 [pos="384.44,215.79 377.42,203.99 363.48,180.79 351,161.5 342.66,148.61 332.53,133.94 326.43,125.21"];
	8 -- 11	 [pos="203.07,161.94 229.23,152.08 274.73,134.93 300.91,125.07"];
	17	 [URL="http://lattes.cnpq.br/8701536338267221",
		color="#17272B",
		fontcolor="#FFFFFF",
		height=0.23611,
		label="Reginaldo Aliçandro Bordin [1]",
		pos="183,116.5",
		width=1.6528];
	8 -- 17	 [pos="183,161.83 183,152 183,135.05 183,125.2"];
	11 -- 18	 [pos="344.85,107.94 375.94,98.08 430.02,80.934 461.12,71.07"];
	6	 [URL="http://lattes.cnpq.br/5097499395613895",
		color="#17272B",
		fontcolor="#FFFFFF",
		height=0.23611,
		label="Regiane da Silva Macuch [1]",
		pos="287,170.5",
		width=1.5278];
	6 -- 11	 [pos="292.02,161.83 298.45,152 309.52,135.05 315.96,125.2"];
	9	 [URL="http://lattes.cnpq.br/7611407832193396",
		color="#17272B",
		fontcolor="#FFFFFF",
		height=0.23611,
		label="Leticia Fleig Dal Forno [0]",
		pos="563,278.5",
		width=1.4306];
	10	 [URL="http://lattes.cnpq.br/4128418911260513",
		color="#17272B",
		fontcolor="#FFFFFF",
		height=0.23611,
		label="José A. Ramos Pereira [0]",
		pos="683,278.5",
		width=1.3889];
	15	 [URL="http://lattes.cnpq.br/1969733264813192",
		color="#17272B",
		fontcolor="#FFFFFF",
		height=0.23611,
		label="Arthur G. B. da Cruz Urpia [0]",
		pos="809,278.5",
		width=1.6111];
}
