strict graph grafo2 {
	graph [bb="0,0,1387,337",
		id=grafo2,
		overlap=False
	];
	node [fontsize=8,
		label="\N",
		shape=rectangle,
		style=filled
	];
	0	 [URL="http://lattes.cnpq.br/9061294064223770",
		color="#17272B",
		fontcolor="#FFFFFF",
		height=0.23611,
		label="Hilka P. Vier Machado [2]",
		pos="195,136.5",
		width=1.4167];
	18	 [URL="http://lattes.cnpq.br/2212790934134878",
		color="#17272B",
		fontcolor="#FFFFFF",
		height=0.23611,
		label="Rejane Sartori [7]",
		pos="343,72.5",
		width=1.0278];
	0 -- 18	 [fontsize=8,
		label=2.0,
		lp="262.5,104.5",
		pos="206.46,127.75 218.59,119.82 238.51,107.53 257,99.5 274.6,91.856 295.14,85.555 311.73,81.071"];
	19	 [URL="http://lattes.cnpq.br/9950007997056231",
		color="#17272B",
		fontcolor="#FFFFFF",
		height=0.23611,
		label="Jose F. de Assis Dias [1]",
		pos="534,8.5",
		width=1.3333];
	18 -- 19	 [fontsize=8,
		label=1.0,
		lp="455.5,40.5",
		pos="366.42,63.898 403.18,51.966 474,28.978 510.69,17.068"];
	1	 [URL="http://lattes.cnpq.br/4730728276213666",
		color="#17272B",
		fontcolor="#FFFFFF",
		height=0.23611,
		label="Tania Regina Corredato [0]",
		pos="832,328.5",
		width=1.4583];
	2	 [URL="http://lattes.cnpq.br/9600322657151582",
		color="#17272B",
		fontcolor="#FFFFFF",
		height=0.23611,
		label="Siderly do C. Dahle de Almeida [3]",
		pos="221,200.5",
		width=1.8056];
	2 -- 18	 [fontsize=8,
		label=2.0,
		lp="296.5,136.5",
		pos="228.27,192 249.91,169.64 313.82,103.64 335.62,81.125"];
	13	 [URL="http://lattes.cnpq.br/4229317394755159",
		color="#17272B",
		fontcolor="#FFFFFF",
		height=0.23611,
		label="Cláudia H. Martins Menegassi [7]",
		pos="63,136.5",
		width=1.75];
	2 -- 13	 [fontsize=8,
		label=2.0,
		lp="169.5,168.5",
		pos="205.56,191.99 189.59,184.36 163.84,172.42 141,163.5 123.45,156.65 103.26,149.95 87.819,145.07"];
	13 -- 18	 [fontsize=8,
		label=2.0,
		lp="228.5,104.5",
		pos="96.078,127.98 128.42,120.64 179.07,109.2 223,99.5 251.52,93.203 283.88,86.199 307.8,81.049"];
	16	 [URL="http://lattes.cnpq.br/5000143365122255",
		color="#17272B",
		fontcolor="#FFFFFF",
		height=0.23611,
		label="Paulo M. Ferraresi Pegino [1]",
		pos="63,72.5",
		width=1.5556];
	13 -- 16	 [fontsize=8,
		label=1.0,
		lp="68.5,104.5",
		pos="63,127.9 63,116 63,93.102 63,81.165"];
	3	 [URL="http://lattes.cnpq.br/6066036778785137",
		color="#17272B",
		fontcolor="#FFFFFF",
		height=0.23611,
		label="Rita C. Galarraga Berardi [1]",
		pos="706,328.5",
		width=1.5278];
	12	 [URL="http://lattes.cnpq.br/9691936279245790",
		color="#17272B",
		fontcolor="#FFFFFF",
		height=0.23611,
		label="Ely Mitie Massuda [8]",
		pos="706,264.5",
		width=1.2361];
	3 -- 12	 [fontsize=8,
		label=1.0,
		lp="711.5,296.5",
		pos="706,319.9 706,308 706,285.1 706,273.16"];
	14	 [URL="http://lattes.cnpq.br/5717675257150655",
		color="#17272B",
		fontcolor="#FFFFFF",
		height=0.23611,
		label="Cassia K. Favoretto Costa [7]",
		pos="695,200.5",
		width=1.5417];
	12 -- 14	 [fontsize=8,
		label=7.0,
		lp="707.5,232.5",
		pos="704.65,255.9 702.54,244 698.48,221.1 696.36,209.16"];
	4	 [URL="http://lattes.cnpq.br/6057786496252191",
		color="#17272B",
		fontcolor="#FFFFFF",
		height=0.23611,
		label="Renato L. de Souza Dutra [0]",
		pos="958,328.5",
		width=1.5417];
	5	 [URL="http://lattes.cnpq.br/1994819710029365",
		color="#17272B",
		fontcolor="#FFFFFF",
		height=0.23611,
		label="Régio M. Toesca Gimenes [5]",
		pos="567,328.5",
		width=1.5694];
	5 -- 12	 [fontsize=8,
		label=2.0,
		lp="670.5,296.5",
		pos="595,319.94 610.37,315.39 629.59,309.01 646,301.5 663.89,293.31 683.17,281.07 694.91,273.18"];
	5 -- 14	 [fontsize=8,
		label=2.0,
		lp="645.5,264.5",
		pos="574.62,320 597.34,297.64 664.38,231.64 687.25,209.12"];
	7	 [URL="http://lattes.cnpq.br/6723952614607082",
		color="#17272B",
		fontcolor="#FFFFFF",
		height=0.23611,
		label="Nelson N. Tenório Junior [8]",
		pos="535,264.5",
		width=1.5278];
	5 -- 7	 [fontsize=8,
		label=2.0,
		lp="558.5,296.5",
		pos="563.08,319.9 556.93,308 545.12,285.1 538.96,273.16"];
	8	 [URL="http://lattes.cnpq.br/2440614529345924",
		color="#17272B",
		fontcolor="#FFFFFF",
		height=0.23611,
		label="Luiz Tatto [4]",
		pos="335,200.5",
		width=0.84722];
	5 -- 8	 [fontsize=8,
		label=2.0,
		lp="465.5,264.5",
		pos="551.27,319.9 530.28,309.68 492.04,290.8 460,273.5 418.35,251.02 370.07,222.49 347.65,209.09"];
	7 -- 18	 [fontsize=8,
		label=2.0,
		lp="562.5,168.5",
		pos="538.51,255.73 548.09,233.22 572.05,167.02 542,127.5 522.5,101.86 432.04,85.577 380.05,78.171"];
	7 -- 19	 [fontsize=8,
		label=1.0,
		lp="612.5,136.5",
		pos="555.83,255.88 577.09,246.61 607,228.72 607,201.5 607,201.5 607,201.5 607,71.5 607,44.064 576.67,26.239 555.11,17.033"];
	7 -- 13	 [fontsize=8,
		label=4.0,
		lp="141.5,200.5",
		pos="479.84,256.15 370.79,241.6 137.92,210.44 136,209.5 105,194.28 79.063,160.78 68.317,145.45"];
	7 -- 8	 [fontsize=8,
		label=1.0,
		lp="452.5,232.5",
		pos="510.48,255.9 471.99,243.97 397.83,220.98 359.41,209.07"];
	11	 [URL="http://lattes.cnpq.br/4863318065551221",
		color="#17272B",
		fontcolor="#FFFFFF",
		height=0.23611,
		label="Flávio Bortolozzi [4]",
		pos="491,136.5",
		width=1.1667];
	7 -- 11	 [fontsize=8,
		label=1.0,
		lp="521.5,200.5",
		pos="532.38,256 524.57,233.64 501.52,167.64 493.66,145.12"];
	8 -- 11	 [fontsize=8,
		label=1.0,
		lp="428.5,168.5",
		pos="354.13,191.9 384.07,180 441.68,157.1 471.71,145.16"];
	17	 [URL="http://lattes.cnpq.br/8701536338267221",
		color="#17272B",
		fontcolor="#FFFFFF",
		height=0.23611,
		label="Reginaldo Aliçandro Bordin [1]",
		pos="371,136.5",
		width=1.6528];
	8 -- 17	 [fontsize=8,
		label=1.0,
		lp="361.5,168.5",
		pos="339.41,191.9 346.32,180 359.62,157.1 366.55,145.16"];
	11 -- 18	 [fontsize=8,
		label=1.0,
		lp="431.5,104.5",
		pos="472.85,127.9 444.45,116 389.79,93.102 361.3,81.165"];
	6	 [URL="http://lattes.cnpq.br/5097499395613895",
		color="#17272B",
		fontcolor="#FFFFFF",
		height=0.23611,
		label="Regiane da Silva Macuch [1]",
		pos="439,200.5",
		width=1.5278];
	6 -- 11	 [fontsize=8,
		label=1.0,
		lp="474.5,168.5",
		pos="445.38,191.9 455.36,180 474.56,157.1 484.57,145.16"];
	9	 [URL="http://lattes.cnpq.br/7611407832193396",
		color="#17272B",
		fontcolor="#FFFFFF",
		height=0.23611,
		label="Leticia Fleig Dal Forno [0]",
		pos="1083,328.5",
		width=1.4306];
	10	 [URL="http://lattes.cnpq.br/4128418911260513",
		color="#17272B",
		fontcolor="#FFFFFF",
		height=0.23611,
		label="José A. Ramos Pereira [0]",
		pos="1203,328.5",
		width=1.3889];
	15	 [URL="http://lattes.cnpq.br/1969733264813192",
		color="#17272B",
		fontcolor="#FFFFFF",
		height=0.23611,
		label="Arthur G. B. da Cruz Urpia [0]",
		pos="1329,328.5",
		width=1.6111];
}
