strict graph grafo1 {
	graph [bb="0,0,1698.5,179",
		id=grafo1,
		overlap=False
	];
	node [fontsize=8,
		label="\N",
		shape=rectangle,
		style=filled
	];
	0	 [URL="http://lattes.cnpq.br/1161317972489632",
		color="#17272B",
		fontcolor="#FFFFFF",
		height=0.23611,
		label="Roberto Aizik Tenenbaum [3]",
		pos="63.5,170.5",
		width=1.5694];
	6	 [URL="http://lattes.cnpq.br/1627016864213973",
		color="#17272B",
		fontcolor="#FFFFFF",
		height=0.23611,
		label="Leonardo Tavares Stutz [4]",
		pos="63.5,116.5",
		width=1.4444];
	0 -- 6	 [pos="63.5,161.83 63.5,152 63.5,135.05 63.5,125.2"];
	9	 [URL="http://lattes.cnpq.br/1743826010794846",
		color="#17272B",
		fontcolor="#FFFFFF",
		height=0.23611,
		label="Diego Campos Knupp [2]",
		pos="63.5,62.5",
		width=1.375];
	6 -- 9	 [pos="63.5,107.83 63.5,97.996 63.5,81.051 63.5,71.204"];
	14	 [URL="http://lattes.cnpq.br/9634798722030132",
		color="#17272B",
		fontcolor="#FFFFFF",
		height=0.23611,
		label="Joao F. Vieira de Vasconcellos [1]",
		pos="63.5,8.5",
		width=1.7639];
	9 -- 14	 [pos="63.5,53.827 63.5,43.996 63.5,27.051 63.5,17.204"];
	1	 [URL="http://lattes.cnpq.br/0543546857869709",
		color="#17272B",
		fontcolor="#FFFFFF",
		height=0.23611,
		label="Luiz N. H. Guedes de Oliveira [0]",
		pos="201.5,170.5",
		width=1.75];
	2	 [URL="http://lattes.cnpq.br/6419554168530740",
		color="#17272B",
		fontcolor="#FFFFFF",
		height=0.23611,
		label="Joaquim Teixeira de Assis [0]",
		pos="338.5,170.5",
		width=1.5556];
	3	 [URL="http://lattes.cnpq.br/0109837868064895",
		color="#17272B",
		fontcolor="#FFFFFF",
		height=0.23611,
		label="Roberto Pinheiro Domingos [3]",
		pos="471.5,170.5",
		width=1.6389];
	11	 [URL="http://lattes.cnpq.br/4140908385855725",
		color="#17272B",
		fontcolor="#FFFFFF",
		height=0.23611,
		label="Gustavo Mendes Platt [5]",
		pos="537.5,116.5",
		width=1.3611];
	3 -- 11	 [pos="481.24,161.83 493.72,152 515.22,135.05 527.72,125.2"];
	13	 [URL="http://lattes.cnpq.br/6725653281197187",
		color="#17272B",
		fontcolor="#FFFFFF",
		height=0.23611,
		label="Ivan Napoleão Bastos [4]",
		pos="556.5,62.5",
		width=1.3611];
	3 -- 13	 [pos="470.45,161.89 469.13,149.4 468.27,124.27 479.5,107.5 491.66,89.333 514.02,77.782 531.53,71.097"];
	11 -- 13	 [pos="540.3,107.83 543.9,97.996 550.09,81.051 553.68,71.204"];
	16	 [URL="http://lattes.cnpq.br/5759364958802333",
		color="#17272B",
		fontcolor="#FFFFFF",
		height=0.23611,
		label="Ricardo Fabbri [3]",
		pos="613.5,8.5",
		width=1.0556];
	13 -- 16	 [pos="564.91,53.827 575.69,43.996 594.26,27.051 605.05,17.204"];
	4	 [URL="http://lattes.cnpq.br/8300604408079168",
		color="#17272B",
		fontcolor="#FFFFFF",
		height=0.23611,
		label="Ricardo Carvalho de Barros [0]",
		pos="746.5,170.5",
		width=1.625];
	5	 [URL="http://lattes.cnpq.br/6601368978577012",
		color="#17272B",
		fontcolor="#FFFFFF",
		height=0.23611,
		label="Pedro P. G. Watts Rodrigues [0]",
		pos="883.5,170.5",
		width=1.6667];
	7	 [URL="http://lattes.cnpq.br/8409134275489376",
		color="#17272B",
		fontcolor="#FFFFFF",
		height=0.23611,
		label="Josë A. da Silva Neto [0]",
		pos="1010.5,170.5",
		width=1.3472];
	8	 [URL="http://lattes.cnpq.br/6680742566331144",
		color="#17272B",
		fontcolor="#FFFFFF",
		height=0.23611,
		label="Francisco D. Moura Neto [4]",
		pos="614.5,170.5",
		width=1.5278];
	8 -- 11	 [pos="603.14,161.83 588.5,151.94 563.2,134.86 548.66,125.04"];
	8 -- 13	 [pos="613.24,161.83 611.02,149.69 605.64,125.57 595.5,107.5 587.41,93.078 573.94,79.289 565.14,71.107"];
	8 -- 16	 [pos="614.56,161.9 614.69,143.37 614.96,94.379 614.5,53.5 614.36,40.817 613.98,26.082 613.73,17.288"];
	10	 [URL="http://lattes.cnpq.br/1999072996132654",
		color="#17272B",
		fontcolor="#FFFFFF",
		height=0.23611,
		label="Helio P. Amaral Souto [0]",
		pos="1127.5,170.5",
		width=1.4028];
	12	 [URL="http://lattes.cnpq.br/2182469523085517",
		color="#17272B",
		fontcolor="#FFFFFF",
		height=0.23611,
		label="Anderson Amendoeira Namen [0]",
		pos="1259.5,170.5",
		width=1.75];
	15	 [URL="http://lattes.cnpq.br/1089015137026377",
		color="#17272B",
		fontcolor="#FFFFFF",
		height=0.23611,
		label="Hermes Alves Filho [0]",
		pos="1386.5,170.5",
		width=1.2778];
	17	 [URL="http://lattes.cnpq.br/9401814864083219",
		color="#17272B",
		fontcolor="#FFFFFF",
		height=0.23611,
		label="Daiara Fernandes de Faria [0]",
		pos="1506.5,170.5",
		width=1.5556];
	18	 [URL="http://lattes.cnpq.br/0608816393004565",
		color="#17272B",
		fontcolor="#FFFFFF",
		height=0.23611,
		label="Leôncio D. Tavares Câmara [0]",
		pos="1639.5,170.5",
		width=1.6389];
}
