artigoEmPeriodico	2013		An Image-Based Fluid Surface Pattern Model	International Review of Chemical Engineering (Testo Stampato)	AMORIM, M. ; FABBRI, R. ; PINTO, L. M. S. ; Moura Neto, Francisco Duarte	B3	
artigoEmPeriodico	2013	http://dx.doi.org/10.1186/2196-4351-1-3	Characterization of FeCr and FeCoCr alloy coatings of carbon steels for marine environment applications	Applied Adhesion Science	ANTUNES, F. J. ; SÁ BRITO, V. R. S. ; Bastos, Ivan Napoleão ; Costa, Hector Reynaldo Meneses	Qualis nao identificado	Applied Adhesion Science
artigoEmPeriodico	2013		NEW PROPOSAL FOR CO3 2- POSITION IN B-TYPE CARBONATED APATITE	Latin American Applied Research	ARAÚJO, Jorge C ; Elizabeth ; SOARES, Glória Dulce de Almeida ; Bastos, Ivan Napoleão	B1	
artigoEmPeriodico	2013		Visualization of EIS at large potential range - new insights	ArXiv Quantum Physics e-print	Bastos, Ivan Napoleão; Carvalho ; Fabbri ; NOGUEIRA, Ricardo Pereira	Qualis nao identificado	ArXiv Quantum Physics e-print
artigoEmPeriodico	2013		Uncertainty Quantification for Tracer Transport in Heterogeneous Porous Media Using Two-stage MCMC Method and Auto-regressive Instrumental Distribution	International Review of Chemical Engineering (Testo Stampato)	BORGES, M. R. ; PEREIRA, T. J. ; AMARAL SOUTO, H. P.	B3	
artigoEmPeriodico	2013		Useful intensity: A technique to identify radiating regions on arbitrarily shaped surfaces	Journal of Sound and Vibration	CORREA JR., C. ; TENENBAUM, R. A.	A1	
artigoEmPeriodico	2013	http://dx.doi.org/10.1590/s1516-14392013005000088	Effect of carbon dioxide and temperature on passive film parametersof superduplex stainless steel	Materials Research (São Carlos. Impresso)	COSTA, EMANDRO VIEIRA DA ; MESQUITA, THIAGO JOSÉ ; FERREIRA, ARIANE ; NOGUEIRA, Ricardo Pereira ; Bastos, Ivan Napoleão	B1	
artigoEmPeriodico	2013	http://dx.doi.org/10.1080/10407782.2013.756763	Unified Integral Transforms Algorithm for Solving Multidimensional Nonlinear Convection-Diffusion Problems	Numerical Heat Transfer. Part A, Applications	Cotta, Renato M. ; Knupp, Diego C. ; Naveira-Cotta, C. P. ; Sphaier, L. A. ; Quaresma, J. N. N.	A2	
artigoEmPeriodico	2013	http://dx.doi.org/10.1088/1742-6596/410/1/012021	Hyper-heuristic applied to nuclear reactor core design	Journal of Physics. Conference Series (Online)	DOMINGOS, R P ; PLATT, G M	B2	
artigoEmPeriodico	2013	http://dx.doi.org/10.1016/j.physa.2013.09.048	Multi-q pattern classification of polarization curves	Physica. A (Print)	FABBRI, R. ; Bastos, I. N. ; Neto, Francisco Duarte Moura ; LOPES, F. J. P. ; GONCALVES, W. N. ; BRUNO, O. M.	A2	
artigoEmPeriodico	2013	http://dx.doi.org/10.1103/physrevb.87.241403	Currents and pseudomagnetic fields in strained graphene rings	PHYSICAL REVIEW B	FARIA, D.; LATGE, A. ; ULLOA, S. E. ; SANDLER, N.	A1	
artigoEmPeriodico	2013	http://dx.doi.org/10.4028/www.scientific.net/msf.758.41	Cobalt-Base Superalloy Coating Using GTAW Process	Materials Science Forum (Online)	Fernanda de Souza Royse ; Bastos, Ivan Napoleão ; Costa, Hector Reynaldo Meneses	B2	
artigoEmPeriodico	2013	http://dx.doi.org/10.1016/j.fluid.2013.09.043	A deduction of the multicriticality conditions of mixtures from the Gibbs tangent plane criterion	Fluid Phase Equilibria	Henderson, Nélio; Sacco, Wagner F. ; JR, RAIMUNDO A. RODRIGUES	A2	
artigoEmPeriodico	2013	http://dx.doi.org/10.1080/10407790.2013.810535	Heat Transfer in Microchannels with Upstream-Downstream Regions Coupling and Wall Conjugation Effects	Numerical Heat Transfer. Part B, Fundamentals	Knupp, D.C.; Cotta, Renato M. ; Naveira Cotta, Carolina P.	B1	
artigoEmPeriodico	2013		Solution of the Inverse Radiative Transfer Problem of Simultaneous Identification of the Optical Thickness and Space-Dependent Albedo Using Bayesian Inference	Computer Modeling in Engineering & Sciences (Print)	Knupp, D.C.; Silva Neto, A.J.	B1	
artigoEmPeriodico	2013	http://dx.doi.org/10.1115/1.4024425	Conjugated Convection-Conduction Analysis in Microchannels With Axial Diffusion Effects and a Single Domain Formulation	Journal of Heat Transfer	Knupp, Diego C.; Naveira-Cotta, C. P. ; Cotta, Renato M.	A2	
artigoEmPeriodico	2013	http://dx.doi.org/10.1080/08916152.2011.631079	Experimental Identification of Thermophysical Properties in Heterogeneous Materials with Integral Transformation of Temperature Measurements from Infrared Thermography	Experimental Heat Transfer	Knupp, Diego C.; Naveira-Cotta, C. P. ; Orlande, Helcio R. B. ; Cotta, Renato M.	Qualis nao identificado	Experimental Heat Transfer
artigoEmPeriodico	2013	http://dx.doi.org/10.1007/s40430-013-0069-z	Estimation of open channels hydraulic parameters with the stochastic particle collision algorithm	Journal of the Brazilian Society of Mechanical Sciences and Engineering (Impresso)	MARTÍNEZ GONZÁLEZ, YOEL ; MARTÍNEZ RODRÍGUEZ, JOSÉ BIENVENIDO ; SILVA NETO, ANTÔNIO JOSÉ ; GOMES WATTS RODRIGUES, PEDRO PAULO	B1	
artigoEmPeriodico	2013		Intelligibility assessment in elementary school classrooms from binaural room impulse responses measured with a childlike dummy head	Applied Acoustics	Melo V.S.G. ; TENENBAUM, R. A. ; MUSAFIR, R. E.	A2	
artigoEmPeriodico	2013		Indicadores de qualidade do ensino fundamental ? o uso das tecnologias de mineração de dados e de visões multidimensionais para apoio à análise e definição de políticas públicas	Revista Brasileira de Estudos Pedagógicos (Impresso)	NAMEN, A. A.; Borges, S.X.A. ; Sadala, M.G.S.	A2	
artigoEmPeriodico	2013		Acoustic quality parameters used for error evaluation of neural networks modeling for HRIRs Applied to escape training in blind conditions	International Review of Chemical Engineering (Testo Stampato)	NARANJO, J. F.L. ; TENENBAUM, R. A. ; TORRES, Júlio Cesar Bocher	B3	
artigoEmPeriodico	2013	http://dx.doi.org/10.5935/0103-5053.20130137	Thermodynamic Simulation of Phosphate Precipitation based on Ion-Selective Microelectrode Measurements	Journal of the Brazilian Chemical Society (Impresso)	PLATT, G. M. ; Platt, Gustavo M. ; BASTOS, I. N. ; ANDRADE, MÔNICA C. DE ; TARYBA, MARINA ; LAMAKA, SVIATLANA V. ; SIMÕES, ALDA ; SOARES, GLÓRIA D.	A2	
artigoEmPeriodico	2013	http://dx.doi.org/10.1088/1742-6596/410/1/012020	Calculation of a double reactive azeotrope using stochastic optimization approaches	Journal of Physics. Conference Series (Online)	PLATT, GUSTAVO MENDES ; Domingos, Roberto Pinheiro ; ANDRADE, MATHEUS OLIVEIRA DE	B2	
artigoEmPeriodico	2013	http://dx.doi.org/10.1080/17415977.2012.665907	Evaluation of dispersion parameters for River São Pedro, Brazil, by the simulated annealing method	Inverse Problems in Science & Engineering (Print)	RODRIGUES, P. P. G. W.; GONZALEZ, Y. M. ; Sousa, E.P. ; MOURA NETO, F. D.	B1	
artigoEmPeriodico	2013	http://dx.doi.org/10.1016/j.pnucene.2012.10.003	Some studies on differential evolution variants for application to nuclear reactor core design	Progress in Nuclear Energy (New Series)	Sacco, Wagner F. ; DE MOURA MENESES, ANDERSON ALVARENGA ; Henderson, Nélio	A2	
artigoEmPeriodico	2013	http://dx.doi.org/10.4028/www.scientific.net/jbbte.18.61	Characterization and Dissolution Dynamics of Tricalcium Phosphates in Acidified Solution	Journal of Biomimetics, Biomaterials, and Tissue Engineering	SADER, MARCIA ; ISMÉRIO, DENISAR ; ANDRADE, MÔNICA C. ; SOARES, GLORIA D. ; BASTOS, I. N. ; PLATT, G. M. ; Platt, Gustavo M.	Qualis nao identificado	Journal of Biomimetics, Biomaterials, and Tissue Engineering
artigoEmPeriodico	2013		Modelagem matemática do baixo curso do rio São João para estudo de intrusão salina	Boletim do Observatório Ambiental Alberto Ribeiro Lamego	SOUZA DE, G. L. ; LUGON JR., J. ; Lugon, Jader ; RODRIGUES, P. P. G. W. ; HORA, H. M. C. ; FERREIRA, M. I. P.	B4	
artigoEmPeriodico	2013		SIMULAÇÃO DE UMA PLUMA DE CONTAMINANTES NO RIO MACAÉ UTILIZANDO REDES NEURAIS ARTIFICIAIS	Revista Brasileira de Recursos Hídricos	Telles, W.R. ; RODRIGUES, P. P. G. W. ; Silva Neto, A.J. ; SANTIAGO, O. L. ; Mesa, M.I. ; Lugon Junior, J.	A2	
artigoEmPeriodico	2013	http://dx.doi.org/10.5935/2177-4560.20130002	Use of Geographic Information Systems in the delineation of watersheds	Boletin do Observatório Ambiental Alberto Ribeiro Lamego	TELLES, WAGNER RAMBALDI ; RODRIGUES, P. P. G. W. ; SILVA NETO, Antônio José da	B4	Boletim do Observatório Ambiental Alberto Ribeiro Lamego
artigoEmPeriodico	2013		Roof configurations, room quality parameters and musical performances: An analysis of the São Paulo Hall	Building Acoustics	TENENBAUM, R. A.; OLIVEIRA, Lenine V ; MÜLLER, Swen	Qualis nao identificado	Building Acoustics
artigoEmPeriodico	2013	http://dx.doi.org/10.1155/2013/467590	Damage Identification in Bars with a Wave Propagation Approach: Performance Comparison of Five Hybrid Optimization Methods	Shock and Vibration	TENENBAUM, R. A.; STUTZ, L. T. ; FERNANDES, K. M.	B1	
artigoEmPeriodico	2013	http://dx.doi.org/10.5935/1984-6835.20130048	Influence of Cations on the Corrosion of UNS S32750 Stainless Steel in Media with Chloride	Revista Virtual de Química	Vinícius ; CARVALHO, M. P. ; ANDRADE, M. C. ; Andrade, M. C ; BASTOS, I. N.	B2	
trabalhoCompletoEmCongresso	2013		Identificação de grupos em problemas multimodais utilizando agrupamento espectral e busca harmônica	XVI Encontro de Modelagem Computacional / IV Encontro de Ciência e Tecnologia de Materiais	ALMEIDA, D. M. B. ; Platt, G. M. ; Moura Neto, Francisco Duarte		
trabalhoCompletoEmCongresso	2013		Extração de regras de associação relacionadas ao aprendizado de matemática de estudantes do ensino fundamental	XVI Encontro de Modelagem Computacional	ALOQUIO, L. ; NAMEN, A. A.		
trabalhoCompletoEmCongresso	2013		Recubrimientos de hidroxiapatita nanocristalina - Preparación, caracterización y evaluación de la bioactividad	IFMBE Proceedings	ALVES, Eduardo Peon ; GRANJEIRO, Jose Mauro ; Soares, G. D. ; Bastos, Ivan Napoleão		
trabalhoCompletoEmCongresso	2013		An Image-Based Fluid Surface Pattern Model	XVI Encontro de Modelagem Computacional	AMORIM, M. ; FABBRI, R. ; PINTO, L. M. S. ; Moura Neto, Francisco Duarte		
trabalhoCompletoEmCongresso	2013		Uma Nova Abordagem para a Modelagem e Simulação da Separação dos Enantiômeros do Anestésico Cetamina em Leito Móvel Simulado	XVI Encontro de Modelagem Computacional	BIHAIN, A. J. L. ; SILVA NETO, ANTÔNIO ; CÂMARA, L. D. T.		
trabalhoCompletoEmCongresso	2013		VERIFICAÇÃO DA SOLUÇÃO DA EQUAÇÃO DE LAPLACE COM USO DA PORTABLE, EXTENSIBLE TOOLKIT FOR SCIENTIFIC COMPUTATION (PETSC)	XVI Encontro de Modelagem Computacional	BLASS, L. ; GUTERRES, M. X. ; VASCONCELLOS, J. F. V. ; SILVA NETO, Antônio José da		
trabalhoCompletoEmCongresso	2013		ANÁLISE NUMÉRICA DA PRECIPITAÇÃO DE PARAFINAS EM DUTOS DE PETRÓLEO COM O MODELO TERMODINÂMICO MULTISOLID	XVI Encontro de Modelagem Computacional	BLASS, L. ; VASCONCELLOS, J. F. V. ; PLATT, Gustavo Mendes		
trabalhoCompletoEmCongresso	2013		ANÁLISENUMÉRICADAPRECIPITAÇÃODEPARAFINASEM DUTOSDEPETRÓLEOCOMOMODELOTERMODINÂMICO MULTISOLID	XVI Encontro de Modelagem Computacional / IV Encontro de Ciência e Tecnologia de Materiais	BLASS, L. ; VASCONCELOS, João Flávio Veira de ; PLATT, G. M.		
trabalhoCompletoEmCongresso	2013		Pitting corrosion resistance and pit morphology of a supermartensític 15%‑2%Mo‑5.8%Ni‑1%Cu steel tested in 3.5%NaCl solution	EUROCORR 2013	Bruno Barbosa ; PARDAL, Juan Manuel ; Bastos, Ivan N. ; Mael Ribeiro da Silva ; TAVARES, Sérgio Souto Maior		
trabalhoCompletoEmCongresso	2013		Firefly Algorithm Variations for the Solution of an Inverse Radiative Transfer Problem	22nd International Congress of Mechanical Engineering	Cirino, R. L. ; Knupp, D.C. ; Silva Neto, A.J. ; Neto, B. L.		
trabalhoCompletoEmCongresso	2013		Change in the boundary element method to obtain the useful intensity	XVI Encontro de Modelagem Computacional e IV Encontro de Ciência e Tecnologia de Materiais	CORREA JR., C. ; FERREIRA, V. L. D. ; TENENBAUM, R. A.		
trabalhoCompletoEmCongresso	2013		Damage identification in plates via flexibility matrix from noisy data using the Particle Swarm Optimization method	XV International Symposium on Dynamic Problems of Mechanics	CORREA, R. A. P. ; STUTZ, L.T. ; TENENBAUM, R.A.		
trabalhoCompletoEmCongresso	2013		Identificação de danos em uma viga engastada: análise em relação à posição e intensidade do dano na estrutura	XVI Encontro de Modelagem Computacional e IV Encontro de Ciência e Tecnologia de Materiais	CORREA, R. A. P. ; STUTZ, L.T. ; TENENBAUM, R.A.		
trabalhoCompletoEmCongresso	2013		EFEITO NA RESISTÊNCIA A CORROSÃO DE SELANTES EPÓXI APLICADOS EM SUBSTRATO METÁLICO	12a COTEQ	Costa, Hector Reynaldo Meneses ; SÁ BRITO, V. R. S. ; Bastos, Ivan Napoleão		
trabalhoCompletoEmCongresso	2013		From Analytical Heat Transfer towards Unified Hybrid Solutions in Heat and Fluid Flow	13th UK Heat Transfer Conference	Cotta, Renato M. ; Knupp, D.C. ; Naveira Cotta, Carolina P.		
trabalhoCompletoEmCongresso	2013		Numerical Experiments with Reduction Methods in Phase Equilibria	22nd International Congress of Mechanical Engineering	COUTO, L. M. ; Platt, G. M. ; Moura Neto, Francisco Duarte		
trabalhoCompletoEmCongresso	2013		Optimization strategies in the modelling of SG-SMB applied to separation of Phenylalanine and Tryptophan	International Conference on Mathematical Modeling in Physical Sciences	CÂMARA, L. D. T		
trabalhoCompletoEmCongresso	2013		Simulação de Escoamentos Incompressíveis Empregando o Método SPH Utilizando um Algoritmo Iterativo na Determinação do Campo de Pressões	XVI Encontro de Modelagem Computacional	de Freitas, M. M. ; AMARAL SOUTO, H. P.		
trabalhoCompletoEmCongresso	2013		Diagnosis of Incipient Time Depending Faults Based on Inverse Problem Formulation and Stochastic Algorithms	4th Inverse Problems	ECHEVERRIA, L. C. ; SANTIAGO, O. L. ; SILVA NETO, ANTÔNIO ; CAMPOS VELHO, H. C. ; CÂMARA, L. D. T.		
trabalhoCompletoEmCongresso	2013		VISUALIZAÇÃO DE DIAGRAMAS DE ESPECTROSCOPIA DE IMPEDÂNCIA ELETROQUÍMICA DINÂMICA	XVI Encontro de Modelagem Computacional	Eduardo Cmapos ; Jorge Morvan ; Denisar Ismério ; Fabbri ; Bastos, Ivan Napoleão		
trabalhoCompletoEmCongresso	2013		AA Distributed Software Development Methodology	International Free Software Workshop	Fabbri, Renato ; Fabbri, Ricardo ; Vieira, Vilson		
trabalhoCompletoEmCongresso	2013		Analysis of Complex Social Networks through Electronic Mail	Encontro de Modelagem Computacional	Fabbri, Renato ; Vieira, Vilson ; OLIVEIRA, L. S. ; Fabbri, Ricardo		
trabalhoCompletoEmCongresso	2013		Uma nova modelagem numérica para obtenção da intensidade acústica útil: um método para identificação de regiões radiantes em superfícies com geometrias arbitrárias	XVI Encontro de Modelagem Computacional e IV Encontro de Ciência e Tecnologia de Materiais	FERREIRA, V. L. D. ; CORREA JR., C. ; TENENBAUM, R. A.		
trabalhoCompletoEmCongresso	2013		IDENTIFICACAO DE DANO GERADO POR CORROSA O VIA TECNICA PULSO-ECO COM OTIMIZACAO	XVI EMC / IV ECTM / IIII ERMAC	Filipe Otsuka Taminato ; Tenenbaum ; Bastos, Ivan N.		
trabalhoCompletoEmCongresso	2013		Um modelo de classificação para descoberta de conhecimento relacionado a professores de matemática do ensino básico	XVI Encontro de Modelagem Computacional	FONSECA, S. O. ; NAMEN, A. A.		
trabalhoCompletoEmCongresso	2013		Desenvolvimento de um Simulador Numérico Empregando o Método SPH para a Resolução de Escoamentos Incompressíveis. Implementação Computacional em Paralelo (CUDA)	XVI Encontro de Modelagem Computacional	GOES, M. L. ; Góes, J. F. ; AMARAL SOUTO, H. P.		
trabalhoCompletoEmCongresso	2013		CALCULATIONOFDOUBLEAZEOTROPESBYINVERSIONOF FUNCTIONSFROMPLANETOTHEPLANE:PHYSICALSOLUTIONS	XVI Encontro de Modelagem Computacional / IV Encontro de Ciência e Tecnologia de Materiais	GUEDES, A. L. ; PLATT, G. M. ; Moura Neto, F. D.		
trabalhoCompletoEmCongresso	2013		Verification of the solution of Laplace Equation using the Portable, Extensible Toolkit for Scientific computation (PETSC)	COBEM 2013 - International Congress of Mechanical Engineering	GUTERRES, M. X. ; VASCONCELLOS, J. F. V. ; SILVA NETO, Antônio José da ; MORAES, M. R.		
trabalhoCompletoEmCongresso	2013		Aplicação da Técnica de Otimização Simulated Annealing na Avaliação de Parâmetros Uitilizados na Simulação da Ciclagem de Nitrogênio em Sedimentos Subáquaticos	XVI Encontro de Modelagem Computacional	KALAS, F. A. ; RODRIGUES, P. P. G. W. ; LUGON JR., J.		
trabalhoCompletoEmCongresso	2013		Theoretical-Experimental Analysis of Conjugated Heat Transfer in Micro-Channel Heat Spreaders	ASME 2013 Summer Heat Transfer Conference	Knupp, D.C.; Cotta, Renato M. ; Naveira Cotta, Carolina P.		
trabalhoCompletoEmCongresso	2013		PROGRAMAÇÃO GENÉTICA CARTESIANA APLICADA AO PROJETO DE CIRCUITOS DIGITAIS	XVI Encontro de Modelagem Computacional / IV Encontro de Ciência e Tecnologia de Materiais	KAPPEL, M. A. A. ; Domingos, R. P. ; BASTOS, Ivan Napoleão		
trabalhoCompletoEmCongresso	2013		Análise da equação de difusão com retenção utilizando o Método de Volumes Finitos	XVI Encontro de Modelagem Computacional	MARINHO, G. M. ; VASCONCELLOS, J. F. V. ; ZANI, J. H.		
trabalhoCompletoEmCongresso	2013		Análise da equação de difusão com retenção utilizando o Método de Volumes Finitos. In: XVI Encontro de modelagem Computacional	III Encontro Regional de Matemática Aplicada e Computacional	MARINHO, G. M. ; VASCONCELLOS, J. F. V. ; ZANI, J. H.		
trabalhoCompletoEmCongresso	2013		Use of acoustic quality parameters for error evaluation of neural networks interpolation technique for HRIRs	XVI Encontro de Modelagem Computacional e IV Encontro de Ciência e Tecnologia de Materiais	NARANJO, J. F.L. ; TENENBAUM, R. A. ; TORRES, Julio C B		
trabalhoCompletoEmCongresso	2013		Accuracy validation of the ANN?s interpolation technique through the use of acoustic quality parameters	XVI Encontro de Modelagem Computacional e IV Encontro de Ciência e Tecnologia de Materiais	Naranjo, J.F.L. ; TENENBAUM, R. A. ; Torres, J.C.B.		
trabalhoCompletoEmCongresso	2013		Visualization of Dynamic Electrochemical Spectroscopy Impedance Diagrams	Encontro de Modelagem Computacional	OLIVEIRA, E. C. ; LUZ, J. M. M. ; ISMERIO, D. ; Fabbri, Ricardo ; BASTOS, I. N.		
trabalhoCompletoEmCongresso	2013		Determination of pollutants source in an estuary through the Inverse Problems technique	22nd International Congress of Mechanical Engineering (COBEM 2013)	PAROLIN, R. S. ; SILVA NETO, A. J. ; RODRIGUES, P. P. G. W.		
trabalhoCompletoEmCongresso	2013		Quantificação de Incertezas para o Problema de Transporte de um Traçador em Meios Porosos Heterogêneos Empregando o Método Markov Chain Monte Carlo a Dois Estágios	XVI Encontro de Modelagem Computacional	PEREIRA, T. J. ; AMARAL SOUTO, H. P. ; PEREIRA, Luis Felipe Feres		
trabalhoCompletoEmCongresso	2013		Aprendizagem de transformações para reconhecimento	XVI Encontro de Modelagem Computacional	PINTO, L. M. S. ; FABBRI, R. ; Moura Neto, Francisco Duarte		
trabalhoCompletoEmCongresso	2013		Estudos sobre aprendizagem de rotações para reconhecimento - uma comparação entre o PCA e os mapas de difusão	Encontro de Modelagem computacional	PINTO, L. M. S. ; Fabbri, Ricardo ; Neto, FDM		
trabalhoCompletoEmCongresso	2013		MEDIÇÕESDEpHSOBRESUPERFÍCIESDETITÂNIOVIASIET‐pH: ETAPASINTERMEDIÁRIAS	XVI Encontro de Modelagem Computacional / IV Encontro de Ciência e Tecnologia de Materiais	PLATT, G. M.; BASTOS, Ivan Napoleão ; ANDRADE, Mônica C ; SIMOES, A. ; LAMAKA, S. ; TARYBA, M. ; SOARES, Glória Dulce de Almeida		
trabalhoCompletoEmCongresso	2013		MEDIÇÕES DE pH SOBRE SUPERFÍCIES DE TITÂNIO VIA SIET-pH: ETAPAS INTERMEDIÁRIAS	XVI Encontro de Modelagem Computacional IV Encontro de Ciência e Tecnologia de Materiais	PLATT, Gustavo Mendes ; Bastos, Ivan Napoleão ; ANDRADE, M. C. ; SIMÕES, ALDA ; LAMAKA, SVIATLANA V. ; TARYBA, MARINA ; SOARES, Glória Dulce de Almeida		
trabalhoCompletoEmCongresso	2013		Comparação das Rotinas Inversas LJ e R2W na Estimação de Parâmetros Cinéticos em Batelada	XVI Encontro de Modelagem Computacional	RIBEIRO, M. A. C. ; CÂMARA, L. D. T. ; SILVA NETO, A. J.		
trabalhoCompletoEmCongresso	2013		TRIBOCORROSÃO DO AÇO INOXIDÁVEL SUPERDUPLEX EM MEIOS DE CLORETO	12a COTEQ	Rodrigo César Costa Silva ; NOGUEIRA, Ricardo Pereira ; Bastos, Ivan Napoleão		
trabalhoCompletoEmCongresso	2013		Resolução da Equação de Burgers Empregando uma Formulação Implícita e Métodos de Krylov	XVI Encontro de Modelagem Computacional	SANTOS, R. D. ; AMARAL SOUTO, H. P.		
trabalhoCompletoEmCongresso	2013		ESTUDO PRELIMINAR DO EFEITO INIBIDOR DA CORROSÃO NO AÇO CARBONO UNS G10200 PELO EXTRATO DE AÇAÍ (EUTERPE OLERACEA)	XVI EMC / IV ECTM / III ERMAC	SILVA, D. P. ; Valdir Florêncio da Veiga Junior ; ASSIS, J. T. ; Ivan N. Bastos		
trabalhoCompletoEmCongresso	2013		Estudo da acurácia de diferentes métodos para o cálculo do gradiente em malhas baseadas no diagrama de Voronoi	VII Congresso Nacional de Engenharia Mecânica	Silva, D. P. ; VASCONCELLOS, J. F. V.		
trabalhoCompletoEmCongresso	2013		Identificação de danos estruturais utilizando dados no domínio do tempo provenientes de ensaios de vibração	XVI Encontro de Modelagem Computacional	SILVA, I. C. S. ; RANGEL, L. S. ; STUTZ, L.T.		
trabalhoCompletoEmCongresso	2013		Investigation of a New Model for Anomalous Diffusion Phenomena by Means of an Inverse Analysis	4th Inverse Problems	SILVA, L. G. ; KNUPP, D. ; BEVILACQUA, L. ; GALEÃO, A C N ; SIMAS, J. G. ; VASCONCELLOS, J. F. V. ; SILVA NETO, Antônio José da		
trabalhoCompletoEmCongresso	2013		Identificação de Danos Estruturais via Método de Monte Carlo com Cadeia de Markov	XVI Encontro de Modelagem Computacional	TEIXEIRA, J. S. ; KNUPP, D. C. ; STUTZ, L.T. ; SILVA NETO, A. J.		
trabalhoCompletoEmCongresso	2013		Estimativa de Parâmetros Hídricos Usando Técnicas de Problemas Inversos	XVI Encontro de Modelagem Computacional	TELLES, WAGNER RAMBALDI ; GONCALVES, G. I. ; RODRIGUES, P. P. G. W. ; SILVA NETO, ANTÔNIO JOSÉ DA		
trabalhoCompletoEmCongresso	2013		Modeling the Flow of a River Using the Mohid Plataform	22nd International Congress of Mehcanical Engineering	TELLES, WAGNER RAMBALDI ; SILVA NETO, ANTÔNIO JOSÉ DA ; RODRIGUES, PEDRO PAULO GOMES WATTS		
trabalhoCompletoEmCongresso	2013		Estimativa dos Coeficientes de Dispersão em um rio utilizando o Algoritmo de Luus-Jaakol	II Colóquio de Matemática Aplicada da Região Norte	TELLES, WAGNER RAMBALDI ; SILVA NETO, ANTÔNIO JOSÉ DA ; RODRIGUES, PEDRO PAULO GOMES WATTS		
trabalhoCompletoEmCongresso	2013		Identification of rough impedance profile using an improved acoustic wave propagation algorithm	8th International Conference on Inverse Problems in Engineering	TENENBAUM, R. A.; TAMINATO, F. O. ; FERNANDES, K. M.		
trabalhoCompletoEmCongresso	2013		Identificação de dano gerado por corrosão via técnica pulso-eco com otimização	XVI Encontro de Modelagem Computacional e IV Encontro de Ciência e Tecnologia de Materiais	TENENBAUM, R. A.; TAMINATO, F. O. ; FERNANDES, K. M.		
trabalhoCompletoEmCongresso	2013		Simulador Computacional para identificação de danos em vigas via abordagem de vibrações mecânicas	XVI Encontro de Modelagem Computacional	TORRES, M. P. ; STUTZ, L.T.		
trabalhoCompletoEmCongresso	2013		Parameter Estimation of Liquid Chromatography General Rate Model Using Different Stochastic Algorithms	4th Inverse Problems	TORRES, R. H. ; MESA, M. I. ; SANTIAGO, O. L. ; SILVA NETO, A. J. ; CÂMARA, L. D. T.		
resumoExpandidoEmCongresso	2013	Aurilização em acústica de salas	13a Semana de Graduação da UERJ, 2013, Rio de Janeiro. Anais da 13a Semana de Graduação da UERJ	ANDRADE, D. G. ; TARDIN, P. L. ; TENENBAUM, R. A.		
resumoExpandidoEmCongresso	2013	The Convergence Rate of Iterative Procedures for an Elliptic Problem in Heterogeneous Media	9th International Conference on Diffusion in Solids and Liquids - DSL2013, 2013, Madrid. Abstract Book DSL2013 - Madrid, Spain. Madrid: Ironix Conferences	FRANCISCO, Alexandre Santos ; Amaral Souto, H.P. ; Pereira, T. J.		
resumoExpandidoEmCongresso	2013	Uma ferramenta para apoiar a tomada de decisão de educadores a partir da análise das bases de dados do INEP	IV Seminário do Observatório da Educação, 2013, Brasília. Anais do 4o. Seminário do OBEDUC	NAMEN, A. A		
resumoExpandidoEmCongresso	2013	Uma Primeira Abordagem para o Problema Inverso do Modelo de Difusão com Retenção	II Colóquio de Matemática da Região Norte, 2013, Santarém. Anais do II Colóquio de Matemática da Região Norte	Silva, L. G. ; Knupp, D.C. ; Simas, J. G. ; Bevilacqua, L. ; Galeão, A. C. N. R. ; Silva Neto, A.J.		
