strict graph grafo2 {
	graph [bb="0,0,4424,273",
		id=grafo2,
		overlap=False
	];
	node [fontsize=8,
		label="\N",
		shape=rectangle,
		style=filled
	];
	0	 [URL="http://lattes.cnpq.br/8929629898766359",
		color="#17272B",
		fontcolor="#FFFFFF",
		height=0.23611,
		label="Luísa A. Gachet Barbosa [4]",
		pos="54,264.5",
		width=1.5];
	52	 [URL="http://lattes.cnpq.br/3986122703645318",
		color="#17272B",
		fontcolor="#FFFFFF",
		height=0.23611,
		label="Rosa C. Cecche Lintz [4]",
		pos="54,200.5",
		width=1.3611];
	0 -- 52	 [fontsize=8,
		label=4.0,
		lp="59.5,232.5",
		pos="54,255.9 54,244 54,221.1 54,209.16"];
	1	 [URL="http://lattes.cnpq.br/9412302739552855",
		color="#17272B",
		fontcolor="#FFFFFF",
		height=0.23611,
		label="Luís Fernando de Ávila [0]",
		pos="178,264.5",
		width=1.4444];
	2	 [URL="http://lattes.cnpq.br/7266558656801036",
		color="#17272B",
		fontcolor="#FFFFFF",
		height=0.23611,
		label="Luis A. Angelotti Meira [1]",
		pos="301,264.5",
		width=1.4583];
	40	 [URL="http://lattes.cnpq.br/0597865875425201",
		color="#17272B",
		fontcolor="#FFFFFF",
		height=0.23611,
		label="Guilherme Palermo Coelho [2]",
		pos="301,200.5",
		width=1.6111];
	2 -- 40	 [fontsize=8,
		label=1.0,
		lp="306.5,232.5",
		pos="301,255.9 301,244 301,221.1 301,209.16"];
	50	 [URL="http://lattes.cnpq.br/5530984461673946",
		color="#17272B",
		fontcolor="#FFFFFF",
		height=0.23611,
		label="Simone Andréa Pozza [1]",
		pos="301,136.5",
		width=1.375];
	40 -- 50	 [fontsize=8,
		label=1.0,
		lp="306.5,168.5",
		pos="301,191.9 301,180 301,157.1 301,145.16"];
	3	 [URL="http://lattes.cnpq.br/7149846081415916",
		color="#17272B",
		fontcolor="#FFFFFF",
		height=0.23611,
		label="Lubienska C. L. Jaquiê Ribeiro [3]",
		pos="436,264.5",
		width=1.7778];
	27	 [URL="http://lattes.cnpq.br/8266551989579822",
		color="#17272B",
		fontcolor="#FFFFFF",
		height=0.23611,
		label="Marta S. Guilherme Pires [4]",
		pos="436,200.5",
		width=1.5278];
	3 -- 27	 [fontsize=8,
		label=3.0,
		lp="441.5,232.5",
		pos="436,255.9 436,244 436,221.1 436,209.16"];
	41	 [URL="http://lattes.cnpq.br/7466715243528129",
		color="#17272B",
		fontcolor="#FFFFFF",
		height=0.23611,
		label="Gisleiva C. d. Santos Ferreira [1]",
		pos="436,136.5",
		width=1.6944];
	27 -- 41	 [fontsize=8,
		label=1.0,
		lp="441.5,168.5",
		pos="436,191.9 436,180 436,157.1 436,145.16"];
	4	 [URL="http://lattes.cnpq.br/0847386182199613",
		color="#17272B",
		fontcolor="#FFFFFF",
		height=0.23611,
		label="Leonardo L. Bravo Roger [0]",
		pos="573,264.5",
		width=1.5278];
	5	 [URL="http://lattes.cnpq.br/5571022514393377",
		color="#17272B",
		fontcolor="#FFFFFF",
		height=0.23611,
		label="Jose G. Pena de Andrade [0]",
		pos="700,264.5",
		width=1.5];
	6	 [URL="http://lattes.cnpq.br/5495322642019035",
		color="#17272B",
		fontcolor="#FFFFFF",
		height=0.23611,
		label="Vitor Rafael Coluci [0]",
		pos="818,264.5",
		width=1.2639];
	7	 [URL="http://lattes.cnpq.br/9237052618243015",
		color="#17272B",
		fontcolor="#FFFFFF",
		height=0.23611,
		label="Carolina S. Franco Picone [1]",
		pos="938,264.5",
		width=1.5556];
	21	 [URL="http://lattes.cnpq.br/8810347636088336",
		color="#17272B",
		fontcolor="#FFFFFF",
		height=0.23611,
		label="Renato Falcão Dantas [3]",
		pos="938,200.5",
		width=1.3611];
	7 -- 21	 [fontsize=8,
		label=1.0,
		lp="943.5,232.5",
		pos="938,255.9 938,244 938,221.1 938,209.16"];
	45	 [URL="http://lattes.cnpq.br/2493281934291188",
		color="#17272B",
		fontcolor="#FFFFFF",
		height=0.23611,
		label="Enelton Fagnani [2]",
		pos="938,136.5",
		width=1.1111];
	21 -- 45	 [fontsize=8,
		label=2.0,
		lp="943.5,168.5",
		pos="938,191.9 938,180 938,157.1 938,145.16"];
	8	 [URL="http://lattes.cnpq.br/6694143241761752",
		color="#17272B",
		fontcolor="#FFFFFF",
		height=0.23611,
		label="Carmenlucia S. Giordano Penteado [0]",
		pos="1083,264.5",
		width=1.9583];
	9	 [URL="http://lattes.cnpq.br/6938680728798425",
		color="#17272B",
		fontcolor="#FFFFFF",
		height=0.23611,
		label="Antonio Carlos Zambon [3]",
		pos="1364,200.5",
		width=1.4722];
	24	 [URL="http://lattes.cnpq.br/6970261362941505",
		color="#17272B",
		fontcolor="#FFFFFF",
		height=0.23611,
		label="Paulo S. Martins Pedro [4]",
		pos="1366,136.5",
		width=1.4167];
	9 -- 24	 [fontsize=8,
		label=1.0,
		lp="1371.5,168.5",
		pos="1364.2,191.9 1364.6,180 1365.4,157.1 1365.8,145.16"];
	42	 [URL="http://lattes.cnpq.br/0016546400683999",
		color="#17272B",
		fontcolor="#FFFFFF",
		height=0.23611,
		label="Gisele Busichia Baioco [4]",
		pos="1257,72.5",
		width=1.4306];
	9 -- 42	 [fontsize=8,
		label=3.0,
		lp="1300.5,136.5",
		pos="1351.2,191.86 1336.3,182.44 1311.5,165.23 1295,145.5 1277.8,124.89 1265.2,95.215 1259.8,81.281"];
	24 -- 42	 [fontsize=8,
		label=1.0,
		lp="1325.5,104.5",
		pos="1352.3,127.78 1343.2,122.62 1330.8,115.66 1320,109.5 1302.9,99.79 1283.3,88.546 1270.5,81.243"];
	30	 [URL="http://lattes.cnpq.br/6366443994619479",
		color="#17272B",
		fontcolor="#FFFFFF",
		height=0.23611,
		label="Marco A. Garcia de Carvalho [1]",
		pos="1564,72.5",
		width=1.7083];
	24 -- 30	 [fontsize=8,
		label=1.0,
		lp="1482.5,104.5",
		pos="1390.3,127.9 1428.4,115.97 1501.8,92.978 1539.8,81.068"];
	38	 [URL="http://lattes.cnpq.br/0497424493730558",
		color="#17272B",
		fontcolor="#FFFFFF",
		height=0.23611,
		label="Marcos Sergio Goncalves [1]",
		pos="1429,72.5",
		width=1.5278];
	24 -- 38	 [fontsize=8,
		label=1.0,
		lp="1407.5,104.5",
		pos="1373.7,127.9 1385.8,116 1409.1,93.102 1421.2,81.165"];
	44	 [URL="http://lattes.cnpq.br/2324929401155175",
		color="#17272B",
		fontcolor="#FFFFFF",
		height=0.23611,
		label="Francisco José Arnold [1]",
		pos="1374,8.5",
		width=1.375];
	24 -- 44	 [fontsize=8,
		label=1.0,
		lp="1359.5,72.5",
		pos="1363,127.92 1358.2,114.79 1349.8,86.95 1354,63.5 1357.1,46.377 1365.2,27.584 1370.1,17.302"];
	38 -- 44	 [fontsize=8,
		label=1.0,
		lp="1410.5,40.5",
		pos="1422.3,63.898 1411.7,51.998 1391.4,29.102 1380.8,17.165"];
	10	 [URL="http://lattes.cnpq.br/9343261628675642",
		color="#17272B",
		fontcolor="#FFFFFF",
		height=0.23611,
		label="André L. Sampaio Gradvohl [0]",
		pos="1366,264.5",
		width=1.6528];
	11	 [URL="http://lattes.cnpq.br/8382118396658129",
		color="#17272B",
		fontcolor="#FFFFFF",
		height=0.23611,
		label="Andre Franceschi de Angelis [0]",
		pos="1504,264.5",
		width=1.6806];
	12	 [URL="http://lattes.cnpq.br/7150028902000426",
		color="#17272B",
		fontcolor="#FFFFFF",
		height=0.23611,
		label="Edson Luiz Ursini [2]",
		pos="1529,200.5",
		width=1.1944];
	12 -- 24	 [fontsize=8,
		label=1.0,
		lp="1463.5,168.5",
		pos="1509,191.9 1477.6,179.97 1417.2,156.98 1385.9,145.07"];
	12 -- 30	 [fontsize=8,
		label=1.0,
		lp="1543.5,136.5",
		pos="1529.2,191.77 1529.6,178.4 1531.3,150.22 1538,127.5 1543.1,110.13 1553.3,91.428 1559.3,81.226"];
	33	 [URL="http://lattes.cnpq.br/9070607576528017",
		color="#17272B",
		fontcolor="#FFFFFF",
		height=0.23611,
		label="Ana E. Antunes da Silva [1]",
		pos="1612,136.5",
		width=1.4861];
	12 -- 33	 [fontsize=8,
		label=1.0,
		lp="1581.5,168.5",
		pos="1539.2,191.9 1555.1,180 1585.8,157.1 1601.7,145.16"];
	13	 [URL="http://lattes.cnpq.br/4898006494427762",
		color="#17272B",
		fontcolor="#FFFFFF",
		height=0.23611,
		label="Diego S. Teodoro Martinez [0]",
		pos="1641,264.5",
		width=1.6111];
	14	 [URL="http://lattes.cnpq.br/5567790309424113",
		color="#17272B",
		fontcolor="#FFFFFF",
		height=0.23611,
		label="Cristiano de Mello Gallep [0]",
		pos="1773,264.5",
		width=1.5417];
	15	 [URL="http://lattes.cnpq.br/3491836142954364",
		color="#17272B",
		fontcolor="#FFFFFF",
		height=0.23611,
		label="Cassiana C. Montagner Raimundo [2]",
		pos="1916,264.5",
		width=1.9167];
	43	 [URL="http://lattes.cnpq.br/9246879554920774",
		color="#17272B",
		fontcolor="#FFFFFF",
		height=0.23611,
		label="Gisela de Aragão Umbuzeiro [3]",
		pos="1916,200.5",
		width=1.6806];
	15 -- 43	 [fontsize=8,
		label=2.0,
		lp="1921.5,232.5",
		pos="1916,255.9 1916,244 1916,221.1 1916,209.16"];
	46	 [URL="http://lattes.cnpq.br/0957577806208187",
		color="#17272B",
		fontcolor="#FFFFFF",
		height=0.23611,
		label="Nelma de M. Silva Oliveira [1]",
		pos="1916,136.5",
		width=1.6111];
	43 -- 46	 [fontsize=8,
		label=1.0,
		lp="1921.5,168.5",
		pos="1916,191.9 1916,180 1916,157.1 1916,145.16"];
	16	 [URL="http://lattes.cnpq.br/6753230320037937",
		color="#17272B",
		fontcolor="#FFFFFF",
		height=0.23611,
		label="José Carlos Magossi [0]",
		pos="2050,264.5",
		width=1.3056];
	17	 [URL="http://lattes.cnpq.br/4372943322993518",
		color="#17272B",
		fontcolor="#FFFFFF",
		height=0.23611,
		label="Ivan L. Marques Ricarte [1]",
		pos="2168,264.5",
		width=1.4722];
	29	 [URL="http://lattes.cnpq.br/8433486304141432",
		color="#17272B",
		fontcolor="#FFFFFF",
		height=0.23611,
		label="Marcos A. Francisco Borges [1]",
		pos="2168,200.5",
		width=1.6528];
	17 -- 29	 [fontsize=8,
		label=1.0,
		lp="2173.5,232.5",
		pos="2168,255.9 2168,244 2168,221.1 2168,209.16"];
	18	 [URL="http://lattes.cnpq.br/5243256763404267",
		color="#17272B",
		fontcolor="#FFFFFF",
		height=0.23611,
		label="Celmar Guimarães da Silva [2]",
		pos="1230,264.5",
		width=1.6111];
	22	 [URL="http://lattes.cnpq.br/3618876400150348",
		color="#17272B",
		fontcolor="#FFFFFF",
		height=0.23611,
		label="Regina L. de Oliveira Moraes [4]",
		pos="1230,200.5",
		width=1.7083];
	18 -- 22	 [fontsize=8,
		label=2.0,
		lp="1235.5,232.5",
		pos="1230,255.9 1230,244 1230,221.1 1230,209.16"];
	22 -- 24	 [fontsize=8,
		label=1.0,
		lp="1312.5,168.5",
		pos="1246.7,191.9 1272.8,180 1323,157.1 1349.2,145.16"];
	22 -- 42	 [fontsize=8,
		label=1.0,
		lp="1251.5,136.5",
		pos="1231.6,192 1236.4,169.64 1250.5,103.64 1255.4,81.125"];
	19	 [URL="http://lattes.cnpq.br/2958819814013623",
		color="#17272B",
		fontcolor="#FFFFFF",
		height=0.23611,
		label="Cassiana M. Reganhan Coneglian [0]",
		pos="2307,264.5",
		width=1.8889];
	20	 [URL="http://lattes.cnpq.br/1541934303361072",
		color="#17272B",
		fontcolor="#FFFFFF",
		height=0.23611,
		label="Ivan Camargo de Oliveira [0]",
		pos="2449,264.5",
		width=1.5417];
	23	 [URL="http://lattes.cnpq.br/4793528013383985",
		color="#17272B",
		fontcolor="#FFFFFF",
		height=0.23611,
		label="Peterson Bueno de Moraes [0]",
		pos="2580,264.5",
		width=1.5833];
	25	 [URL="http://lattes.cnpq.br/3069249114434330",
		color="#17272B",
		fontcolor="#FFFFFF",
		height=0.23611,
		label="Patricia Prediger [0]",
		pos="2696,264.5",
		width=1.125];
	26	 [URL="http://lattes.cnpq.br/5082574173461443",
		color="#17272B",
		fontcolor="#FFFFFF",
		height=0.23611,
		label="Maurea Nicoletti Flynn [0]",
		pos="2806,264.5",
		width=1.4306];
	28	 [URL="http://lattes.cnpq.br/2699192560269798",
		color="#17272B",
		fontcolor="#FFFFFF",
		height=0.23611,
		label="Maria A. Carvalho de Medeiros [0]",
		pos="2941,264.5",
		width=1.8056];
	31	 [URL="http://lattes.cnpq.br/9002330620493052",
		color="#17272B",
		fontcolor="#FFFFFF",
		height=0.23611,
		label="Luiz Camolesi Júnior [0]",
		pos="3073,264.5",
		width=1.3472];
	32	 [URL="http://lattes.cnpq.br/4346810447071054",
		color="#17272B",
		fontcolor="#FFFFFF",
		height=0.23611,
		label="Rangel Arthur [0]",
		pos="3177,264.5",
		width=1.0278];
	34	 [URL="http://lattes.cnpq.br/6838511087413418",
		color="#17272B",
		fontcolor="#FFFFFF",
		height=0.23611,
		label="Jaime Portugheis [0]",
		pos="3274,264.5",
		width=1.1528];
	35	 [URL="http://lattes.cnpq.br/1913450752136533",
		color="#17272B",
		fontcolor="#FFFFFF",
		height=0.23611,
		label="Ieda Geriberto Hidalgo [0]",
		pos="3385,264.5",
		width=1.4167];
	36	 [URL="http://lattes.cnpq.br/7835935043066010",
		color="#17272B",
		fontcolor="#FFFFFF",
		height=0.23611,
		label="Eloisa Dezen Kempter [0]",
		pos="3504,264.5",
		width=1.3889];
	37	 [URL="http://lattes.cnpq.br/0517805915866063",
		color="#17272B",
		fontcolor="#FFFFFF",
		height=0.23611,
		label="Elaine C. Catapani Poletti [0]",
		pos="3628,264.5",
		width=1.5417];
	39	 [URL="http://lattes.cnpq.br/7079057342886624",
		color="#17272B",
		fontcolor="#FFFFFF",
		height=0.23611,
		label="Guilherme Ribeiro Lotufo [0]",
		pos="3758,264.5",
		width=1.5556];
	47	 [URL="http://lattes.cnpq.br/9757080572695495",
		color="#17272B",
		fontcolor="#FFFFFF",
		height=0.23611,
		label="Wislei R. Ramos Osorio [0]",
		pos="3885,264.5",
		width=1.4722];
	48	 [URL="http://lattes.cnpq.br/7138726557754661",
		color="#17272B",
		fontcolor="#FFFFFF",
		height=0.23611,
		label="Varese Salvador Timoteo [0]",
		pos="4011,264.5",
		width=1.5278];
	49	 [URL="http://lattes.cnpq.br/8764055579040640",
		color="#17272B",
		fontcolor="#FFFFFF",
		height=0.23611,
		label="Talía S. d. Santos Ximenes [0]",
		pos="4141,264.5",
		width=1.5833];
	51	 [URL="http://lattes.cnpq.br/9149503296606174",
		color="#17272B",
		fontcolor="#FFFFFF",
		height=0.23611,
		label="Sandro Tonso [0]",
		pos="4252,264.5",
		width=1];
	53	 [URL="http://lattes.cnpq.br/7525387214456841",
		color="#17272B",
		fontcolor="#FFFFFF",
		height=0.23611,
		label="Ronalton Evandro Machado [0]",
		pos="4365,264.5",
		width=1.6389];
}
