1.0
0.15
0.815498
1.14825
0.15
0.15
0.15
0.593665
0.15
1.08823
0.15
0.15
1.10448
0.15
0.15
1.03733
0.15
1.0
0.780943
0.15
0.15
1.369
1.48238
0.15
1.7498
0.15
0.15
1.369
0.15
1.0
0.575074
0.15
0.15
0.629071
0.15
0.15
0.15
0.15
0.584295
0.15
1.369
0.482749
1.42143
1.369
0.584295
1.03733
0.593665
0.15
0.15
0.15
0.815498
0.15
1.0
0.15
