
PB0:2014,18;
PB1:2014,5;
PB2:2014,18;
PB3:*itens sem ano,1;
PB4:2014,109;
PB5:2014,55;
PB6:2014,6;
PB8:2014,10;
PT2:2014,7;
PT3:*itens sem ano,1;
PT4:2014,1;
PT5:2014,6;
OA1:2015,12;2016,9;2017,6;
OA2:2015,4;2016,17;2017,10;
OA5:2015,1;2016,13;2017,13;
OC1:2014,1;
OC2:2014,16;
OC3:2014,6;
OC4:2014,11;
OC5:2014,52;
OC6:2014,1;
Pm:2014,5;
Pj:2003,2;2004,1;2005,1;2006,1;2008,1;2009,4;2010,3;2011,8;2012,14;2013,19;2014,10;
PB:*itens sem ano,1;2014,221;
PT:*itens sem ano,1;2014,14;
OA:2015,17;2016,39;2017,29;
OC:2014,87;
Ep:2014,17;
Eo:2014,8;