ID_Lattes|MATRICULA|NOME|CH|mail|LP_1|PROGRAMA_1|CATEG_1|Periodo_Inicio_1|Periodo_Fim_1|Resp_prog|Resp_LP1
K4777184A1|99999|JULIANA DE CONTO|40|UFPR@UFPR.br|CGTI|CGTI|P|2013|2016|CGTI|CGTI
K4703656H0|99999|JOSE SIMAO DE PAULA PINTO|40|UFPR@UFPR.br|CGTI|CGTI|P|2013|2016||
K4775155H0|99999|HELENA DE FATIMA NUNES SILVA|40|UFPR@UFPR.br|CGTI|CGTI|P|2013|2016||
K4700210Y5|99999|GLAUCO GOMES DE MENEZES|40|UFPR@UFPR.br|CGTI|CGTI|P|2013|2016||
K4731454Z2|99999|EGON WALTER WILDAUER|40|UFPR@UFPR.br|CGTI|CGTI|P|2013|2016||
K4763471A4|99999|EDSON RONALDO GUARIDO FILHO|40|UFPR@UFPR.br|CGTI|CGTI|P|2013|2016||
K4709999J8|99999|EDELVINO RAZZOLINI FILHO|40|UFPR@UFPR.br|CGTI|CGTI|P|2013|2016||
K4706866Z8|99999|DENISE MARIA WORANOVICZ CARVALHO|40|UFPR@UFPR.br|CGTI|CGTI|P|2013|2016||
K4798636Z5|99999|DENISE FUKUMI TSUNODA|40|UFPR@UFPR.br|CGTI|CGTI|P|2013|2016||
K8549579U2|99999|DEBORAH RIBEIRO CARVALHO|40|UFPR@UFPR.br|CGTI|CGTI|P|2013|2016||
K4783091A2|99999|VERA KARAM DE CHUEIRI|40|UFPR@UFPR.br|CGTI|CGTI|P|2013|2016||
K4773702A2|99999|CICERO APARECIDO BEZERRA|40|UFPR@UFPR.br|CGTI|CGTI|P|2013|2016||
K4702596Y4|99999|CELSO YOSHIKAZU ISHIDA|40|UFPR@UFPR.br|CGTI|CGTI|P|2013|2016||
K4792044A9|99999|PATRICIA ZENI MARCHIORI|40|UFPR@UFPR.br|CGTI|CGTI|P|2013|2016||
K4757306P0|99999|NEWTON CORREA DE CASTILHO JUNIOR|40|UFPR@UFPR.br|CGTI|CGTI|P|2013|2016||
K4703696J9|99999|MARIA DO CARMO DUARTE FREITAS|40|UFPR@UFPR.br|CGTI|CGTI|P|2013|2016||
