strict graph grafo2 {
	graph [bb="0,0,717.5,273",
		id=grafo2,
		overlap=False
	];
	node [fontsize=8,
		label="\N",
		shape=rectangle,
		style=filled
	];
	0	 [URL="http://lattes.cnpq.br/8656259486979143",
		color="#17272B",
		fontcolor="#FFFFFF",
		height=0.23611,
		label="Selma R. Aranha Ribeiro [1]",
		pos="54.5,264.5",
		width=1.5139];
	3	 [URL="http://lattes.cnpq.br/2266103198034845",
		color="#17272B",
		fontcolor="#FFFFFF",
		height=0.23611,
		label="Maria S. M. Gomes Vaz [11]",
		pos="163.5,200.5",
		width=1.5278];
	0 -- 3	 [fontsize=8,
		label=1.0,
		lp="122,232.5",
		pos="67.866,255.9 88.786,244 129.04,221.1 150.03,209.16"];
	15	 [URL="http://lattes.cnpq.br/4366472400277640",
		color="#17272B",
		fontcolor="#FFFFFF",
		height=0.23611,
		label="Alaine Margarete Guimarães [18]",
		pos="267.5,8.5",
		width=1.7361];
	3 -- 15	 [fontsize=8,
		label=2.0,
		lp="134,104.5",
		pos="158.66,191.97 145.29,170.1 110.57,105.47 138.5,63.5 155.78,37.527 188.22,24.023 216.24,17.014"];
	7	 [URL="http://lattes.cnpq.br/3945991870627440",
		color="#17272B",
		fontcolor="#FFFFFF",
		height=0.23611,
		label="José C. Ferreira da Rocha [6]",
		pos="442.5,136.5",
		width=1.5278];
	3 -- 7	 [fontsize=8,
		label=1.0,
		lp="326,168.5",
		pos="197.43,191.96 251.02,180.05 354.66,157.02 408.37,145.08"];
	8	 [URL="http://lattes.cnpq.br/2185858940513067",
		color="#17272B",
		fontcolor="#FFFFFF",
		height=0.23611,
		label="Ivo Mario Mathias [1]",
		pos="191.5,136.5",
		width=1.2222];
	3 -- 8	 [fontsize=8,
		label=1.0,
		lp="185,168.5",
		pos="166.93,191.9 172.31,180 182.65,157.1 188.04,145.16"];
	7 -- 15	 [fontsize=8,
		label=5.0,
		lp="424,72.5",
		pos="440.23,127.65 435.64,113.06 423.91,81.624 403.5,63.5 375.58,38.703 334.88,24.579 305.28,17.046"];
	9	 [URL="http://lattes.cnpq.br/3850817367861711",
		color="#17272B",
		fontcolor="#FFFFFF",
		height=0.23611,
		label="Eduardo Fávero Caires [10]",
		pos="512.5,72.5",
		width=1.4722];
	7 -- 9	 [fontsize=8,
		label=3.0,
		lp="487,104.5",
		pos="451.08,127.9 464.52,116 490.37,93.102 503.85,81.165"];
	9 -- 15	 [fontsize=8,
		label=9.0,
		lp="473,40.5",
		pos="501.01,63.838 487.91,55.488 465.57,42.399 444.5,35.5 407.6,23.421 364.54,16.939 330.13,13.468"];
	1	 [URL="http://lattes.cnpq.br/9171690007212041",
		color="#17272B",
		fontcolor="#FFFFFF",
		height=0.23611,
		label="Rosane Falate [9]",
		pos="186.5,264.5",
		width=1.0139];
	1 -- 3	 [fontsize=8,
		label=7.0,
		lp="182,232.5",
		pos="183.68,255.9 179.27,244 170.77,221.1 166.34,209.16"];
	1 -- 15	 [fontsize=8,
		label=1.0,
		lp="86,136.5",
		pos="150.02,257.59 119.36,250.3 80.5,234.55 80.5,201.5 80.5,201.5 80.5,201.5 80.5,71.5 80.5,43.582 156.54,26.057 211.65,17.024"];
	5	 [URL="http://lattes.cnpq.br/1389825754483128",
		color="#17272B",
		fontcolor="#FFFFFF",
		height=0.23611,
		label="Ricardo Antonio Ayub [20]",
		pos="289.5,200.5",
		width=1.4583];
	1 -- 5	 [fontsize=8,
		label=1.0,
		lp="250,232.5",
		pos="199.13,255.9 218.9,244 256.93,221.1 276.77,209.16"];
	14	 [URL="http://lattes.cnpq.br/4251936710939364",
		color="#17272B",
		fontcolor="#FFFFFF",
		height=0.23611,
		label="Alceu de S. Britto Jr [1]",
		pos="406.5,200.5",
		width=1.2917];
	1 -- 14	 [fontsize=8,
		label=1.0,
		lp="316,232.5",
		pos="213.48,255.9 255.81,243.97 337.39,220.98 379.65,209.07"];
	6	 [URL="http://lattes.cnpq.br/3964371281672065",
		color="#17272B",
		fontcolor="#FFFFFF",
		height=0.23611,
		label="Rafael Mazer Etto [21]",
		pos="560.5,136.5",
		width=1.25];
	5 -- 6	 [fontsize=8,
		label=19.0,
		lp="448,168.5",
		pos="322.46,191.96 374.51,180.05 475.18,157.02 527.35,145.08"];
	6 -- 9	 [fontsize=8,
		label=1.0,
		lp="544,104.5",
		pos="554.61,127.9 545.4,116 527.68,93.102 518.43,81.165"];
	13	 [URL="http://lattes.cnpq.br/0829505317241223",
		color="#17272B",
		fontcolor="#FFFFFF",
		height=0.23611,
		label="Arion de Campos Junior [2]",
		pos="653.5,72.5",
		width=1.4722];
	6 -- 13	 [fontsize=8,
		label=1.0,
		lp="618,104.5",
		pos="571.9,127.9 589.75,116 624.1,93.102 642,81.165"];
	2	 [URL="http://lattes.cnpq.br/4687521701781735",
		color="#17272B",
		fontcolor="#FFFFFF",
		height=0.23611,
		label="Petraq Papajorgji [1]",
		pos="189.5,72.5",
		width=1.1528];
	2 -- 15	 [fontsize=8,
		label=1.0,
		lp="239,40.5",
		pos="199.06,63.898 214.03,51.998 242.84,29.102 257.86,17.165"];
	4	 [URL="http://lattes.cnpq.br/8756197722397278",
		color="#17272B",
		fontcolor="#FFFFFF",
		height=0.23611,
		label="Marcelo Giovanetti Canteri [3]",
		pos="311.5,136.5",
		width=1.6111];
	4 -- 15	 [fontsize=8,
		label=3.0,
		lp="282,72.5",
		pos="304.79,127.7 296.62,117.72 283.08,99.55 276.5,81.5 268.39,59.251 267.34,30.85 267.35,17.332"];
	11	 [URL="http://lattes.cnpq.br/2608583610949216",
		color="#17272B",
		fontcolor="#FFFFFF",
		height=0.23611,
		label="Simone Nasser Matos [3]",
		pos="345.5,72.5",
		width=1.3611];
	4 -- 11	 [fontsize=8,
		label=2.0,
		lp="337,104.5",
		pos="315.67,127.9 322.19,116 334.75,93.102 341.3,81.165"];
	11 -- 15	 [fontsize=8,
		label=3.0,
		lp="317,40.5",
		pos="335.94,63.898 320.97,51.998 292.16,29.102 277.14,17.165"];
	10	 [URL="http://lattes.cnpq.br/6880696447532558",
		color="#17272B",
		fontcolor="#FFFFFF",
		height=0.23611,
		label="Luciano José Senger [1]",
		pos="670.5,136.5",
		width=1.3056];
	10 -- 13	 [fontsize=8,
		label=1.0,
		lp="668,104.5",
		pos="668.42,127.9 665.15,116 658.87,93.102 655.6,81.165"];
	12	 [URL="http://lattes.cnpq.br/1661935150054196",
		color="#17272B",
		fontcolor="#FFFFFF",
		height=0.23611,
		label="Sergio L. Stevan Junior [0]",
		pos="292.5,264.5",
		width=1.4306];
}
