artigoEmPeriodico	Marcirio Silveira Chaves	2014		Fine-Grained Analysis of Aspects, Sentiments and Types of Attitudes in Restaurant Reviews	Tourism and Management Studies	Chaves, Marcirio Silveira; LAUREL, A. ; SACRAMENTO, N. ; Pedron, Cristiane	B2	Revista Encontros Cientificos: tourism and management studies
artigoEmPeriodico	Marcirio Silveira Chaves	2014		An Analysis of Open-Ended Online Reviews about Bed and Breakfast and Inns in Portugal	Revista Brasileira de Pesquisa em Turismo	SANTOS, S. E. M. ; Chaves, Marcirio Silveira ; Pedron, Cristiane	B1	
artigoEmPeriodico	Marcirio Silveira Chaves	2014		Visualização de Informação de Opiniões Online sobre Restaurantes: Uso de Técnicas Orientadas à Visualização de Grafos	RESI : Revista Eletrônica de Sistemas de Informação	CARVALHO, E. ; CHAVES, Marcirio Silveira ; SACRAMENTO, N.	B3	
artigoEmPeriodico	Marcirio Silveira Chaves	2014		New Risks for Information Technology Project Management with Local Teams	Iberoamerican Journal of Project Management	GLORIA JUNIOR, I. ; CHAVES, Marcirio Silveira	Qualis nao identificado	Iberoamerican Journal of Project Management
artigoEmPeriodico	Marcirio Silveira Chaves	2014		A Proposal to Manage Lessons Learned in Projects: Web 2.0 Technologies to Promote Innovation	International Journal of Innovation	CHAVES, Marcirio Silveira; VERONESE, G.	A2	International Journal of Innovation and Sustainable Development
trabalhoCompletoEmCongresso	Marcirio Silveira Chaves	2014		A Proposal for Using Web 2.0 Technologies in SCRUM	European Conference on Information Systems (ECIS)	GLORIA JUNIOR, I. ; OLIVEIRA, R. ; CHAVES, Marcirio Silveira		
trabalhoCompletoEmCongresso	Marcirio Silveira Chaves	2014		Chronos: A Cultural Heritage Visualization Ontological System Model	International Conference on Cultural Heritage (EUROMED 2014)	CARVALHO, E. S. ; Chaves, Marcirio Silveira		
artigoEmPeriodico	Luc Quoniam	2014		A patente como objeto de pesquisa em Ciências da Informação e Comunicação	Encontros Bibli	QUONIAM, L. ; KNIESS, C. T. ; MAZZIERI, M. R.	B1	
artigoEmPeriodico	Luc Quoniam	2014	http://dx.doi.org/10.5007/1518-2924.2014v19n40p67	Avaliação de redes multidisciplinares com a ferramenta scriptlattes: os casos da nanotecnologia, da dengue e de um programa de pós-graduação Stricto Sensu em Administração	Encontros Bibli	FERRAZ, RENATO RIBEIRO NOGUEIRA ; Quoniam, Luc ; ALVARES, LILLIAN MARIA ARAÚJO DE REZENDE	B1	
artigoEmPeriodico	Luc Quoniam	2014		Indicadores da Produção Científica sobre Lições Aprendidas em Gestão de Projetos	Revista Gestão & Tecnologia	GUZZO, C. H. ; MACCARI, E. A. ; QUONIAM, L.	B3	
artigoEmPeriodico	Luc Quoniam	2014		Análise e gestão de análise de redes de colaboração entre pesquisadores de programas de pós-graduação stricto sensu com a utilização da ferramenta computacional Scriptlattes	Perspectivas em Gestão & Conhecimento	FERRAZ, R. R. ; QUONIAM, L. ; MACCARI, E. A. ; SILVEIRA, V. O.	B1	
artigoEmPeriodico	Luc Quoniam	2014		L?INFORMATION BREVET AU SERVICE DE L?INDUSTRIE PÉTROLIÈRE : CAS DE CONCEPTION ET D?OPTIMISATION DES TRÉPANS PAR INGÉNIERIE INVERSEE	Revista de Gestão da Tecnologia e Sistemas de Informação (Online)	BAAZIZ, A. ; QUONIAM, L. ; KHOUDI, A.	B1	
artigoEmPeriodico	Luc Quoniam	2014		Valoração de patentes: o caso do núcleo de inovação tecnológica de uma instituição de pesquisa brasileira	Exacta (Online)	TUKOFF-GUIMARAES, Y. B. ; KNIESS, C. T. ; MACCARI, E. A. ; QUONIAM, L.	Qualis nao identificado	Exacta (Online)
artigoEmPeriodico	Luc Quoniam	2014		A contribuição de patentes para a inovação sustentável: o caso de um trocador de calor	Exacta (Online)	KONO, C. M. ; QUONIAM, L. ; RODRIGUES, L. C.	Qualis nao identificado	Exacta (Online)
artigoEmPeriodico	Luc Quoniam	2014	http://dx.doi.org/10.5433/1981-8920.2014v19n3p30	Extração e tratamento de dados na base lattes para identificação de core competencies em dengue	Informação & Informação (UEL. Online)	MAGALHÃES, JORGE L ; Quoniam, Luc ; MENA-CHALCO, JESÚS P. ; SANTOS, ANDRÉ	B2	
artigoEmPeriodico	Luc Quoniam	2014		A utilização da ferramenta Scriptlattes para extração e disponibilização on line da produção acadêmica de um programa de pós-graduação stricto sensu em administração	RBPG. REVISTA BRASILEIRA DE PÓS-GRADUAÇÃO	FERRAZ, R. R. N. ; QUONIAM, L. ; MACCARI, E. A.	B1	
artigoEmPeriodico	Luc Quoniam	2014		Acompanhamento da produção acadêmica, avaliação das redes de colaboração e gerenciamento de desempenho de um programa de Pós-Graduação stricto sensu em Direito	PRISMA.COM	FERRAZ, R. R. N. ; QUONIAM, L. ; SILVEIRA, V. O. ; PULZI JUNIOR, S. A.	B4	
trabalhoCompletoEmCongresso	Luc Quoniam	2014		How to use Big Data technologies to optimize operations in Upstream Petroleum Industry	21st World Petroleum Congress	BAAZIZ, A. ; QUONIAM, L.		
trabalhoCompletoEmCongresso	Luc Quoniam	2014		Inovação No Planejamento Anual E Trienal Do Preenchimento Da Plataforma Sucupira: Uso da Ferramenta Computacional Scriptlattes	17º Seminários em Administração	FERRAZ, R. R. N. ; QUONIAM, L. ; MACCARI, E. A.		
trabalhoCompletoEmCongresso	Luc Quoniam	2014		Análise Tecnométrica De Patentes: Uma Aplicação Na Recuperação De Terras Raras	17º Seminários em Administração	SANTOS, A. M. ; KNIESS, C. T. ; MAZZIERI, M. R. ; QUONIAM, L.		
trabalhoCompletoEmCongresso	Luc Quoniam	2014		Inovação a Partir das Informações de Patentes: Proposição de Modelo Open Source de Extração DeInformações de Patentes (Crawler)	17º Seminários em Administração	MAZZIERI, M. R. ; SANTOS, A. M. ; QUONIAM, L.		
trabalhoCompletoEmCongresso	Luc Quoniam	2014		PatentToNet : l?exploration libre des brevets par les réseaux	Congrès de la Sfsic	REYMOND, D. ; Quoniam, Luc		
trabalhoCompletoEmCongresso	Luc Quoniam	2014		The use of Scriptlattes tool for extraction and on line availability of academic production from a department of Stricto sensu in management	International Conference on Information Systems and Technology Management	FERRAZ, R. R. N. ; QUONIAM, L. ; MACCARI, E. A.		
artigoEmPeriodico	Ivanir Costa	2014	http://dx.doi.org/10.14488/1676-1901.v14.i1.1620	Sistema fuzzy para análise de riscos em projetos de software através dos atributos da norma de qualidade iso 25000	Revista Produção Online	SHIA, C. S. ; COSTA, I.	B2	
artigoEmPeriodico	Ivanir Costa	2014		Green IT and Waste Paper in Governmental Institutions: The Proposal of the Infotercio Financial Model	IFIP Advances in Information and Communication Technology	SERPA, N. S. C. ; COSTA, IVANIR ; GONCALVES, R. F.	Qualis nao identificado	IFIP Advances in Information and Communication Technology
artigoEmPeriodico	Ivanir Costa	2014		The Green IT Certification Ruled by the Infotercio Financial Model	IFIP Advances in Information and Communication Technology	SERPA, N. S. C. ; COSTA, I. ; Rodrigues, D. D. ; GONCALVES, R. F.	Qualis nao identificado	IFIP Advances in Information and Communication Technology
artigoEmPeriodico	Ivanir Costa	2014		Project and Work Organization in Solidarity Economy: A first Approach According to Production Engineering	IFIP Advances in Information and Communication Technology	SERPA, N. S. C. ; COSTA, I. ; VENDRAMETO, O. ; COSTA NETO, P. L. O.	Qualis nao identificado	IFIP Advances in Information and Communication Technology
artigoEmPeriodico	Ivanir Costa	2014		Agribusiness, Agrienergy and Leadership: The Coaching as a Tool to Guide Talents	IFIP Advances in Information and Communication Technology	SERPA, N. S. C. ; Sá, B. B. ; COSTA, I. ; VENDRAMETO, O.	Qualis nao identificado	IFIP Advances in Information and Communication Technology
artigoEmPeriodico	Ivanir Costa	2014		Reverse Logistics of Information and Communication Technology Equipament: A Comparative Assessment of Laws and Programs	IFIP Advances in Information and Communication Technology	BARBOZA, M. R. ; GONCALVES, R. F. ; DONOFRIO, E. ; COSTA, I.	Qualis nao identificado	IFIP Advances in Information and Communication Technology
artigoEmPeriodico	Ivanir Costa	2014		A Proposal for Virtualization with Coud Computing	American Journal of Engineering Research	SHIA, C. S. ; COSTA, I.	Qualis nao identificado	American Journal of Engineering Research
artigoEmPeriodico	Ivanir Costa	2014		Corporate Networks: A Proposal For Virtualization With Cloud Computing	International Journal of Emerging Technology & Research	SHIA, C. S. ; COSTA, I.	Qualis nao identificado	International Journal of Emerging Technology & Research
artigoEmPeriodico	Ivanir Costa	2014		Model of Quantum Computationg in the Cloud: The Relavistic Vision Applied in Corporate Network	International Journal of Computational Engineering Research	SHIA, C. S. ; COSTA, I. ; VENDRAMETTO, O.	Qualis nao identificado	International Journal of Computational Engineering Research
artigoEmPeriodico	Ivanir Costa	2014		Quantum Computing in the Cloud: The Relativistic	American Journal of Engineering Research	SHIA, C. S. ; COSTA, I. ; VENDRAMETTO, O.	Qualis nao identificado	American Journal of Engineering Research
trabalhoCompletoEmCongresso	Ivanir Costa	2014		Agribusiness, Agrienergy and Leadership: The Coaching as a Tool to Guide Talents	APMS 2014 International Conference	SERPA, N. S. C. ; Sá, B. B. ; COSTA, I. ; VENDRAMETO, O.		
trabalhoCompletoEmCongresso	Ivanir Costa	2014		Green IT and Waste Paper in Governmental Institutions: The Proposal of the Infotercio Financial Model	APMS 2014 International Conference	SERPA, N. S. C. ; COSTA, I. ; GONCALVES, R. F.		
trabalhoCompletoEmCongresso	Ivanir Costa	2014		Project and Work Organization in Solidarity Economy: A first Approach According to Production Engineering	APMS 2014 International Conference	SERPA, N. S. C. ; COSTA, I. ; VENDRAMETO, O. ; COSTA NETO, P. L. O.		
trabalhoCompletoEmCongresso	Ivanir Costa	2014		Reverse Logistics of Information and Communication Technology Equipament: A Comparative Assessment of Laws and Programs. IFIP Advances in Information and Communication Technology	APMS 2014 International Conference	BARBOZA, M. R. ; GONCALVES, R. F. ; DONOFRIO, E. ; COSTA, I.		
trabalhoCompletoEmCongresso	Ivanir Costa	2014		The Green IT Certification Ruled by the Infotercio Financial Model. IFIP Advances in Information and Communication Technology	APMS 2014 International Conference	SERPA, N. S. C. ; COSTA, I. ; Rodrigues, D. D. ; GONCALVES, R. F.		
artigoEmPeriodico	Henrique Mello Rodrigues de Freitas	2014	http://dx.doi.org/10.7867/1980-4431.2014v19n1p94-117	A inovatividade em indústria de alimentos: Estudo com médias e grandes empresas do Sul do Brasil	Revista de Negócios	MARTENS, Cristina Dai Prá ; FREITAS, Henrique Mello Rodrigues de ; MENEGAZ LAJUS, GUSTAVO ; SALVI, ELONI JOSÉ ; MARTENS, MAURO LUIZ	B3	
artigoEmPeriodico	Henrique Mello Rodrigues de Freitas	2014		Proposição de um Protocolo para Estudo sobre a Intuição e o Processo de Tomada de Decisão.	REGE. Revista de Gestão USP	ANDRIOTTI, Fernando Kuhn ; FREITAS, H. M. R. ; MARTENS, C. D. P.	B3	
artigoEmPeriodico	Henrique Mello Rodrigues de Freitas	2014		A Sobrecarga de Recursos de Tecnologias Móveis na Atividade de Gestão de Portfólio	Revista de Gestão e Projetos	MARCOLIN, C. B. ; FREITAS, H. M. R. ; BEHR, A.	B3	
artigoEmPeriodico	Henrique Mello Rodrigues de Freitas	2014		Sistemas de informação ? temas de pesquisa acadêmica no Brasil entre 1994 e 2013	RESI : Revista Eletrônica de Sistemas de Informação	FREITAS, H.; BECKER, João Luiz ; MARTENS, C. D. P. ; MARCOLIN, C. B.	B3	
artigoEmPeriodico	Henrique Mello Rodrigues de Freitas	2014		Dimensões da qualidade do serviço contábil: Construção e validação de uma escala	american research thoughts	OLIVEIRA, D. L. ; ROSSONI, E. P. ; SLONGO, L. A. ; FREITAS, H. M. R.	Qualis nao identificado	american research thoughts
trabalhoCompletoEmCongresso	Henrique Mello Rodrigues de Freitas	2014		Orientação Empreendedora e Mobilidade: Uma Abordagem Teórico-Conceitual	VIII Encontro de Estudos em Empreendedorismo e Gestão de Pequenas Empresas - EGEPE	MARTENS, C. D. P. ; BELFORT, A. C. ; FREITAS, H. M. R.		
trabalhoCompletoEmCongresso	Henrique Mello Rodrigues de Freitas	2014		Mobile Technology Use Overload: Proposed Elements for a Study with Financial Market Professionals	11° Congresso Internacional de Gestão da Tecnologia e Sistemas de Informação - CONTECSI	MARCOLIN, C. B. ; FREITAS, H. M. R. ; BEHR, A.		
trabalhoCompletoEmCongresso	Henrique Mello Rodrigues de Freitas	2014		Efeitos da Adoção de Tecnologias de Informação Móveis (TIMs) em Equipes de Vendas: Estudo em uma Indústria Farmacêutica	EnAnpad XXXVIII	BENTO, F. O. ; MARTENS, Cristina Dai Prá ; FREITAS, Henrique M. R.		
trabalhoCompletoEmCongresso	Henrique Mello Rodrigues de Freitas	2014		Uma Visão sobre a Pesquisa Acadêmica em SI no Brasil: 1994 a 2013	EnAnpad XXXVIII	FREITAS, Henrique M. R.; BECKER, João Luiz ; MARCOLIN, C. B.		
artigoEmPeriodico	Cleber Gustavo Dias	2014	http://dx.doi.org/10.1109/TIM.2014.2328184	Spectral Analysis Using a Hall Effect Sensor for Diagnosing Broken Bars in Large Induction Motors	IEEE Transactions on Instrumentation and Measurement	DIAS, CLEBER G.; CHABU, IVAN E.	B1	
artigoEmPeriodico	Andre Felipe Henriques Librantz	2014		Simulación de eventos discretos de la cadena logística de exportación de commodities	Ingeniare. Revista Chilena de Ingeniería (En línea)	Guerrero M. A. ; LIBRANTZ, ANDRÉ FELIPE HENRIQUES	B2	
artigoEmPeriodico	Andre Felipe Henriques Librantz	2014		Logistic Operator Selection with Capacity of Storage and Transport Frozen Product Using Multicriteria Decision	IFIP Advances in Information and Communication Technology	OLIVEIRA, G. C. ; LIBRANTZ, A. F. H. ; SOUSA, W. C.	Qualis nao identificado	IFIP Advances in Information and Communication Technology
artigoEmPeriodico	Andre Felipe Henriques Librantz	2014		Artificial intelligence based system to improve the inspection of plastic mould surfaces	JOURNAL OF INTELLIGENT MANUFACTURING	LIBRANTZ, A. F. H.; ARAÚJO, S. A. ; ALVES, W. A. L. ; BELAN, P. A. ; MESQUITA, R. A. ; SELVATICCI, A. H. P.	Qualis nao identificado	JOURNAL OF INTELLIGENT MANUFACTURING
trabalhoCompletoEmCongresso	Andre Felipe Henriques Librantz	2014		Logistic Operator Selection with Capacity of Storage and Transport Frozen Product Using Multicriteria Decision	Advances in Production Management Systems (APMS)	OLIVEIRA, G. C. ; LIBRANTZ, A. F. H. ; SOUSA, W. C.		
trabalhoCompletoEmCongresso	Andre Felipe Henriques Librantz	2014		APLICAÇÃO DO ALGORITMO HÍBRIDO GASA NA OTIMIZAÇÃO DO PROCESSO DE HIDRÓLISE DO AMIDO DE MANDIOCA PARA PRODUÇÃO DE ÁLCOOL	ENEGEP	BENVENGA, M. A. ; FELIPE H. LIBRANTZ, ANDRÉ ; SANTANA, J. C. C. ; TAMBOURGI, E. B.		
trabalhoCompletoEmCongresso	Andre Felipe Henriques Librantz	2014		LÓGICA FUZZY E MODELAGEM MATEMÁTICA APLICADAS AO CONTROLE DA DOSAGEM DE CLORO VISANDO REDUÇÃO DE INSUMOS	XXXIV Encontro Nacional de Engenharia de Produção (ENEGEP)	SANTOS, F. C. R. ; LIBRANTZ, A. F. H. ; BERTO JUNIOR, C. A.		
trabalhoCompletoEmCongresso	Andre Felipe Henriques Librantz	2014		Corte em chapas metálicas com itens irregulares usando algoritmos genéticos e processamento de imagens digitais	XXXV Ibero-Latin American Congress on Computational Methods in Engineering - CILAMCE	GAVA, M. C. V. ; ALVES DE ARAÚJO, SIDNEI ; LIBRANTZ, A. F. H.		
artigoEmPeriodico	Alessandro Melo de Ana	2014		Treating metabolic syndrome?s metaflammation with low level light therapy: preliminary results	Proceedings - SPIE	YOSHIMURA, T. M. ; KATO, I. T. ; DEANA, A M ; RIBEIRO, M. S.	B3	
artigoEmPeriodico	Alessandro Melo de Ana	2014		Photodynamic Therapy as Novel Treatment for Halitosis in Adolescents: A Case Series Study	Journal of Lasers in Medical Sciences	LOPEZ, R. G. ; SANTI, M. E. S. O. ; FRANCO, B. E. ; DEANA, A. M. ; PRATES, R. A. ; FRANÇA, CRISTIANE M. ; FERNANDES, K. P. S. ; MESQUITA-FERRARI, R. A. ; BUSSADORI, S K	A2	Lasers in Medical Science
artigoEmPeriodico	Alessandro Melo de Ana	2014	http://dx.doi.org/10.1186/1745-6215-15-443	Photodynamic therapy as a novel treatment for halitosis in adolescents: study protocol for a randomized controlled trial	Trials (London)	LOPEZ, R. G. ; GODOY, C. H. L. ; DEANA, A. M. ; SANTI, M. E. S. O. ; PRATES, R. A. ; FRANCA, C. M. ; FERNANDES, K. P. S. ; Mesquita-Ferrari, Raquel Agnelli ; BUSSADORI, S K	A2	
artigoEmPeriodico	Alessandro Melo de Ana	2014	http://dx.doi.org/10.1007/s00340-014-5897-8	Power scaling of a side-pumped Nd:YLF laser based on DBMC technology	Applied Physics. B, Lasers and Optics (Print)	WETTER, NIKLAUS U. ; Deana, Alessandro M.	A2	
artigoEmPeriodico	Alessandro Melo de Ana	2014		Effects of Low-Level Laser Therapy on Skeletal Muscle Repair: A Systematic Review	American Journal of Physical Medicine & Rehabilitation	ALVES, A. N ; FERNANDES, K. P. S. ; DEANA, A. M. ; BUSSADORI, S. K. ; MESQUITA-FERRARI, R. A.	A2	
artigoEmPeriodico	Wonder Alexandre Luz Alves	2014	http://dx.doi.org/10.1109/tmag.2013.2285703	A Two-Level Genetic Algorithm for Large Optimization Problems	IEEE Transactions on Magnetics	PEREIRA, FABIO H. ; Alves, WONDER A. L. ; KOLEFF, LUCAS ; NABETA, SILVIO I.	B1	
artigoEmPeriodico	Wonder Alexandre Luz Alves	2014	http://dx.doi.org/10.1007/s10845-014-0969-5	Artificial intelligence based system to improve the inspection of plastic mould surfaces	Journal of Intelligent Manufacturing	LIBRANTZ, A. F. H. ; ARAÚJO, S. A. ; ALVES, W. A. L. ; BELAN, P. A. ; MESQUITA, R. A. ; SELVATICI, A. H. P.	Qualis nao identificado	Journal of Intelligent Manufacturing
artigoEmPeriodico	Wonder Alexandre Luz Alves	2014	http://dx.doi.org/10.1590/fst.2014.0037	Use of simulated annealing in standardization and optimization of the acerola wine production	Ciência e Tecnologia de Alimentos (Impresso)	ALMEIDA, S. S. ; ALVES, W. A. L. ; ARAÚJO, S. A. ; SANTANA, J. C. C. ; NARAIN, N. ; SOUZA, R. R.	B1	
artigoEmPeriodico	Wonder Alexandre Luz Alves	2014	http://dx.doi.org/10.3965/j.ijabe.20140705.012	Simulation approach for optimal design of vacuum cooling on broccoli by simulated annealing technique	International Journal of Agricultural and Biological Engineering	DING, T. ; ALVES, W. A. L. ; ARAÚJO, S. A. ; SANTANA, J. C. C. ; LING, J.G. ; JIANCHU, C. ; LIU, D.H.	Qualis nao identificado	International Journal of Agricultural and Biological Engineering
artigoEmPeriodico	Wonder Alexandre Luz Alves	2014		Artificial intelligence based system to improve the inspection of plastic mould surfaces	Journal of Intelligent Manufacturing	LIBRANTZ, A. F. H. ; ARAÚJO, S. A. ; ALVES, W. A. L. ; BELAN, P. A. ; MESQUITA, R. A. ; SELVATICCI, A. H. P.	Qualis nao identificado	Journal of Intelligent Manufacturing
trabalhoCompletoEmCongresso	Wonder Alexandre Luz Alves	2014	http://dx.doi.org/10.1109/ICIP.2014.7025597	Ultimate grain filter	IEEE International Conference on Image Processing	ALVES, W. A. L.; HASHIMOTO, R. F.		
trabalhoCompletoEmCongresso	Wonder Alexandre Luz Alves	2014		Expert system applied to visual quality inspection of beans	XXXV Ibero-Latin American Congress on Computational Methods in Engineering	PESSOTA, J. H. ; ARAUJO, S. A. ; ALVES, W. A. L. ; SANTANA, J. C. C.		
trabalhoCompletoEmCongresso	Wonder Alexandre Luz Alves	2014		Proposta de ferramenta web para aprendizagem de algoritmos para solução do problema de caminho mínimo	XXXIV Encontro Nacional de Engenharia de Produção	LOURENCO, W. S. ; LIMA, S. J. A. ; ALVES, W. A. L. ; ARAUJO, S. A.		
artigoEmPeriodico	Sidnei Alves de Araújo	2014	http://dx.doi.org/10.1590/fst.2014.0037	Use of simulated annealing in standardization and optimization of the acerola wine production	Ciência e Tecnologia de Alimentos (Impresso)	ALMEIDA, S. S. ; ALVES, W. A. L. ; ARAÚJO, S. A. ; SANTANA, J. C. C. ; NARAIN, N. ; SOUZA, R. R.	B1	
artigoEmPeriodico	Sidnei Alves de Araújo	2014	http://dx.doi.org/10.1007/s00170-014-6442-y	An intelligent vision system for detecting defects in glass products for packaging and domestic use	International Journal, Advanced Manufacturing Technology	CABRAL, J. D. D. ; ARAÚJO, S. A.	B1	
artigoEmPeriodico	Sidnei Alves de Araújo	2014	http://dx.doi.org/10.3965/j.ijabe.20140705.012	Simulation approach for optimal design of vacuum cooling on broccoli by simulated annealing technique	International Journal of Agricultural and Biological Engineering	DING, T. ; ALVES, W. A. L. ; ARAÚJO, S. A. ; SANTANA, J. C. C. ; LING, J.G. ; JIANCHU, C. ; LIU, D.H.	Qualis nao identificado	International Journal of Agricultural and Biological Engineering
trabalhoCompletoEmCongresso	Sidnei Alves de Araújo	2014		A Fuzzy Inference System for Decision Making of Players of a Business Game for Teaching Concepts of Production Management, Sales and Business Strategies	XX International Conference on Industrial Engineering and Operations Management (CIO/ICIEOM 2014)	BARROS JUNIOR, D. F. ; ARAÚJO, S. A.		
trabalhoCompletoEmCongresso	Sidnei Alves de Araújo	2014		Proposta de ferramenta web para aprendizagem de algoritmos para solução do problema de caminho mínimo	XXXIV Encontro Nacional de Engenharia de Produção - ENEGEP 2014	LOURENCO, W. S. ; LIMA, S. J. A. ; ALVES, W. A. L. ; ARAÚJO, S. A.		
trabalhoCompletoEmCongresso	Sidnei Alves de Araújo	2014		Modelagem de um mercado consumidor virtual em um jogo de empresas usando sistemas multiagentes	XXXIV Encontro Nacional de Engenharia de Produção - ENEGEP 2014	BARROS JUNIOR, D. F. ; ARAÚJO, S. A. ; SCHIMIT, P. H. T.		
trabalhoCompletoEmCongresso	Sidnei Alves de Araújo	2014		Corte em chapas metálicas com itens irregulares usando algoritmos genéticos e processamento de imagens digitais	XXXV Ibero-Latin American Congress on Computational Methods in Engineering - CILAMCE2014	GAVA, M. C. V. ; ALVES DE ARAÚJO, SIDNEI ; LIBRANTZ, A. F. H.		
trabalhoCompletoEmCongresso	Sidnei Alves de Araújo	2014		Expert system applied to visual quality inspection of beans	XXXV Ibero-Latin American Congress on Computational Methods in Engineering - CILAMCE2014	PESSOTA, J. H. ; ARAÚJO, S. A. ; ALVES, W. A. L. ; SANTANA, J. C. C.		
trabalhoCompletoEmCongresso	Sidnei Alves de Araújo	2014		Análise da influência dos coeficientes de redes complexas no desempenho de algoritmos heurísticos para solução dos problemas caminho mínimo e caixeiro viajante	XXI Simpósio de Engenharia de Produção - SIMPEP 2014	LIMA, S. J. A. ; SCHIMIT, P. H. T. ; ARAÚJO, S. A.		
artigoEmPeriodico	Renato José Sassi	2014	http://dx.doi.org/10.1504/IJBIR.2014.063068	An alternative to face worldwide financial crisis of 2008: best practices usage of a business intelligence architecture in a chemical industry	International Journal of Business Innovation and Research (Print)	Carvalho, T.V. ; SASSI, R. J.	Qualis nao identificado	International Journal of Business Innovation and Research (Print)
artigoEmPeriodico	Renato José Sassi	2014		Using Sentiment Analysis to Aid Customer Satisfaction Assessment in a Brazilian Online Job Search Company	European Journal of Scientific Research	Miranda, M. D. ; SASSI, R. J.	Qualis nao identificado	European Journal of Scientific Research
artigoEmPeriodico	Renato José Sassi	2014		Classificação de Portfólio de Créditos Não-Performados utilizando Redes Neurais Artificiais Multilayer Perceptron	GEPROS. Gestão da Produção, Operações e Sistemas	Clesio, F. ; SASSI, R. J.	B4	
artigoEmPeriodico	Renato José Sassi	2014		Using Sentiment Analysis to Assess Customer Satisfaction in an Online Job Search Company	Lecture Notes in Business Information Processing	Miranda, M. D. ; SASSI, R. J.	B2	
artigoEmPeriodico	Renato José Sassi	2014		Análise Comparativa entre Carteira de Investimento Formada pela Teoria dos Rough Sets e o Índice Ibovespa	FaSCi-Tech	Kaupa, P. H. ; SASSI, R. J.	Qualis nao identificado	FaSCi-Tech
trabalhoCompletoEmCongresso	Renato José Sassi	2014		Uma Análise dos Conceitos e Definições do Reuso de Componentes na Redução de Custos no Processo de Desenvolvimento de Software	X Encontro Mineiro de Engenharia de Produção (EMEPRO)	Oliveira, P. H. R. ; SASSI, R. J.		
trabalhoCompletoEmCongresso	Renato José Sassi	2014		Using Sentiment Analysis to Assess Customer Satisfaction in a Online Job Search Company	17th International Conference on Business Information Systems (BIS2014): 6th Workshop on Applications of Knowledge-Based Technologies in Business (AKTB 2014)	Miranda, M. D. ; SASSI, R. J.		
trabalhoCompletoEmCongresso	Renato José Sassi	2014		Análise dos Conceitos e Definições do Monitoramento do Processo de Negócio com BPM no Apoio à Tomada de Decisão	XXXIV Encontro Nacional de Engenharia de Produção (ENEGEP)	Barros, A. R. ; SASSI, R. J.		
trabalhoCompletoEmCongresso	Renato José Sassi	2014		Aplicação do Business Process Management na Identificação e Monitoramento de Processos Críticos: Estudo de Caso em uma Prestadora de Serviços Organizadora de Concursos Públicos	XXI Simpósio de Engenharia de Produção (SIMPEP)	Barros, A. R. ; SASSI, R. J.		
trabalhoCompletoEmCongresso	Renato José Sassi	2014		Uma Análise Comparativa entre o Processo de Desenvolvimento de Software Baseado no Modelo de Maturidade CMMI e na Norma ISO 9001:2008	XXI Simpósio de Engenharia de Produção (SIMPEP)	Oliveira, P. H. R. ; SASSI, R. J.		
trabalhoCompletoEmCongresso	Renato José Sassi	2014		Análise de Agrupamentos e Extração de Regras de Decisão em uma Base de Créditos do Tipo Non-Performing Loans: Aplicação do Mapa Auto-Organizável de Kohonen e da Teoria dos Rough Sets	XXI Simpósio de Engenharia de Produção (SIMPEP)	Clésio, F. ; SASSI, R. J.		
trabalhoCompletoEmCongresso	Renato José Sassi	2014		Atualização Tecnológica em um Sistema Legado de Conversão Contábil do Setor Financeiro	XXI Simpósio de Engenharia de Produção (SIMPEP)	Oliveira, P. H. R. ; SASSI, R. J.		
trabalhoCompletoEmCongresso	Renato José Sassi	2014		Aplicação de Técnicas de Inteligência Artificial no Auxílio ao Diagnóstico do Risco de Desenvolver Câncer Colorretal	III Simpósio Internacional de Gestão de Projetos (SINGEP)	Conceição, E. G. S ; Farias, E.B.P. ; SASSI, R. J.		
resumoExpandidoEmCongresso	Renato José Sassi	2014	Inteligência Artificial no Diagnóstico do Risco de Desenvolver Câncer Colorretal	16º Simpósio de Iniciação Científica e Tecnológica da Fatec (SICT-2014), 2014, São Paulo. Resumos do 16º Simpósio de Iniciação Científica e Tecnológica da Fatec (SICT-2014)	Conceição, E. G. S ; Farias, E.B.P. ; SASSI, R. J.		
resumoExpandidoEmCongresso	Renato José Sassi	2014	Classificação de Créditos Não-performados Utilizando Redes Neurais Artificiais	16º Simpósio de Iniciação Científica e Tecnológica da Fatec (SICT-2014), 2014, São Paulo. Resumos do 16º Simpósio de Iniciação Científica e Tecnológica da Fatec (SICT-2014)	Clésio, F. ; SASSI, R. J.		
artigoEmPeriodico	Pedro Henrique Triguis Schimit	2014	http://dx.doi.org/10.1016/j.cnsns.2013.12.020	On exploring the genetic algorithm for modeling the evolution of cooperation in a population	Communications in Nonlinear Science & Numerical Simulation	Schimit, P.H.T	A1	
artigoEmPeriodico	Pedro Henrique Triguis Schimit	2014	http://dx.doi.org/10.1016/j.cnsns.2013.07.018	Cash transfer program and education investment: A model for social evolution	Communications in Nonlinear Science & Numerical Simulation	Schimit, P.H.T.; Monteiro, L.H.A. ; OMAR, N.	A1	
trabalhoCompletoEmCongresso	Pedro Henrique Triguis Schimit	2014		Análise da influência dos coeficientes de redes complexas no desempenho de algoritmos heurísticos para solução dos problemas caminho mínimo e caixeiro viajante	XXI Simpósio de Engenharia de Produção - SIMPEP 2014	LIMA, S. J. A. ; SCHIMIT, P. H. T. ; ARAUJO, S. A.		
trabalhoCompletoEmCongresso	Pedro Henrique Triguis Schimit	2014		Modelagem de um mercado consumidor virtual em um jogo de empresas usando sistemas multiagentes	XXXIV Encontro Nacional de Engenharia de Produção - ENEGEP 2014	BARROS JUNIOR, D. F. ; SCHIMIT, P. H. T. ; ARAUJO, S. A.		
resumoExpandidoEmCongresso	Pedro Henrique Triguis Schimit	2014	Análise da propagação de doenças em redes aleatórias	16º Simpósio de Iniciação Científica e Tecnológica (SICT-2014), 2014, São Paulo. Boletim Técnico da Faculdade de Tecnologia de São Paulo	ZAMBOTTI, W. S. ; FERNANDES, I. V. ; VASCONCELOS, J. P. G. T. ; SCHIMIT, P. H. T.		
resumoExpandidoEmCongresso	Pedro Henrique Triguis Schimit	2014	Análise espacial da evolução da cooperação em populações	16º Simpósio de Iniciação Científica e Tecnológica (SICT-2014), 2014, São Paulo. Boletim Técnico da Faculdade de Tecnologia de São Paulo	SANTOS, E. S. ; SCHIMIT, P. H. T.		
resumoExpandidoEmCongresso	Pedro Henrique Triguis Schimit	2014	O fracasso do tit-for-tat em jogos multi-jogadores na forma de populações	16º Simpósio de Iniciação Científica e Tecnológica (SICT-2014), 2014, São Paulo. Boletim Técnico da Faculdade de Tecnologia de São Paulo	SOARES, C. A. ; SCHIMIT, P. H. T.		
