strict graph grafo2 {
	graph [bb="0,0,3760.5,281",
		id=grafo2,
		overlap=False
	];
	node [fontsize=8,
		label="\N",
		shape=rectangle,
		style=filled
	];
	0	 [URL="http://lattes.cnpq.br/7523573139592166",
		color="#17272B",
		fontcolor="#FFFFFF",
		height=0.23611,
		label="Everson do Prado Banczek [28]",
		pos="123,272.5",
		width=1.6389];
	10	 [URL="http://lattes.cnpq.br/8571916045049616",
		color="#17272B",
		fontcolor="#FFFFFF",
		height=0.23611,
		label="Edson Perez Guerra [3]",
		pos="46,172.5",
		width=1.2778];
	0 -- 10	 [fontsize=8,
		label=3.0,
		lp="87.5,240.5",
		pos="106.73,263.86 98.528,259.39 88.893,253.13 82,245.5 64.013,225.59 52.757,195.04 48.252,181.02"];
	31	 [URL="http://lattes.cnpq.br/1950137747785419",
		color="#17272B",
		fontcolor="#FFFFFF",
		height=0.23611,
		label="Cynthia Beatriz Furstenberger [11]",
		pos="495,208.5",
		width=1.7917];
	0 -- 31	 [fontsize=8,
		label=2.0,
		lp="337.5,240.5",
		pos="168.24,263.96 239.79,252.04 378.25,228.96 449.78,217.04"];
	33	 [URL="http://lattes.cnpq.br/7216098788423041",
		color="#17272B",
		fontcolor="#FFFFFF",
		height=0.23611,
		label="Augusto Celso Antunes [26]",
		pos="838,136.5",
		width=1.5];
	0 -- 33	 [fontsize=8,
		label=1.0,
		lp="745.5,208.5",
		pos="182.02,268.82 313.99,262.8 622.26,248.45 633,245.5 713.69,223.35 798.59,165.9 827.59,145.13"];
	39	 [URL="http://lattes.cnpq.br/1559766893291724",
		color="#17272B",
		fontcolor="#FFFFFF",
		height=0.23611,
		label="Paulo R. Pinto Rodrigues [46]",
		pos="370,8.5",
		width=1.5694];
	0 -- 39	 [fontsize=8,
		label=26.0,
		lp="114.5,136.5",
		pos="119.61,263.64 114.91,252.03 107,229.51 107,209.5 107,209.5 107,209.5 107,71.5 107,29.397 236.3,15.855 313.58,11.521"];
	10 -- 39	 [fontsize=8,
		label=1.0,
		lp="60.5,104.5",
		pos="45.997,163.73 46.451,140.01 51.352,68.214 93,35.5 109.93,22.204 237.58,14.819 313.55,11.559"];
	31 -- 33	 [fontsize=8,
		label=1.0,
		lp="713.5,172.5",
		pos="532.03,199.94 598.03,186.47 735.23,158.47 801.12,145.03"];
	31 -- 39	 [fontsize=8,
		label=12.0,
		lp="389.5,104.5",
		pos="470.25,199.89 446.35,191.07 411.57,173.97 396,145.5 371.88,101.43 369.82,38.67 369.87,17.112"];
	33 -- 39	 [fontsize=8,
		label=4.0,
		lp="722.5,72.5",
		pos="783.93,128.18 768.23,124.33 751.65,118.45 738,109.5 716.29,95.261 722.95,78.837 702,63.5 673.29,42.48 661.65,43.579 627,35.5 559.09,\
19.665 478.85,13.474 426.33,11.054"];
	34	 [URL="http://lattes.cnpq.br/5685434166341583",
		color="#17272B",
		fontcolor="#FFFFFF",
		height=0.23611,
		label="Pedro H. Weirich Neto [7]",
		pos="878,72.5",
		width=1.4167];
	33 -- 34	 [fontsize=8,
		label=3.0,
		lp="866.5,104.5",
		pos="842.9,127.9 850.58,116 865.35,93.102 873.06,81.165"];
	44	 [URL="http://lattes.cnpq.br/8715488365201101",
		color="#17272B",
		fontcolor="#FFFFFF",
		height=0.23611,
		label="Maria E. Payret Arrúa [27]",
		pos="835,8.5",
		width=1.4306];
	33 -- 44	 [fontsize=8,
		label=7.0,
		lp="812.5,72.5",
		pos="831.72,127.68 824.14,117.67 811.79,99.466 807,81.5 801.7,61.629 803.05,54.013 812,35.5 815.36,28.556 821.11,22.056 826.02,17.292"];
	34 -- 39	 [fontsize=8,
		label=1.0,
		lp="790.5,40.5",
		pos="854,63.91 826.34,55.495 779.37,42.223 738,35.5 628.63,17.725 499.02,12.101 426.48,10.322"];
	34 -- 44	 [fontsize=8,
		label=3.0,
		lp="865.5,40.5",
		pos="872.73,63.898 864.47,51.998 848.6,29.102 840.32,17.165"];
	1	 [URL="http://lattes.cnpq.br/6449109891449053",
		color="#17272B",
		fontcolor="#FFFFFF",
		height=0.23611,
		label="Emerson Meyer [0]",
		pos="1121,272.5",
		width=1.0972];
	2	 [URL="http://lattes.cnpq.br/0783231483314728",
		color="#17272B",
		fontcolor="#FFFFFF",
		height=0.23611,
		label="Gisella Maria Zanin [6]",
		pos="1489,272.5",
		width=1.2778];
	26	 [URL="http://lattes.cnpq.br/4685833009997780",
		color="#17272B",
		fontcolor="#FFFFFF",
		height=0.23611,
		label="Tatiana R. da Silva Baumgärtner [3]",
		pos="1386,208.5",
		width=1.8472];
	2 -- 26	 [fontsize=8,
		label=1.0,
		lp="1449.5,240.5",
		pos="1476.4,263.9 1456.6,252 1418.6,229.1 1398.7,217.16"];
	35	 [URL="http://lattes.cnpq.br/9376203096430598",
		color="#17272B",
		fontcolor="#FFFFFF",
		height=0.23611,
		label="Pedro Augusto Arroyo [12]",
		pos="1447,136.5",
		width=1.4583];
	2 -- 35	 [fontsize=8,
		label=5.0,
		lp="1477.5,208.5",
		pos="1486.6,263.91 1479.2,240.33 1456.7,168.48 1449.4,145.01"];
	41	 [URL="http://lattes.cnpq.br/3283741881583320",
		color="#17272B",
		fontcolor="#FFFFFF",
		height=0.23611,
		label="Nehemias Curvelo Pereira [6]",
		pos="1488,72.5",
		width=1.5556];
	2 -- 41	 [fontsize=8,
		label=1.0,
		lp="1516.5,172.5",
		pos="1491.6,263.97 1498.8,242.53 1517.3,179.38 1508,127.5 1504.9,110.38 1496.8,91.584 1491.9,81.302"];
	26 -- 35	 [fontsize=8,
		label=3.0,
		lp="1429.5,172.5",
		pos="1392.8,199.74 1404.5,186.21 1428.7,158.48 1440.4,145.08"];
	35 -- 41	 [fontsize=8,
		label=5.0,
		lp="1475.5,104.5",
		pos="1452,127.9 1459.9,116 1475,93.102 1482.9,81.165"];
	3	 [URL="http://lattes.cnpq.br/5437263332275941",
		color="#17272B",
		fontcolor="#FFFFFF",
		height=0.23611,
		label="Gilmara Machado de Oliveira [0]",
		pos="1615,272.5",
		width=1.7222];
	4	 [URL="http://lattes.cnpq.br/7527231134789887",
		color="#17272B",
		fontcolor="#FFFFFF",
		height=0.23611,
		label="Cristiane de Conti Medina [1]",
		pos="1115,208.5",
		width=1.5556];
	40	 [URL="http://lattes.cnpq.br/8404941083767535",
		color="#17272B",
		fontcolor="#FFFFFF",
		height=0.23611,
		label="Paulo Henrique Caramori [3]",
		pos="1115,136.5",
		width=1.5278];
	4 -- 40	 [fontsize=8,
		label=1.0,
		lp="1120.5,172.5",
		pos="1115,199.74 1115,186.21 1115,158.48 1115,145.08"];
	5	 [URL="http://lattes.cnpq.br/5641519211700358",
		color="#17272B",
		fontcolor="#FFFFFF",
		height=0.23611,
		label="Paulo César de Castro [0]",
		pos="1745,272.5",
		width=1.375];
	6	 [URL="http://lattes.cnpq.br/0516705125074931",
		color="#17272B",
		fontcolor="#FFFFFF",
		height=0.23611,
		label="Cássio E. Cavenaghi Prete [5]",
		pos="882,208.5",
		width=1.5694];
	6 -- 34	 [fontsize=8,
		label=1.0,
		lp="908.5,136.5",
		pos="886.22,199.59 893.33,185.27 906.42,154.08 901,127.5 897.45,110.13 888.1,91.424 882.48,81.225"];
	6 -- 40	 [fontsize=8,
		label=1.0,
		lp="1041.5,172.5",
		pos="911.83,199.93 931.07,194.94 956.6,188.12 979,181.5 1019.5,169.54 1066.2,154.06 1093,145.01"];
	28	 [URL="http://lattes.cnpq.br/8259839362903281",
		color="#17272B",
		fontcolor="#FFFFFF",
		height=0.23611,
		label="Diva de Souza Andrade [5]",
		pos="714,136.5",
		width=1.4444];
	6 -- 28	 [fontsize=8,
		label=3.0,
		lp="823.5,172.5",
		pos="863.7,199.88 831.3,186.37 764.22,158.43 732.02,145.01"];
	30	 [URL="http://lattes.cnpq.br/6653642556441432",
		color="#17272B",
		fontcolor="#FFFFFF",
		height=0.23611,
		label="Carmen L. Barbosa Guedes [18]",
		pos="458,72.5",
		width=1.6667];
	28 -- 30	 [fontsize=8,
		label=2.0,
		lp="607.5,104.5",
		pos="682.87,127.96 633.7,116.05 538.6,93.021 489.32,81.085"];
	30 -- 39	 [fontsize=8,
		label=1.0,
		lp="425.5,40.5",
		pos="447.21,63.898 430.32,51.998 397.82,29.102 380.88,17.165"];
	7	 [URL="http://lattes.cnpq.br/9641517111540508",
		color="#17272B",
		fontcolor="#FFFFFF",
		height=0.23611,
		label="Carlos Roberto Sanquetta [3]",
		pos="1246,208.5",
		width=1.5278];
	7 -- 40	 [fontsize=8,
		label=1.0,
		lp="1202.5,172.5",
		pos="1231.7,199.88 1206.5,186.41 1154.4,158.57 1129.3,145.12"];
	15	 [URL="http://lattes.cnpq.br/4985215075940551",
		color="#17272B",
		fontcolor="#FFFFFF",
		height=0.23611,
		label="Luciano Farinha Watzlawick [2]",
		pos="1249,136.5",
		width=1.6806];
	7 -- 15	 [fontsize=8,
		label=2.0,
		lp="1253.5,172.5",
		pos="1246.3,199.74 1246.9,186.21 1248.1,158.48 1248.7,145.08"];
	8	 [URL="http://lattes.cnpq.br/3619576672162191",
		color="#17272B",
		fontcolor="#FFFFFF",
		height=0.23611,
		label="Carlos Eduardo de Borba [0]",
		pos="1867,272.5",
		width=1.5139];
	9	 [URL="http://lattes.cnpq.br/2920848355110000",
		color="#17272B",
		fontcolor="#FFFFFF",
		height=0.23611,
		label="Eduardo Di Mauro [13]",
		pos="451,136.5",
		width=1.2778];
	9 -- 30	 [fontsize=8,
		label=13.0,
		lp="461.5,104.5",
		pos="451.49,127.76 451.99,120.46 452.85,109.22 454,99.5 454.73,93.332 455.81,86.38 456.67,81.217"];
	11	 [URL="http://lattes.cnpq.br/3217849199882153",
		color="#17272B",
		fontcolor="#FFFFFF",
		height=0.23611,
		label="Edson Laureto [0]",
		pos="1977,272.5",
		width=1.0417];
	12	 [URL="http://lattes.cnpq.br/5124792435888370",
		color="#17272B",
		fontcolor="#FFFFFF",
		height=0.23611,
		label="Edson Antonio da Silva [0]",
		pos="2085,272.5",
		width=1.4444];
	13	 [URL="http://lattes.cnpq.br/6141444369495639",
		color="#17272B",
		fontcolor="#FFFFFF",
		height=0.23611,
		label="Luiz A. Ramos Pereira [0]",
		pos="2206,272.5",
		width=1.4028];
	14	 [URL="http://lattes.cnpq.br/8008716840192055",
		color="#17272B",
		fontcolor="#FFFFFF",
		height=0.23611,
		label="Luiz C. Garcia Junior [0]",
		pos="2323,272.5",
		width=1.3472];
	16	 [URL="http://lattes.cnpq.br/2135631756325452",
		color="#17272B",
		fontcolor="#FFFFFF",
		height=0.23611,
		label="Marcelo Real Prado [0]",
		pos="2436,272.5",
		width=1.2778];
	17	 [URL="http://lattes.cnpq.br/3501951737374160",
		color="#17272B",
		fontcolor="#FFFFFF",
		height=0.23611,
		label="Marcelo Fernandes Vieira [0]",
		pos="2556,272.5",
		width=1.5417];
	18	 [URL="http://lattes.cnpq.br/4608185787860314",
		color="#17272B",
		fontcolor="#FFFFFF",
		height=0.23611,
		label="Leandro Paiola Albrecht [0]",
		pos="2683,272.5",
		width=1.4722];
	19	 [URL="http://lattes.cnpq.br/8328754543048690",
		color="#17272B",
		fontcolor="#FFFFFF",
		height=0.23611,
		label="Juliano T. Vilela de Resende [2]",
		pos="243,72.5",
		width=1.6667];
	19 -- 39	 [fontsize=8,
		label=2.0,
		lp="311.5,40.5",
		pos="255.29,63.827 267.8,56.172 287.87,44.313 306,35.5 320.24,28.578 336.81,21.882 349.52,17.019"];
	20	 [URL="http://lattes.cnpq.br/0507188444713095",
		color="#17272B",
		fontcolor="#FFFFFF",
		height=0.23611,
		label="Jonathan Dieter [10]",
		pos="364,272.5",
		width=1.1389];
	21	 [URL="http://lattes.cnpq.br/6288735286919040",
		color="#17272B",
		fontcolor="#FFFFFF",
		height=0.23611,
		label="Joel Gustavo Teleken [8]",
		pos="364,208.5",
		width=1.3472];
	20 -- 21	 [fontsize=8,
		label=8.0,
		lp="369.5,240.5",
		pos="364,263.9 364,252 364,229.1 364,217.16"];
	29	 [URL="http://lattes.cnpq.br/3265471567908195",
		color="#17272B",
		fontcolor="#FFFFFF",
		height=0.23611,
		label="Dionisio Borsato [6]",
		pos="556,136.5",
		width=1.1389];
	20 -- 29	 [fontsize=8,
		label=1.0,
		lp="597.5,208.5",
		pos="405.23,269.49 465.16,266.14 570.49,258.47 582,245.5 608.25,215.94 575.79,164.47 561.81,145.13"];
	36	 [URL="http://lattes.cnpq.br/0938805013383423",
		color="#17272B",
		fontcolor="#FFFFFF",
		height=0.23611,
		label="Samuel N. Melegari de Souza [7]",
		pos="202,136.5",
		width=1.7222];
	20 -- 36	 [fontsize=8,
		label=4.0,
		lp="180.5,208.5",
		pos="322.89,265.58 272.84,257.44 192.78,241.07 175,217.5 157.87,194.8 182.21,160.56 195,145.31"];
	21 -- 29	 [fontsize=8,
		label=1.0,
		lp="488.5,172.5",
		pos="384.91,199.88 421.94,186.37 498.6,158.43 535.4,145.01"];
	21 -- 36	 [fontsize=8,
		label=2.0,
		lp="308.5,172.5",
		pos="346.35,199.88 315.19,186.41 250.77,158.57 219.62,145.12"];
	29 -- 39	 [fontsize=8,
		label=2.0,
		lp="546.5,72.5",
		pos="554.99,127.59 552.69,112.91 545.76,81.317 527,63.5 499.72,37.597 459.46,24.071 426.53,17.033"];
	29 -- 34	 [fontsize=8,
		label=1.0,
		lp="742.5,104.5",
		pos="595.16,127.96 657.09,116.04 776.94,92.958 838.86,81.036"];
	29 -- 44	 [fontsize=8,
		label=1.0,
		lp="696.5,72.5",
		pos="568.75,127.97 592.37,114.19 644.77,84.389 691,63.5 732.85,44.591 783.47,26.715 812.18,17.019"];
	29 -- 30	 [fontsize=8,
		label=3.0,
		lp="499.5,104.5",
		pos="531.94,127.89 519.98,123.51 505.63,117.31 494,109.5 482.11,101.52 470.85,89.223 464.19,81.269"];
	36 -- 39	 [fontsize=8,
		label=2.0,
		lp="168.5,72.5",
		pos="192.27,127.87 175.97,114.18 146.49,84.874 163,63.5 181.34,39.767 258.92,24.487 313.7,16.441"];
	22	 [URL="http://lattes.cnpq.br/5811233850853806",
		color="#17272B",
		fontcolor="#FFFFFF",
		height=0.23611,
		label="Irene Domenes Zapparoli [0]",
		pos="2809,272.5",
		width=1.5278];
	23	 [URL="http://lattes.cnpq.br/6661676956232573",
		color="#17272B",
		fontcolor="#FFFFFF",
		height=0.23611,
		label="Helton J. Alves Borges [0]",
		pos="2933,272.5",
		width=1.4167];
	24	 [URL="http://lattes.cnpq.br/4038930548278283",
		color="#17272B",
		fontcolor="#FFFFFF",
		height=0.23611,
		label="Graciela I. Bolzon de Muniz [1]",
		pos="3062,272.5",
		width=1.6528];
	38	 [URL="http://lattes.cnpq.br/8318596780458442",
		color="#17272B",
		fontcolor="#FFFFFF",
		height=0.23611,
		label="Ricardo José Ferracin [1]",
		pos="3062,208.5",
		width=1.3611];
	24 -- 38	 [fontsize=8,
		label=1.0,
		lp="3067.5,240.5",
		pos="3062,263.9 3062,252 3062,229.1 3062,217.16"];
	25	 [URL="http://lattes.cnpq.br/1209937575998431",
		color="#17272B",
		fontcolor="#FFFFFF",
		height=0.23611,
		label="Waldir Nagel Schirmer [1]",
		pos="246,208.5",
		width=1.4167];
	25 -- 39	 [fontsize=8,
		label=1.0,
		lp="318.5,104.5",
		pos="250.71,199.98 270.35,168.62 345.64,48.405 365.29,17.028"];
	25 -- 30	 [fontsize=8,
		label=1.0,
		lp="390.5,136.5",
		pos="273.6,199.9 287.41,195.52 304.1,189.32 318,181.5 351.33,162.75 354.73,150.88 385,127.5 406.96,110.54 433.23,91.377 447.5,81.056"];
	25 -- 29	 [fontsize=8,
		label=1.0,
		lp="428.5,172.5",
		pos="275.99,199.96 322.63,188.24 408.7,166.67 423,163.5 453.66,156.7 488.51,149.92 514.85,144.99"];
	25 -- 36	 [fontsize=8,
		label=1.0,
		lp="235.5,172.5",
		pos="241.12,199.74 232.62,186.21 215.19,158.48 206.76,145.08"];
	27	 [URL="http://lattes.cnpq.br/6637517443126827",
		color="#17272B",
		fontcolor="#FFFFFF",
		height=0.23611,
		label="Sandra R. Masetto Antunes [46]",
		pos="737,272.5",
		width=1.6667];
	27 -- 31	 [fontsize=8,
		label=1.0,
		lp="623.5,240.5",
		pos="699.33,263.97 675.84,259.1 645.05,252.4 618,245.5 583.29,236.64 543.59,224.69 518.9,217.03"];
	27 -- 33	 [fontsize=8,
		label=22.0,
		lp="800.5,208.5",
		pos="743.33,263.83 747.55,258.69 753.17,251.74 758,245.5 786.7,208.41 819.65,162.98 832.48,145.18"];
	27 -- 39	 [fontsize=8,
		label=5.0,
		lp="647.5,136.5",
		pos="732.47,263.76 718.77,240.43 678.2,171.84 670,163.5 659.62,152.96 653.63,154.65 642,145.5 600.49,112.85 598.21,95.244 556,63.5 536.26,\
48.655 531.14,44.134 508,35.5 482.07,25.826 452.01,19.619 426.58,15.707"];
	27 -- 34	 [fontsize=8,
		label=6.0,
		lp="968.5,172.5",
		pos="797.23,264.23 852.57,256.16 928.72,241.08 947,217.5 969.59,188.37 987.77,212.6 908,99.5 902.92,92.291 895.42,85.791 889.19,81.093"];
	27 -- 44	 [fontsize=8,
		label=23.0,
		lp="1034.5,136.5",
		pos="797.09,270.65 882.03,267.79 1027,256.09 1027,209.5 1027,209.5 1027,209.5 1027,71.5 1027,41.901 943.33,24.362 886.45,15.859"];
	27 -- 29	 [fontsize=8,
		label=1.0,
		lp="651.5,208.5",
		pos="707.1,263.93 694.79,259.83 680.89,253.86 670,245.5 634.18,218 644.72,192.38 610,163.5 600.48,155.58 588.14,149.41 577.66,145.07"];
	32	 [URL="http://lattes.cnpq.br/0454862055003828",
		color="#17272B",
		fontcolor="#FFFFFF",
		height=0.23611,
		label="Camila Silva da Silva [0]",
		pos="3188,272.5",
		width=1.3472];
	37	 [URL="http://lattes.cnpq.br/3620197655490764",
		color="#17272B",
		fontcolor="#FFFFFF",
		height=0.23611,
		label="Ricardo Ralisch [0]",
		pos="3294,272.5",
		width=1.0972];
	42	 [URL="http://lattes.cnpq.br/8494271331675279",
		color="#17272B",
		fontcolor="#FFFFFF",
		height=0.23611,
		label="Mauro A. da Silva Sa Ravagnani [0]",
		pos="3418,272.5",
		width=1.8472];
	43	 [URL="http://lattes.cnpq.br/5940284266359506",
		color="#17272B",
		fontcolor="#FFFFFF",
		height=0.23611,
		label="Maria L. Machado Fernandes [0]",
		pos="3564,272.5",
		width=1.6944];
	45	 [URL="http://lattes.cnpq.br/5965829794533852",
		color="#17272B",
		fontcolor="#FFFFFF",
		height=0.23611,
		label="Maria de Fátima Guimarães [0]",
		pos="3702,272.5",
		width=1.625];
}
