artigoEmPeriodico	2016		SIMULAÇÃO E CONTROLE ESTATÍSTICO DO PROCESSO DE PRODUÇÃO DE LEITE: FERRAMENTAS PARA QUALIDADE E PRODUTIVIDADE	Perspectivas online: exatas e engenharias	ABATTI, D. F. ; DAMINELLI, L. M. ; PROENÇA, G. G. ; SCHMIDT, Carla Adriana Pizarro ; SANTOS, J.A.A.	Qualis nao identificado	Perspectivas online: exatas e engenharias
artigoEmPeriodico	2016		PERCEPÇÃO AMBIENTAL DOS PRODUTORES RURAIS DE CRUZEIRO DO IGUAÇU, FRENTE AO NOVO CÓDIGO FLORESTAL	Educação Ambiental em Ação	BIANCHINI, A. ; SCHMIDT, Carla Adriana Pizarro	B3	
artigoEmPeriodico	2016		Blackberry Vinegar Produced By Successive Acetification Cycles: Production, Characterization And Bioactivity Parameters	Brazilian Archives of Biology and Technology (Online)	CUNHA, M. A. A. ; LIMA, K. P. ; SANTOS, V. A. Q. ; HEINZ, O. L. ; SCHMIDT, C. A. P.	B1	Brazilian Archives of Biology and Technology (Impresso)
artigoEmPeriodico	2016		Trabalho em EAD sob a percepção de docentes de um curso de especialização da UTFPR	Revista EDaPECI: Educação a Distância e Práticas Educativas Comunicacionais e Interculturais	DALFOVO, A. F. ; ARAÚJO, E. C. ; LOPES, S. V. A. ; CARGNIN, C.	Qualis nao identificado	Revista EDaPECI: Educação a Distância e Práticas Educativas Comunicacionais e Interculturais
artigoEmPeriodico	2016	http://dx.doi.org/10.1016/j.compag.2016.06.029	Optimization of management zone delineation by using spatial principal components	Computers and Electronics in Agriculture	GAVIOLI, ALAN ; DE SOUZA, EDUARDO GODOY ; BAZZI, CLAUDIO LEONES ; GUEDES, LUCIANA PAGLIOSA CARVALHO ; SCHENATTO, KELYN	A2	
artigoEmPeriodico	2016		AVALIAÇÃO DO PROCESSO PRODUTIVO DE BLOCOS CERÂMICOS POR MEIO DO CONTROLE ESTATÍSTICO DO PROCESSO	Revista Técnico Científica do CREA-PR	KACZAM, F. ; SANTOS, R. V. ; SANTOS, J.A.A. ; POSSAN, E. ; SCHMIDT, C. A. P.	Qualis nao identificado	Revista Técnico Científica do CREA-PR
artigoEmPeriodico	2016	http://dx.doi.org/10.5897/AJAR2016.11453	Two approach comparison to define crop management zones (MZs)	African Journal of Agricultural Research	KELYN, SCHENATTO ; EDUARDO, GODOY DE SOUZA ; CLAUDIO, LEONES BAZZI ; NELSON, MIGUEL BETZEK ; ALAN, GAVIOLI	B1	
artigoEmPeriodico	2016		MÓDULO DE CONTROLE PARA SALAS AUTOMATIZADAS - UMA FORMA DE ELIMINAR OS CONTROLES REMOTOS	Revista Eletrônica Científica Inovação e Tecnologia	LUMERTZ, M. M. ; CONTI, C. H. C. ; PAULA FILHO, P. L. ; SILVA, H. P. ; ERDMANN, A.	Qualis nao identificado	Revista Eletrônica Científica Inovação e Tecnologia
artigoEmPeriodico	2016	http://dx.doi.org/10.1159/000448153	Comparative Cytogenetics of <b><i>Hoplerythrinus unitaeniatus</i></b> (Agassiz, 1829) (Characiformes, Erythrinidae) Species Complex from Different Brazilian Hydrographic Basins	Cytogenetic and Genome Research (Printed ed.)	MARTINEZ, JULIANA F. ; LUI, ROBERTO L. ; TRALDI, JOSIANE B. ; BLANCO, DANIEL R. ; Moreira-Filho, Orlando	B1	
artigoEmPeriodico	2016	http://dx.doi.org/10.3233/wor-162354	Interaction levels between comfort and discomfort in aircraft seats	Work (Reading, MA)	MENEGON, L. S. ; VINCENZI, S. L. ; MERINO, Eugenio Andrés Díaz ; BARBETTA, P. A.	B1	
artigoEmPeriodico	2016		SÃO PAULO REAL ESTATE MARKET: INTERFERENCE OF ECONOMIC INDICATORS IN SALES OF RESIDENTIAL REAL ESTATES	International Journal of Real Estate Studies	MORO, M. F. ; REIS, C. C. C. ; FLORES, S. A. ; WEISE, A. D. ; VINCENZI, S. L.	Qualis nao identificado	International Journal of Real Estate Studies
artigoEmPeriodico	2016		PREVISÃO DE VENDAS: UMA APLICAÇÃO DO MODELO HOLT - WINTERS EM UMA INDÚSTRIA MOVELEIRA	Espacios (Caracas)	MORO, M. F. ; SANTOS, B. M. ; PATIAS, J. ; CARDOSO, D. ; GODOY, L. P. ; VINCENZI, S. L.	B1	
artigoEmPeriodico	2016		Emprego tecnológico da jaca (Artocarpus heterophyllus LAM	Higiene Alimentar	PEREIRA, G. M. ; BRANDÃO, W. A. P. L. N. T. M ; BRANDÃO, H. C. A. D. N. T. M. ; MENDONÇA, SARASPATHY N. T. G. DE	B3	
artigoEmPeriodico	2016		ANÁLISE DA ARBORIZAÇÃO URBANA NO MUNICÍPIO DE MEDIANEIRA, PARANÁ	Revista da Sociedade Brasileira de Arborização Urbana	PERIOTTO, F. ; PITUCO, M. M. ; HELMANN, A. C. ; SANTOS, T. O. ; VINCENZI, S. L.	B2	
artigoEmPeriodico	2016	http://dx.doi.org/10.21474/ijar01/1535	QUALITY CONTROL TOOLS APPLIED TO PH VALUES IN AN INDUSTRIAL PRODUCTION OF CASSAVA STARCH	International Journal of Advanced Research	PROENCA, GENILSOGOMESDE ; UTFPR - UNIVERSIDADE TECNOLÓGICA FEDERAL DO PARANÁ - MEDIANEIRA-PR, BRASIL. ; JASSE, ERMINIOPITA ; UTFPR - UNIVERSIDADE TECNOLÓGICA FEDERAL DO PARANÁ - MEDIANEIRA-PR, BRASIL. ; VIAPIANA, CAMILA ; UTFPR - UNIVERSIDADE TECNOLÓGICA FEDERAL DO PARANÁ - MEDIANEIRA-PR, BRASIL. ; GARRIDO, THAIS ; UTFPR - UNIVERSIDADE TECNOLÓGICA FEDERAL DO PARANÁ - MEDIANEIRA-PR, BRASIL. ; GARCIA, TASSIODEMORAIS ; UTFPR - UNIVERSIDADE TECNOLÓGICA FEDERAL DO PARANÁ - MEDIANEIRA-PR, BRASIL. ; SANTOSAND, JOSEAIRTONAZEVEDODOS ; UTFPR - UNIVERSIDADE TECNOLÓGICA FEDERAL DO PARANÁ - MEDIANEIRA-PR, BRASIL. ; SCHMIDT., CARLAADRIANAPIZARRO ; UTFPR - UNIVERSIDADE TECNOLÓGICA FEDERAL DO PARANÁ - MEDIANEIRA-PR, BRASIL.	Qualis nao identificado	International Journal of Advanced Research
artigoEmPeriodico	2016		Previsão de venda de fecula por meio de ferramentas computacionais de análise estatística aplicadas a dados de uma agroindústria	Espacios (Caracas)	PROENÇA, G. G. ; SANTOS, J. A. A. ; SCHMIDT, C. A. P.	B1	
artigoEmPeriodico	2016		Individual protection equipment for use in the construction civil sector - Case study of Medianeira in Brazil	International Journal of Engineering Research and Applications (IJERA)	ROCKENBACH, F. ; SCHENATTO, K. ; SCHENATTO, K. ; BAZZI, C. L.	Qualis nao identificado	International Journal of Engineering Research and Applications (IJERA)
artigoEmPeriodico	2016		APLICAÇÃO DOS PRINCÍPIOS DA TEORIA DAS RESTRIÇÕES E SIMULAÇÃO COMPUTACIONAL NA GESTÃO DO PROCESSO DE MONTAGEM DE CADEIRAS EM UMA INDÚSTRIA MOVELEIRA	FACEF Pesquisa: Desenvolvimento e Gestão	SANTOS, J. A. A.; CAMARGO, C. C. ; PROENÇA, G. G. ; SCHMIDT, C. A. P.	Qualis nao identificado	FACEF Pesquisa: Desenvolvimento e Gestão
artigoEmPeriodico	2016		SIMULAÇÃO E OTIMIZAÇÃO DE UM PROCESSO DE PENDURA DE FRANGOS VIVOS: UM ESTUDO DE CASO	Perspectivas online: exatas e engenharias	SANTOS, J.A.A. ; PEITER, M. ; SCHMIDT, Carla Adriana Pizarro	Qualis nao identificado	Perspectivas online: exatas e engenharias
artigoEmPeriodico	2016	http://dx.doi.org/10.4025/actascitechnol.v38i1.27745	<b>Data interpolation in the definition of management zones</b>	Acta Scientiarum. Technology (Online)	SCHENATTO, K. ; SOUZA, E. G. ; BAZZI, C. L. ; BIER, V. A. ; BETZEK, N. M. ; GAVIOLI, A.	B1	
artigoEmPeriodico	2016		SUSCETIBILIDADE DE ENCHENTES A PARTIR DA ANÁLISE DAS VARIÁVEIS MORFOMÉTRICAS NA BACIA HIDROGRÁFICA DO RIO ALEGRIA/PR	Revista Eletrônica Científica Inovação e Tecnologia	SCHUTZ, Fabiana Costa de Araujo; Jacques, L. U.	Qualis nao identificado	Revista Eletrônica Científica Inovação e Tecnologia
artigoEmPeriodico	2016	http://dx.doi.org/10.1590/1809-4430-eng.agric.v36n1p78-93/2016	Redundant variables and the quality of management zones	Engenharia Agrícola (Online)	SOBJAK, R. ; SOUZA, E. G. ; OPAZZO, M. O. ; BAZZI, C. L. ; BETZEK, N. M.	B1	
artigoEmPeriodico	2016	http://dx.doi.org/10.1080/01904167.2015.1124893	Interpolation type and data computation of crop yield maps is important for precision crop production	Journal of Plant Nutrition	SOUZA, E. G. ; BAZZI, C. L. ; KHOSLA, R. ; OPAZZO, M. O. ; REICH, R.	B1	
artigoEmPeriodico	2016	http://dx.doi.org/10.1089/zeb.2015.1124	Chromosome Analyses of <i>Apareiodon argenteus</i> and <i>Apareiodon davisi</i> (Characiformes, Parodontidae): An Extensive Chromosomal Polymorphism of 45S and 5S Ribosomal DNAs	Zebrafish (Larchmont, NY)	TRALDI, J. B. ; VICARI, M. R. ; MARTINEZ, J. F. ; BLANCO, D. R. ; LUI, R. L. ; MOREIRA-FILHO, O.	Qualis nao identificado	Zebrafish (Larchmont, NY)
artigoEmPeriodico	2016		ANÁLISE DO DESENVOLVIMENTO DE ELEMENTOS DO PENSAMENTO CIENTÍFICO EM ATIVIDADES DA DISCIPLINA FÍSICA APLICADA	Revista Docência do Ensino Superior	VILELA, D. C. ; VINCENZI, S. L.	B4	
artigoEmPeriodico	2016	http://dx.doi.org/10.1590/1413-82712016210303	Escala de Resistência à Mudança (RAM): Construção, Evidências Psicométricas e Versão Reduzida	Psico-USF	Vincenzi, Silvana Ligia; MENDES, LUÍS AUGUSTO DE CARVALHO ; GOUVEIA, VALDINEY VELOSO ; ANDRADE, Dalton Francisco de	Qualis nao identificado	Psico-USF
trabalhoCompletoEmCongresso	2016		ESTUDO COMPORTAMENTAL DO SISTEMA DE UMA LANCHONETE DE MACARRÃO LOCALIZADA NO OESTE DO PARANÁ UTILIZANDO TÉCNICAS DE SIMULAÇÃO	Congresso Técnico Científico da Engenharia e da Agronomia CONTECC?2016	BASSETO, A. L. C. ; VEIGA, A. ; MIURA, F. S. ; SCHMIDT, C. A. P. ; SANTOS, J. A. A.		
trabalhoCompletoEmCongresso	2016		COMPARAÇÃO DA ACEITAÇÃO SENSORIAL DE BALAS MASTIGÁVEIS E DURAS DE CAFÉ DE DIFERENTES MARCAS	73 SOEA/CONTECC 2016	COLLESE, S. S. ; GARCIA, T.M. ; CARNEIRO, A.F. ; CAPASSO, G. T. ; SCHMIDT, C. A. P.		
trabalhoCompletoEmCongresso	2016		RAMES: INSTRUMENTO DE MEDIDA DE AVALIAÇÃO DA RESISTÊNCIA À MUDANÇA NA EDUCAÇÃO SUPERIOR COM BASE NA TRI: UMA ANÁLISE DO SEGMENTO DISCENTE DA UFSC	XVI Coloquio International de Géstion Universitaria	CORREA, A. C. ; VINCENZI, S. L. ; MOREIRA JUNIOR, F. J. ; NUNES, P. M. ; OLIVEIRA, C. C.		
trabalhoCompletoEmCongresso	2016		Educação presencial e educação a distância: Avanços e desafios na percepção de docentes	ESUD / CIESUD	DALFOVO, A. F. ; ARAÚJO, E. C. ; GASPARIN, P. P. ; HELLMANN, L. ; OLIVEIRA, R. E. C.		
trabalhoCompletoEmCongresso	2016		The distance education current scenari in Brazil: The challenges into the tutors perception	8th International Conference on Education and New Learning Technologies	DALFOVO, A. F. ; ARAÚJO, E. C. ; OLIVEIRA, R. E. C.		
trabalhoCompletoEmCongresso	2016		The use of technology in viticulture in the state of Paraná - an emerging market	39º Congresso Mundial da Vinha e do Vinho	DEZENGRINI, E. ; MENDONÇA, S. N. T. G. ; VINCENZI, S. L.		
trabalhoCompletoEmCongresso	2016		PERFIL FÍSICO-QUÍMICO MICROBIOLÓGICO E SENSORIAL DE IOGURTE SABOR CAPUCCINO	XXV CONGRESSO BRASILEIRO DE CIÊNCIA E TECNOLOGIA DE ALIMENTOS E X CIGR SECTION VI INTERNATIONAL TECHNICAL SYMPOSIUM	FERNANDEZ, M. R. ; MENDONÇA, SARASPATHY N. T. G. DE ; BRANDÃO, W.A.P.L.N.T. M.		
trabalhoCompletoEmCongresso	2016		AVALIAÇÃO QUALITATIVA DE DIFERENTES TIPOS E MARCAS DE BALA DE GOMA	73 SOEA/CONTECC 2016	GARCIA, T.M. ; CARNEIRO, A.F. ; CAPASSO, G.T. ; SCHMIDT, C. A. P.		
trabalhoCompletoEmCongresso	2016		APLICAÇÃO DO MÉTODO DE HOLT-WINTERS PARA PREVISÃO DE BOVINOS ABATIDOS NO MATO GROSSO DO SUL	73 SOEA/CONTECC 2016	GARRIDO, T. ; GARCIA, T.M. ; SCHMIDT, C. A. P.		
trabalhoCompletoEmCongresso	2016		CONTROLE ESTATÍSTICO E FERRAMENTAS DA QUALIDADE APLICADOS AO PROCESSO DE PRODUÇÃO DE MÓVEIS DE MADEIRA	Congresso Técnico Científico da Engenharia e da Agronomia	JÚNIOR, Edward Seabra ; PROENÇA, G. G. ; FEIDEN, A. ; SANTOS, J.A.A. ; SCHMIDT, C. A. P.		
trabalhoCompletoEmCongresso	2016		Produção de Recurso Educacional Aberto no Padrão SCORM para o Ensino de Geometria Analítica e Álgebra Linear	I Seminário de Redes de Aprendizagem e Recursos Educacionais Abertos - SERAREA	KACZAM, F. ; GASPARIN, P. P. ; ARAÚJO, E. C.		
trabalhoCompletoEmCongresso	2016		Produção de recurso educacional aberto por meio da ferramenta de autoria CourseLab	I Congresso Internacional de Ciência	KACZAM, F. ; GASPARIN, P. P. ; ARAÚJO, E. C.		
trabalhoCompletoEmCongresso	2016		ANÁLISE DA CAPACIDADE DO PROCESSO PRODUTIVO: VERIFICAÇÃO DA CONFORMIDADE DAS DIMENSÕES GEOMÉTRICAS DE BLOCOS CERÂMICOS	Congresso Técnico Científico da Engenharia e da Agronomia CONTECC?2016	KACZAM, F. ; SANTOS, R. V. ; SANTOS, J. A. A. ; POSSAN, E. ; SCHIMITD, C. A. P.		
trabalhoCompletoEmCongresso	2016		AVALIAÇÃO DO PROCESSO PRODUTIVO DE BLOCOS CERÂMICOS POR MEIO DO CONTROLE ESTATÍSTICO DO PROCESSO	Congresso Técnico Científico da Engenharia e da Agronomia CONTECC?2016	KACZAM, F. ; SANTOS, R. V. ; SANTOS, J. A. A. ; POSSAN, E. ; SCHIMITD, C. A. P.		
trabalhoCompletoEmCongresso	2016		COMPARAÇÃO DA DENSIDADE DE BLOCOS CERÂMICOS FABRICADOS EM CINCO FORNOS DE UMA INDÚSTRIA	Congresso Técnico Científico da Engenharia e da Agronomia CONTECC?2016	KACZAM, F. ; SANTOS, R. V. ; SANTOS, J. A. A. ; POSSAN, E. ; SCHIMITD, C. A. P.		
trabalhoCompletoEmCongresso	2016		A PERCEPÇÃO DOS AGRICULTORES DO MUNICÍPIO DE MISSAL-PR A RESPEITO DOS EFEITOS DO USO DE AGROTÓXICOS DA PLANTAÇÃO DE FUMO EM SUA SAÚDE	VII EPPUC 2016 ? Encontro de Pesquisa da PUCPR	LIRA, F. S. ; CORSO, A. ; CLAUDINO, E. S. ; VINCENZI, S. L. ; SCHERPINSKI, N. I.		
trabalhoCompletoEmCongresso	2016		Redes Neurais Artificiais aplicadas na agricultura de precisão para estimar a produtividade da soja e do milho por meio da clorofila	XXI Seminário de Iniciação Científica e Tecnológica da UTFPR	MICHELON, G. K. ; BAZZI, C. L. ; MENEZES, P. L.		
trabalhoCompletoEmCongresso	2016		PREVISÃO DE DEMANDA POR MÉTODOS ESTATÍSTICO EM UMA INDÚSTRIA ALIMENTÍCIA DO OESTE DO PARANÁ	Congresso Técnico Científico da Engenharia e da Agronomia CONTECC?2016	MIURA, F. S. ; SCHIMITD, C. A. P. ; BASSETO, A. L. C. ; SANTOS, J. A. A. ; TAN, J.		
trabalhoCompletoEmCongresso	2016		Mercado Imobiliário paulistano: interferência dos indicadores econômicos nas vendas de imóveis residenciais	IX Simposio Internacional de Ingeniería Industrial: Actualiad Y Nuevas Tendencias	MORO, M. F. ; COMPAGNONI, C. C. ; FLORES, S. A. ; WEISE, A. D. ; VINCENZI, S. L.		
trabalhoCompletoEmCongresso	2016		Previsão de vendas: uma adequação da metodologia ARIMA para o mercado imobiliário de São Paulo	16ª Conferência Internacional da LARES	MORO, M. F. ; FLORES, S. A. ; COMPAGNONI, C. C. ; VINCENZI, S. L. ; WEISE, Andreas Dittmar		
trabalhoCompletoEmCongresso	2016		Boas Práticas de Fabricação: uma análise em uma panificadora de pequeno porte	Congresso Brasileiro de Engenharia de Produção	MORO, M. F. ; REIS, C. C. C. ; FLORES, S. A. ; SCHMIDT, Carla Adriana Pizarro ; WEISE, A. D.		
trabalhoCompletoEmCongresso	2016		OTIMIZAÇÃO DO PROCESSO PRODUTIVO EM UMA MANUFATURA DE MÓVEIS DE AÇO	XXXVI ENCONTRO NACIONAL DE ENGENHARIA DE PRODUCÃO	PINHEIRO, L. P. ; PEREIRA JUNIOR, E. H. ; VINCENZI, S. L.		
trabalhoCompletoEmCongresso	2016		PREVISÃO QUANTITATIVA DA DEMANDA DE AMIDO DE MILHO DE UMA AGROINDÚSTRIA	Congresso Técnico Científico da Engenharia e da Agronomia	PROENCA, G. G. ; SANTOS, J. A. A. ; FERNANDES, C. A. ; SCHIMITD, C. A. P.		
trabalhoCompletoEmCongresso	2016		MODELO DESCRITIVO DA RELAÇÃO ENTRE O PIB E A PRODUÇÃO DE SOJA NO ESTADO DO PARANÁ	Congresso Técnico Científico da Engenharia e da Agronomia	PROENÇA, G. G. ; GOEDERT, M. L. ; COLTRO, I. ; BORTOLOTTI, S. L. V. ; SCHMIDT, Carla Adriana Pizarro		
trabalhoCompletoEmCongresso	2016		ACEITAÇÃO SENSORIAL DE BEBIDA LÁCTEA FERMENTADA COM EXTRATO DE CASTANHA DO BRASIL	73 SOEA/CONTECC 2016	REIS, C. C. C. ; NAUMANN, E.A. ; SCHMIDT, C. A. P. ; PEREIRA, C.		
trabalhoCompletoEmCongresso	2016		PALATABILIDADE E ACEITABILIDADE SENSORIAL EM IDOSOS	XXV CONGRESSO BRASILEIRO DE CIÊNCIA E TECNOLOGIA DE ALIMENTOS-CBCTA E X CIGR SECTION VI INTERNATIONAL TECHNICAL SYMPOSIUM	REIS, R. Z. ; MOURA, E. V. ; BIAZUS, M. A. ; BRANDÃO, H. C. A. D. N. T. M. ; BORTOLOTTI, S. L. V. ; BRANDÃO, W.A.P.L.N.T. M. ; MENDONÇA, S. N. T. G.		
trabalhoCompletoEmCongresso	2016		QUALIDADE MICROBIOLÓGICA E SENSORIAL DE BISCOITO DE FARINHA DE SEMENTE DE JACA	II MOSTRA CIENTÍFICA DE ALIMENTOS	REIS, R. Z. ; MOURA, E. V. ; BRANDÃO, W.A.P.L.N.T. M. ; BRANDÃO, H. C. A. D. N. T. M. ; OTTOBELLI, I. ; BIAZUS, M. A. ; MENDONÇA, SARASPATHY N. T. G. DE		
trabalhoCompletoEmCongresso	2016		EDUCAÇÃO AMBIENTAL: OFICINAS DE ECOLOGIA NA REDE PÚBLICA MUNICIPAL DE ENSINO	CNEA ? Congresso Nacional de Educação Ambiental	SANTOS, T. O. ; PITUCO, M. M. ; VINCENZI, S. L. ; RECH, A. L.		
trabalhoCompletoEmCongresso	2016		GESTÃO DE RESÍDUOS SÓLIDOS EM UMA ESCOLA PÚBLICA MUNICIPAL	2° SIMPÓSIO BRASIL ALEMANHA EM MEIO AMBIENTE URBANO E INDUSTRIAL	SANTOS, T. O. ; PITUCO, M. M. ; VINCENZI, S. L. ; RECH, A. L. ; BIAZUS, M. A.		
trabalhoCompletoEmCongresso	2016		AVALIAÇÃO COMPARATIVA DA QUALIDADE SENSORIAL DE CARAMELLOS TIPO TOFFEE COMERCIALIZADOS NO ESTADO DO PARANÁ	73 SOEA/CONTECC 2016	SCHMIDT, C. A. P.; CAPASSO, G. T. ; GARCIA, T.M. ; CARNEIRO, A.F. ; COLLESE, S. S.		
trabalhoCompletoEmCongresso	2016		AVALIAÇÃO COMPARATIVA DA QUALIDADE SENSORIAL DE BALAS DURAS SABOR MENTA COMERCIALIZADAS NO ESTADO DO PARANÁ	73 SOEA/CONTECC 2016	SCHMIDT, C. A. P.; CARNEIRO, A.F. ; GARCIA, T.M. ; CAPASSO, G. T. ; COLLESE, S. S.		
trabalhoCompletoEmCongresso	2016		PROPOSTA DE APLICAÇÃO DE MODELO DE ANÁLISE DISCRIMINANTE PARA CLASSIFICAÇÃO DO LEITE PELA QUALIDADE	Congresso Técnico Científico da Engenharia e da Agronomia CONTECC?2016	SCHMIDT, C. A. P. ; PROENÇA, G. G. ; GARCIA, T. M. ; SANTOS, J. A. A. ; PEREIRA, C.		
trabalhoCompletoEmCongresso	2016		DESENVOLVIMENTO DE SOFTWARE PARA MONITORAMENTO DE INDICADORES DE DESEMPENHO DE REBANHOS LEITEIROS	XLV Congresso Brasileiro de Engenharia Agrícola - CONBEA 2016	SCHMOELLER1, R. P. ; MENDONÇA, SARASPATHY NAIDOO TERROSO GAMA ; BORTOLOTTI, S. L. V.		
trabalhoCompletoEmCongresso	2016		ANÁLISE DA PRÁTICA DA ESCRITURAÇÃO ZOOTÉCNICA EM 95 PROPRIEDADES LEITEIRAS DO OESTE DO PARANÁ	XLV Congresso Brasileiro de Engenharia Agrícola - CONBEA 2016	SCHMOELLER1, R. P. ; MENDONÇA, SARASPATHY NAIDOO TERROSO GAMA ; BORTOLOTTI, S. L. V.		
trabalhoCompletoEmCongresso	2016		Conselho gestor da APA Joanes-Ipitanga e suas contribuições para o fortalecimento da gestão ambiental em áreas de mananciais de abastecimento de Salvador e região metropolitana	IV Congresso Baiano de Engenharia Sanitária e Ambiental	SOUZA, G. B. ; LUCHESE, A. V.		
trabalhoCompletoEmCongresso	2016		ANÁLISE ESTATÍSTICA DE DADOS E PREVISÃO DE DEMANDA DE REFRESCO EM PÓ SABOR LARANJA	Congresso Técnico Científico da Engenharia e da Agronomia CONTECC?2016	TAN, J. ; MIURA, F. S. ; SCHIMITD, C. A. P. ; SANTOS, J. A. A.		
resumoExpandidoEmCongresso	2016	Integração de Câmeras de Baixo Custo para o Uso de Estereoscopia em um Head-mounted Display	VII Meditec, 2016, Medianeira. Anais do VII Meditec	ARAUJO, R. C. ; PAULA FILHO, P. L.		
resumoExpandidoEmCongresso	2016	Smart Agriculture: A Futuristic Vision of Application of the Internet of Things (IoT) in Brazilian Agriculture	13th International Conference on Precision Agriculture, 2016, St Louis. Proceedings of 13th International Conference on Precision Agriculture	BAZZI, C. L.; CATAO, R. A. ; SOUZA, E. G. ; SCHENATTO, K. ; GAVIOLI, A. ; BETZEK, N. M.		
resumoExpandidoEmCongresso	2016	Rectification of Management Zones Considering Moda and Median As a Criterion for Reclassification of Pixels	13th International Conference on Precision Agriculture, 2016, St Louis. Anais do 13th Internacional Conference on Precision Agriculture	BETZEK, N. M. ; SOUZA, E. G. ; BAZZI, C. L. ; SCHENATTO, KELYN ; GAVIOLI, A. ; MAGGI, M. F.		
resumoExpandidoEmCongresso	2016	?UTILIZAÇÃO DA EXPERIÊNCIA DO PRODUTOR NA GERAÇÃO DE ZONAS DE MANEJO	Congresso Brasileiro de Agricultura de Precisão, 2016, Goiânia. Anais do Congresso Brasileiro de Agricultura de precisão 2016	GAVIOLI, A. ; SCHENATTO, K. ; SOUZA, E. G. ; BAZZI, C. L. ; BETZEK, N. M.		
resumoExpandidoEmCongresso	2016	MÉTODOS DE AGRUPAMENTO HIERÁRQUICO NA DEFINIÇÃO DE ZONAS DE MANEJO	Congresso Brasileiro de Agricultura de Precisão, 2016, Goiânia. Anais do Congresso Brasileiro de Agricultura de Precisão 2016	GAVIOLI, A. ; SOUZA, E. G. ; BAZZI, C. L. ; BETZEK, N. M. ; SCHENATTO, K.		
resumoExpandidoEmCongresso	2016	Delineation of Site-specific Management Zones Using Spatial Principal Components and Cluster Analysis	13th International Conference on Precision Agriculture, 2016, St Louis. Anais da 13th International Conference on Precision Agriculture	GAVIOLI, A. ; SOUZA, E. G. ; BAZZI, C. L. ; BETZEK, N. M. ; SCHENATTO, K. ; BENEDUZZI, H. M.		
resumoExpandidoEmCongresso	2016	LEGO Mindstorm como ferramenta auxiliar de ensino de fundamentos de programação	VII Meditec, 2016, Medianeira. Anais do VII Meditec	MAKIYAMA, A. H. ; BACK, D. H. R. ; RAMOS, G. T. S. ; HOFFMANN, A. B. G. ; PAULA FILHO, P. L.		
resumoExpandidoEmCongresso	2016	DIAGNÓSTICO DA SITUAÇÃO DE UMA PROPRIEDADE RURAL DO MUNICÍPIO DE SÃO MIGUEL DO IGUAÇU - PR	Congresso Técnico Cientifico de Engenharia e de Agronomia, 2016, Foz do Iguaçu. Congresso Técnico Cientifico de Engenharia e de Agronomia	Proença, G. ; SCHUTZ, Fabiana Costa de Araujo		
resumoExpandidoEmCongresso	2016	SISTEMA DE AUTOMAÇÃO RESIDENCIAL	VII Meditec, 2016, Medianeira. Anais do VII Meditec	REICHERT, T. M. ; PAULA FILHO, P. L.		
resumoExpandidoEmCongresso	2016	Teor de água no solo: análise e monitoramento em tempo real	XLIV Congresso Brasileiro de Engenharia Agrícola, 2016, Florianópolis. Anais do XLIV Congresso Brasileiro de Engenharia Agrícola. Jabuticabal: SBEA	RODRIGUES, P. S. L. ; MENEZES, P. L. ; SEFFRIN, R. ; BAZZI, C. L.		
resumoExpandidoEmCongresso	2016	Análise da conformidade de segurança de tratores agrícolas de acordo com a norma regulamentadora 31	XLIV CONGRESSO BRASILEIRO DE ENGENHARIA AGRÍCOLA, 2016, Florianópolis. XLIV Congresso Brasileiro de Engenharia Agrícola. Jabuticabal: SBEA	SCHENATTO, K. ; SCHENATTO, K. ; ROCKENBACH, F. ; BAZZI, C. L. ; MICHELON, G. K.		
resumoExpandidoEmCongresso	2016	Data Normalization Methods for Definition of Management Zones	13th International Conference on Precision Agriculture, 2016, St Louis. Anais da 13th International Conference on Precision Agriculture	SCHENATTO, K. ; SOUZA, E. G. ; BAZZI, C. L. ; GAVIOLI, A. ; BETZEK, N. M. ; BENEDUZZI, H. M.		
resumoExpandidoEmCongresso	2016	Análise exploratória de dados espaciais aplicada a produtividade de soja na região oeste do Paraná	XLIV Congresso Brasileiro de Engenharia Agrícola, 2016, Florianópolis. Anais do XLIV Congresso Brasileiro de Engenharia Agrícola. Jabuticabal: SBEA	SEFFRIN, R. ; ARAUJO, E. C. ; BAZZI, C. L. ; RODRIGUES, P. S. L.		
resumoExpandidoEmCongresso	2016	Aplicação do índice de Moran bivariado para a verificar a correlação espacial da produtividade de milho e a potencialidade agrícola do solo no estado do Paraná	XLIV Congresso Brasileiro de Engenharia Agrícola, 2016, Florianópolis. Anais do XLIV Congresso Brasileiro de Engenharia Agrícola. Jabuticabal: SBEA	SEFFRIN, R. ; ARAUJO, E. C. ; BAZZI, C. L. ; RODRIGUES, P. S. L.		
resumoExpandidoEmCongresso	2016	PERCEPÇÃO DE SUSTENTABILIDADE DA BACIA DO PARANA III: AVALIAÇÃO POR MEIO DA TEORIA DA RESPOSTA AO ITEM	22 Sinape - Simpósio Nacional de Estatística e Probabilidade, 2016, Porto Alegre. Anais do Simpósio Nacional de Estatística e Probabilidade	VINCENZI, S. L.; POSSAN, E. ; ANDRADE, D. F. ; PITUCO, M. M. ; SANTOS, T. O. ; MOREIRA JUNIOR, F. J.		
resumoExpandidoEmCongresso	2016	Segmentação de Imagens para Reconhecimento de Folhas de Espécies Florestais	VII Meditec, 2016, Medianeira. Anais do VII Meditec	WEILAND, M. G. ; ERDMANN, A. C. ; PAULA FILHO, P. L. ; SILVA, H. P.		
