artigoEmPeriodico	Carla Kazue Nakao Cavaliero	2013	http://dx.doi.org/10.1002/er.2972	Analysis of electrolytic hydrogen production models and distribution modes for public urban transport: study case in Foz do Iguacu, Brazil	International Journal of Energy Research (Print)	RIVEROS-GODOY, GUSTAVO ARTURO ; CAVALIERO, CARLA ; SILVA, ENNIO	A2	
artigoEmPeriodico	Arnaldo Cesar da Silva Walter	2013	http://dx.doi.org/10.1016/j.biombioe.2013.03.007	Sugarcane straw availability, quality, recovery and energy use: A literature review	Biomass & Bioenergy	LEAL, MANOEL REGIS L.V. ; GALDOS, MARCELO V. ; SCARPARE, FÁBIO V. ; SEABRA, JOAQUIM E.A. ; WALTER, ARNALDO ; OLIVEIRA, CAMILA O.F.	A1	
artigoEmPeriodico	Arnaldo Cesar da Silva Walter	2013	http://dx.doi.org/10.1002/wene.87	Brazilian sugarcane ethanol: developments so far and challenges for the future	Wiley Interdisciplinary Reviews: Energy and Environment	WALTER, ARNALDO; GALDOS, MARCELO VALADARES ; SCARPARE, FABIO VALE ; LEAL, MANOEL REGIS LIMA VERDE ; SEABRA, Joaquim Eugênio Abel ; DA CUNHA, MARCELO PEREIRA ; PICOLI, MICHELLE CRISTINA ARAUJO ; DE OLIVEIRA, CAMILA ORTOLAN FERNANDES	B5	
artigoEmPeriodico	Arnaldo Cesar da Silva Walter	2013	http://dx.doi.org/10.1016/j.rser.2013.07.050	Analysis of socio-economic impacts of sustainable sugarcane-ethanol production by means of inter-regional Input-Output analysis: Demonstrated for Northeast Brazil	Renewable & Sustainable Energy Reviews	HERRERAS MARTÍNEZ, SARA ; VAN EIJCK, JANSKE ; PEREIRA DA CUNHA, MARCELO ; GUILHOTO, JOAQUIM J.M. ; WALTER, ARNALDO ; FAAIJ, ANDRE	A1	
artigoEmPeriodico	Andre Tosi Furtado	2013	http://dx.doi.org/10.13071/regec.2317-5087.2013.2.1.4909.22-46.	O Melhoramento Genético de Cana-de-Açúcar no Brasil e o Desafio das Mudanças Climáticas Globais	Gestão & Conexões	CARVALHO, SILVIA ANGÉLICA DOMINGUES DE ; FURTADO, ANDRE TOSI	Qualis nao identificado	Gestão & Conexões
artigoEmPeriodico	Andre Tosi Furtado	2013	http://dx.doi.org/10.13071/regec.2317-5087.2013.2.1.4906.47-75.	Estratégias Tecnológicas e Dinâmica de Inovação das Empresas Agroindustriais no Brasil	Gestão & Conexões	CARVALHO, SILVIA ANGÉLICA DOMINGUES DE ; FURTADO, ANDRE TOSI	Qualis nao identificado	Gestão & Conexões
artigoEmPeriodico	Andre Tosi Furtado	2013		Pré-sal, Desenvolvimento Industrial e Inovação	Revista Paranaense de Desenvolvimento (Online)	FURTADO, A. T	B4	Revista Paranaense de Desenvolvimento
artigoEmPeriodico	Andre Tosi Furtado	2013		Quão efetivas são políticas tecnológicas de cunho impositivas? Evidências do programa de P	Revista Ciencias Estrategicas	Inácio Jr., Edmundo ; SILVA, Cassio Garcia Ribeiro Soares da ; FURTADO, A. T. ; SILVA, G. ; SICSU, A. B. ; TAVORA, L. ; PEREIRA, V. G.	Qualis nao identificado	Revista Ciencias Estrategicas
artigoEmPeriodico	Andre Tosi Furtado	2013		O Setor Sucroenergético Brasileiro: uma análise das condições varietais e seus desafios tecnológicos	Revista de Economia Agrícola (Impresso)	CARVALHO, SILVIA ANGÉLICA DOMINGUES DE ; FURTADO, A. T.	B4	
artigoEmPeriodico	Andre Tosi Furtado	2013		Geografia e Inovação: Mapeamento dos Empreendimentos de Alta Tecnologia que circundam o Campus da Unicamp	Geografia e Pesquisa (UNESP. Ourinhos)	BALDONI, L. ; FURTADO, A. T.	Qualis nao identificado	Geografia e Pesquisa (UNESP. Ourinhos)
trabalhoCompletoEmCongresso	Andre Tosi Furtado	2013		Low Carbon Energy Innovations Systems in Natural Resource Rich Developing Countries: the case of Brazil	11th Globelics Conference	FURTADO, A. T		
trabalhoCompletoEmCongresso	Andre Tosi Furtado	2013		Políticas de ciência, tecnologia e inovação para mudanças climáticas no estado de São Paulo	ALTEC 2013 - XV Congresso Latino-Iberoamericano de Gestão de Tecnologia	CASTRO, P. D. ; FURTADO, A. T.		
trabalhoCompletoEmCongresso	Andre Tosi Furtado	2013		Metodologia de avaliação de projetos de PD do setor elétrico	Altec 2013 - XV Congreso Ibero-americano de Gestión Tecnológica	SILVA, Cassio Garcia Ribeiro Soares da ; Inácio Jr., Edmundo ; FURTADO, A. T. ; SILVA, G. ; SICSU, A. B. ; TAVORA, L. ; PEREIRA, V. G.		
trabalhoCompletoEmCongresso	Andre Tosi Furtado	2013		Da pesquisa e desenvolvimento (PD) à inovação: um estudo de caso numa empresa do setor elétrico brasileiro	Altec 2013	TAVORA, L. ; SICSU, A. B. ; FURTADO, A. T. ; Inácio Jr., Edmundo ; SILVA, Cassio Garcia Ribeiro Soares da ; SILVA, G. ; PEREIRA, V. G.		
trabalhoCompletoEmCongresso	Andre Tosi Furtado	2013		Avaliação dos projetos de PD da CHESF	VII Congresso de Inovação Tecnológica em Energia Elétrica	Inácio Jr., Edmundo ; SILVA, Cassio Garcia Ribeiro Soares da ; FURTADO, A. T. ; SICSU, A. B. ; TAVORA, L. ; SILVA, G. ; PEREIRA, V. G.		
trabalhoCompletoEmCongresso	Andre Tosi Furtado	2013		Technological learning in Petrobras projects: the case of P-51	22th International Conference on Management of Technology	SILVA, Cassio Garcia Ribeiro Soares da ; FURTADO, A. T.		
trabalhoCompletoEmCongresso	Andre Tosi Furtado	2013		Novas e velhas fronteiras do setor sucroalcooleiro brasileiro: condicionantes para uma expansão sustentável	51º Congresso da Sociedade Brasileira de Economia	CARVALHO, S.A.D. ; FURTADO, A. T.		
trabalhoCompletoEmCongresso	Andre Tosi Furtado	2013		Mapping the Functional Standard of the Technological Innovation System of Small Hydro Power Plants (SHP) in Brazil	I Latinamerican Hidro Power and Systems Meeting	NASCIMENTO, D. E. ; FURTADO, A. T. ; BONACCELLI, Maria Beatriz		
trabalhoCompletoEmCongresso	Andre Tosi Furtado	2013		As políticas tecnológicas e o avanço da energia eólica no mundo: proposta de uma estrutura de análise	XV ALTEC 2013	Camillo, Edialine V. ; FURTADO, A. T.		
trabalhoCompletoEmCongresso	Andre Tosi Furtado	2013		Avaliação de projetos de PD da CHESF: passos metodológicos	V Seminário da Rede Brasileira de Monitoramento e Avaliação	SILVA, Cassio Garcia Ribeiro Soares da ; Inácio Jr., Edmundo ; FURTADO, A. T. ; SILVA, G. ; SICSU, A. B. ; TAVORA, L. ; PEREIRA, V. G.		
trabalhoCompletoEmCongresso	Andre Tosi Furtado	2013		A Consolidação do 'Parque Científico e Tecnológico da Unicamp' na cidade de Campinas- SP - Brasil	30ª Conferencia Internacional da IASP e XXIII Seminário Nacional da Anprotec	BALDONI, L. ; FURTADO, A. T.		
artigoEmPeriodico	Conrado Augustus de Melo	2013	http://dx.doi.org/10.1016/j.esd.2012.10.010	Grid-connected photovoltaic in Brazil: Policies and potential impacts for 2030	Energy Sustainable Development	de Martino Jannuzzi, Gilberto ; MELO, Conrado Augustus de	B1	
artigoEmPeriodico	Conrado Augustus de Melo	2013	http://dx.doi.org/10.1016/j.enpol.2013.06.056	Evaluating public policy mechanisms for climate change mitigation in Brazilian buildings sector	Energy Policy	DE MELO, CONRADO AUGUSTUS; JANNUZZI, GILBERTO DE MARTINO ; FERREIRA TRIPODI, ALINE	A1	
artigoEmPeriodico	Carlos Eduardo Keutenedjian Mady	2013	http://dx.doi.org/10.5541/ijot.453	Human Body Exergy Metabolism	International Journal of Thermodynamics	Mady, C. E. K.; Oliveira-Junior, S.	B5	
artigoEmPeriodico	Carlos Eduardo Keutenedjian Mady	2013	http://dx.doi.org/10.1016/j.energy.2013.09.050	Exergy performance of human body under physical activities	Energy (Oxford)	MADY, CARLOS EDUARDO KEUTENEDJIAN; Albuquerque, C. ; Fernandes, T.L. ; Hernandez, A.J. ; Saldiva, P.H.N. ; Yanagihara, J.I. ; Oliveira Jr, S.	A1	
trabalhoCompletoEmCongresso	Carlos Eduardo Keutenedjian Mady	2013		The effect of altitude and intensity of physical activity on the exergy efficiency of respiratory system	ECOS	Henriques, I. B. ; Mady, C. E. K. ; Albuquerque Neto, C. ; Yanagihara, J. I. ; Oliveira-Junior, S.		
trabalhoCompletoEmCongresso	Carlos Eduardo Keutenedjian Mady	2013		Exergy analysis of the human body and lifespan: a first approach	COBEM	Mady, C. E. K.; Henriques, I. B. ; Oliveira-Junior, S.		
resumoExpandidoEmCongresso	Carlos Eduardo Keutenedjian Mady	2013	Human body and its respiratory system exergy performance as a function of activity level and environmental parameters	ENEBI, 2013, Vitória. Anais do 4o Encontro nacional de engenharia biomecânica	Henriques, I. B. ; Mady, C. E. K. ; Albuquerque Neto, C. ; Yanagihara, J. I. ; Oliveira-Junior, S.		
artigoEmPeriodico	Sergio Valdir Bajay	2013		Evolução do planejamento energético no Brasil na última década e desafios pendentes	Revista Brasileira de Energia	Bajay, S. V	B3	
artigoEmPeriodico	Sergio Valdir Bajay	2013		Novas abordagens para programas de eficiência energética na indústria brasileira	Revista Brasileira de Energia	Sant'Ana, P.H.M ; Bajay, S. V.	B3	
artigoEmPeriodico	Sergio Valdir Bajay	2013		A integração das fontes renováveis na matriz de energia elétrica brasileira e o papel da hidroeletricidade como elemento facilitador de política energética e planejamento	Revista Brasileira de Energia	DESTER, M. ; ANDRADE, M. T. O ; Bajay, S. V.	B3	
artigoEmPeriodico	Sergio Valdir Bajay	2013		Eficiência energética e oportunidades para as biorrefinarias na indústria brasileira de celulose e papel	Celulose e Papel	Bajay, S. V.; BERNI, M. D.	Qualis nao identificado	Celulose e Papel
artigoEmPeriodico	Sergio Valdir Bajay	2013	http://dx.doi.org/10.4322/cerind.2014.034	Tecnologias Inovadoras e Eficiência Energética no Segmento de Revestimentos Cerâmicos	Cerâmica Industrial (Impresso)	BERNI, Mauro Donizeti ; BAJAY, SERGIO VALDIR ; DORILEO, IVO LEANDRO	B4	
trabalhoCompletoEmCongresso	Sergio Valdir Bajay	2013		Sistema de gestão da energia na fábrica da Danone em Poços de Caldas	XV Congresso Brasileiro de Energia	SILVA, P. C. ; Bajay, S. V. ; Rossi, L. A.		
trabalhoCompletoEmCongresso	Sergio Valdir Bajay	2013		Modelos de simulação para a indústria brasileira ? Um panorama	XV Congresso Brasileiro de Energia	SILVA, R. R. ; Bajay, S. V.		
trabalhoCompletoEmCongresso	Sergio Valdir Bajay	2013		Metas de redução de GEE e eficiência energética: o caso do setor cerâmico do Estado de São Paulo	XV Congresso Brasileiro de Energia	BERNI, M. D. ; Bajay, S. V. ; SOARES, P. M. ; ROCCON, F.		
artigoEmPeriodico	Waldyr Luiz Ribeiro Gallo	2013		Variable valve timing and its effects on performance of a spark-ignition engine	SAE Technical Paper Series	DAMASCENO, L. I. R. ; GALLO, W. L. R.	B4	
artigoEmPeriodico	Waldyr Luiz Ribeiro Gallo	2013		Ignition timing as a strategy to reduce spark-ignition engine emissions in the cold phase	SAE Technical Paper Series	GUERRA, R. F. ; GALLO, W. L. R.	B4	
artigoEmPeriodico	Waldyr Luiz Ribeiro Gallo	2013		Computational Modeling of Internal Combustion Engines: Influence of compression ratio in the indicated performance curves	SAE Technical Paper Series	CRO, N. P. R. ; GALLO, W. L. R. ; FERREIRA, J. V. ; TANIKAWA, M. G.	B4	
trabalhoCompletoEmCongresso	Waldyr Luiz Ribeiro Gallo	2013		Determination of the apparent heat release for diesel engines	22nd International Congress of Mechanical Engineering (COBEM 2013)	GALLO, W. L. R.; SALVA, E. P.		
trabalhoCompletoEmCongresso	Waldyr Luiz Ribeiro Gallo	2013		Computacional Modeling of Internal Combustion Engines	22nd International Congress of Mechanical Engineering (COBEM 2013	CRO, N. P. R. ; FERREIRA, J. V. ; GALLO, W. L. R. ; TANIKAWA, M. G.		
artigoEmPeriodico	Sonia Regina da Cal Seixas	2013	http://dx.doi.org/10.1080/21568316.2013.815269	Tourism and Transgression: Resort Development, Crime and the Drug Economy	Tourism Planning & Development	BOTTERILL, DAVID ; SEIXAS, SONIA R.D.C. ; HOEFFEL, JOAO LUIZ	Qualis nao identificado	Tourism Planning & Development
artigoEmPeriodico	Sonia Regina da Cal Seixas	2013		Análise sociodemográfica da distribuição espacial de ocorrências de diarréias agudas em áreas de risco de inundação, Caraguatatuba-SP	Revista Vitas: visoes transdisciplinares sobre ambiente e sociedade	ASMUS, G F ; MELLO, A Y I ; SEIXAS, S R C ; Batistela, M	B4	
artigoEmPeriodico	Sonia Regina da Cal Seixas	2013		Hidrelétricas, qualidade de vida e desenvolvimento	Revista Brasileira de Energia	CONCEIÇÃO, A. L. da ; SEIXAS, S R C	B3	
artigoEmPeriodico	Michelle Cristina Araujo Picoli	2013		Effect of sugarcane-planting row directions on ALOS/PALSAR satellite images	GIScience and Remote Sensing	PICOLI, Michelle Cristina Araujo; LAMPARELLI, R. A. C. ; SANO, E. E. ; MELLO, J. R. B. ; ROCHA, J. V.	B2	
artigoEmPeriodico	Michelle Cristina Araujo Picoli	2013	http://dx.doi.org/10.1002/wene.87	Brazilian sugarcane ethanol: developments so far and challenges for the future	Wiley Interdisciplinary Reviews: Energy and Environment	WALTER, ARNALDO ; GALDOS, MARCELO VALADARES ; SCARPARE, FABIO VALE ; LEAL, MANOEL REGIS LIMA VERDE ; SEABRA, JOAQUIM EUGÊNIO ABEL ; DA CUNHA, MARCELO PEREIRA ; PICOLI, MICHELLE CRISTINA ARAUJO ; DE OLIVEIRA, CAMILA ORTOLAN FERNANDES	B5	
trabalhoCompletoEmCongresso	Michelle Cristina Araujo Picoli	2013		Avanço do setor sucroalcooleiro na mesorregião do Sul Goiano - GO	XVI Simpósio Brasileiro de Sensoriamento Remoto	PICOLI, Michelle Cristina Araujo; DUFT, D. G. ; LEAL, M. R. L. V. ; WALTER, A.		
trabalhoCompletoEmCongresso	Michelle Cristina Araujo Picoli	2013		Estimação da produtividade dos resíduos da cana- de -açúcar por meio do sensor MODIS	XVI Simpósio Brasileiro de Sensoriamento Remoto	DUFT, D. G. ; PICOLI, Michelle Cristina Araujo ; GALDOS, M. V. ; SCARPARE, F. V. ; LEAL, M. R. L. V.		
artigoEmPeriodico	Joaquim Eugênio Abel Seabra	2013	http://dx.doi.org/10.1016/j.apenergy.2012.09.016	Environmental benefits of the integrated production of ethanol and biodiesel	Applied Energy	SOUZA, SIMONE PEREIRA ; SEABRA, JOAQUIM E.A.	A1	
artigoEmPeriodico	Joaquim Eugênio Abel Seabra	2013	http://dx.doi.org/10.1016/j.apenergy.2012.11.002	Trends in global warming and human health impacts related to Brazilian sugarcane ethanol production considering black carbon emissions	Applied Energy	GALDOS, MARCELO ; Cavalett, Otávio ; SEABRA, JOAQUIM E.A. ; NOGUEIRA, LUIZ AUGUSTO HORTA ; Bonomi, Antonio	A1	
artigoEmPeriodico	Joaquim Eugênio Abel Seabra	2013	http://dx.doi.org/10.1016/j.biombioe.2013.03.007	Sugarcane straw availability, quality, recovery and energy use: A literature review	Biomass & Bioenergy	LEAL, MANOEL REGIS L.V. ; GALDOS, MARCELO V. ; SCARPARE, FÁBIO V. ; SEABRA, JOAQUIM E.A. ; Walter, Arnaldo ; OLIVEIRA, CAMILA O.F.	A1	
artigoEmPeriodico	Joaquim Eugênio Abel Seabra	2013	http://dx.doi.org/10.1007/s11367-012-0465-0	Comparative LCA of ethanol versus gasoline in Brazil using different LCIA methods	The International Journal of Life Cycle Assessment	Cavalett, Otávio ; Chagas, Mateus Ferreira ; Seabra, Joaquim E. A. ; Bonomi, Antonio	A2	
artigoEmPeriodico	Joaquim Eugênio Abel Seabra	2013	http://dx.doi.org/10.1016/j.esd.2013.08.001	Reduction of water consumption in an integrated first- and second-generation ethanol plant	Energy Sustainable Development	MOSQUEIRA-SALAZAR, K.J. ; PALACIOS-BERECHE, R. ; CHÁVEZ-RODRÍGUEZ, M. ; Seabra, J. ; NEBRA, S.A.	B1	
artigoEmPeriodico	Joaquim Eugênio Abel Seabra	2013	http://dx.doi.org/10.1007/s13399-012-0055-1	Sugarcane as an energy source	Biomass Conversion and Biorefinery	Leal, Manoel Regis L. V. ; Walter, Arnaldo Silva ; Seabra, Joaquim E. A.	Qualis nao identificado	Biomass Conversion and Biorefinery
trabalhoCompletoEmCongresso	Joaquim Eugênio Abel Seabra	2013		Integrated production of sugarcane ethanol and soybean biodiesel: environmental and economic benefits of the reduction of diesel consumption	8th SDEWES Conference	SOUZA, S. P. ; SEABRA, JOAQUIM EUGÊNIO ABEL		
trabalhoCompletoEmCongresso	Joaquim Eugênio Abel Seabra	2013		Reduction of water consumption in an integrated first and second generation ethanol plant	XXVIII ISSCT Congress	MOSQUEIRA-SALAZAR, K.J. ; PALACIOS-BERECHE, R. ; CHÁVEZ-RODRÍGUEZ, M. ; Seabra, J. ; NEBRA, S.A.		
trabalhoCompletoEmCongresso	Joaquim Eugênio Abel Seabra	2013		An assessment of the potential for sugarcane bagasse and trash pellets market	XXVIII ISSCT Congress	Walter, Arnaldo ; Leal, M. R. L. V. ; SEABRA, JOAQUIM EUGÊNIO ABEL ; PEREIRA, T. P.		
trabalhoCompletoEmCongresso	Joaquim Eugênio Abel Seabra	2013		Sugarcane biorefineries based on gasification technologies	XXVIII ISSCT Congress	SEABRA, JOAQUIM EUGÊNIO ABEL; LEAL, MANOEL REGIS LIMA VERDE ; PEREIRA, T. P.		
trabalhoCompletoEmCongresso	Ieda Geriberto Hidalgo	2013		A Genetic Algorithm Solution for Optimization of the Power Generation Potential in Hydroelectric Plants	IEEE Congress on Evolutionary Computation	FERNANDES, J. P. T. ; CORREIA, P. B. ; HIDALGO, I. G. ; COLNAGO, G.		
trabalhoCompletoEmCongresso	Ieda Geriberto Hidalgo	2013		A Proposed Global-Local Methodology for Unit Commitment Optimization	35th IAHR World Congress	HIDALGO, I. G.; CORREIA, P. B. ; ARNOULD, F. J. ; ESTRÓCIO, J. P. F. ; Fernandes, J. P. T. ; BARROS, R. S. ; YEH, W-G. W.		
artigoEmPeriodico	Gilberto De Martino Jannuzzi	2013	http://dx.doi.org/10.1016/j.esd.2012.10.010	Grid-connected photovoltaic in Brazil: Policies and potential impacts for 2030	Energy Sustainable Development	de Martino Jannuzzi, Gilberto ; MELO, Conrado Augustus de	B1	
artigoEmPeriodico	Gilberto De Martino Jannuzzi	2013	http://dx.doi.org/10.1016/j.enpol.2013.06.056	Evaluating public policy mechanisms for climate change mitigation in Brazilian buildings sector	Energy Policy	DE MELO, CONRADO AUGUSTUS ; JANNUZZI, GILBERTO DE MARTINO ; FERREIRA TRIPODI, ALINE	A1	
artigoEmPeriodico	Fabio Vale Scarpare	2013	http://dx.doi.org/10.1016/j.biombioe.2013.03.007	Sugarcane straw availability, quality, recovery and energy use: A literature review	Biomass & Bioenergy	LEAL, MANOEL REGIS L.V. ; GALDOS, MARCELO V. ; SCARPARE, FÁBIO V. ; SEABRA, JOAQUIM E.A. ; Walter, Arnaldo ; OLIVEIRA, CAMILA O.F.	A1	
artigoEmPeriodico	Fabio Vale Scarpare	2013	http://dx.doi.org/10.1590/s0100-06832013000200009	Pedotransfer functions to estimate water retention parameters of soils in northeastern Brazil	Revista Brasileira de Ciência do Solo (Impresso)	BARROS, A. H. C. ; JONG VAN LIER, Q. de ; MAIA, A. H. N. ; SCARPARE, F. V.	A2	
artigoEmPeriodico	Fabio Vale Scarpare	2013		Agricultura irrigada: produtividade potencial da cana-de-açúcar sem limitações hídricas	ITEM. Irrigação e Tecnologia Moderna	RUIZ-CORREA, S. T. ; SCARPARE, F. V. ; DOURADO-NETO, D.	Qualis nao identificado	ITEM. Irrigação e Tecnologia Moderna
artigoEmPeriodico	Fabio Vale Scarpare	2013	http://dx.doi.org/10.1590/s0103-90162013000500010	Technical and economic assessment of trash recovery in the sugarcane bioenergy production system	Scientia Agrícola (USP. Impresso)	CARDOSO, TEREZINHA DE FÁTIMA ; CAVALETT, OTÁVIO ; CHAGAS, MATEUS FERREIRA ; MORAIS, EDVALDO RODRIGO DE ; CARVALHO, JOÃO LUÍS NUNES ; FRANCO, HENRIQUE COUTINHO JUNQUEIRA ; GALDOS, MARCELO VALADARES ; Scarpare, Fábio Vale ; BRAUNBECK, OSCAR ANTONIO ; CORTEZ, LUIS AUGUSTO BARBOSA ; BONOMI, ANTONIO	A2	
artigoEmPeriodico	Fabio Vale Scarpare	2013	http://dx.doi.org/10.1590/S0100-29452013000300015	Determinação de índices biometeorológicos da videira 'Niagara Rosada' (Vitis labrusca L.) poda, em diferentes épocas	Revista Brasileira de Fruticultura (Impresso)	Scarpare, Fábio Vale; Angelocci, Luiz Roberto ; Scarpare Filho, João Alexio ; SILVA, JULIANO QUARTEROLI ; Rodrigues, Alessandro	B1	
artigoEmPeriodico	Fabio Vale Scarpare	2013	http://dx.doi.org/10.1002/wene.87	Brazilian sugarcane ethanol: developments so far and challenges for the future	Wiley Interdisciplinary Reviews: Energy and Environment	WALTER, ARNALDO ; GALDOS, MARCELO VALADARES ; Scarpare, Fabio Vale ; LEAL, MANOEL REGIS LIMA VERDE ; SEABRA, JOAQUIM EUGÊNIO ABEL ; DA CUNHA, MARCELO PEREIRA ; PICOLI, MICHELLE CRISTINA ARAUJO ; DE OLIVEIRA, CAMILA ORTOLAN FERNANDES	B5	
resumoExpandidoEmCongresso	Fabio Vale Scarpare	2013	Estimação da produtividade dos resíduos da cana-de-açúcar por meio do sensor MODIS	Simpósio Brasileiro de Sensoriamento Remoto, 2013, Foz do Iguaçu. Estimação da produtividade dos resíduos da cana-de-açúcar por meio do sensor MODIS. Foz di Iguaçu	DUFT, D. G. ; PICOLI, M. C. ; GALDOS, M. V. ; SCARPARE, F. V. ; LEAL, M. R. L. V.		
resumoExpandidoEmCongresso	Fabio Vale Scarpare	2013	Optimising sugarcane trash management for advanced biofuels production	Proceedings of International Society of Sugarcane Technologists, 2013, São Paulo. Proceedings of International Society of Sugarcane Technologists. São Paulo	CERQUEIRA, L. ; EDYE, L. A. ; WEGENER, M. K. ; SCARPARE, F. V. ; RENOUF, M. A.		
