strict digraph grafo3 {
	graph [bb="0,0,1900,337",
		id=grafo3,
		overlap=False
	];
	node [fontsize=8,
		label="\N",
		shape=rectangle,
		style=filled
	];
	0	 [URL="http://lattes.cnpq.br/2314309546470778",
		color="#17272B",
		fontcolor="#FFFFFF",
		height=0.23611,
		label="Sergio Muñoz [0]",
		pos="68.5,328.5",
		width=1.0139];
	1	 [URL="http://lattes.cnpq.br/4802548698016081",
		color="#17272B",
		fontcolor="#FFFFFF",
		height=0.23611,
		label="Saul de Castro Leite [1]",
		pos="169.5,328.5",
		width=1.2917];
	10	 [URL="http://lattes.cnpq.br/3572434390881704",
		color="#17272B",
		fontcolor="#FFFFFF",
		height=0.23611,
		label="Raul Fonseca Neto [4]",
		pos="169.5,264.5",
		width=1.2361];
	1 -> 10	 [arrowhead=normal,
		arrowsize=0.75,
		fontsize=8,
		label=1.0,
		lp="159,296.5",
		penwidth=3.5,
		pos="e,163.22,273.15 162.54,319.74 157,312.6 150.63,301.63 153.5,291.5 154.66,287.4 156.67,283.31 158.88,279.62"];
	10 -> 1	 [arrowhead=normal,
		arrowsize=0.75,
		fontsize=8,
		label=0.25,
		lp="177,296.5",
		penwidth=1.25,
		pos="e,169.5,319.9 169.5,273.16 169.5,282.86 169.5,299.8 169.5,312.19"];
	25	 [URL="http://lattes.cnpq.br/7733681743453751",
		color="#17272B",
		fontcolor="#FFFFFF",
		height=0.23611,
		label="Heder Soares Bernardino [11]",
		pos="97.5,200.5",
		width=1.5694];
	10 -> 25	 [arrowhead=normal,
		arrowsize=0.75,
		fontsize=8,
		label=0.5,
		lp="119,232.5",
		penwidth=2.0,
		pos="e,99.166,209.01 143.7,255.98 133.27,251.89 121.77,245.91 113.5,237.5 107.85,231.75 104.01,223.67 101.51,216.61"];
	12	 [URL="http://lattes.cnpq.br/2487554612123446",
		color="#17272B",
		fontcolor="#FFFFFF",
		height=0.23611,
		label="Carlos C. Hasenclever Borges [1]",
		pos="234.5,200.5",
		width=1.7222];
	10 -> 12	 [arrowhead=normal,
		arrowsize=0.75,
		fontsize=8,
		label=0.25,
		lp="203,232.5",
		penwidth=1.25,
		pos="e,220.63,209.08 173.98,255.72 178.68,247.98 186.62,236.06 195.5,227.5 201.01,222.19 207.73,217.28 214.03,213.18"];
	25 -> 10	 [arrowhead=normal,
		arrowsize=0.75,
		fontsize=8,
		label=0.18,
		lp="146,232.5",
		penwidth=1.04,
		pos="e,160.67,255.9 106.4,209.16 118.53,219.61 140.4,238.45 154.94,250.96"];
	6	 [URL="http://lattes.cnpq.br/9998509212446471",
		color="#17272B",
		fontcolor="#FFFFFF",
		height=0.23611,
		label="Patricia Habib Hallak [2]",
		pos="48.5,8.5",
		width=1.3472];
	25 -> 6	 [arrowhead=normal,
		arrowsize=0.75,
		fontsize=8,
		label=0.05,
		lp="42,104.5",
		penwidth=0.65,
		pos="e,45.297,17.178 89.089,191.58 74.354,177.04 44.49,144.33 34.5,109.5 26.047,80.027 35.679,44.149 42.63,24.375"];
	15	 [URL="http://lattes.cnpq.br/6681044486435612",
		color="#17272B",
		fontcolor="#FFFFFF",
		height=0.23611,
		label="Afonso C. de Castro Lemonge [6]",
		pos="120.5,72.5",
		width=1.7361];
	25 -> 15	 [arrowhead=normal,
		arrowsize=0.75,
		fontsize=8,
		label=0.27,
		lp="96,136.5",
		penwidth=1.31,
		pos="e,114.03,81.288 94.607,191.79 90.028,178.46 82.241,150.34 88.5,127.5 92.564,112.67 101.87,97.785 109.4,87.409"];
	23	 [URL="http://lattes.cnpq.br/0375745110240885",
		color="#17272B",
		fontcolor="#FFFFFF",
		height=0.23611,
		label="Helio J. Corrêa Barbosa [7]",
		pos="205.5,136.5",
		width=1.4583];
	25 -> 23	 [arrowhead=normal,
		arrowsize=0.75,
		fontsize=8,
		label=0.5,
		lp="164,168.5",
		penwidth=2.0,
		pos="e,192.15,145.16 110.74,191.9 129.45,181.16 163.75,161.47 185.55,148.96"];
	12 -> 10	 [arrowhead=normal,
		arrowsize=0.75,
		fontsize=8,
		label=1.0,
		lp="225,232.5",
		penwidth=3.5,
		pos="e,184.6,255.94 230.69,209.06 226.5,216.84 219.2,228.99 210.5,237.5 204.92,242.95 198.02,247.86 191.48,251.9"];
	6 -> 25	 [arrowhead=normal,
		arrowsize=0.75,
		fontsize=8,
		label=0.25,
		lp="64,104.5",
		penwidth=1.25,
		pos="e,92.988,191.84 47.578,17.153 46.185,30.402 44.143,58.407 48.5,81.5 55.932,120.89 77.285,163.46 89.204,185.1"];
	6 -> 15	 [arrowhead=normal,
		arrowsize=0.75,
		fontsize=8,
		label=0.75,
		lp="107,40.5",
		penwidth=2.75,
		pos="e,114.9,63.749 62.877,17.21 71.086,21.947 81.336,28.447 89.5,35.5 97.146,42.105 104.57,50.632 110.24,57.729"];
	15 -> 25	 [arrowhead=normal,
		arrowsize=0.75,
		fontsize=8,
		label=0.5,
		lp="117,136.5",
		penwidth=2.0,
		pos="e,98.87,192 119.11,81.125 115.4,101.44 105.23,157.16 100.28,184.28"];
	15 -> 6	 [arrowhead=normal,
		arrowsize=0.75,
		fontsize=8,
		label=0.25,
		lp="78,40.5",
		penwidth=1.25,
		pos="e,51.711,17.222 99.934,63.847 90.223,59.517 78.941,53.377 70.5,45.5 64.129,39.555 58.929,31.36 55.186,24.291"];
	15 -> 23	 [arrowhead=normal,
		arrowsize=0.75,
		fontsize=8,
		label=0.25,
		lp="198,104.5",
		penwidth=1.25,
		pos="e,201.87,127.96 146.16,81.054 157.5,85.245 170.49,91.298 180.5,99.5 187.74,105.43 193.79,113.97 198.13,121.25"];
	23 -> 25	 [arrowhead=normal,
		arrowsize=0.75,
		fontsize=8,
		label=0.79,
		lp="194,168.5",
		penwidth=2.87,
		pos="e,133.58,191.97 200.93,145.19 195.73,153.32 186.52,165.98 175.5,173.5 165.15,180.56 152.73,185.84 140.87,189.72"];
	23 -> 15	 [arrowhead=normal,
		arrowsize=0.75,
		fontsize=8,
		label=0.21,
		lp="169,104.5",
		penwidth=1.13,
		pos="e,128.3,81.138 191.21,127.95 182.39,123.07 170.98,116.37 161.5,109.5 151.91,102.55 141.91,93.806 134.19,86.674"];
	2	 [URL="http://lattes.cnpq.br/6653435398940498",
		color="#17272B",
		fontcolor="#FFFFFF",
		height=0.23611,
		label="Rodrigo Weber dos Santos [8]",
		pos="440.5,328.5",
		width=1.5833];
	8	 [URL="http://lattes.cnpq.br/9374460427113373",
		color="#17272B",
		fontcolor="#FFFFFF",
		height=0.23611,
		label="Marcelo Lobosco [7]",
		pos="440.5,264.5",
		width=1.1667];
	2 -> 8	 [arrowhead=normal,
		arrowsize=0.75,
		fontsize=8,
		label=0.69,
		lp="430,296.5",
		penwidth=2.57,
		pos="e,433.44,273.02 432.68,319.8 426.46,312.71 419.29,301.77 422.5,291.5 423.85,287.18 426.2,282.94 428.76,279.18"];
	13	 [URL="http://lattes.cnpq.br/9127577198387019",
		color="#17272B",
		fontcolor="#FFFFFF",
		height=0.23611,
		label="Bernardo Martins Rocha [2]",
		pos="543.5,136.5",
		width=1.4861];
	2 -> 13	 [arrowhead=normal,
		arrowsize=0.75,
		fontsize=8,
		label=0.19,
		lp="547,232.5",
		penwidth=1.07,
		pos="e,546.15,145.38 451.61,319.99 475.03,303.37 528.93,260.89 548.5,209.5 555.57,190.93 551.96,167.73 548.19,152.76"];
	24	 [URL="http://lattes.cnpq.br/4797934811107085",
		color="#17272B",
		fontcolor="#FFFFFF",
		height=0.23611,
		label="Luis P. da Silva Barra [2]",
		pos="363.5,200.5",
		width=1.3611];
	2 -> 24	 [arrowhead=normal,
		arrowsize=0.75,
		fontsize=8,
		label=0.13,
		lp="340,264.5",
		penwidth=0.89,
		pos="e,355.9,209.36 395.02,319.94 369.82,312.89 341.76,299.35 332.5,273.5 325.1,252.83 339.33,229.63 350.87,215.28"];
	8 -> 2	 [arrowhead=normal,
		arrowsize=0.75,
		fontsize=8,
		label=0.79,
		lp="448,296.5",
		penwidth=2.87,
		pos="e,440.5,319.9 440.5,273.16 440.5,282.86 440.5,299.8 440.5,312.19"];
	8 -> 24	 [arrowhead=normal,
		arrowsize=0.75,
		fontsize=8,
		label=0.07,
		lp="411,232.5",
		penwidth=0.71,
		pos="e,371.52,209.24 428.91,255.88 421.48,250.87 411.73,244.06 403.5,237.5 394.48,230.31 384.86,221.69 377.31,214.68"];
	22	 [URL="http://lattes.cnpq.br/9559119135506333",
		color="#17272B",
		fontcolor="#FFFFFF",
		height=0.23611,
		label="Felipe d. Santos Loureiro [1]",
		pos="485.5,200.5",
		width=1.5139];
	8 -> 22	 [arrowhead=normal,
		arrowsize=0.75,
		fontsize=8,
		label=0.14,
		lp="474,232.5",
		penwidth=0.92,
		pos="e,479.94,209.16 446.02,255.9 453.31,245.86 466.27,227.99 475.35,215.48"];
	13 -> 2	 [arrowhead=normal,
		arrowsize=0.75,
		fontsize=8,
		label=0.75,
		lp="571,232.5",
		penwidth=2.75,
		pos="e,459.78,319.95 552.55,145.17 557.4,149.89 562.9,156.39 565.5,163.5 576.86,194.52 573.2,207.91 558.5,237.5 540.74,273.25 528.88,\
279.62 495.5,301.5 486.56,307.36 476.09,312.65 466.7,316.9"];
	13 -> 24	 [arrowhead=normal,
		arrowsize=0.75,
		fontsize=8,
		label=0.25,
		lp="472,168.5",
		penwidth=1.25,
		pos="e,385.57,191.9 521.53,145.07 489.25,156.19 428.93,176.96 392.88,189.38"];
	24 -> 2	 [arrowhead=normal,
		arrowsize=0.75,
		fontsize=8,
		label=0.5,
		lp="384,264.5",
		penwidth=2.0,
		pos="e,427.6,319.92 363.53,209.22 363.92,223.05 366.24,252.57 378.5,273.5 388.85,291.18 407.08,306.01 421.11,315.62"];
	24 -> 8	 [arrowhead=normal,
		arrowsize=0.75,
		fontsize=8,
		label=0.25,
		lp="435,232.5",
		penwidth=1.25,
		pos="e,437.35,255.71 386.95,209.09 397.45,213.31 409.46,219.38 418.5,227.5 424.98,233.32 430.19,241.51 433.91,248.6"];
	24 -> 13	 [arrowhead=normal,
		arrowsize=0.75,
		fontsize=8,
		label=0.25,
		lp="432,168.5",
		penwidth=1.25,
		pos="e,492.07,145.04 374.2,191.75 385.97,183.57 405.73,170.87 424.5,163.5 443.53,156.03 465.15,150.49 484.69,146.5"];
	22 -> 8	 [arrowhead=normal,
		arrowsize=0.75,
		fontsize=8,
		label=1.0,
		lp="495,232.5",
		penwidth=3.5,
		pos="e,463.35,255.94 487.61,209.24 489.25,216.94 490.5,228.84 485.5,237.5 481.92,243.7 476.24,248.55 470.11,252.3"];
	3	 [URL="http://lattes.cnpq.br/8602778120667424",
		color="#17272B",
		fontcolor="#FFFFFF",
		height=0.23611,
		label="Rafael A. Bonfim de Queiroz [0]",
		pos="576.5,328.5",
		width=1.6944];
	4	 [URL="http://lattes.cnpq.br/6986138014246480",
		color="#17272B",
		fontcolor="#FFFFFF",
		height=0.23611,
		label="Luciana C. Dias Campos [0]",
		pos="709.5,328.5",
		width=1.5];
	5	 [URL="http://lattes.cnpq.br/3074561832181610",
		color="#17272B",
		fontcolor="#FFFFFF",
		height=0.23611,
		label="Priscila V. Z. Capriles Goliatt [0]",
		pos="843.5,328.5",
		width=1.7083];
	7	 [URL="http://lattes.cnpq.br/9672291905868428",
		color="#17272B",
		fontcolor="#FFFFFF",
		height=0.23611,
		label="Michèle C. Resende Farage [2]",
		pos="981.5,328.5",
		width=1.6111];
	11	 [URL="http://lattes.cnpq.br/9030707448549156",
		color="#17272B",
		fontcolor="#FFFFFF",
		height=0.23611,
		label="Leonardo Goliatt da Fonseca [3]",
		pos="908.5,264.5",
		width=1.6667];
	7 -> 11	 [arrowhead=normal,
		arrowsize=0.75,
		fontsize=8,
		label=0.5,
		lp="931,296.5",
		penwidth=2.0,
		pos="e,910.39,273.01 956.08,320 945.59,315.89 933.94,309.89 925.5,301.5 919.59,295.63 915.48,287.32 912.78,280.16"];
	19	 [URL="http://lattes.cnpq.br/4695699230584970",
		color="#17272B",
		fontcolor="#FFFFFF",
		height=0.23611,
		label="Flávia de Souza Bastos [3]",
		pos="982.5,200.5",
		width=1.4167];
	7 -> 19	 [arrowhead=normal,
		arrowsize=0.75,
		fontsize=8,
		label=0.5,
		lp="987,264.5",
		penwidth=2.0,
		pos="e,982.44,209.12 981.56,320 981.72,299.82 982.16,244.11 982.38,216.88"];
	11 -> 7	 [arrowhead=normal,
		arrowsize=0.75,
		fontsize=8,
		label=0.33,
		lp="956,296.5",
		penwidth=1.49,
		pos="e,972.55,319.9 917.52,273.16 929.82,283.61 952,302.45 966.74,314.96"];
	11 -> 19	 [arrowhead=normal,
		arrowsize=0.75,
		fontsize=8,
		label=0.67,
		lp="938,232.5",
		penwidth=2.51,
		pos="e,960.85,209.11 911.69,255.75 915.27,247.81 921.76,235.53 930.5,227.5 937.16,221.38 945.52,216.36 953.59,212.42"];
	19 -> 7	 [arrowhead=normal,
		arrowsize=0.75,
		fontsize=8,
		label=0.33,
		lp="1009,264.5",
		penwidth=1.49,
		pos="e,986.93,319.71 987.54,209.35 990.45,214.33 993.85,221.04 995.5,227.5 1003.6,259.37 1004.1,269.76 995.5,301.5 994.42,305.48 992.64,\
309.53 990.7,313.2"];
	19 -> 11	 [arrowhead=normal,
		arrowsize=0.75,
		fontsize=8,
		label=0.67,
		lp="963,232.5",
		penwidth=2.51,
		pos="e,920.18,255.99 975.45,209.03 968.23,216.57 956.54,228.35 945.5,237.5 939.55,242.43 932.71,247.41 926.54,251.68"];
	9	 [URL="http://lattes.cnpq.br/4710759665420538",
		color="#17272B",
		fontcolor="#FFFFFF",
		height=0.23611,
		label="Flavio Barbosa de Souza [0]",
		pos="1111.5,328.5",
		width=1.5];
	14	 [URL="http://lattes.cnpq.br/1092810690505352",
		color="#17272B",
		fontcolor="#FFFFFF",
		height=0.23611,
		label="Alexandre Abrahão Cury [0]",
		pos="1238.5,328.5",
		width=1.5139];
	16	 [URL="http://lattes.cnpq.br/6907017215672171",
		color="#17272B",
		fontcolor="#FFFFFF",
		height=0.23611,
		label="Henrique Steinherz Hippert [0]",
		pos="1369.5,328.5",
		width=1.6111];
	17	 [URL="http://lattes.cnpq.br/5293684092572886",
		color="#17272B",
		fontcolor="#FFFFFF",
		height=0.23611,
		label="Ciro de Barros Barbosa [0]",
		pos="1497.5,328.5",
		width=1.4306];
	18	 [URL="http://lattes.cnpq.br/0311818140902541",
		color="#17272B",
		fontcolor="#FFFFFF",
		height=0.23611,
		label="Grigori Chapiro [0]",
		pos="1606.5,328.5",
		width=1.0972];
	20	 [URL="http://lattes.cnpq.br/8621487041613032",
		color="#17272B",
		fontcolor="#FFFFFF",
		height=0.23611,
		label="Wilhelm Passarella Freire [0]",
		pos="1719.5,328.5",
		width=1.5417];
	21	 [URL="http://lattes.cnpq.br/2440193189134197",
		color="#17272B",
		fontcolor="#FFFFFF",
		height=0.23611,
		label="Elson Magalhães Toledo [0]",
		pos="1846.5,328.5",
		width=1.4861];
}
