artigoEmPeriodico	Sergio Muñoz	2015	http://dx.doi.org/10.3934/dcds.2015.35.1163	Robust transitivity of maps of the real line	Discrete and Continuous Dynamical Systems	MUÑOZ, SERGIO	B1	
trabalhoCompletoEmCongresso	Saul de Castro Leite	2015		Feature Selection from Microarray Data via an Ordered Search with Projected Margin	International Joint Conference on Artificial Intelligence	VILLELA, S. M. ; LEITE, S. C. ; FONSECA NETO, Raul		
artigoEmPeriodico	Rodrigo Weber dos Santos	2015	http://dx.doi.org/10.1109/tbme.2014.2361325	Uniformization Method for Solving Cardiac Electrophysiology Models Based on the Markov-Chain Formulation	IEEE Transactions on Biomedical Engineering (Print)	GOMES, JOHNNY MOREIRA ; ALVARENGA, ADRIELE ; Campos, Ricardo Silva ; ROCHA, Bernardo Martins ; DA SILVA, ANA PAULA COUTO ; Santos, Rodrigo Weber dos	A2	
artigoEmPeriodico	Rodrigo Weber dos Santos	2015		Patient-Specific Left Ventricle Mesh Generation Using the Bull?s Eye of the Wall Thickness Measurements from Medical Images	IFMBE Proceedings	Mendonça, José Paulo ; SCHMAL, Thaiz Ruberti ; MOREIRA GOMES, JOHNNY ; Rocha, Bernardo M. ; DOS SANTOS, R W	B3	
artigoEmPeriodico	Rodrigo Weber dos Santos	2015		A Time Adaptive Scheme Based on the Rush-Larsen Method for Solving Cardiac Cell Models	IFMBE Proceedings	GOMES, JOHNNY MOREIRA ; DOS SANTOS, R W	B3	
artigoEmPeriodico	Rodrigo Weber dos Santos	2015		Simulating the Perfusion of Contrast in Cardiac Transmural Wall	IFMBE Proceedings	ALVES, J. R. ; DOS SANTOS, R W ; Novaes, G. M. ; QUEIROZ, R. A.	B3	
artigoEmPeriodico	Rodrigo Weber dos Santos	2015		Simulations of Spontaneous Action Potentials via the Combination of β 1-Adrenergic Stimulation and NCX Mutation in Cardiac Myocytes of Mouse Left Ventricle	IFMBE Proceedings	SANTO, D. P. M. E. ; DOS SANTOS, R W ; LEITE, S. C. ; Novaes, G. M. ; Campos, F. O. ; BONDARENKO, V. E.	B3	
artigoEmPeriodico	Rodrigo Weber dos Santos	2015	http://dx.doi.org/10.1016/j.cam.2015.01.020	Computational modeling of the immune response to yellow fever	Journal of Computational and Applied Mathematics	BONIN, C.R.B. ; DOS SANTOS, R.W. ; FERNANDES, G.C. ; LOBOSCO, M.	A2	
artigoEmPeriodico	Rodrigo Weber dos Santos	2015	http://dx.doi.org/10.1016/j.cam.2015.02.008	Lattice Boltzmann method for parallel simulations of cardiac electrophysiology using GPUs	Journal of Computational and Applied Mathematics	CAMPOS, J.O. ; OLIVEIRA, R.S. ; DOS SANTOS, R.W. ; ROCHA, B.M.	A2	
artigoEmPeriodico	Rodrigo Weber dos Santos	2015	http://dx.doi.org/10.1016/j.amc.2015.03.072	On the use of multiple heterogeneous devices to speedup the execution of a computational model of the Human Immune System	Applied Mathematics and Computation	DO NASCIMENTO, T.M. ; DE OLIVEIRA, J.M. ; XAVIER, M.P. ; PIGOZZO, A.B. ; DOS SANTOS, R.W. ; LOBOSCO, M.	A2	
artigoEmPeriodico	Rodrigo Weber dos Santos	2015	http://dx.doi.org/10.1155/2015/626378	Simulations of Heart Function	BIOMED RES INT	Weber dos Santos, Rodrigo; ALONSO, SERGIO ; CHERRY, ELIZABETH M. ; Sundnes, Joakim	Qualis nao identificado	BIOMED RES INT
artigoEmPeriodico	Rodrigo Weber dos Santos	2015		On a Dynamic Scheduling Approach to Execute OpenCL Jobs on APUs	Communications in Computer and Information Science (Print)	DO NASCIMENTO, T M ; Weber dos Santos, Rodrigo ; LOBOSCO, M	Qualis nao identificado	Communications in Computer and Information Science (Print)
artigoEmPeriodico	Rodrigo Weber dos Santos	2015		A Parallel Genetic Algorithm to Adjust a Cardiac Model Based on Cellular Automaton and Mass-Spring Systems	Lecture Notes in Computer Science	Campos, Ricardo Silva ; Rocha, Bernardo M. ; Barra, Luis Paulo ; LOBOSCO, M ; Weber dos Santos, Rodrigo	B1	
artigoEmPeriodico	Rodrigo Weber dos Santos	2015		Performance Evaluation of a Human Immune System Simulator on a GPU Cluster	Lecture Notes in Computer Science	SOARES, T. M. ; XAVIER, M P ; Pigozzo, Alexandre ; Campos, Ricardo Silva ; Weber dos Santos, Rodrigo ; LOBOSCO, M	B1	
artigoEmPeriodico	Rodrigo Weber dos Santos	2015	http://dx.doi.org/10.1155/2015/465014	An Electromechanical Left Ventricular Wedge Model to Study the Effects of Deformation on Repolarization during Heart Failure	BIOMED RES INT	Rocha, B. M. ; TOLEDO, E. M. ; BARRA, L. P. S. ; DOS SANTOS, R. WEBER	Qualis nao identificado	BIOMED RES INT
artigoEmPeriodico	Rodrigo Weber dos Santos	2015	http://dx.doi.org/10.1155/2015/713058	Simulation of Ectopic Pacemakers in the Heart: Multiple Ectopic Beats Generated by Reentry inside Fibrotic Regions	BIOMED RES INT	GOUVÊA DE BARROS, BRUNO ; Weber dos Santos, Rodrigo ; LOBOSCO, MARCELO ; ALONSO, SERGIO	Qualis nao identificado	BIOMED RES INT
artigoEmPeriodico	Rodrigo Weber dos Santos	2015	http://dx.doi.org/10.1109/tbme.2015.2470256	Mind the gap: A semi-continuum model for discrete electrical propagation in cardiac tissue	IEEE Transactions on Biomedical Engineering (Print)	MENDONCA COSTA, CAROLINE ; ARROYO SILVA, PEDRO ; Weber dos Santos, Rodrigo	A2	
trabalhoCompletoEmCongresso	Rafael Alves Bonfim de Queiroz	2015	http://dx.doi.org/10.5540/03.2015.003.01.0251	Numerical investigations of turbulent free surface flows using topus scheme and realizable reynolds stress algebraic model	XXXV CNMAC Congresso Nacional de Matemática Aplicada e Computacional	QUEIROZ, RAFAEL ALVES BONFIM DE		
resumoExpandidoEmCongresso	Rafael Alves Bonfim de Queiroz	2015	Automatic generation of optimized arterial trees	IX Latin American Conference on Biomathematics - Solabima, 2015, Botucatu-SP. IX Latin American Conference on Biomathematics - Solabima	Queiroz, R.A.B.; BRITO, P. F. ; ULYSSES, J. N. ; MENESES, L. D. M.		
artigoEmPeriodico	Priscila Vanessa Zabala Capriles Goliatt	2015		Pharmacokinetics Simulation of Breast Cancer	IFMBE Proceedings	CARVALHO, D. S. ; ULYSSES, J. N. ; Capriles, Priscila VSZ ; BARRA, L. P. S. ; QUEIROS, R. A. B.	B3	
artigoEmPeriodico	Priscila Vanessa Zabala Capriles Goliatt	2015		Structural comparative analysis of Ecto-NTPDase models from S. mansoni and H. sapiens	Lecture Notes in Computer Science	NUNES, V. S. P. ; VASCONCELOS, E. G. ; FARIA-PINTO, P. ; BORGES, C. C. H. ; CAPRILES, PRISCILA V.S.Z.	B1	
artigoEmPeriodico	Priscila Vanessa Zabala Capriles Goliatt	2015	http://dx.doi.org/10.1016/j.jmgm.2014.11.002	Structural modeling and docking studies of ribose 5-phosphate isomerase from Leishmania major and Homo sapiens: A comparative analysis for Leishmaniasis treatment	Journal of Molecular Graphics & Modelling	CAPRILES, PRISCILA V.S.Z.; BAPTISTA, L. P. R. ; GUEDES, I. A. ; GUIMARÃES, A. C. R. ; CUSTÓDIO, F. L. ; ALVES-FERREIRA, M. ; DARDENNE, L. E.	A2	
trabalhoCompletoEmCongresso	Patricia Habib Hallak	2015	http://dx.doi.org/10.1201/b17488-33	A Genetic Algorithm for Sizing Optimization of Geometrically non-linear Dome Structures	Cilamce 2015	LEMONGE, A. ; HALLAK, P. H.		
trabalhoCompletoEmCongresso	Patricia Habib Hallak	2015		Solução de Problemas de Otimização Estrutural com Restrições de Frequências de Vibração via PSO	Cilamce 2015	CARVALHO, J. P. G. ; CARVALHO, E. ; BERNARDINO, H. ; HALLAK, P. H. ; LEMONGE, A.		
trabalhoCompletoEmCongresso	Patricia Habib Hallak	2015		Aplicação da Análise de Componentes Principais a Problemas de Engenharia	Cilamce 2015	PICOLI, R. L. ; SAMPAIO, P. A. B. ; HALLAK, P. H.		
artigoEmPeriodico	Michèle Cristina Resende Farage	2015		Numerical evaluation of lightweight aggregate concrete mechanical properties	Architecture - Civil Engineering - Environment Journal	BONIFACIO, A. L. ; J. C. Mendes ; Barbosa, F.S. ; FARAGE, M. C. R. ; ORTOLA, S. ; CUNHA, F. M.	Qualis nao identificado	Architecture - Civil Engineering - Environment Journal
artigoEmPeriodico	Michèle Cristina Resende Farage	2015	http://dx.doi.org/10.15446/dyna.v82n193.46196	A methodology to obtain an analytical formula for the elastic modulus of lightweight aggregate concrete	DYNA (Medellín)	SOUZA-BARBOSA, FLÁVIO DE ; RESENDE-FARAGE, MICHÈLE CRISTINA ; LAGE-BONIFÁCIO, ALDEMON ; BEAUCOUR, ANNE LISE ; ORTOLA, SOPHIE	B1	
trabalhoCompletoEmCongresso	Michèle Cristina Resende Farage	2015		Aplicação de métodos de inteligência computacional para a previsão de propriedades mecânicas do concreto de agregado leve	XXXVI Congresso Ibero-Latino-Americano de Métodos Computacionais em Engenharia	Andrade J. J. ; BARBOSA, F. S. ; Farage, M.C.R. ; Beaucour, A.-L. ; ORTOLA, S. ; FONSECA, L. G.		
trabalhoCompletoEmCongresso	Michèle Cristina Resende Farage	2015		Geometric Modeling and Strain Analysis of Lightweight Concrete Specimens	XXXVI Congresso Ibero-Latino-Americano de Métodos Computacionais em Engenharia	Alves, A. ; Oliveira, R. ; F. S. Bastos ; BARBOSA, F. S. ; Farage, M.C.R.		
resumoExpandidoEmCongresso	Michèle Cristina Resende Farage	2015	Modelagem multiescala do bio compósito esmalte dentário	V Encontro Nacional de Biomecânica, 2015, Uberlândia. V ENEBI	VARGAS, S. M. ; F. S. Bastos ; FARAGE, M. C. R. ; Las Casas, E. B.		
artigoEmPeriodico	Marcelo Lobosco	2015	http://dx.doi.org/10.1016/j.cam.2015.02.047	3D numerical simulations on GPUs of hyperthermia with nanoparticles by a nonlinear bioheat model	Journal of Computational and Applied Mathematics	REIS, R.F. ; LOUREIRO, F.S. ; LOBOSCO, M.	A2	
artigoEmPeriodico	Marcelo Lobosco	2015	http://dx.doi.org/10.1016/j.cam.2015.01.020	Computational modeling of the immune response to yellow fever	Journal of Computational and Applied Mathematics	BONIN, C.R.B. ; DOS SANTOS, R.W. ; FERNANDES, G.C. ; LOBOSCO, M.	A2	
artigoEmPeriodico	Marcelo Lobosco	2015	http://dx.doi.org/10.1155/2015/713058	Simulation of Ectopic Pacemakers in the Heart: Multiple Ectopic Beats Generated by Reentry inside Fibrotic Regions	BioMed Research International	GOUVÊA DE BARROS, BRUNO ; Weber dos Santos, Rodrigo ; LOBOSCO, MARCELO ; ALONSO, SERGIO	Qualis nao identificado	BioMed Research International
artigoEmPeriodico	Marcelo Lobosco	2015		Performance Evaluation of a Human Immune System Simulator on a GPU Cluster	Lecture Notes in Computer Science	SOARES, T. M. ; XAVIER, M P ; Pigozzo, Alexandre ; Campos, Ricardo Silva ; Weber dos Santos, Rodrigo ; LOBOSCO, M	B1	
artigoEmPeriodico	Marcelo Lobosco	2015	http://dx.doi.org/10.1088/1742-6596/633/1/012087	Parameters analysis of a porous medium model for treatment with hyperthermia using OpenMP	Journal of Physics. Conference Series (Online)	REIS, R F ; LOUREIRO, F S ; LOBOSCO, M.	B2	
artigoEmPeriodico	Marcelo Lobosco	2015		A Parallel Genetic Algorithm to Adjust a Cardiac Model Based on Cellular Automaton and Mass-Spring Systems	Lecture Notes in Computer Science	Campos, Ricardo Silva ; Rocha, Bernardo M. ; Barra, Luis Paulo ; LOBOSCO, M ; Weber dos Santos, Rodrigo	B1	
artigoEmPeriodico	Marcelo Lobosco	2015	http://dx.doi.org/10.1016/j.amc.2015.03.072	On the use of multiple heterogeneous devices to speedup the execution of a computational model of the Human Immune System	Applied Mathematics and Computation	DO NASCIMENTO, T.M. ; DE OLIVEIRA, J.M. ; XAVIER, M.P. ; PIGOZZO, A.B. ; DOS SANTOS, R.W. ; LOBOSCO, M.	A2	
artigoEmPeriodico	Marcelo Lobosco	2015		On a Dynamic Scheduling Approach to Execute OpenCL Jobs on APUs	Communications in Computer and Information Science (Print)	Nascimento, T. M. ; SANTOS, Rodrigo Weber dos ; LOBOSCO, M.	Qualis nao identificado	Communications in Computer and Information Science (Print)
trabalhoCompletoEmCongresso	Raul Fonseca Neto	2015		Feature Selection from Microarray Data via an Ordered Search with Projected Margin	24 th International Joint Conference on Artificial Intelligence IJCAI-15	VILLELA, S. M. ; LEITE, S. C. ; FONSECA NETO, Raul		
trabalhoCompletoEmCongresso	Raul Fonseca Neto	2015		A novel ensemble approach based on balanced perceptrons applied to microarray datasets	Brazilian Conference on Intelligent Systems	ENES, K. ; VILLELA, S. M. ; FONSECA NETO, R.		
trabalhoCompletoEmCongresso	Raul Fonseca Neto	2015		Stealthy path planning using navigation meshes	Brazilian Conference on Intelligent Systems	MENDONCA, M. R. F. ; BERNARDINO, H. ; FONSECA NETO, R.		
trabalhoCompletoEmCongresso	Raul Fonseca Neto	2015		A regularized evolutionary algorithm for constrained optimization	XXXVI Ibero Latin American Congress on Computational Engineering	BORGES, C. C. H. ; FONSECA NETO, R. ; HACEN, S. O. M.		
trabalhoCompletoEmCongresso	Raul Fonseca Neto	2015		Um Classificador Kernel composto por um Comite de Perceptrons Balanceados	12 Congresso Brasileiro de Inteligência Computacional - CBIC 2015	ENES, K. ; VILLELA, S. M. ; FONSECA NETO, R.		
trabalhoCompletoEmCongresso	Raul Fonseca Neto	2015		Um Classificador para Seleção de Características aplicado a Problemas Não-linearmente Separáveis	12 Congresso Brasileiro de Inteligência Computacional - CBIC 2015	VILLELA, S. M. ; FONSECA NETO, R.		
trabalhoCompletoEmCongresso	Raul Fonseca Neto	2015		Simulating Human Behavior in Fighting Games using Reinforcement Learning and Artificial Neural Networks	XIV Simpósio Brasileiro de Jogos e Entretenimento Digital - SBGames 2015	MENDONCA, M. R. F. ; BERNARDINO, H. ; FONSECA NETO, R.		
resumoExpandidoEmCongresso	Raul Fonseca Neto	2015	An Online Adaptive Algorithm for Fighting Games	XIV Simpósio Brasileiro de Jogos e Entretenimento Digital - SBGames 2015, 2015, Teresina. In Proceedings of XIV Simpósio Brasileiro de Jogos e Entretenimento Digital	GOULART, R. M. ; PINTO, G. A. ; FONSECA NETO, R.		
artigoEmPeriodico	Leonardo Goliatt da Fonseca	2015	http://dx.doi.org/10.1016/j.cam.2015.01.018	A FEM-based study on the influence of skewness and kurtosis surface texture parameters in human dental occlusal contact	Journal of Computational and Applied Mathematics	BASTOS, FLAVIA S. ; OLIVEIRA, EVELYN A. ; FONSECA, LEONARDO G. ; VARGAS, SABRINA M. ; LAS CASAS, ESTEVAM B.	A2	
trabalhoCompletoEmCongresso	Leonardo Goliatt da Fonseca	2015	http://dx.doi.org/10.20906/CPS/CILAMCE2015-0636	Comparação de métodos de classificação para análise de dados petrográficos	XXXVI Iberian Latin American Congress on Computational Methods in Engineering	MARTINS SAPORETTI, CAMILA ; GOLIATT DA FONSECA, LEONARDO ; COSTA DE OLIVEIRA, LEONARDO ; PEREIRA, EGBERTO		
trabalhoCompletoEmCongresso	Leonardo Goliatt da Fonseca	2015	http://dx.doi.org/10.20906/CPS/CILAMCE2015-0716	Aplicação de métodos de inteligência computacional para a previsão de propriedades mecânicas do concreto de agregado leve	XXXVI Congresso Ibero-Latino-Americano de Métodos Computacionais em Engenharia	ANDRADE, JONATA JEFFERSON ; BARBOSA, FLÁVIO DE SOUZA ; FARAGE, MICHÈLE CRISTINA RESENDE ; BEAUCOUR, ANNE-LISE ; ORTOLA, SOPHIE ; GOLIATT DA FONSECA, LEONARDO		
trabalhoCompletoEmCongresso	Leonardo Goliatt da Fonseca	2015	http://dx.doi.org/10.20906/CPS/CILAMCE2015-0663	Estimativa da biomassa arbórea de regiões de mangue via escaneamento tridimensional a laser - comparação de métodos computacionais	XXXVI Iberian Latin American Congress on Computational Methods in Engineering	TAVARES, GISELE G. ; GOLIATT, LEONARDO ; NEVES, GABRIEL H. C. ; BASTOS, FLÁVIA S. ; CHAVES, FILIPE O. ; SABINO, THALES L. R.		
artigoEmPeriodico	Carlos Cristiano Hasenclever Borges	2015	http://dx.doi.org/10.18593/race.v14i1.4760	DESCONTINUIDADE DE EMPRESAS BRASILEIRAS DO SETOR DE MATERIAL BÁSICO: NO PERÍODO COMPREENDIDO PRÉ E PÓS A CRISE DO SUBPRIME / Discontinuance of brazilian companies of basic materials sector: the period pre and post the subprime crisis	RACE : Revista de Administração, Contabilidade e Economia	HORTA, RUI AMÉRICO MATHIASI ; ALVES, FRANCISCO JOSÉ DOS SANTOS ; BORGES, CARLOS CRISTIANO HASENCLEVER ; RODRIGUES, ADRIANO	B4	
artigoEmPeriodico	Carlos Cristiano Hasenclever Borges	2015	http://dx.doi.org/10.4236/jbise.2015.83013	Computational Analysis of Anastomotic Angles by Blood Flow Conditions in Side-to-End Radio-Cephalic Fistulae Used in Hemodialysis	Journal of Biomedical Science and Engineering	DE ANDRADE SILVA, JANAÍNA ; KARAM-FILHO, JOSÉ ; BORGES, CARLOS CRISTIANO H.	Qualis nao identificado	Journal of Biomedical Science and Engineering
trabalhoCompletoEmCongresso	Carlos Cristiano Hasenclever Borges	2015		A Regularized Evolutionary Algorithm for Constrained Optimization	36th Iberian-Latin-American Congress on Computational Methods in Engineering	BORGES, C.C.H.; HACEN, S. O. M. E. ; FONSECA NETO, R.		
trabalhoCompletoEmCongresso	Carlos Cristiano Hasenclever Borges	2015	http://dx.doi.org/10.1109/cisti.2015.7170411	On the robustness of SNPs filtering using computational intelligence	2015 10th Iberian Conference on Information Systems and Technologies (CISTI)	ZONOVELLI, BRUNO ; BORGES, CARLOS CRISTIANO HASENCLEVER ; ARBEX, WAGNER		
resumoExpandidoEmCongresso	Carlos Cristiano Hasenclever Borges	2015	Análise do Fluxo Sanguíneo não newtoniano em fístulas arteriovenosas término-laterais utilizadas em procedimento de hemodiálise	VI-Portuguese Congress on Biomechanics, 2015, Leiria. VI-Portuguese Congress on Biomechanics. Leiria: Instituto Politécnico	SILVA, J. A. ; BORGES, C. C. H. ; KARAM-FILHO, J.		
resumoExpandidoEmCongresso	Carlos Cristiano Hasenclever Borges	2015	Computation of blood flow oscillatory shear stress on vessel walls of an anastomotic configuration model for hemodialysis	VII Brazilian Conference on Rheology, 2015, Curitiba. VII-BCR. Rio de Janeiro: Brazilian Society of Rheology	SILVA, J. A. ; BORGES, C. C. H. ; KARAM-FILHO, J.		
artigoEmPeriodico	Bernardo Martins Rocha	2015	http://dx.doi.org/10.1016/j.cam.2015.02.008	Lattice Boltzmann method for parallel simulations of cardiac electrophysiology using GPUs	Journal of Computational and Applied Mathematics	CAMPOS, J.O. ; OLIVEIRA, R.S. ; DOS SANTOS, R.W. ; ROCHA, B.M.	A2	
artigoEmPeriodico	Bernardo Martins Rocha	2015	http://dx.doi.org/10.1155/2015/465014	An Electromechanical Left Ventricular Wedge Model to Study the Effects of Deformation on Repolarization during Heart Failure	BIOMED RES INT	Rocha, B. M. ; TOLEDO, E. M. ; BARRA, L. P. S. ; DOS SANTOS, R. WEBER	Qualis nao identificado	BIOMED RES INT
artigoEmPeriodico	Alexandre Abrahão Cury	2015	http://dx.doi.org/10.1016/j.engstruct.2015.05.003	Structural modification assessment using supervised learning methods applied to vibration data	Engineering Structures	ALVES, VINICIUS ; CURY, ALEXANDRE ; ROITMAN, NEY ; MAGLUTA, CARLOS ; CREMONA, CHRISTIAN	A1	
artigoEmPeriodico	Alexandre Abrahão Cury	2015	http://dx.doi.org/10.1002/stc.1741	Novelty detection for SHM using raw acceleration measurements	Structural Control & Health Monitoring (Print)	ALVES, VINICIUS ; CURY, ALEXANDRE ; ROITMAN, NEY ; MAGLUTA, CARLOS ; CREMONA, CHRISTIAN	A2	
trabalhoCompletoEmCongresso	Alexandre Abrahão Cury	2015		On the advances of automatic modal identification for SHM	EVACES'15 - Experimental Vibration Analysis for Civil Engineering Structures	CARDOSO, R. ; CURY, A.A. ; BARBOSA, F. S.		
trabalhoCompletoEmCongresso	Alexandre Abrahão Cury	2015		Evaluation of the performance of different damage indicators in railway bridges	International Conference on Structural Integrity	ALVES, V. N. ; MEIXEDO, A. ; RIBEIRO, D. ; CALCADA, R. ; CURY, A.A.		
trabalhoCompletoEmCongresso	Alexandre Abrahão Cury	2015		An enhanced approach for automatic modal identification	XXXVI Ibero-Latin American Congress on Computational Methods in Engineering	CARDOSO, R. ; CURY, A.A. ; BARBOSA, F. S.		
artigoEmPeriodico	Afonso Celso de Castro Lemonge	2015	http://dx.doi.org/10.1108/ec-07-2014-0158	Variants of an adaptive penalty scheme for steady-state genetic algorithms in engineering optimization	Engineering Computations	LEMONGE, A. C. C.; BARBOSA, H. J. C. ; BERNARDINO, H. S.	B1	
artigoEmPeriodico	Afonso Celso de Castro Lemonge	2015	http://dx.doi.org/10.1016/j.engstruct.2015.05.001	Use of optimization for automatic grouping of beam cross-section dimensions in reinforced concrete building structures	Engineering Structures	KRIPKA, M. ; MEDEIROS, G. F. ; LEMONGE, A.C.C.	A1	
artigoEmPeriodico	Afonso Celso de Castro Lemonge	2015	http://dx.doi.org/10.1016/j.rimni.2015.02.003	Um algoritmo baseado em evolução diferencial para problemas de otimização estrutural multiobjetivo com restrições	Revista Internacional de Métodos Numéricos para Cálculo y Diseño en Ingeniería	VARGAS, D. E. ; LEMONGE, A. C. C. ; BARBOSA, H. J. C. ; BERNARDINO, H. S.	B1	
trabalhoCompletoEmCongresso	Afonso Celso de Castro Lemonge	2015		Solução de problemas de otimização estrutural com restrições de frequências de vibração via PSO	XXXVI Ibero-Latin American Congress on Computational Engineering	CARVALHO, J. P. G. ; CARVALHO, E. C. R. ; BERNARDINO, H. S. ; HALLAK, P. H. ; LEMONGE, A. C. C.		
trabalhoCompletoEmCongresso	Afonso Celso de Castro Lemonge	2015		Handling optimization problems with constraints of different magnitudes using evolutionary algorithms	XXXVI Ibero-Latin American Congress on Computational Engineering	GARCIA, R. P. ; LIMA, B. S. L. P. ; JACOB, B. P. ; LEMONGE, A.C.C.		
trabalhoCompletoEmCongresso	Afonso Celso de Castro Lemonge	2015	http://dx.doi.org/10.1201/b17488-33	A genetic algorithm for sizing optimization of geometrically non-linear dome structures	XXXVI Ibero-Latin American Congress on Computational Engineering	LEMONGE, A.C.C.; HALLAK, P. H.		
resumoExpandidoEmCongresso	Afonso Celso de Castro Lemonge	2015	Integração de plataformas computacionais para a solução de problemas de otimização em engenharia	XXXVI Ibero-Latin American Congress on Computational Engineering, 2015, Rio de Janeiro. Proceedings of XXXVI Ibero-Latin American Congress on Computational Engineering	FONSECA, T. L. ; LEMONGE, A.C.C. ; BERNARDINO, H. S.		
trabalhoCompletoEmCongresso	Henrique Steinherz Hippert	2015		Univariate versus Multivariate Models for Short-term Electricity Load Forecasting	SIO 2015 ? 13º Simposio Argentino de Investigación Operativa	GUILHERMINO NETO, G. ; DeFILLIPO, Samuel C. ; HIPPERT, H. S.		
trabalhoCompletoEmCongresso	Henrique Steinherz Hippert	2015		Short-term load forecasting by artificial neural networks specified by genetic algorithms ? a simulation study over a Brazilian dataset	SIO 2015 ? 13º Simposio Argentino de Investigación Operativa	DeFILLIPO, Samuel C. ; GUILHERMINO NETO, G. ; HIPPERT, H. S.		
trabalhoCompletoEmCongresso	Henrique Steinherz Hippert	2015		Um estudo empírico do desempenho de combinações de previsões	XXII SIMPEP - Simpósio de Engenharia de Produção	OLIVEIRA, L. S. ; HIPPERT, H. S.		
artigoEmPeriodico	Grigori Chapiro	2015		Stability of Interacting Traveling Waves in Reaction-Convection-Diffusion Systems	Discrete and Continuous Dynamical Systems	CHAPIRO, G.; FURTADO, L. ; MARCHESIN, D. ; SCHECTER, S.	B1	
artigoEmPeriodico	Grigori Chapiro	2015	http://dx.doi.org/10.1016/j.petrol.2015.01.036	Combustion enhance recovery of shale gas	Journal of Petroleum Science & Engineering	Chapiro, Grigori; BRUINING, J.	A2	
artigoEmPeriodico	Grigori Chapiro	2015	http://dx.doi.org/10.1088/1742-6596/633/1/012098	The effect of thermal losses on traveling waves for in-situ combustion in porous medium	Journal of Physics. Conference Series (Print)	CHAPIRO, G.; MARCHESIN, D.	B2	
artigoEmPeriodico	Grigori Chapiro	2015	http://dx.doi.org/10.1080/00036811.2014.998204	Asymptotic approximation for counterflow combustion in porous media	Applicable Analysis	Chapiro, Grigori; DE SOUZA, APARECIDO JESUINO	Qualis nao identificado	Applicable Analysis
artigoEmPeriodico	Grigori Chapiro	2015	http://dx.doi.org/10.1016/j.jmaa.2015.01.012	On the existence of solutions for a class of fourth order differential equations	Journal of Mathematical Analysis and Applications (Print)	Chapiro, Grigori; FARIA, LUIZ F.O. ; MALDONADO, ANDRÉ D.	A2	
trabalhoCompletoEmCongresso	Grigori Chapiro	2015	http://dx.doi.org/10.5540/03.2015.003.01.0066	Estudos de modelos dispersivos para dinâmica de populações	XXXV CNMAC Congresso Nacional de Matemática Aplicada e Computacional	YAMASHITA, WILLIAM M. S. ; TAKAHASHI, LUCY T. ; Chapiro, Grigori		
artigoEmPeriodico	Flávia de Souza Bastos	2015	http://dx.doi.org/10.1016/j.biotri.2015.04.001	Enamel wear characterization based on a skewness and kurtosis surface roughness evaluation	Biotribology	MEIRELES, Agnes Batista ; BASTOS, FLÁVIA DE SOUZA ; CORNACCHIA, Tulimar Pereira Machado ; FERREIRA, J. A. ; de Las Casas, Estevam Barbosa	Qualis nao identificado	Biotribology
artigoEmPeriodico	Flávia de Souza Bastos	2015	http://dx.doi.org/10.17765/1983-1870.2015v8n2p285-295	Análise Perfilométrica do Padrão de Desgaste Dentário de Indivíduos Bruxômanos e sua Inter-Relação com a Erosão Dentária: Um Estudo Longitudinal	Saúde e Pesquisa (Online)	BONATO, LETÍCIA LADEIRA ; BASTOS, FLÁVIA DE SOUZA ; MEIRELES, Agnes Batista ; DE ÁVILA, RENATO FRANÇOSO ; GUIMARÃES, JOSEMAR PARREIRA	Qualis nao identificado	Saúde e Pesquisa (Online)
artigoEmPeriodico	Flávia de Souza Bastos	2015	http://dx.doi.org/10.1016/j.cam.2015.01.018	A FEM-based study on the influence of skewness and kurtosis surface texture parameters in human dental occlusal contact	Journal of Computational and Applied Mathematics	BASTOS, FLAVIA S. ; OLIVEIRA, EVELYN A. ; FONSECA, LEONARDO G. ; VARGAS, SABRINA M. ; LAS CASAS, ESTEVAM B.	A2	
trabalhoCompletoEmCongresso	Flávia de Souza Bastos	2015	http://dx.doi.org/10.20906/CPS/CILAMCE2015-0663	Estimativa da biomassa arbórea de regiões de mangue via escaneamento tridimensional a laser - comparação de métodos computacionais	XXXVI Iberian Latin American Congress on Computational Methods in Engineering	TAVARES, GISELE G. ; GOLIATT, LEONARDO ; NEVES, GABRIEL H. C. ; BASTOS, FLÁVIA S. ; CHAVES, FILIPE O. ; SABINO, THALES L. R.		
trabalhoCompletoEmCongresso	Flávia de Souza Bastos	2015		Geometric Modeling and Strain Analysis of Lightweight Concrete Specimens	XXXVI Congresso Ibero-Latino-Americano de Métodos Computacionais em Engenharia	Franck, A. ; Oliveira, R. ; BASTOS, F. S. ; BARBOSA, F. S. ; FARAGE, M. C. R.		
trabalhoCompletoEmCongresso	Flávia de Souza Bastos	2015		Modelagem Multi-Escala do Bio Compósito Esmalte Dentário	Encontro Nacional de Engenharia Biomecânica	Vargas, S. M. ; BASTOS, F. S. ; FARAGE, M. C. R. ; Las Casas, E. B.		
trabalhoCompletoEmCongresso	Flávia de Souza Bastos	2015		Modelo Estatístico de Efeitos Mistos para Análise de Dados Longitudinais de Desgaste Dentário	Encontro de Engenharia Biomecânica	MEIRELES, Agnes Batista ; FERREIRA, J. A. ; BASTOS, F. S. ; Bonato, L. L. ; Las Casas, E. B.		
artigoEmPeriodico	Elson Magalhães Toledo	2015	http://dx.doi.org/10.1016/j.jocs.2015.04.005	A new stochastic cellular automata model for traffic flow simulation with drivers’ behavior prediction	Journal of Computational Science	ZAMITH, MARCELO ; LEAL-TOLEDO, REGINA CÉLIA P. ; CLUA, ESTEBAN ; TOLEDO, ELSON M. ; MAGALHÃES, GUILHERME V.P. DE	B1	
artigoEmPeriodico	Felipe dos Santos Loureiro	2015	http://dx.doi.org/10.1016/j.enganabound.2014.09.015	An explicit time-stepping technique for elastic waves under concepts of Green?s functions computed locally by the FEM	Engineering Analysis with Boundary Elements	LOUREIRO, F.S.; SILVA, J.E.A. ; MANSUR, W.J.	A2	
artigoEmPeriodico	Felipe dos Santos Loureiro	2015	http://dx.doi.org/10.1088/1742-6596/633/1/012087	Parameters analysis of a porous medium model for treatment with hyperthermia using OpenMP	Journal of Physics. Conference Series (Online)	REIS, RUY FREITAS ; LOUREIRO, FELIPE DOS SANTOS ; LOBOSCO, MARCELO	B2	
artigoEmPeriodico	Felipe dos Santos Loureiro	2015	http://dx.doi.org/10.1088/1742-6596/633/1/012102	An accurate solution of elastodynamic problems by numerical local Green's functions	Journal of Physics. Conference Series (Online)	LOUREIRO, F S; SILVA, J E A ; MANSUR, W J	B2	
trabalhoCompletoEmCongresso	Felipe dos Santos Loureiro	2015		Application of the spectral nite element method for elastic wave propagation problems in functionally graded materials	CMAC-Congresso de Matemática Aplicada e Computacional	SILVA, J. E. A. ; LOUREIRO, F. S. ; MANSUR, W J		
trabalhoCompletoEmCongresso	Felipe dos Santos Loureiro	2015		SOLUÇÃO DA EQUAÇÃO DA ONDA ELÁSTICA VIA FUNÇÕES DE GREEN NUMÉRICAS	XXXVI CILAMCE -Congresso Ibero Latino Americano de Métodos Computacionais em Engenharia	SILVA, J. E. A. ; LOUREIRO, F.S. ; MANSUR, W J		
trabalhoCompletoEmCongresso	Felipe dos Santos Loureiro	2015		INFLUÊNCIA DA PERFUSÃO SANGUÍNEA NA SIMULAÇÃO DE QUEIMADURAS EM TECIDOS VIA MODELO NÃO-LINEAR DE BIOTRANSFERÊNCIA DE CALOR	XXXVI CILAMCE Ibero-Latin American Congress on Computational Methods in Engineering	RIBEIRO, T. ; LOUREIRO, F.S. ; SILVA, J. E. A.		
artigoEmPeriodico	Helio José Corrêa Barbosa	2015	http://dx.doi.org/10.1111/itor.12153	A study on the use of heuristics to solve a bilevel programming problem	International Transactions in Operational Research	ANGELO, JAQUELINE S. ; Barbosa, Helio J. C.	B1	
artigoEmPeriodico	Helio José Corrêa Barbosa	2015	http://dx.doi.org/10.1016/j.rimni.2015.02.003	Um algoritmo baseado em evolução diferencial para problemas de otimização estrutural multiobjetivo com restrições	Revista Internacional de Métodos Numéricos para Cálculo y Diseño en Ingeniería	VARGAS, D. E. ; LEMONGE, A. C. C. ; BARBOSA, H. J. C. ; BERNARDINO, H. S.	B1	
artigoEmPeriodico	Helio José Corrêa Barbosa	2015	http://dx.doi.org/10.4203/ctr.12.2	Derivative-Free Techniques for Multiobjective Structural Optimization: A Review	Computational Technology Reviews	BARBOSA, H.J.C.; BERNARDINO, H.S. ; ANGELO, J.S.	Qualis nao identificado	Computational Technology Reviews
artigoEmPeriodico	Helio José Corrêa Barbosa	2015	http://dx.doi.org/10.1108/EC-07-2014-0158	Variants of an adaptive penalty scheme for steady-state genetic algorithms in engineering optimization	Engineering Computations	LEMONGE, AFONSO C.C ; BARBOSA, HELIO J.C. ; Bernardino, Heder S.	B1	
trabalhoCompletoEmCongresso	Helio José Corrêa Barbosa	2015		A comparative study of techniques for handling integer variables using Differential Evolution	XXXVI Iberian Latin-American Congress on Computational Methods in Engineering	KREISCHER, V. ; KREMPSER, EDUARDO ; BARBOSA, H. J. C.		
trabalhoCompletoEmCongresso	Helio José Corrêa Barbosa	2015		Migration policies to improve exploration in parallel island models for optimization via metaheuristics	XXXVI Iberian Latin-American Congress on Computational Methods in Engineering	MAGALHAES, T. T. ; KREMPSER, EDUARDO ; BARBOSA, H. J. C.		
trabalhoCompletoEmCongresso	Helio José Corrêa Barbosa	2015		Aplicação de uma Programação Genética Gramatical Multiobjetivo na Inferência da Máxima Deformação Longitudinal de Dutos com Amassamento	XXXVI Iberian Latin-American Congress on Computational Methods in Engineering	FREITAS, J. M. ; BERNARDINO, H. S. ; BARBOSA, H. J. C.		
trabalhoCompletoEmCongresso	Helio José Corrêa Barbosa	2015	http://dx.doi.org/10.1109/cec.2015.7257021	Grammar-based immune programming to assist in the solution of functional equations	2015 IEEE Congress on Evolutionary Computation (CEC)	Bernardino, Heder S. ; BARBOSA, HELIO J.C.		
trabalhoCompletoEmCongresso	Helio José Corrêa Barbosa	2015	http://dx.doi.org/10.1109/cec.2015.7257079	Using grammar-based genetic programming to determine characteristics of multiple infections and environmental factors in the development of allergies and asthma	2015 IEEE Congress on Evolutionary Computation (CEC)	VEIGA, RAFAEL V. ; DE FREITAS, JOAO MARCOS ; Bernardino, Heder S. ; BARBOSA, HELIO J.C. ; ALCANTARA-NEVES, NEUZA M.		
trabalhoCompletoEmCongresso	Helio José Corrêa Barbosa	2015	http://dx.doi.org/10.1109/cec.2015.7257088	Differential evolution to find Stackelberg-Nash equilibrium in bilevel problems with multiple followers	2015 IEEE Congress on Evolutionary Computation (CEC)	ANGELO, JAQUELINE S. ; Barbosa, Helio J. C.		
trabalhoCompletoEmCongresso	Helio José Corrêa Barbosa	2015	http://dx.doi.org/10.1109/cibcb.2015.7300285	Genetic operators based on backbone constraint angles for protein structure prediction	2015 IEEE Conference on Computational Intelligence in Bioinformatics and Computational Biology (CIBCB)	SANTOS, KARINA B. ; CUSTODIO, FABIO L. ; Barbosa, Helio J. C. ; DARDENNE, Laurent E.		
artigoEmPeriodico	Luis Paulo da Silva Barra	2015	http://dx.doi.org/10.1155/2015/465014	An Electromechanical Left Ventricular Wedge Model to Study the Effects of Deformation on Repolarization during Heart Failure	BIOMED RES INT	ROCHA, Bernardo Martins ; TOLEDO, E. M. ; BARRA, L. P. S. ; DOS SANTOS, R. WEBER	Qualis nao identificado	BIOMED RES INT
artigoEmPeriodico	Luis Paulo da Silva Barra	2015		A Parallel Genetic Algorithm to Adjust a Cardiac Model Based on Cellular Automaton and Mass-Spring Systems	Lecture Notes in Computer Science	Campos, Ricardo Silva ; Rocha, Bernardo M. ; Barra, Luis Paulo ; LOBOSCO, M ; Weber dos Santos, Rodrigo	B1	
artigoEmPeriodico	Heder Soares Bernardino	2015	http://dx.doi.org/10.1016/j.advengsoft.2014.09.015	Ant colony approaches for multiobjective structural optimization problems with a cardinality constraint	Advances in Engineering Software (1992)	ANGELO, JAQUELINE S. ; Bernardino, Heder S. ; BARBOSA, HELIO J.C.	A2	
artigoEmPeriodico	Heder Soares Bernardino	2015	http://dx.doi.org/10.5935/0101-2800.20150055	Telemedicine: Development of a distance care system for pre-dialysis chronic kidney disease patients	Jornal Brasileiro de Nefrologia (Impresso)	FERNANDES, N. M. S. ; BASTOS, M. G. ; OLIVEIRA, N. A. C. ; COSTA, A. V. ; BERNARDINO, Heder S.	B2	
artigoEmPeriodico	Heder Soares Bernardino	2015	http://dx.doi.org/10.1108/EC-07-2014-0158	Variants of an adaptive penalty scheme for steady-state genetic algorithms in engineering optimization	Engineering Computations	LEMONGE, Afonso C. C. ; BARBOSA, Helio J. C. ; BERNARDINO, Heder S.	B1	
artigoEmPeriodico	Heder Soares Bernardino	2015	http://dx.doi.org/10.1016/j.rimni.2015.02.003	Um algoritmo baseado em evolução diferencial para problemas de otimização estrutural multiobjetivo com restrições	Revista Internacional de Métodos Numéricos para Cálculo y Diseño en Ingeniería	VARGAS, DENIS E. C. ; LEMONGE, Afonso C. C. ; BARBOSA, Helio J. C. ; Bernardino, Heder S.	B1	
artigoEmPeriodico	Heder Soares Bernardino	2015	http://dx.doi.org/10.4203/ctr.12.2	Derivative-Free Techniques for Multiobjective Structural Optimization: A Review	Computational Technology Reviews	BARBOSA, H.J.C. ; BERNARDINO, H.S. ; ANGELO, J.S.	Qualis nao identificado	Computational Technology Reviews
trabalhoCompletoEmCongresso	Heder Soares Bernardino	2015	http://dx.doi.org/10.1109/CEC.2015.7257021	Grammar-based immune programming to assist in the solution of functional equations	2015 IEEE Congress on Evolutionary Computation (CEC)	Bernardino, Heder S. ; BARBOSA, HELIO J.C.		
trabalhoCompletoEmCongresso	Heder Soares Bernardino	2015	http://dx.doi.org/10.1109/CEC.2015.7257079	Using grammar-based genetic programming to determine characteristics of multiple infections and environmental factors in the development of allergies and asthma	2015 IEEE Congress on Evolutionary Computation (CEC)	VEIGA, RAFAEL V. ; DE FREITAS, JOAO MARCOS ; Bernardino, Heder S. ; BARBOSA, HELIO J.C. ; ALCANTARA-NEVES, NEUZA M.		
trabalhoCompletoEmCongresso	Heder Soares Bernardino	2015		A Differential Evolution Algorithm for Optimization Including Linear Equality Constraints	Portuguese Conference on Artificial Intelligence (EPIA)	BARBOSA, HELIO J.C. ; ARAUJO, R. L. ; BERNARDINO, Heder S.		
trabalhoCompletoEmCongresso	Heder Soares Bernardino	2015		Simulating Human Behavior in Fighting Games using Reinforcement Learning and Artificial Neural Networks	XIV Simpósio Brasileiro de Jogos e Entretenimento Digital - SBGames 2015	MENDONCA, M. R. F. ; BERNARDINO, H.S. ; FONSECA NETO, R.		
trabalhoCompletoEmCongresso	Heder Soares Bernardino	2015	http://dx.doi.org/10.1109/BRACIS.2015.49	Stealthy Path Planning Using Navigation Meshes	2015 Brazilian Conference on Intelligent Systems (BRACIS)	MENDONCA, MATHEUS R.F. ; Bernardino, Heder S. ; NETO, RAUL F.		
trabalhoCompletoEmCongresso	Heder Soares Bernardino	2015	http://dx.doi.org/10.20906/CPS/CILAMCE2015-0486	Aplicação de uma Programação Genética Gramatical Multiobjetivo na Inferência da Máxima Deformação Longitudinal de Dutos com Amassamento	XXXVI Iberian Latin American Congress on Computational Methods in Engineering	DE FREITAS, JOÃO MARCOS ; BERNARDINO, HEDER SOARES ; GUERREIRO, JOÃO NISAN CORREIA ; BARBOSA, HELIO JOSÉ CORRÊA		
trabalhoCompletoEmCongresso	Heder Soares Bernardino	2015	http://dx.doi.org/10.20906/CPS/CILAMCE2015-0429	Solução de problemas de otimização estrutural com restrições de frequências de vibração via PSO	XXXVI Iberian Latin American Congress on Computational Methods in Engineering	CARVALHO, JOSÉ PEDRO GONÇALVES ; CARVALHO, ÉRICA DA COSTA REIS ; BERNARDINO, HEDER SOARES ; HALLAK, PATRÍCIA HABIB ; LEMONGE, AFONSO CELSO DE CASTRO		
resumoExpandidoEmCongresso	Heder Soares Bernardino	2015	Integração de Plataformas Computacionais para a Solução de Problemas de Otimização em Engenharia	XXXVI Ibero-Latin American Congress on Computational Engineering, 2015, Rio de Janeiro. Proceedings of XXXVI Ibero-Latin American Congress on Computational Engineering	FONSECA, TALES LIMA ; LEMONGE, AFONSO CELSO DE CASTRO ; BERNARDINO, HEDER SOARES		
