
PB0:2013,84;
PB2:*itens sem ano,1;2013,4;
PB3:*itens sem ano,17;2013,2;
PB4:2013,46;
PB5:2013,6;
PB6:2013,108;
PB7:2013,1;
PB8:2013,45;
PT3:*itens sem ano,4;
PT4:2013,7;
PT5:2013,10;
OA0:2013,2;2015,4;2016,4;2017,2;
OA1:2009,1;2011,1;2012,3;2013,11;2014,11;2015,15;2016,11;2017,7;
OA2:2014,2;2015,6;2016,27;2017,14;
OA4:2012,1;2014,1;2015,1;2016,3;2017,19;
OA5:2011,1;2014,2;2015,5;2016,11;2017,16;
OA6:2015,4;2016,8;2017,9;
OC0:2013,4;
OC1:2013,5;
OC2:2013,20;
OC4:2013,22;
OC5:2013,35;
OC6:2013,38;
Pm:2013,11;
Pj:2000,1;2002,1;2004,1;2006,5;2007,1;2008,3;2009,13;2010,16;2011,25;2012,26;2013,26;
PB:*itens sem ano,18;2013,296;
PT:*itens sem ano,4;2013,17;
OA:2009,1;2011,2;2012,4;2013,13;2014,16;2015,35;2016,64;2017,67;
OC:2013,124;
Ep:2013,63;
Eo:2013,12;