
PB0:2015,63;
PB1:2015,4;
PB2:2015,10;
PB3:*itens sem ano,2;2015,3;
PB4:2015,73;
PB5:2015,4;
PB6:2015,9;
PB7:2015,3;
PB8:2015,48;
PB9:2015,3;
PT2:*itens sem ano,1;
PT3:*itens sem ano,1;
PT4:*itens sem ano,1;2015,17;
PT5:*itens sem ano,3;2015,5;
PA0:2015,1;
OA0:2016,3;2017,2;
OA1:2012,2;2013,14;2014,14;2015,19;2016,12;2017,18;
OA2:2013,2;2014,4;2015,13;2016,21;2017,17;
OA4:2014,2;2015,1;2016,9;2017,9;
OA5:2014,1;2015,6;2016,6;2017,2;
OA6:2017,2;
OC0:2015,2;
OC1:2015,4;
OC2:2015,28;
OC3:2015,1;
OC4:2015,36;
OC5:2015,21;
OC6:2015,10;
Pm:2015,7;
Pj:2001,1;2002,1;2005,1;2008,6;2009,3;2010,7;2011,1;2012,17;2013,20;2014,23;2015,13;
PB:*itens sem ano,2;2015,220;
PT:*itens sem ano,6;2015,22;
PA:2015,1;
OA:2012,2;2013,16;2014,21;2015,39;2016,51;2017,50;
OC:2015,102;
Ep:2015,42;
Eo:2015,14;