strict digraph grafo3 {
	graph [bb="0,0,1264.5,209",
		id=grafo3,
		overlap=False
	];
	node [fontsize=8,
		label="\N",
		shape=rectangle,
		style=filled
	];
	0	 [URL="http://lattes.cnpq.br/2616818240703655",
		color="#17272B",
		fontcolor="#FFFFFF",
		height=0.23611,
		label="Geraldo L. Bezerra Ramalho [4]",
		pos="534.5,200.5",
		width=1.6667];
	10	 [URL="http://lattes.cnpq.br/4347965302097614",
		color="#17272B",
		fontcolor="#FFFFFF",
		height=0.23611,
		label="Pedro P. Rebouças Filho [9]",
		pos="361.5,136.5",
		width=1.4861];
	0 -> 10	 [arrowhead=normal,
		arrowsize=0.75,
		fontsize=8,
		label=0.88,
		lp="458,168.5",
		penwidth=3.14,
		pos="e,379.06,145.11 508.21,191.98 491.55,187.07 469.63,180.31 450.5,173.5 428.52,165.67 403.96,155.64 386.22,148.15"];
	14	 [URL="http://lattes.cnpq.br/6151383171162544",
		color="#17272B",
		fontcolor="#FFFFFF",
		height=0.23611,
		label="Claudio M. de Sá Medeiros [1]",
		pos="537.5,72.5",
		width=1.6111];
	0 -> 14	 [arrowhead=normal,
		arrowsize=0.75,
		fontsize=8,
		label=0.13,
		lp="544,136.5",
		penwidth=0.89,
		pos="e,537.32,81.125 534.68,192 535.16,171.82 536.49,116.11 537.13,88.883"];
	10 -> 0	 [arrowhead=normal,
		arrowsize=0.75,
		fontsize=8,
		label=0.39,
		lp="495,168.5",
		penwidth=1.67,
		pos="e,522.2,191.94 400.69,145 420.46,149.36 444.62,155.57 465.5,163.5 483.14,170.2 502.07,180.3 515.63,188.1"];
	10 -> 14	 [arrowhead=normal,
		arrowsize=0.75,
		fontsize=8,
		label=0.06,
		lp="482,104.5",
		penwidth=0.68,
		pos="e,518.99,81.032 391.4,127.9 409.06,123.16 431.76,116.61 451.5,109.5 461.99,105.72 464.24,103.85 474.5,99.5 486.74,94.312 500.38,\
88.669 511.82,83.969"];
	3	 [URL="http://lattes.cnpq.br/1434906331576002",
		color="#17272B",
		fontcolor="#FFFFFF",
		height=0.23611,
		label="Rodrigo Freitas Guimarães [3]",
		pos="302.5,72.5",
		width=1.5833];
	10 -> 3	 [arrowhead=normal,
		arrowsize=0.75,
		fontsize=8,
		label=0.06,
		lp="316,104.5",
		penwidth=0.68,
		pos="e,301.85,81.166 334.37,127.93 324.81,123.94 314.86,118.05 308.5,109.5 304.19,103.71 302.53,95.946 302.01,89.11"];
	9	 [URL="http://lattes.cnpq.br/6890118483209098",
		color="#17272B",
		fontcolor="#FFFFFF",
		height=0.23611,
		label="Marcelo M. Valente Parente [3]",
		pos="365.5,8.5",
		width=1.6389];
	10 -> 9	 [arrowhead=normal,
		arrowsize=0.75,
		fontsize=8,
		label=0.11,
		lp="380,72.5",
		penwidth=0.83,
		pos="e,367.75,17.157 363.35,127.97 367.21,111.29 375.43,69.998 371.5,35.5 371.09,31.881 370.36,28.033 369.56,24.437"];
	11	 [URL="http://lattes.cnpq.br/1834964619080647",
		color="#17272B",
		fontcolor="#FFFFFF",
		height=0.23611,
		label="Francisco N. Costa Freitas [3]",
		pos="223.5,8.5",
		width=1.5694];
	10 -> 11	 [arrowhead=normal,
		arrowsize=0.75,
		fontsize=8,
		label=0.28,
		lp="183,72.5",
		penwidth=1.34,
		pos="e,212.9,17.223 307.95,131.07 267.8,127 216.77,119.98 198.5,109.5 178.67,98.13 167.79,85.02 175.5,63.5 181.49,46.761 195.57,32.003 \
206.93,22.164"];
	5	 [URL="http://lattes.cnpq.br/2784997614182231",
		color="#17272B",
		fontcolor="#FFFFFF",
		height=0.23611,
		label="Auzuir Ripardo de Alexandria [2]",
		pos="62.5,72.5",
		width=1.7361];
	10 -> 5	 [arrowhead=normal,
		arrowsize=0.75,
		fontsize=8,
		label=0.11,
		lp="100,104.5",
		penwidth=0.83,
		pos="e,66.414,81.073 308.07,135.09 240.53,133.76 128.69,128.63 92.5,109.5 83.248,104.61 75.72,95.546 70.519,87.737"];
	14 -> 0	 [arrowhead=normal,
		arrowsize=0.75,
		fontsize=8,
		label=0.5,
		lp="563,136.5",
		penwidth=2.0,
		pos="e,539.91,191.63 542.68,81.366 545.73,86.36 549.38,93.072 551.5,99.5 557.91,118.99 557.66,125.09 555.5,145.5 554.16,158.16 554.07,\
161.62 549.5,173.5 548,177.41 545.96,181.43 543.86,185.11"];
	14 -> 10	 [arrowhead=normal,
		arrowsize=0.75,
		fontsize=8,
		label=0.5,
		lp="513,104.5",
		penwidth=2.0,
		pos="e,414.82,130.05 529.72,81.094 520.77,89.384 505.28,102.42 489.5,109.5 468.59,118.89 444.24,124.91 422.42,128.77"];
	3 -> 10	 [arrowhead=normal,
		arrowsize=0.75,
		fontsize=8,
		label=0.17,
		lp="345,104.5",
		penwidth=1.01,
		pos="e,354.22,127.76 309.96,81.219 314.94,86.382 321.62,93.335 327.5,99.5 334.58,106.93 342.46,115.27 348.84,122.04"];
	3 -> 9	 [arrowhead=normal,
		arrowsize=0.75,
		fontsize=8,
		label=0.67,
		lp="336,40.5",
		penwidth=2.51,
		pos="e,352.36,17.205 307.02,63.765 311.76,56.062 319.72,44.166 328.5,35.5 333.64,30.426 339.86,25.641 345.73,21.592"];
	3 -> 11	 [arrowhead=normal,
		arrowsize=0.75,
		fontsize=8,
		label=0.17,
		lp="258,40.5",
		penwidth=1.01,
		pos="e,227.82,17.217 282.19,63.963 272.01,59.562 259.88,53.325 250.5,45.5 243.21,39.418 236.76,31 231.99,23.833"];
	9 -> 10	 [arrowhead=normal,
		arrowsize=0.75,
		fontsize=8,
		label=0.33,
		lp="425,72.5",
		penwidth=1.49,
		pos="e,385.07,127.8 386.22,17.176 394.7,21.34 403.83,27.337 409.5,35.5 421.23,52.392 416.31,61.015 414.5,81.5 413.38,94.092 416.9,99.252 \
409.5,109.5 405.01,115.72 398.55,120.61 391.82,124.39"];
	9 -> 3	 [arrowhead=normal,
		arrowsize=0.75,
		fontsize=8,
		label=0.67,
		lp="360,40.5",
		penwidth=2.51,
		pos="e,318.12,63.834 362.15,17.075 358.42,24.871 351.82,37.04 343.5,45.5 338.12,50.972 331.38,55.841 324.92,59.844"];
	11 -> 10	 [arrowhead=normal,
		arrowsize=0.75,
		fontsize=8,
		label=0.83,
		lp="229,72.5",
		penwidth=2.99,
		pos="e,308.12,129.65 220.64,17.038 215.83,31.101 207.92,61.702 221.5,81.5 239.29,107.43 271.43,120.91 300.43,127.92"];
	11 -> 3	 [arrowhead=normal,
		arrowsize=0.75,
		fontsize=8,
		label=0.17,
		lp="284,40.5",
		penwidth=1.01,
		pos="e,295.56,63.833 237.62,17.209 246.02,22.041 256.71,28.638 265.5,35.5 274.33,42.395 283.36,51.14 290.29,58.284"];
	5 -> 10	 [arrowhead=normal,
		arrowsize=0.75,
		fontsize=8,
		label=0.5,
		lp="142,104.5",
		penwidth=2.0,
		pos="e,308.22,134.38 74.808,81.105 89.084,89.533 113.6,102.82 136.5,109.5 190.67,125.31 254.82,131.56 300.73,134.01"];
	7	 [URL="http://lattes.cnpq.br/8204044573317813",
		color="#17272B",
		fontcolor="#FFFFFF",
		height=0.23611,
		label="Francisco F. d. Santos Matos [1]",
		pos="71.5,8.5",
		width=1.6806];
	5 -> 7	 [arrowhead=normal,
		arrowsize=0.75,
		fontsize=8,
		label=0.5,
		lp="69,40.5",
		penwidth=2.0,
		pos="e,68.562,17.105 62.122,63.998 61.891,56.676 61.896,45.248 63.5,35.5 64.103,31.836 65.09,27.97 66.169,24.372"];
	7 -> 5	 [arrowhead=normal,
		arrowsize=0.75,
		fontsize=8,
		label=1.0,
		lp="82,40.5",
		penwidth=3.5,
		pos="e,67.228,63.621 73.417,17.033 74.985,24.377 76.626,35.821 74.5,45.5 73.664,49.306 72.215,53.218 70.607,56.815"];
	1	 [URL="http://lattes.cnpq.br/7579764751648280",
		color="#17272B",
		fontcolor="#FFFFFF",
		height=0.23611,
		label="Marcos E. Rodrigues da Silva [0]",
		pos="674.5,200.5",
		width=1.7222];
	2	 [URL="http://lattes.cnpq.br/8873683560219910",
		color="#17272B",
		fontcolor="#FFFFFF",
		height=0.23611,
		label="Joao C. da Costa Assuncao [0]",
		pos="812.5,200.5",
		width=1.5972];
	4	 [URL="http://lattes.cnpq.br/6207603544664061",
		color="#17272B",
		fontcolor="#FFFFFF",
		height=0.23611,
		label="Francisco E. Arruda Rodrigues [0]",
		pos="951.5,200.5",
		width=1.7639];
	6	 [URL="http://lattes.cnpq.br/5529104805521519",
		color="#17272B",
		fontcolor="#FFFFFF",
		height=0.23611,
		label="Erika da J. Teixeira Rocha [1]",
		pos="1089.5,200.5",
		width=1.5694];
	13	 [URL="http://lattes.cnpq.br/4207075808724945",
		color="#17272B",
		fontcolor="#FFFFFF",
		height=0.23611,
		label="Franklin Aragão Gondim [4]",
		pos="1089.5,136.5",
		width=1.5139];
	6 -> 13	 [arrowhead=normal,
		arrowsize=0.75,
		fontsize=8,
		label=1.0,
		lp="1079,168.5",
		penwidth=3.5,
		pos="e,1082.5,145.26 1083.2,191.85 1079.6,186.93 1075.4,180.23 1073.5,173.5 1071.4,166.06 1074.3,158.16 1078.1,151.67"];
	13 -> 6	 [arrowhead=normal,
		arrowsize=0.75,
		fontsize=8,
		label=0.25,
		lp="1097,168.5",
		penwidth=1.25,
		pos="e,1089.5,191.9 1089.5,145.16 1089.5,154.86 1089.5,171.8 1089.5,184.19"];
	12	 [URL="http://lattes.cnpq.br/4970091740105771",
		color="#17272B",
		fontcolor="#FFFFFF",
		height=0.23611,
		label="Pedro H. Augusto Medeiros [3]",
		pos="1089.5,72.5",
		width=1.6389];
	13 -> 12	 [arrowhead=normal,
		arrowsize=0.75,
		fontsize=8,
		label=0.75,
		lp="1078,104.5",
		penwidth=2.75,
		pos="e,1081.2,81.164 1081.7,127.6 1077.5,122.8 1072.7,116.3 1070.5,109.5 1068,101.74 1071.6,93.655 1076.3,87.117"];
	12 -> 13	 [arrowhead=normal,
		arrowsize=0.75,
		fontsize=8,
		label=1.0,
		lp="1095,104.5",
		penwidth=3.5,
		pos="e,1089.5,127.9 1089.5,81.165 1089.5,90.864 1089.5,107.8 1089.5,120.19"];
	8	 [URL="http://lattes.cnpq.br/7374114444149568",
		color="#17272B",
		fontcolor="#FFFFFF",
		height=0.23611,
		label="José R. de Brito Sousa [0]",
		pos="1214.5,200.5",
		width=1.3889];
}
