strict digraph grafo3 {
	graph [bb="0,0,1347.5,209",
		id=grafo3,
		overlap=False
	];
	node [fontsize=8,
		label="\N",
		shape=rectangle,
		style=filled
	];
	0	 [URL="http://lattes.cnpq.br/6901822630062638",
		color="#17272B",
		fontcolor="#FFFFFF",
		height=0.23611,
		label="Willian Barros Silva [0]",
		pos="47,200.5",
		width=1.3056];
	1	 [URL="http://lattes.cnpq.br/9647533579414452",
		color="#17272B",
		fontcolor="#FFFFFF",
		height=0.23611,
		label="Julián Bravo Castillero [4]",
		pos="163,200.5",
		width=1.4167];
	13	 [URL="http://lattes.cnpq.br/2600285500812676",
		color="#17272B",
		fontcolor="#FFFFFF",
		height=0.23611,
		label="Leslie D. Pérez Fernández [6]",
		pos="163,136.5",
		width=1.5556];
	1 -> 13	 [arrowhead=normal,
		arrowsize=0.75,
		fontsize=8,
		label=1.0,
		lp="152.5,168.5",
		penwidth=3.5,
		pos="e,156.04,145.26 156.72,191.85 153.1,186.93 148.91,180.23 147,173.5 144.89,166.06 147.77,158.16 151.64,151.67"];
	13 -> 1	 [arrowhead=normal,
		arrowsize=0.75,
		fontsize=8,
		label=0.67,
		lp="170.5,168.5",
		penwidth=2.51,
		pos="e,163,191.9 163,145.16 163,154.86 163,171.8 163,184.19"];
	10	 [URL="http://lattes.cnpq.br/0545330428695112",
		color="#17272B",
		fontcolor="#FFFFFF",
		height=0.23611,
		label="Valdecir Bottega [3]",
		pos="163,8.5",
		width=1.1389];
	13 -> 10	 [arrowhead=normal,
		arrowsize=0.75,
		fontsize=8,
		label=0.25,
		lp="107.5,72.5",
		penwidth=1.25,
		pos="e,147.08,17.186 148.26,127.91 132.95,119.09 109.87,102.96 100,81.5 88.553,56.611 118.01,33.906 140.41,20.902"];
	11	 [URL="http://lattes.cnpq.br/7781627333249561",
		color="#17272B",
		fontcolor="#FFFFFF",
		height=0.23611,
		label="Rejane Pergher [2]",
		pos="163,72.5",
		width=1.0694];
	13 -> 11	 [arrowhead=normal,
		arrowsize=0.75,
		fontsize=8,
		label=0.08,
		lp="151.5,104.5",
		penwidth=0.74,
		pos="e,154.75,81.164 155.17,127.6 150.97,122.8 146.22,116.3 144,109.5 141.47,101.74 145.09,93.655 149.82,87.117"];
	10 -> 13	 [arrowhead=normal,
		arrowsize=0.75,
		fontsize=8,
		label=0.5,
		lp="217.5,72.5",
		penwidth=2.0,
		pos="e,173.25,127.68 174.07,17.074 190.82,29.553 219.68,55.636 210,81.5 203.83,98 190.08,112.78 179.04,122.69"];
	10 -> 11	 [arrowhead=normal,
		arrowsize=0.75,
		fontsize=8,
		label=0.5,
		lp="168.5,40.5",
		penwidth=2.0,
		pos="e,163,63.898 163,17.165 163,26.864 163,43.797 163,56.189"];
	11 -> 13	 [arrowhead=normal,
		arrowsize=0.75,
		fontsize=8,
		label=0.25,
		lp="170.5,104.5",
		penwidth=1.25,
		pos="e,163,127.9 163,81.165 163,90.864 163,107.8 163,120.19"];
	11 -> 10	 [arrowhead=normal,
		arrowsize=0.75,
		fontsize=8,
		label=0.75,
		lp="151.5,40.5",
		penwidth=2.75,
		pos="e,154.75,17.164 155.17,63.602 150.97,58.803 146.22,52.303 144,45.5 141.47,37.741 145.09,29.655 149.82,23.117"];
	2	 [URL="http://lattes.cnpq.br/4338284890563991",
		color="#17272B",
		fontcolor="#FFFFFF",
		height=0.23611,
		label="Jonas da Costa Carvalho [3]",
		pos="482,200.5",
		width=1.4861];
	6	 [URL="http://lattes.cnpq.br/3894096111082082",
		color="#17272B",
		fontcolor="#FFFFFF",
		height=0.23611,
		label="Daniela Buske [13]",
		pos="424,136.5",
		width=1.0972];
	2 -> 6	 [arrowhead=normal,
		arrowsize=0.75,
		fontsize=8,
		label=0.5,
		lp="436.5,168.5",
		penwidth=2.0,
		pos="e,423.63,145.16 456.78,191.96 447.36,187.93 437.4,181.99 431,173.5 426.64,167.71 424.77,159.94 424.04,153.11"];
	12	 [URL="http://lattes.cnpq.br/2408574220216968",
		color="#17272B",
		fontcolor="#FFFFFF",
		height=0.23611,
		label="Régis Sperotto de Quadros [13]",
		pos="438,8.5",
		width=1.6389];
	2 -> 12	 [arrowhead=normal,
		arrowsize=0.75,
		fontsize=8,
		label=0.5,
		lp="473.5,104.5",
		penwidth=2.0,
		pos="e,441.2,17.155 481.24,191.88 479.86,178.69 476.63,150.77 472,127.5 463.75,86.057 460.94,75.728 448,35.5 446.8,31.782 445.37,27.823 \
443.96,24.145"];
	6 -> 2	 [arrowhead=normal,
		arrowsize=0.75,
		fontsize=8,
		label=0.12,
		lp="463.5,168.5",
		penwidth=0.86,
		pos="e,474.89,191.9 431.17,145.16 440.77,155.42 457.94,173.78 469.64,186.29"];
	6 -> 12	 [arrowhead=normal,
		arrowsize=0.75,
		fontsize=8,
		label=0.81,
		lp="301.5,72.5",
		penwidth=2.93,
		pos="e,378.77,15.82 384.66,129.43 337.68,120.4 268.43,100.4 294,63.5 311.52,38.218 342.43,24.755 371.14,17.593"];
	4	 [URL="http://lattes.cnpq.br/9865056179221557",
		color="#17272B",
		fontcolor="#FFFFFF",
		height=0.23611,
		label="Fabrício Pereira Härter [2]",
		pos="369,72.5",
		width=1.4167];
	6 -> 4	 [arrowhead=normal,
		arrowsize=0.75,
		fontsize=8,
		label=0.08,
		lp="382.5,104.5",
		penwidth=0.74,
		pos="e,368.41,81.128 399.9,127.94 390.75,123.89 381.08,117.94 375,109.5 370.78,103.64 369.13,95.871 368.6,89.048"];
	12 -> 2	 [arrowhead=normal,
		arrowsize=0.75,
		fontsize=8,
		label=0.12,
		lp="492.5,104.5",
		penwidth=0.86,
		pos="e,485.74,191.98 447.34,17.389 452.53,22.185 458.78,28.685 463,35.5 469.96,46.735 469.01,50.903 473,63.5 486.67,106.62 488.88,118.37 \
492,163.5 492.31,167.93 492.81,169.13 492,173.5 491.29,177.34 490.03,181.34 488.64,185.03"];
	12 -> 6	 [arrowhead=normal,
		arrowsize=0.75,
		fontsize=8,
		label=0.81,
		lp="438.5,72.5",
		penwidth=2.93,
		pos="e,424.83,128 437.15,17.125 434.9,37.439 428.7,93.162 425.69,120.28"];
	12 -> 4	 [arrowhead=normal,
		arrowsize=0.75,
		fontsize=8,
		label=0.08,
		lp="415.5,40.5",
		penwidth=0.74,
		pos="e,377.38,63.995 429.42,17.229 421.32,24.523 408.84,35.76 398,45.5 393.12,49.885 387.77,54.681 383.01,58.946"];
	4 -> 6	 [arrowhead=normal,
		arrowsize=0.75,
		fontsize=8,
		label=0.5,
		lp="407.5,104.5",
		penwidth=2.0,
		pos="e,417.95,127.92 376.58,81.101 381.62,86.214 388.32,93.155 394,99.5 400.43,106.68 407.34,114.93 412.9,121.72"];
	4 -> 12	 [arrowhead=normal,
		arrowsize=0.75,
		fontsize=8,
		label=0.5,
		lp="392.5,40.5",
		penwidth=2.0,
		pos="e,415.95,17.09 371.27,63.753 373.94,55.817 379.03,43.536 387,35.5 393.16,29.288 401.12,24.274 408.91,20.368"];
	3	 [URL="http://lattes.cnpq.br/6799036574745985",
		color="#17272B",
		fontcolor="#FFFFFF",
		height=0.23611,
		label="Glênio Aguiar Gonçalves [0]",
		pos="609,200.5",
		width=1.5278];
	5	 [URL="http://lattes.cnpq.br/8476129194599888",
		color="#17272B",
		fontcolor="#FFFFFF",
		height=0.23611,
		label="Fabio Silva Botelho [0]",
		pos="728,200.5",
		width=1.2778];
	7	 [URL="http://lattes.cnpq.br/6672178100422350",
		color="#17272B",
		fontcolor="#FFFFFF",
		height=0.23611,
		label="Claudio Zen Petersen [0]",
		pos="841,200.5",
		width=1.3472];
	8	 [URL="http://lattes.cnpq.br/1533620251940629",
		color="#17272B",
		fontcolor="#FFFFFF",
		height=0.23611,
		label="Camila Pinto da Costa [0]",
		pos="958,200.5",
		width=1.3889];
	9	 [URL="http://lattes.cnpq.br/6548055244465358",
		color="#17272B",
		fontcolor="#FFFFFF",
		height=0.23611,
		label="Welton Alves de Menezes [0]",
		pos="1082,200.5",
		width=1.5556];
	14	 [URL="http://lattes.cnpq.br/1154019717568830",
		color="#17272B",
		fontcolor="#FFFFFF",
		height=0.23611,
		label="Andrei Bourchtein [0]",
		pos="1200,200.5",
		width=1.2222];
	15	 [URL="http://lattes.cnpq.br/7898168715320830",
		color="#17272B",
		fontcolor="#FFFFFF",
		height=0.23611,
		label="Alexandre Molter [0]",
		pos="1305,200.5",
		width=1.1806];
}
