6901822630062638
9647533579414452
4338284890563991
6799036574745985
9865056179221557
8476129194599888
3894096111082082
6672178100422350
1533620251940629
6548055244465358
0545330428695112
7781627333249561
2408574220216968
2600285500812676
1154019717568830
7898168715320830
