artigoEmPeriodico	2016		Realistc CFD simulation of HTR-10 reactor using a Face Centered Cubic column	International Journal of Nuclear Energy, Science and Technology (Online)	Alexandro S. Silva ; Leorlen Y. R. Mazaira ; Dany S. Domínguez ; Carlos G. Hernandez ; Abel G. Rodriguez ; Carlos A. Bryner	B1	International Journal of Nuclear Energy, Science and Technology (Print)
artigoEmPeriodico	2016		O desempenho das exportações brasileiras de uva: uma análise da competitividade da região do Vale do São Francisco no período de 2005 a 2014	Cadernos de Aulas do LEA	AMARAL, G. V. ; CONCEIÇÃO, R. L. C. ; MACEDO, R. D. ; PIRES, Mônica de Moura	Qualis nao identificado	Cadernos de Aulas do LEA
artigoEmPeriodico	2016	http://dx.doi.org/10.6062/jcis.2016.07.01.0104	Probing cosmology in the outskirts of galaxy clusters	Journal of Computational Interdisciplinary Sciences	ANDRADE, A. ; RIbeiro, A. ; LOPES, P.	B3	
artigoEmPeriodico	2016		Índice de Desenvolvimento Como Liberdade: Uma Proposta Teórico-Metodológica de Análise	Desenvolvimento em Questão	ANDRADE, Sarah Farias ; PIRES, Mônica de Moura ; FERRAZ, Marcelo Inácio Ferreira ; PINHEIRO, Maurício Mota Saboya	B2	
artigoEmPeriodico	2016		ESTUDOS DA FRAGMENTAÇÃO DA PAISAGEM NA DEFINIÇÃO DE ÁREAS PRIORITÁRIAS PARA A RECUPERAÇÃO AMBIENTAL DA BACIA HIDROGRÁFICA DO RIO BURANHÉM	Boletim de Geografia (Online)	AZEVEDO, D. G. ; Gomes, Ronaldo Lima ; Moraes, Maria Eugênia Bruck de	Qualis nao identificado	Boletim de Geografia (Online)
artigoEmPeriodico	2016		A competitividade internacional do tabaco do sul do Brasil: 1997-2014	Economia & Região	BARRETO, R. C. S.; NOVAIS, J. M. S.	Qualis nao identificado	Economia & Região
artigoEmPeriodico	2016		Dinâmica do mercado internacional de café e determinantes na formação de preços	Economia & Região	BARRETO, R. C. S.; ZUGAIB, A. C. C.	Qualis nao identificado	Economia & Região
artigoEmPeriodico	2016	http://dx.doi.org/10.1109/TLA.2016.7459645	Synthesis and Analysis of Context-Sensitive Languages	Revista IEEE América Latina	BRAVO PARIENTE, CESAR ALBERTO; ANDERSEN CERQUEIRA LIMA, DANIEL	B1	
artigoEmPeriodico	2016		A SOCIOECONOMIA DA COMUNIDADE RURAL FAZENDA DO POVO DE IPIAÚ, BAHIA, BRASIL	Revista Geografica de America Central (impresso)	BRUNO, N. L. ; AGUIAR, P. C. B. ; PROFICE, C. C. ; FERRAZ, M. I. F.	Qualis nao identificado	Revista Geografica de America Central (impresso)
artigoEmPeriodico	2016		Padrão de variação estacional dos preços do Sisal na Bahia, no período de 2009 a 2014	Contribuciones a las Ciencias Sociales	CAIRES, F. O. ; CALISTO, M. F. ; SOARES, N. S.	B2	
artigoEmPeriodico	2016	http://dx.doi.org/10.1504/IJNEST.2016.076357	Comparative study of random and uniform models for the coated fuel particles distribution in pebble bed reactors	International Journal of Nuclear Energy, Science and Technology (Online)	Carlos G. Hernandez ; Jesus A. R. Garcia ; Carlos A. Bryner ; CURBELO, J. P. ; Amaury M. Oliva ; Dany S. Domínguez	B1	International Journal of Nuclear Energy, Science and Technology (Print)
artigoEmPeriodico	2016		Voz da natureza e da mulher na Resex de Canavieiras-Bahia-Brasil: sustentabilidade ambiental e de gênero na perspectiva do ecofeminismo	Revista Estudos Feministas (UFSC. Impresso)	CARMO, Jhader Cerqueira do ; PIRES, Mônica de Moura ; JESUS JUNIOR, Guilhardes de ; CAVALCANTE, Aniran Lins ; TREVIZAN, Salvador Dal Pozzo	A1	
artigoEmPeriodico	2016	http://dx.doi.org/10.1590/1805-9584-2016v24n1p155	Voz da natureza e da mulher na Resex de Canavieiras-Bahia-Brasil: sustentabilidade ambiental e de gÃªnero na perspectiva do ecofeminismo	REVISTA ESTUDOS FEMINISTAS	CARMO, JHADER CERQUEIRA DO ; PIRES, MÔNICA DE MOURA ; JESUS JÚNIOR, GUILHARDES DE ; CAVALCANTE, ANIRAM LINS ; Trevizan, Salvador Dal Pozzo	A1	Revista Estudos Feministas (UFSC. Impresso)
artigoEmPeriodico	2016		THE STRATEGIC DYNAMICS OF AN AGRICULTURAL COOPERATIVE: FROM ORGANIZATIONAL MODERNIZATION FOCUSED ON PRODUCTION ACTIVITIES TO THE CONSOLIDATION OF AN IMPORTANT PRODUCTION AND SERVICES LATINAMERICAN POLE CONCERNED WITH THE FLOWER AGRIBUSINESS	iNTERNATIONAL J OURNALOF R ESEARCH S CIENCE& M ANAGEMENT	CAVALCANTI, M. ; PEREIRA, JOÃO PEDRO ; CARVALHO, Marly Monteiro de ; SOUZA, Roberta de Castro	Qualis nao identificado	iNTERNATIONAL J OURNALOF R ESEARCH S CIENCE& M ANAGEMENT
artigoEmPeriodico	2016		Gênero, empoderamento e sustentabilidade: Uma experiencia de mudança por meio da educação ambiental em rede de mulheres	Educação Ambiental em Ação	CERQUEIRA, A. B. ; JESUS JÚNIOR, G. ; PROFICE, C. C. ; SANTANA, T. S.	B3	
artigoEmPeriodico	2016		A PROSPECÇÃO TECNOLÓGICA NO AUXÍLIO AO PROCESSO DE DEFINIÇÃO DE TEMAS DE P	Cadernos de Prospecção	da Silva, C. R. ; VIANA, L. S. ; MOREIRA, L. C. ; AMARANTE-SEGUNDO, Gesil Sampaio ; Noia, A. C.	B4	
artigoEmPeriodico	2016	http://dx.doi.org/10.1103/physrevd.93.043509	Stochastic quintessence models: Jerk and fine-structure variability constraints	Physical Review D	DANTAS, C. C. ; RIBEIRO, A. L. B.	A2	Physical Review. A
artigoEmPeriodico	2016	http://dx.doi.org/10.12988/ija.2016.6214	On the power of standard polynomial to M_{a,b}(E)	International Journal of Algebra	DE PAULA, FERNANDA G. ; ALVES, SERGIO M.	Qualis nao identificado	International Journal of Algebra
artigoEmPeriodico	2016	http://dx.doi.org/10.14393/RCG176002	ASPECTOS DEMOGRÁFICOS E SOCIOECONÔMICOS DOS MUNICÍPIOS INSERIDOS NA BACIA DO RIO ALMADA - BA: OS REFLEXOS DA CRISE CACAUEIRA	Caminhos de Geografia (UFU)	DOS SANTOS, NAIARA GONÇALVES ; FRANCO, Gustavo Barreto ; DOS SANTOS, JORIMA VALOZ ; DE OLIVEIRA, DOLORES BASTOS HAYDE ; GOMES, R. L.	B3	
artigoEmPeriodico	2016	http://dx.doi.org/10.1080/01603477.2016.1147332	Monetary and fiscal policy interactions in a post Keynesian open-economy model	JOURNAL OF POST KEYNESIAN ECONOMICS	DRUMOND, Carlos Eduardo; DE JESUS, CLEITON SILVA	Qualis nao identificado	JOURNAL OF POST KEYNESIAN ECONOMICS
artigoEmPeriodico	2016	http://dx.doi.org/10.1016/j.tourman.2015.07.003	Pay gap by gender in the tourism industry of Brazil	TOURISM MANAGEMENT	FERREIRA FREIRE GUIMARÃES, CARLA REGINA; SILVA, JOAQUIM RAMOS	B1	
artigoEmPeriodico	2016	http://dx.doi.org/10.1016/s0167-8140(16)32844-4	EP-1594: On-line analysis of 4D treatment deliveries for scanned proton and carbon ion beams	Radiotherapy and Oncology	GIORDANENGO, S. ; MONACO, V. ; Attili, A. ; VIGNATI, A. ; VARASTEH ANVAR, M. ; Donetti, M. ; Marchetto, F. ; MAS MILIAN, F. ; CIOCCA, M. ; Russo, G. ; SACCHI, R. ; Cirio, R.	Qualis nao identificado	Radiotherapy and Oncology
artigoEmPeriodico	2016		Perfil da Política de Assistência Social da Prefeitura de Ilhéus a partir das Despesas Orçamentárias, 2014-2015	Contribuciones a las Ciencias Sociales	Guimarães, T. C. S. ; GUZMÁN, Sócrates J. M.	B2	
artigoEmPeriodico	2016		6o Boletim CACES-Finanças Públicas	Boletim do Centro de Análise de Conjuntura Econômica e Social de Ilhéus e Itabuna	GUZMÁN, Sócrates J. M	Qualis nao identificado	Boletim do Centro de Análise de Conjuntura Econômica e Social de Ilhéus e Itabuna
artigoEmPeriodico	2016		5o Boletim CACES-Finanças Públicas	Boletim do Centro de Análise de Conjuntura Econômica e Social	GUZMÁN, Sócrates J. M	Qualis nao identificado	Boletim do Centro de Análise de Conjuntura Econômica e Social
artigoEmPeriodico	2016		4o Boletim CACES-Finanças Públicas	Boletim do Centro de Análise da Conjuntura Econômica e Social de Ilhéus e Itabuna	GUZMÁN, Sócrates J. M	Qualis nao identificado	Boletim do Centro de Análise da Conjuntura Econômica e Social de Ilhéus e Itabuna
artigoEmPeriodico	2016	http://dx.doi.org/10.1016/j.ins.2016.06.022	Information filtering and array algorithms for discrete-time Markovian jump linear systems subject to parametric uncertainties	Information Sciences	JESUS, G. Q.; INOUE, R. S. ; TERRA, M. H.	A1	
artigoEmPeriodico	2016		A Região Nordeste e a utopia do desenvolvimento econômico	Reflexões Econômicas	LIMA, S. R. R. ; BARRETO, R. C. S.	Qualis nao identificado	Reflexões Econômicas
artigoEmPeriodico	2016	http://dx.doi.org/10.1093/mnras/stw1497	NoSOCS in SDSS - V. Red disc and blue bulge galaxies across different environments	Royal Astronomical Society. Monthly Notices	Lopes, P. A. A. ; REMBOLD, S. B. ; Ribeiro, A. L. B. ; NASCIMENTO, R. S. ; VAJGEL, B.	Qualis nao identificado	Royal Astronomical Society. Monthly Notices
artigoEmPeriodico	2016	http://dx.doi.org/10.1016/S0167-8140(16)30141-4	Investigation of the use of inhomogeneous fractional dose distributions in IMPT to improve the therapeutic index	Radiotherapy and Oncology	MANGANARO, L. ; Russo, G. ; DALMASSO, F. ; Milian, F.M. ; Bourhaleb, F. ; Cirio, R. ; Attili, A.	Qualis nao identificado	Radiotherapy and Oncology
artigoEmPeriodico	2016	http://dx.doi.org/10.7198/s2237-0722201600010017	O NOVO MARCO LEGAL PARA ACESSO AO PATRIMÔNIO GENÉTICO E PROTEÇÃO E ACESSO AO CONHECIMENTO TRADICIONAL ASSOCIADO	Revista GEINTEC: gestao, inovacao e tecnologias	Menuchi, L. N. S. ; Araújo, Jacqueline Camolese ; Amarante-Segundo, Gesil	B4	
artigoEmPeriodico	2016	http://dx.doi.org/10.1093/mnras/stw2321	Segregation effects in DEEP2 galaxy groups	MONTHLY NOTICES OF THE ROYAL ASTRONOMICAL SOCIETY (PRINT)	NASCIMENTO, R. S. ; Ribeiro, A. L. B. ; Lopes, P. A. A.	A1	
artigoEmPeriodico	2016	http://dx.doi.org/10.1093/mnras/stw1114	Dynamical analysis of the cluster pair: A3407 + A3408	Royal Astronomical Society. Monthly Notices	NASCIMENTO, R. S. ; Ribeiro, A. L. B. ; Trevisan, M. ; CARRASCO, E. R. ; PLANA, H. ; DUPKE, R.	Qualis nao identificado	Royal Astronomical Society. Monthly Notices
artigoEmPeriodico	2016		Caracterização e diagnóstico das indústrias processadoras de queijo do Litoral Sul da Bahia	Enciclopédia Biosfera	NUNES, L. A. ; GERBER, J. Z. ; PIETROBON-COSTA, F. ; SOUZA, R. J. S. ; KALID, R. A.	B3	
artigoEmPeriodico	2016		Cientistas Ambientais: acadêmicos ou ambientalistas profissionais	Gaia Scientia	PROFICE, C. C. ; TREVIZAN, S. D. P. ; SCHIAVETTI, A. ; MASSENA, F.	B3	
artigoEmPeriodico	2016	http://dx.doi.org/10.5540/tema.2016.017.02.0173	Finite Element Method with Spectral Green's Function in Slab Geometry for Neutron Diffusion in Multiplying Media and One Energy Group	Tendências em Matemática Aplicada e Computacional	ROCHA, ROGÉRIO VINÍCIUS MATOS ; DOMINGUEZ, Dany Sanchez ; IGLESIAS, SUSANA MARRERO ; BARROS, RICARDO CARVALHO DE	B2	TEMA. Tendências em Matemática Aplicada e Computacional
artigoEmPeriodico	2016	http://dx.doi.org/10.1088/0031-9155/61/1/183	A novel algorithm for the calculation of physical and biological irradiation quantities in scanned ion beam therapy: the beamlet superposition approach	Physics in Medicine and Biology (Print)	RUSSO, G ; ATTILI, A ; BATTISTONI, G ; BERTRAND, D ; BOURHALEB, F ; CAPPUCCI, F ; CIOCCA, M ; MAIRANI, A ; MILIAN, F M ; MOLINELLI, S ; MORONE, M C ; MURARO, S ; ORTS, T ; PATERA, V ; SALA, P ; SCHMITT, E ; VIVALDO, G ; MARCHETTO, F	A1	
artigoEmPeriodico	2016	http://dx.doi.org/10.7198/S2237-072220160003015	EFEITO DA TEMPERATURA SOBRE A AMÊNDOA DE CACAU: SECADOR VERTICAL	Revista GEINTEC: gestao, inovacao e tecnologias	Sales, Jorge Henrique; CANDIDA, T.	B4	
artigoEmPeriodico	2016		QUALIDADE INSTITUCIONAL E DESEMPENHO ECONÔMICO: ANÁLISE EMPÍRICA DOS MUNICÍPIOS BRASILEIROS, 2010	Revista Brasileira de Estudos Regionais e Urbanos	SANTANA, A. S. ; BARRETO, R. C. S.	B4	
artigoEmPeriodico	2016		O Estado Democrático de Direito enquanto expressão de democracia deliberativa e participativa	Jus Navigandi	SANTOS, J. N. ; PEREIRA, João Pedro de Castro Nunes ; PINHEIRO, L. I. F.	B4	
artigoEmPeriodico	2016		CONSELHOS MUNICIPAIS COMO INSTRUMENTO DE CONTROLE SOCIAL: subsídios à construção de um modelo de análise para avaliação da efetividade	Revista Caribeña de las Ciencias Sociales	SANTOS, J. N. ; PEREIRA, João Pedro de Castro Nunes ; PINHEIRO, L. I. F.	Qualis nao identificado	Revista Caribeña de las Ciencias Sociales
artigoEmPeriodico	2016		CONSELHOS MUNICIPAIS COMO INSTRUMENTO DE CONTROLE SOCIAL: subsídios à construção de um modelo de análise para avaliação da efetividade	REVISTA CARIBEÑA DE CIENCIAS SOCIALES	SANTOS, J. N. ; PEREIRA, João Pedro de Castro Nunes ; PINHEIRO, L. I. F.	Qualis nao identificado	REVISTA CARIBEÑA DE CIENCIAS SOCIALES
artigoEmPeriodico	2016		Determinantes da oferta de exportação de papel no Brasil	Revista de Estudos Sociais (UFMT)	SANTOS, R. Q. ; SOARES, N. S. ; SOUSA, E. P.	B2	
artigoEmPeriodico	2016	http://dx.doi.org/10.9771/gesta.v4i2.14886	CONTRIBUIÇÃO INDIVIDUAL DOS PARÂMETROS DE QUALIDADE DA ÁGUA PARA O IQA DO RIO CACHOEIRA, REGIÃO SUL DA BAHIA	Revista Eletrônica de Gestão e Tecnologias Ambientais	SANTOS, VALDEX DE JESUS ; OLIVEIRA, FRANCISCO BRUNO SOUZA ; PALMEIRA, EDUARDO SILVA	Qualis nao identificado	Revista Eletrônica de Gestão e Tecnologias Ambientais
artigoEmPeriodico	2016		As políticas de promoção da igualdade racial no Brasil	Contribuciones a las Ciencias Sociales	SANTOS, W. M. ; PINHEIRO, L. I. F. ; FERRAZ, M. I. F.	B2	
artigoEmPeriodico	2016		Análise numérica de escoamento sobre perfil de asa: estudo de modelo NACA 64A004.29	REVISTA BRASILEIRA DE FÍSICA TECNOLÓGICA APLICADA	SILVA JÚNIOR, Luiz Justino ; PIETROBON-COSTA, F.	Qualis nao identificado	REVISTA BRASILEIRA DE FÍSICA TECNOLÓGICA APLICADA
artigoEmPeriodico	2016		ESTRUTURA PRODUTIVA DA AGROPECUÁRIA BAIANA: UMA ANÁLISE ESPACIAL, DIFERENCIAL E ESTRUTURAL	Revista Brasileira de Gestão e Desenvolvimento Regional	SILVA, Maíra Ferraz de Oliveira ; PRATES, Elivania Magalhães ; GOMES, Andréa da Silva ; PIRES, Mônica de Moura	B1	
artigoEmPeriodico	2016		A INFLUÊNCIA DO CAPITAL HUMANO FORMADO PELA UESC SOBRE O PIB PER CAPITA DOS MUNICÍPIOS DA SUA REGIÃO DE ABRANGÊNCIA.	Observatorio de la Economía Latinoamericana	SIRQUEIRA, F. J. S. ; FERRAZ, M. I. F.	B2	
artigoEmPeriodico	2016		A Uesc e seus efeitos para o desenvolvimento regional	Reflexões Econômicas	SIRQUEIRA, F. J. S. ; FERRAZ, M. I. F.	Qualis nao identificado	Reflexões Econômicas
artigoEmPeriodico	2016		Custos e escala de produção na indústria de móveis de madeira do polo moveleiro de Ubá/MG	Custos e @gronegócio Online	SOARES, N. S.; SOUSA, E. P. ; SILVA, M. L.	B2	
artigoEmPeriodico	2016	http://dx.doi.org/10.4215/rm2016.1503.0008	SEDIMENTOLOGICAL PARAMETERS AND DATING OF POST-BARREIRAS SEDIMENTS FROM REGION THE COASTLINE	Mercator (Fortaleza. Online)	SOUZA, CRISTIANO M. P. ; COSTA, LIOVANDO M. ; MOREAU, ANA MARIA S. S. ; Gomes, Ronaldo Lima	B1	
artigoEmPeriodico	2016	http://dx.doi.org/10.5935/1984-2295.20160105	Analysis of the occurrence sites and morphological characteristics of sediments Post-Barreiras in Southern of Bahia	Revista Brasileira de Geografia Física	SOUZA, CRISTIANO MARCELO PEREIRA DE ; COSTA, LIOVANDO MARCIANO DA ; Gomes, Ronaldo Lima ; MOREAU, ANA MARIA SOUZA DOS SANTOS	B2	
artigoEmPeriodico	2016		Uma estratégia para a sustentabilidade das comunidades de Terreiros de Candomblé	Gaia Scientia	TREVIZAN, S. D. P.; CONCEICAO, S. S.	B3	
artigoEmPeriodico	2016	http://dx.doi.org/10.1016/j.radphyschem.2015.09.005	Ag K-shell ionization by electron impact: New cross-section measurements between 50 and 100keV and review of previous experimental data	Radiation Physics and Chemistry (1993)	VANIN, V.R. ; MANSO GUEVARA, M.V. ; MAIDANA, N.L. ; MARTINS, M.N. ; FERNÁNDEZ-VAREA, J.M.	A2	
artigoEmPeriodico	2016		Os percursos da identidade cultural	Contribuciones a las Ciencias Sociales	VERGARA, Miguel Arturo Chamorro ; GUZMÁN, Sócrates J. M.	B2	
artigoEmPeriodico	2016	http://dx.doi.org/10.1016/j.ejmp.2016.01.235	Study of the dose delivery system inaccuracies and their impact on the dose distribution during the first years of the CNAO clinical activity	Physica Medica (Testo Stampato)	VIGNATI, A. ; HOSSEINI, M.A. ; Attili, A. ; Donetti, M. ; GIORDANENGO, S. ; GUARACHI, L.F. ; Marchetto, F. ; MILIAN, F. MAS ; MIRANDOLA, A. ; MOLINELLI, S. ; MONACO, V. ; Russo, G. ; SACCHI, R. ; ANVAR, M. VARASTEH ; Cirio, R.	Qualis nao identificado	Physica Medica (Testo Stampato)
artigoEmPeriodico	2016		MAPEAMENTO GEOAMBIENTAL DA ZONA COSTEIRA DOS MUNICÍPIOS DE MARAÚ E CAMAMU - BA	Revista de Geografia (Recife)	WALDBURGUER, T. C. M. ; Gomes, Ronaldo Lima	B2	
trabalhoCompletoEmCongresso	2016		Uso de Arranjos Cúbicos na Simulação Realística CFD do Núcleo do Reator Nuclear HTR-10	XIX ENMC - Encontro Nacional de Modelagem Computacional	Alexandro S. Silva ; Leorlen Y. R. Mazaira ; Dany S. Domínguez ; Carlos G. Hernandez ; Carlos A. Bryner		
trabalhoCompletoEmCongresso	2016		DISTRIBUIÇÃODA TEMPERATURA EM UM CILINDRO de NaCl	XII Semana da Física da UESC	ALONSO, N. P. ; Sales, Jorge Henrique ; FONSECA, A. C. N.		
trabalhoCompletoEmCongresso	2016		EFICIÊNCIA TÉCNICA E DE ESCALA DE EMPRESAS DO ARRANJO PRODUTIVO LOCAL DE SISAL DA BAHIA	54 Congresso da Sociedade Brasileira de Economia	ALVES, A. V. S. ; SOARES, NAISY SILVA ; SOUSA, E. P.		
trabalhoCompletoEmCongresso	2016		O arranjo produtivo local de sisal no nordeste baiano sob a ótica da cooperação, aprendizagem e inovação	XI SOBER NORDESTE	ALVES, A. V. S. ; SOARES, NAISY SILVA ; SOUSA, E. P.		
trabalhoCompletoEmCongresso	2016		Conselhos Municipais e Incubadoras de Empresas de Base Tecnológica como ferramenta para o desenvolvimento local	V COLÓQUIO INTERNACIONAL DE ADMINISTRAÇÃO POLÍTICA	Amigo, F. V. ; GUZMÁN, Sócrates J. M.		
trabalhoCompletoEmCongresso	2016		Transformações de Matrizes Intervalares	IV Congresso Brasileiro de Sistemas Fuzzy	ANDRADE, G. P. ; JESUS, G. Q. ; PALMEIRA, E. S.		
trabalhoCompletoEmCongresso	2016		A Região Nordeste e a utopia do desenvolvimento econômico	XXI Encontro Nacional de Economia Política (XXI ENEP)	BARRETO, R. C. S.; LIMA, S. R. R.		
trabalhoCompletoEmCongresso	2016		ANÁLISE DO EFEITO TERMOSSIFÃO NO SISTEMA AUXILIAR DE SECAGEM SOLAR	Congresso Nacional de Engenharia Mecânica	BRITO, R. C. F. ; FONSECA, A. C. N. ; Sales, Jorge Henrique ; LIMA, G. P. ; SOGLIA, L. V.		
trabalhoCompletoEmCongresso	2016		EQUILÍBRIOS MÚLTIPLOS E TRAGÉDIAS DOS COMUNS: UMA ABORDAGEM DE JOGOS EVOLUCIONÁRIOS	XXI ENCONTRO REGIONAL DE ECONOMIA (ANPEC-NE)	Drumond, C.E		
trabalhoCompletoEmCongresso	2016		EQUAÇÃO DE FICK E A IMPORTÂNCIA DA UMIDADE PARA AMÊNDOA DO CACAU	XII Semana da Física da UESC	FONSECA, A. C. N. ; Sales, Jorge Henrique ; BRITO, R. C. F. ; COSTA, M. J. R. ; LOPES, P. A. L.		
trabalhoCompletoEmCongresso	2016		AN EMPIRICAL TEST OF THE POST-KALECKIAN MODEL APPLIED TO FUNCTIONAL INCOME DISTRIBUTION AND LONG-RUN GROWTH REGIME IN BRAZIL	44° ENCONTRO NACIONAL DE ECONOMIA Trabalhos Selecionados	JESUS, C. S. ; ARAUJO, R. A. ; Drumond, C.E		
trabalhoCompletoEmCongresso	2016		Algoritmo de Paige para Filtragem de Sistemas Lineares Sujeitos a Saltos Markovianos	XXI Congresso Brasileiro de Automática	JESUS, G. Q		
trabalhoCompletoEmCongresso	2016		Caracterização de concretos leves incorporados com etileno acetato de vinila (EVA) e fibras da Attalea funifera Martius(Piaçava)	58 CBC - Congresso Brasileiro do Concreto	Jose R. C. Pessoa ; DIAS, L. A. ; Marlesson R. O. Santana ; Dany S. Domínguez ; ASSIS, J. T.		
trabalhoCompletoEmCongresso	2016		Modelagem de Propriedades Mecânicas de Concreto Produzidos com Agregados não Convencionais de EVA e Fibras de Piaçava	XIX ENMC - Encontro Nacional de Modelagem Computacional	Marlesson R. O. Santana ; DIAS, L. A. ; Dany S. Domínguez ; Jose R. C. Pessoa ; Susana M. Iglesias		
trabalhoCompletoEmCongresso	2016		Uma Abordagem Fuzzy do Problema dos Mínimos Quadrados	XXXVI Congresso Nacional de Matemática Aplicada e Computacional	PALMEIRA, E. S. ; RUFINO, V. N. ; JESUS, G. Q.		
trabalhoCompletoEmCongresso	2016		Diagnóstico da Gestão Financeira do Sistema Único de Assistência Social - SUAS no Município de Una/Ba no período de 2011-2014	V COLÓQUIO INTERNACIONAL DE ADMINISTRAÇÃO POLÍTICA	Rios, T. O. ; GUZMÁN, Sócrates J. M.		
trabalhoCompletoEmCongresso	2016		Estimação da desigualdade renda-educação nas regiões metropolitanas do Brasil, 2001-2011	XIII SARU - Semana de Análise Regional e Urbana	SANTANA, Adrielli Santos de ; GOMES, Andréa da Silva ; PIRES, Mônica de Moura		
trabalhoCompletoEmCongresso	2016		Escuta social do PPA-Plano Plurianual Participativo estadual e sua compatibilidade com o Plano Territorial de Desenvolvimento Rural Sustentável do Território Médio Rio das Contas, Bahia, 2016 ? 2019	V COLÓQUIO INTERNACIONAL DE ADMINISTRAÇÃO POLÍTICA	SANTOS, C. ; GUZMÁN, Sócrates J. M.		
trabalhoCompletoEmCongresso	2016		Funções de green no sistema de coordenadas da frente de luz para um boson livre	X Encontro Nacional de Análise Matemática e Aplicações	SANTOS, G. S. ; Sales, Jorge Henrique		
trabalhoCompletoEmCongresso	2016		Influência da impedância cognitiva para o processo de transferência/compartilhamento de conhecimento	XIX Encontro Nacional de Modelagem Computacional e VII Encontro de Ciências e Tecnologias de Materiais	SANTOS, M. ; PIETROBON-COSTA, F.		
trabalhoCompletoEmCongresso	2016		Produto de Kronecker para Matrizes Intervalares	IV Congresso Brasileiro de Sistemas Fuzzy	SANTOS, R. M. ; JESUS, G. Q. ; PALMEIRA, E. S.		
trabalhoCompletoEmCongresso	2016		GEOMETRIZAÇÃO DO ACUMULADOR DE CALOR VIA ENERGIA SOLAR PARA SECAGEM DE SEMENTES	XXIII Congresso Nacional de Estudantes de Engenharia Mecânica	SANTOS, S. B. C. ; SOGLIA, L. V. ; LIMA, G. P. ; BRITO, R. C. F. ; Sales, Jorge Henrique		
trabalhoCompletoEmCongresso	2016		A DIALÉTICA DO RURAL /URBANO NO CONTEXTO DA TERRITORIALIDADE E DA NOVA RURALIDADE	XI SOBER NORDESTE	SETENTA, A. M. ; JESUS JÚNIOR, G. ; BEZERRA, N. V. S.		
trabalhoCompletoEmCongresso	2016		Simulação de Fluxo de Fluido sobre Perfil de Asa em Condições de Baixa Velocidade	IV Simpósio de Engenharia de Produção	SILVA JÚNIOR, Luiz Justino ; PIETROBON-COSTA, F.		
trabalhoCompletoEmCongresso	2016		EVOLUÇÃO DAS POLÍTICAS PÚBLICAS DE TURISMO NO ESTADO DA BAHIA	Seminário da ANPTUR	SOUZA, A. C. ; NOIA, A. C. ; PINHEIRO, L. I. F.		
trabalhoCompletoEmCongresso	2016		A Lei de Responsabilidade Fiscal e sua aplicação na gestão municipal: os limites da despesa pública com pessoal no município de Ilhéus, 2001-2015	V COLÓQUIO INTERNACIONAL DE ADMINISTRAÇÃO POLÍTICA	Souza, Caciane C. de ; GUZMÁN, Sócrates J. M.		
trabalhoCompletoEmCongresso	2016		Caracterização de Concreto Endurecido Utilizando Escâner de Mesa e Microtomografia Computadorizada	22° Congresso Brasileiro de Engenharia e Ciência dos Materiais (22 CBECIMAT)	WILSON, R. E. ; Jose R. C. Pessoa ; ASSIS, J. T. ; Dany S. Domínguez ; DIAS, L. A. ; Marlesson R. O. Santana		
resumoExpandidoEmCongresso	2016	Qual é o padrão da agricultura familiar no Território Litoral Sul da Bahia?	VI SEMANA DO ECONOMISTA E VI ENCONTRO DE EGRESSOS, 2016, Ilhéus. IV Semana do Economista e IV Encontro de Egressos O que esperar da economia brasileira?	Pereira, J. ; CACERES, Z. A. B.		
resumoExpandidoEmCongresso	2016	Characterization of ERP in visual perception tasks of masked words	XXV Congresso Brasileiro de Engenharia Biomédica, 2016, Foz do Igraçu. nais do XXV CBEB. Foz do Iguaçu: SBEB, 2016	VELA, Jhon F. S. ; LOPEZ, Dennis R. ; SOUZA, Mariane L. ; OLIVEIRA, Francisco B. S. ; AMBRÓSIO, Paulo E.		
