strict graph grafo1 {
	graph [bb="0,0,2014.5,179",
		id=grafo1,
		overlap=False
	];
	node [fontsize=8,
		label="\N",
		shape=rectangle,
		style=filled
	];
	0	 [URL="http://lattes.cnpq.br/6280703103205032",
		color="#17272B",
		fontcolor="#FFFFFF",
		height=0.23611,
		label="Elidia Maria Guerra [15]",
		pos="52,170.5",
		width=1.3333];
	2	 [URL="http://lattes.cnpq.br/6247805873454988",
		color="#17272B",
		fontcolor="#FFFFFF",
		height=0.23611,
		label="Dane Tadeu Cestarolli [15]",
		pos="52,116.5",
		width=1.4444];
	0 -- 2	 [pos="52,161.83 52,152 52,135.05 52,125.2"];
	1	 [URL="http://lattes.cnpq.br/1882302261569108",
		color="#17272B",
		fontcolor="#FFFFFF",
		height=0.23611,
		label="Daniela Leite Fabrino [0]",
		pos="167,170.5",
		width=1.3611];
	3	 [URL="http://lattes.cnpq.br/5561482457720983",
		color="#17272B",
		fontcolor="#FFFFFF",
		height=0.23611,
		label="Renata C. Zanetti Lofrano [4]",
		pos="290,170.5",
		width=1.5556];
	9	 [URL="http://lattes.cnpq.br/7204534064025448",
		color="#17272B",
		fontcolor="#FFFFFF",
		height=0.23611,
		label="Boutros Sarrouh [2]",
		pos="245,116.5",
		width=1.1111];
	3 -- 9	 [pos="283.36,161.83 274.85,152 260.19,135.05 251.67,125.2"];
	19	 [URL="http://lattes.cnpq.br/5009735328331739",
		color="#17272B",
		fontcolor="#FFFFFF",
		height=0.23611,
		label="Juliano Lemos Bicas [3]",
		pos="344,62.5",
		width=1.3056];
	3 -- 19	 [pos="293.88,161.88 303.85,142.32 330.23,90.536 340.15,71.054"];
	21	 [URL="http://lattes.cnpq.br/7513217329977595",
		color="#17272B",
		fontcolor="#FFFFFF",
		height=0.23611,
		label="Heraldo Nunes Pitanga [3]",
		pos="392,116.5",
		width=1.4167];
	3 -- 21	 [pos="305.05,161.83 324.45,151.94 357.96,134.86 377.22,125.04"];
	9 -- 19	 [pos="259.61,107.83 278.43,97.939 310.96,80.856 329.65,71.035"];
	22	 [URL="http://lattes.cnpq.br/1123705010561141",
		color="#17272B",
		fontcolor="#FFFFFF",
		height=0.23611,
		label="Ênio N. de Oliveira Júnior [1]",
		pos="412,8.5",
		width=1.5556];
	19 -- 22	 [pos="354.03,53.827 366.89,43.996 389.05,27.051 401.93,17.204"];
	4	 [URL="http://lattes.cnpq.br/9089252583772519",
		color="#17272B",
		fontcolor="#FFFFFF",
		height=0.23611,
		label="Ana M. D. C. de Miranda Oliveira [0]",
		pos="555,170.5",
		width=1.9167];
	5	 [URL="http://lattes.cnpq.br/9892291082782946",
		color="#17272B",
		fontcolor="#FFFFFF",
		height=0.23611,
		label="Ana C. Bernardes Silva [1]",
		pos="416,170.5",
		width=1.4306];
	5 -- 21	 [pos="412.46,161.83 407.92,152 400.1,135.05 395.56,125.2"];
	6	 [URL="http://lattes.cnpq.br/4448350387455509",
		color="#17272B",
		fontcolor="#FFFFFF",
		height=0.23611,
		label="Andre L. Barroso de Magalhaes [0]",
		pos="707,170.5",
		width=1.8056];
	7	 [URL="http://lattes.cnpq.br/4505221784644374",
		color="#17272B",
		fontcolor="#FFFFFF",
		height=0.23611,
		label="Telde Natel Custódio [0]",
		pos="838,170.5",
		width=1.3333];
	8	 [URL="http://lattes.cnpq.br/5854072268825877",
		color="#17272B",
		fontcolor="#FFFFFF",
		height=0.23611,
		label="Bruno Meireles Xavier [2]",
		pos="512,116.5",
		width=1.4167];
	8 -- 19	 [pos="487.57,107.94 455.72,98.08 400.32,80.934 368.46,71.07"];
	8 -- 22	 [pos="504.81,107.88 486.36,88.319 437.51,36.536 419.13,17.054"];
	10	 [URL="http://lattes.cnpq.br/1697965677198993",
		color="#17272B",
		fontcolor="#FFFFFF",
		height=0.23611,
		label="Antonio Helvecio Totola [1]",
		pos="958,170.5",
		width=1.5];
	17	 [URL="http://lattes.cnpq.br/7999741482353508",
		color="#17272B",
		fontcolor="#FFFFFF",
		height=0.23611,
		label="Marcel Otavio Cerri [3]",
		pos="1025,116.5",
		width=1.2917];
	10 -- 17	 [pos="967.89,161.83 980.55,152 1002.4,135.05 1015.1,125.2"];
	11	 [URL="http://lattes.cnpq.br/1288764472574843",
		color="#17272B",
		fontcolor="#FFFFFF",
		height=0.23611,
		label="Silvana de Queiroz Silva [0]",
		pos="1226,170.5",
		width=1.5];
	12	 [URL="http://lattes.cnpq.br/8339793010218033",
		color="#17272B",
		fontcolor="#FFFFFF",
		height=0.23611,
		label="Sandra de Cassia Dias [0]",
		pos="1348,170.5",
		width=1.375];
	13	 [URL="http://lattes.cnpq.br/6615103620821876",
		color="#17272B",
		fontcolor="#FFFFFF",
		height=0.23611,
		label="Rogério Antonio Picoli [0]",
		pos="1467,170.5",
		width=1.4167];
	14	 [URL="http://lattes.cnpq.br/1409264122407992",
		color="#17272B",
		fontcolor="#FFFFFF",
		height=0.23611,
		label="André Aguiar Mendes [0]",
		pos="1586,170.5",
		width=1.375];
	15	 [URL="http://lattes.cnpq.br/0381402687491195",
		color="#17272B",
		fontcolor="#FFFFFF",
		height=0.23611,
		label="Marcelo P. de Arruda Ribeiro [2]",
		pos="1092,170.5",
		width=1.7083];
	15 -- 17	 [pos="1082.1,161.83 1069.4,152 1047.6,135.05 1034.9,125.2"];
	16	 [URL="http://lattes.cnpq.br/9739061759678313",
		color="#17272B",
		fontcolor="#FFFFFF",
		height=0.23611,
		label="Marcelo Batista da Silva [0]",
		pos="1707,170.5",
		width=1.4861];
	18	 [URL="http://lattes.cnpq.br/4199377950118224",
		color="#17272B",
		fontcolor="#FFFFFF",
		height=0.23611,
		label="Luiz G. Martins da Silva [0]",
		pos="1832,170.5",
		width=1.4861];
	20	 [URL="http://lattes.cnpq.br/3756997395982734",
		color="#17272B",
		fontcolor="#FFFFFF",
		height=0.23611,
		label="José Carlos de Magalhães [0]",
		pos="1959,170.5",
		width=1.5417];
}
