artigoEmPeriodico	Elidia Maria Guerra	2016	http://dx.doi.org/10.20964/2016.06.3	Surfactant Effect as Template Agent on the Morphological and Electrochemical Properties of V2O5	International Journal of Electrochemical Science (Online)	LEMOS, F. R. ; SILVA, L. M. ; Dane T.Cestarolli ; GUERRA, E. M.	A2	
artigoEmPeriodico	Elidia Maria Guerra	2016	http://dx.doi.org/10.20964/2016.09.42	Electrocoagulation/electroflotation Process Applied to Decolourization of a Solution Containing the Dye Yellow Sirius K-CF	International Journal of Electrochemical Science (Online)	GONCALVES, M. V. B. ; OLIVEIRA, S. C. ; ABREU, B. M. P. N. ; GUERRA, E. M. ; CESTAROLLI, DANE T.	A2	
artigoEmPeriodico	Elidia Maria Guerra	2016		EFFECTS OF THERMAL TREATMENT ON STRUCTURAL PROPERTIES AND FORMATION OF THE POROUS OF VANADIUM(V) OXIDE	International Journal of Recent Scientific Research	GUERRA, E. M.; CESTAROLLI, DANE T. ; OLIVEIRA, H. P.	Qualis nao identificado	International Journal of Recent Scientific Research
artigoEmPeriodico	Elidia Maria Guerra	2015	http://dx.doi.org/10.1590/1516-1439.252513	Comparative Sensibility Study of WO3 ph Sensor Using EGFET and Ciclic Voltammetry	Materials Research (São Carlos. Impresso)	Campos, R. C. ; Dane T.Cestarolli ; MULATO, M. ; GUERRA, E. M.	B1	
artigoEmPeriodico	Elidia Maria Guerra	2014	http://dx.doi.org/10.4236/msa.2014.57049	Titanium Oxide Nanorods pH Sensors: Comparison between Voltammetry and Extended Gate Field Effect Transistor Measurements	Materials Sciences and Applications (Print)	GUERRA, E. M.; MULATO, M.	Qualis nao identificado	Materials Sciences and Applications (Print)
artigoEmPeriodico	Elidia Maria Guerra	2014		Investigation of the Structural Variation after the Intercalation of Cetylpyridinium Chloride into V2O5 Xerogel	International Journal of Engineering Research and Applications (IJERA)	GUERRA, E. M.; Dane T.Cestarolli ; OLIVEIRA, H. P.	Qualis nao identificado	International Journal of Engineering Research and Applications (IJERA)
trabalhoCompletoEmCongresso	Elidia Maria Guerra	2015	http://dx.doi.org/10.1109/PVSC.2015.7355917	Comparison of V2O5 and WO3 sandwicheds, via sol-gel, to development as photovoltaics cells	2015 IEEE 42nd Photovoltaic Specialists Conference (PVSC)	SILVA, GUILHERME E. ; OLIVEIRA, KAYO V. S. ; BIANCHI, RODRIGO F. ; CESTAROLLI, DANE T. ; GUERRA, ELIDIA M.		
artigoEmPeriodico	Daniela Leite Fabrino	2016	http://dx.doi.org/10.21472/bjbs.030603	Three-dimensional cell culture, opportunities and challenges for bioprocess engineers	Brazilian Journal of Biological Sciences	PEREIRA, SAMILLE HENRIQUES ; COUTINHO, DENISE SOARES DE MOURA ; MATOS, ANA FLÁVIA DE OLIVEIRA GONÇALVES DE ; SILVA JUNIOR, WILLER FERREIRA DA ; Fabrino, Daniela Leite	Qualis nao identificado	Brazilian Journal of Biological Sciences
artigoEmPeriodico	Daniela Leite Fabrino	2015		Análise do nível de conhecimento e motivação de alunos do ensino médio rumo ao ensino superior: Projeto Diálogos sobre o que Significa Cursar Engenhariar	Revista Brasileira de Extensão Universitária	do Nascimento ; Pena, A.C.C. ; Silva, A.A.C.A. ; SALES, S. L. ; Picoli, Rogério Antônio ; FABRINO, D. L.	B4	
artigoEmPeriodico	Daniela Leite Fabrino	2015		Barotrauma em peixes em usinas hidrelétricas: ferramentas para o estudo	Boletim, Sociedade Brasileira de Ictiologia	BEIRAO, B. V. ; MARCIANO, N. C. B. ; DIAS, L. S. ; FALCAO, R. C. ; DIAS, E. W. ; FABRINO, D. L. ; MARTINEZ, C. B. ; SILVA, L. G. M. ; WALKER, R. ; BROWN, R. ; DENG, D.	Qualis nao identificado	Boletim, Sociedade Brasileira de Ictiologia
trabalhoCompletoEmCongresso	Daniela Leite Fabrino	2016	http://dx.doi.org/10.5540/03.2016.004.01.0020	Estudo de Vibrações Mecânicas em Microtúbulos Celulares	DINCON 2015 Conferência Brasileira de Dinâmica	BRITO, RUAN YVIS ; Fabrino, Daniela Leite ; OLIVEIRA, ADÉLCIO		
trabalhoCompletoEmCongresso	Daniela Leite Fabrino	2016		BookCrossing	XVI SUDESTEPET	GOMES, T. B. ; CAMARGOS, J. ; LEAO, Z. ; FABRINO, D. L.		
trabalhoCompletoEmCongresso	Daniela Leite Fabrino	2016		Grupo de estudos em cultura de células em 3D	XVI Sudeste PET: Da sala de aula à Formação Profissional	XAVIER, K. R. ; FABRINO, D. L.		
trabalhoCompletoEmCongresso	Daniela Leite Fabrino	2014		Xadrez no Campus Alto Paraopeba	XII Congresso de Produção Científica e Acadêmica	Moreira, V. F. C. ; Miranda, J. P. L. ; Jose, I. A. A. P. S. ; Nunes, P. G. R. ; Vilela, R. R. ; Ottoni, J. E. ; FABRINO, D. L.		
resumoExpandidoEmCongresso	Daniela Leite Fabrino	2014	BookCrossing: uma ferramenta para popularização do habito de leitura	XIV SUDESTEPET - 2014, 2014, Seropédica. Anais de resumo - XIV SUDESTEPET - 2014	DIAS, J. S. ; FABRINO, D. L.		
artigoEmPeriodico	Dane Tadeu Cestarolli	2016	http://dx.doi.org/10.20964/2016.06.3	Surfactant Effect as Template Agent on the Morphological and Electrochemical Properties of V2O5	International Journal of Electrochemical Science (Online)	LEMOS, F. R. ; Leonardo M. da SIlva ; Dane T. Cestarolli ; GUERRA, E. M.	A2	
artigoEmPeriodico	Dane Tadeu Cestarolli	2016	http://dx.doi.org/10.20964/2016.09.42	Electrocoagulation/electroflotation Process Applied to Decolourization of a Solution Containing the Dye Yellow Sirius K-CF	International Journal of Electrochemical Science (Online)	GONCALVES, M. V. B. ; OLIVEIRA, S. C. ; ABREU, B. M. P. N. ; GUERRA, E. M. ; CESTAROLLI, DANE T.	A2	
artigoEmPeriodico	Dane Tadeu Cestarolli	2016		EFFECTS OF THERMAL TREATMENT ON STRUCTURAL PROPERTIES AND FORMATION OF THE POROUS OF VANADIUM (V) OXIDE	International Journal of Recent Scientific Research	GUERRA, E. M.; CESTAROLLI, DANE T. ; OLIVEIRA, H. P.	Qualis nao identificado	International Journal of Recent Scientific Research
artigoEmPeriodico	Dane Tadeu Cestarolli	2015		Comparison of V2O5 and WO3 sandwicheds, via Sol-Gel, to Development as Photovoltaics Cells	IEEE Journal of Photovoltaics	SILVA, G. E. ; Oliveira, K V S ; BIANCHI, R. ; Cestarolli, Dane T. ; Guerra, Elidia M.	Qualis nao identificado	IEEE Journal of Photovoltaics
artigoEmPeriodico	Dane Tadeu Cestarolli	2015	http://dx.doi.org/10.1590/1516-1439.252513	Comparative Sensibility Study of WO3 ph Sensor Using EGFET and Ciclic Voltammetry	Materials Research (São Carlos. Impresso)	CAMPOS, R. C. ; GUERRA, E. M. ; Mulato, M. ; Cestarolli, Dane T.	B1	
artigoEmPeriodico	Dane Tadeu Cestarolli	2014		Investigation of the Structural Variation after the Intercalation of Cetylpyridinium Chloride into V2O5 Xerogel	International Journal of Engineering Research and Applications (IJERA)	GUERRA, E. M. ; CESTAROLLI, D. T. ; OLIVEIRA, H. P.	Qualis nao identificado	International Journal of Engineering Research and Applications (IJERA)
artigoEmPeriodico	Renata Carolina Zanetti Lofrano	2016		Bioprospecção de microrganismos produtores de enzimas de interesse industrial realizada no Parque Estadual Serra do Ouro Branco, Brasil	Interbio	Luz, B. D. da S. ; Sarrouh, B. ; LOFRANO, R. C. Z.	Qualis nao identificado	Interbio
artigoEmPeriodico	Renata Carolina Zanetti Lofrano	2016		Revisão sobre a toxicidade e impactos ambientais relacionados à vinhaça, efluente da indústria sucroalcooleira	Cadernos UniFOA (Impresso)	LIMA, F. A. ; SANTOS JUNIOR, A. C. ; MARTINS, L. C. ; Sarrouh, B. ; LOFRANO, R. C. Z.	B5	
artigoEmPeriodico	Renata Carolina Zanetti Lofrano	2015		Análise do Desenvolvimento e Perspectivas Mundiais dos Biocombustíveis de Primeira e Segunda Geração	E-xacta (Belo Horizonte)	LOFRANO, R. C. Z.; OLIVEIRA, L. A. F.	B4	
artigoEmPeriodico	Renata Carolina Zanetti Lofrano	2013		MÉTODOS E PERSPECTIVAS TECNOLÓGICAS DE OBTENÇÃO DE BIOCOMBUSTÍVEIS DE PRIMEIRA E SEGUNDA GERAÇÃO	E-xacta (Belo Horizonte)	LOFRANO, R. C. Z.; COSTA, F. M. F. ; OLIVEIRA, L. A. F. ; OLIVEIRA, M. C. A.	B4	
trabalhoCompletoEmCongresso	Renata Carolina Zanetti Lofrano	2015		EMPREGO DE GEOCOMPOSTO BENTONÍTICO NA MINIMIZAÇÃO DE DRENAGEM ÁCIDA DE MINA RESULTANTE DE RESÍDUOS DE MINERAÇÃO	VII CONGRESSO BRASILEIRO DE GEOSSINTÉTICOS (REGEO 2015)	PITANGA, H. N. ; LOFRANO, R. C. Z. ; Rodrigues, K. H. P. ; de Almeida, R. P.		
trabalhoCompletoEmCongresso	Renata Carolina Zanetti Lofrano	2014		Emprego de Barreiras Argilosas Impermeabilizantes para fins de Minimização de Drenagem Ácida de Mina (DAM) Resultante de Resíduos de Mineração da Região do Alto Paraopeba/MG	XVII Congresso Brasileiro de Mecânica dos Solos e Engenharia Geotécnica	Rodrigues, K. H. P. ; PITANGA, H. N. ; de Almeida, R. P. ; LOFRANO, R. C. Z.		
trabalhoCompletoEmCongresso	Renata Carolina Zanetti Lofrano	2014		Produção de Citratos de Glicerol que atuam como plastificantes 'verdes' usando-se glicerina, efluente da produção de biodiesel por transesterificação	XX COBEQ - Congresso Brasileiro de Engenharia Química	LOFRANO, R. C. Z.; REZENDE, D. J. L. F.		
trabalhoCompletoEmCongresso	Renata Carolina Zanetti Lofrano	2013		PRODUÇÃO DE ÉSTERES DE GLICEROL QUE ATUAM COMO PLASTIFICANTES EMPREGANDO-SE GLICERINA OBTIDA COMO CO-PRODUTO NA SÍNTESE DE BIODIESEL POR TRANSESTERIFICAÇÃO	XXVII Congresso Brasileiro de Engenharia Sanitária e Ambiental	LOFRANO, R. C. Z.; COSTA, F. M. F. ; KNUPP, V. F.		
artigoEmPeriodico	Ana Cláudia Bernardes Silva	2016	http://dx.doi.org/10.1590/0100-67622016000500015	MCT CLASSIFICATION FOR COMPACTED MIXTURES OF SOIL-STEEL SLAG-FLY ASH FOR APPLICATION IN FOREST ROADS	Revista Árvore (Online)	PITANGA, HERALDO NUNES ; SILVA, TACIANO OLIVEIRA DA ; SANTOS, ANDRÉ LUÍS DOS ; SILVA, ANA CLAUDIA BERNARDES ; LIMA, DARIO CARDOSO DE	B1	
artigoEmPeriodico	Ana Cláudia Bernardes Silva	2016	http://dx.doi.org/10.1002/masy.201500156	Identification of Biodegradable and Oxo-Biodegradable Plastic Bags Samples Composition	Macromolecular Symposia	FINZI-QUINTÃO, CRISTIANE M. ; NOVACK, KÁTIA M. ; BERNARDES-SILVA, ANA CLÁUDIA	B2	
artigoEmPeriodico	Andre Lincoln Barroso de Magalhaes	2016		Reproductive biology of the introduced sailfin catfish Pterygoplichthys pardalis (Pisces: Loricariidae) in Peninsular Malaysia	Indian Journal of Fisheries	SAMAT, A. ; YUSOFF, F. M. ; ARSHAD, A. ; GHAFFAR, M. A. ; NOR, S. M. ; A. L. B. MAGALHAES ; DAS, S. K.	Qualis nao identificado	Indian Journal of Fisheries
artigoEmPeriodico	Andre Lincoln Barroso de Magalhaes	2016		?Por fora bela viola, por dentro pão bolorento?: invasões biológicas na lagoa da Pampulha como desafio para o novo Patrimônio Mundial da Humanidade	Boletim ABlimno	MAGALHAES, A. L. B.; AZEVEDO-SANTOS, V. M. ; LIMA-JUNIOR, D. P. ; Brito, M.F.G.	Qualis nao identificado	Boletim ABlimno
artigoEmPeriodico	Andre Lincoln Barroso de Magalhaes	2016	http://dx.doi.org/10.1007/s10531-016-1229-0	The -Tilapia Law- encouraging non-native fish threatens Amazonian River basins	Biodiversity and Conservation	PADIAL, ANDRÉ A. ; AGOSTINHO, ÂNGELO A. ; AZEVEDO-SANTOS, VALTER M. ; FREHSE, FABRÍCIO A. ; LIMA-JUNIOR, DILERMANDO P. ; MAGALHÃES, ANDRÉ L. B. ; MORMUL, ROGER P. ; PELICICE, FERNANDO M. ; BEZERRA, LUIS A. V. ; ORSI, MÁRIO L. ; PETRERE-JUNIOR, MIGUEL ; VITULE, JEAN R. S.	A1	
artigoEmPeriodico	Andre Lincoln Barroso de Magalhaes	2016	http://dx.doi.org/10.1007/s10531-016-1258-8	We need better understanding about functional diversity and vulnerability of tropical freshwater fishes	Biodiversity and Conservation	VITULE, JEAN R. S. ; AGOSTINHO, ANGELO A. ; AZEVEDO-SANTOS, VALTER M. ; DAGA, VANESSA S. ; DARWALL, WILLIAM R. T. ; FITZGERALD, DANIEL B. ; FREHSE, FABRÍCIO A. ; HOEINGHAUS, DAVID J. ; LIMA-JUNIOR, DILERMANDO P. ; MAGALHÃES, ANDRÉ L. B. ; ORSI, MÁRIO L. ; PADIAL, ANDRÉ A. ; PELICICE, FERNANDO M. ; PETRERE, MIGUEL ; POMPEU, PAULO S. ; WINEMILLER, KIRK O.	A1	
artigoEmPeriodico	Andre Lincoln Barroso de Magalhaes	2015	http://dx.doi.org/10.4013/nbc.2015.101.07	A proibição legal da importação do lagostim-vermelho (Crustacea: Cambaridae) no Brasil tem sido eficaz?	Neotropical Biology and Conservation	MAGALHÃES, ANDRÉ LINCOLN BARROSO; ANDRADE, RENATO FERREIRA	B3	
artigoEmPeriodico	Andre Lincoln Barroso de Magalhaes	2015	http://dx.doi.org/10.1126/science.347.6229.1427-b	Brazil?s drought: Protect biodiversity	Science (New York, N.Y.)	VITULE, JEAN R. S. ; AZEVEDO-SANTOS, V. M. ; DAGA, V. S. ; LIMA-JUNIOR, D. P. ; MAGALHAES, A. L. B. ; ORSI, M. L. ; PELICICE, F. M. ; AGOSTINHO, A. A.	A1	
artigoEmPeriodico	Andre Lincoln Barroso de Magalhaes	2015	http://dx.doi.org/10.1590/1982-0224-20140084	Influence of a large dam and importance of an undammed tributary on the reproductive ecology of the threatened fish matrinxã Brycon orthotaenia Günther, 1864 (Characiformes: Bryconidae) in southeastern Brazil	Neotropical Ichthyology (Online)	NUNES, D. M. F. ; MAGALHAES, A. L. B. ; WEBER, A. A. ; GOMES, R. Z. ; NORMANDO, F. T. ; SANTIAGO, K. B. ; Rizzo, E. ; Bazzoli, N.	Qualis nao identificado	Neotropical Ichthyology (Online)
artigoEmPeriodico	Andre Lincoln Barroso de Magalhaes	2015	http://dx.doi.org/10.1016/j.ncon.2015.06.002	How to avoid fish introductions in Brazil: education and information as alternatives	Natureza & Conservação	AZEVEDO-SANTOS, V. M. ; PELICICE, F. M. ; LIMA-JUNIOR, D. P. ; MAGALHÃES, ANDRÉ L. B. ; ORSI, M. L. ; Vitule, J. R. S. ; AGOSTINHO, A. A.	A2	
artigoEmPeriodico	Andre Lincoln Barroso de Magalhaes	2015		Reproductive biology of the lambari Hyphessobrycon santae (Eigenmann, 1907) (Pisces: Characidae) in the Fazenda Lagoa do Nado Urban Park, São Francisco river basin, Minas Gerais/Brazil	Revista Brasileira de Zoociências	Sales, M. L. ; BRAGA, E. P. R. ; MAGALHAES, A. L. B. ; Maia, B. P. ; Ratton, T.F.	B3	
artigoEmPeriodico	Andre Lincoln Barroso de Magalhaes	2015	http://dx.doi.org/10.1016/j.ncon.2015.11.003	Dams, politics and drought threat: the march of folly in Brazilian freshwaters ecosystems	Natureza & Conservação	LIMA JUNIOR, DILERMANDO PEREIRA ; BARROSO MAGALHÃES, ANDRÉ LINCOLN ; Vitule, Jean Ricardo Simões	A2	
artigoEmPeriodico	Andre Lincoln Barroso de Magalhaes	2015	http://dx.doi.org/10.1111/jai.12491	Presence of prohibited fishes in the Brazilian aquarium trade: effectiveness of laws, management options and future prospects	Journal of Applied Ichthyology	MAGALHÃES, A. L. B	B1	
artigoEmPeriodico	Andre Lincoln Barroso de Magalhaes	2014		Establishment of non-native guppy Poecilia reticulata (Peters, 1859) (Cyprinodontiformes: Poeciliidae) in an Municipal Park located in Minas Gerais State, Brazil	Pan-American Journal of Aquatic Sciences	OLIVEIRA, T. D. ; REIS, A. C. ; GUEDES, C. O. ; Sales, M. L. ; BRAGA, E. P. R. ; Ratton, T.F. ; Maia, B. P. ; MAGALHAES, A. L. B.	B2	
artigoEmPeriodico	Andre Lincoln Barroso de Magalhaes	2014	http://dx.doi.org/10.1038/513315d	Aquarium trade: Monitor Brazil's fish sampling closely	Nature (London)	VITULE, JEAN R. S. ; SAMPAIO, FLÁVIA D. F. ; MAGALHÃES, ANDRÉ L. B.	A1	
artigoEmPeriodico	Andre Lincoln Barroso de Magalhaes	2014		Legislação ambiental e peixes ornamentais no Brasil: onde estamos, para onde vamos e qual o papel dos ictiólogos	Boletim, Sociedade Brasileira de Ictiologia	Vitule, J. R. S. ; MAGALHAES, A. L. B. ; SAMPAIO, FLÁVIA D. F.	Qualis nao identificado	Boletim, Sociedade Brasileira de Ictiologia
artigoEmPeriodico	Andre Lincoln Barroso de Magalhaes	2014		Reprodução de peixes não-nativos em cativeiro e a ameaça de estabelecimento em Minas Gerais: o caso do espadinha Xiphophorus helleri e plati Xiphophorus maculatus	MG. Biota	Chahayeb, I. V. ; Rangel Eduardo Santos ; Ratton, T.F. ; MAGALHÃES, ANDRÉ L. B.	B3	
artigoEmPeriodico	Andre Lincoln Barroso de Magalhaes	2013		Invasion risks posed by ornamental freshwater fish trade to southeastern Brazilian rivers	Neotropical Ichthyology (Online)	MAGALHAES, A. L. B.; Jacobi, C. M.	Qualis nao identificado	Neotropical Ichthyology (Online)
artigoEmPeriodico	Andre Lincoln Barroso de Magalhaes	2013	http://dx.doi.org/10.1126/science.341.6145.457-a	Aquarium Industry Threatens Biodiversity	Science (New York, N.Y.)	Magalhães, André Lincoln Barroso de; Vitule, J. R. S.	A1	
artigoEmPeriodico	Andre Lincoln Barroso de Magalhaes	2013	http://dx.doi.org/10.1007/s10530-013-0443-x	Asian aquarium fishes in a Neotropical Biodiversity hotspot: impending establishment, spread and impacts	Biological Invasions	Magalhães, André Lincoln Barroso de; Jacobi, C. M.	A2	
artigoEmPeriodico	Andre Lincoln Barroso de Magalhaes	2013		Aquaculture, Aquarium, Conservation	Aquaculture, Aquarium, Conservation & Legislation - International Journal of the Bioflux Society	ALAM, M. M. ; JAHAN, S. N. ; HUSSAIN, M. A. ; DE, M. ; GOUTHAM-BHARATHI, M. P. ; BARROSO MAGALHAES, A.L. ; MAZLAN, A. G. ; SIMON, K.	Qualis nao identificado	Aquaculture, Aquarium, Conservation & Legislation - International Journal of the Bioflux Society
artigoEmPeriodico	Andre Lincoln Barroso de Magalhaes	2013		Reprodução do Peixe não-nativo Barbo-Rosado Pethia conchonius (Hamilton, 1822) (Pisces: Cyprinidae) na Zona de Amortecimento do Parque Estadual da Serra do Brigadeiro (PESB), Minas Gerais	Biodiversidade Brasileira	MAGALHAES, A. L. B.; Jacobi, C. M.	Qualis nao identificado	Biodiversidade Brasileira
resumoExpandidoEmCongresso	Andre Lincoln Barroso de Magalhaes	2013	Reprodução dos peixes não-nativos Mato-Grosso Hyphessobrycon eques (Steindachner, 1882) (Pisces: Characidae) e Perca-sol Lepomis gibbosus (Linnaeus, 1758) (Pisces: Centrarchidae) em duas importantes bacias hidrográficas do estado de Minas Gerais	XI Congresso de Ecologia do Brasil, 2013, Porto Seguro. Lista de trabalhos	Rangel Eduardo Santos ; Chahayeb, I. V. ; MAGALHAES, A. L. B.		
resumoExpandidoEmCongresso	Andre Lincoln Barroso de Magalhaes	2013	Reprodução natural do peixe não-nativo Barbo-tigre Systomus tetrazona (Bleeker, 1855), cultivado e introduzido no município de Miradouro, bacia do rio Paraíba do Sul, Minas Gerais	XI Congresso de Ecologia do Brasil, 2013, Porto Seguro. Lista de trabalhos	Chahayeb, I. V. ; Rangel Eduardo Santos ; MAGALHAES, A. L. B.		
resumoExpandidoEmCongresso	Andre Lincoln Barroso de Magalhaes	2013	As proibições para espécies não-nativas de aquário têm sido eficazes no Brasil?	XI Congresso de Ecologia do Brasil, 2013, Porto Seguro. Lista de trabalhos	MAGALHAES, A. L. B.; Rangel Eduardo Santos ; Chahayeb, I. V.		
resumoExpandidoEmCongresso	Andre Lincoln Barroso de Magalhaes	2013	Peixes não-nativos reproduzem em cativeiro e mabiente natural? O caso do peixe ornamental molinésia Poecilia sphenops Valenciennes, 1846 (Pisces: Poeciliidae) no estado de Minas Gerais	XI Congresso de Ecologia do Brasil, 2013, Porto Seguro. Lista de trabalhos	Rangel Eduardo Santos ; Chahayeb, I. V. ; MAGALHAES, A. L. B.		
artigoEmPeriodico	Telde Natel Custódio	2013		Fontes e concentrações de silício na micropropagação da bananeira ?Caipira?.	Tecnologia & Ciência Agropecuária	DIAS, M. M. ; PASQUAL, M. ; ARAUJO, A. G. ; COSTA, F. H. S. ; SANTOS, V. A. ; CUSTÓDIO, T. N.	B4	
artigoEmPeriodico	Telde Natel Custódio	2013		Avaliação agronômica de cultivares e clones de mandioca em área irrigada no Norte de Minas Gerais.	Scientia Agraria Paranaensis	JESUS, A. M. S. ; CARVALHO, S. P. ; CUSTÓDIO, T. N. ; OLIVEIRA, P. M. ; GOMES, C. N.	B5	
artigoEmPeriodico	Bruno Meireles Xavier	2013	http://dx.doi.org/10.1155/2013/153045	Snake Venom PLA2s Inhibitors Isolated from Brazilian Plants: Synthetic and Natural Molecules	BIOMED RES INT	Carvalho, B. M. A. ; SANTOS, J. D. L. ; XAVIER, B. M. ; ALMEIDA, J. R. ; RESENDE, L. M. ; MARTINS, W. ; MARCUSSI, S. ; MARANGONI, S. ; STÁBELI, R. G. ; CALDERON, L. A. ; SOARES, A. M. ; DA SILVA, S. L. ; MARCHI-SALVADOR, D. P.	Qualis nao identificado	BIOMED RES INT
trabalhoCompletoEmCongresso	Bruno Meireles Xavier	2015		Biocarvão estimula a produtividade de feijoeiro com efeito sinérgico com a fertilização convencional	LINKS 2015: Ligações entre o consumo de energia	Felipe, L. O. ; Lacerda FA ; VIEIRA, F. S. ; ASCENDINO, G. G. ; Nucci, E. R. ; XAVIER, B. M.		
artigoEmPeriodico	Boutros Sarrouh	2016		Bioprospecção de microrganismos produtores de enzimas de Interesse industrial realizada no parque estadual serra do Ouro branco, Brasil	Interbio	LUZ, B. D. S. ; Juliano Lemos Bicas ; Sarrouh, B ; Renata Carolina Zanetti Lofrano	Qualis nao identificado	Interbio
artigoEmPeriodico	Boutros Sarrouh	2016		Revisão sobre a toxicidade e impactos ambientais relacionados à vinhaça, efluente da indústria sucroalcooleira	Cadernos UniFOA (Impresso)	LIMA, F. A. ; SANTOS JUNIOR, A. C. ; MARTINS, L. C. ; Sarrouh, B ; Renata Carolina Zanetti Lofrano	B3	
artigoEmPeriodico	Boutros Sarrouh	2013	http://dx.doi.org/10.1007/s12010-013-0127-0	Repeated Batch Cell-Immobilized System for the Biotechnological Production of Xylitol as a Renewable Green Sweetener	Applied Biochemistry and Biotechnology (Online)	Sarrouh, Boutros; Silva, Silvio Silvério	A1	Applied Biochemistry and Biotechnology
artigoEmPeriodico	Boutros Sarrouh	2013	http://dx.doi.org/10.5936/csbj.201303013	Progression of 'OMICS' methodologies for understanding the pathogenicity of Corynebacterium pseudotuberculosis: the Brazilian experience	Computational and Structural Biotechnology Journal	DORELLA, FERNANDA A ; GALA-GARCIA, ALFONSO ; PINTO, ANNE C ; Sarrouh, Boutros ; ANTUNES, CAMILA A ; RIBEIRO, DAYANA ; ABURJAILE, FLÁVIA ; FIAUX, KARINA K ; GUIMARÃES, LUIS C ; SEYFFERT, NUBIA ; EL-AOUAR, RACHID A ; SILVA, RENATA ; HASSAN, SYED S ; CASTO, THIAGO LP ; MARQUES, WANDERSON S ; RAMOS, ROMMEL ; CARNEIRO, ADRIANA ; SÁ, PABLO DE ; MIYOSHI, ANDERSON ; AZEVEDO, VASCO ; SILVA, ARTUR	Qualis nao identificado	Computational and Structural Biotechnology Journal
trabalhoCompletoEmCongresso	Boutros Sarrouh	2016		Avaliação da Atividade da Enzima Tanase produzida por Fusarium sp. e Aspergillus sp. isolados a partir da Casca de Café	XII Seminário Brasileiro de Tecnologia Enzimática ENZITEC 2016	CORREA, I. T. S. ; Sarrouh, B		
trabalhoCompletoEmCongresso	Boutros Sarrouh	2016		Avaliação da atividade endoglicolítica dos fungos Fusarium sp. E mucor sp. Isolados a partir da casca do Café	XII Seminário Brasileiro de Tecnologia Enzimática ENZITEC 2016	ANDRADE, L. C. ; Sarrouh, B		
trabalhoCompletoEmCongresso	Boutros Sarrouh	2016		Otimização da Hidrólise Enzimática da Casca de Café visando à Obtenção de Açúcares Fermentescíveis	XII Seminário Brasileiro de Tecnologia Enzimática ENZITEC 2016	DURSO, T. F. A. ; Sarrouh, B		
trabalhoCompletoEmCongresso	Boutros Sarrouh	2016		ISOLAMENTO E IDENTIFICAÇÃO DE FUNGOS FILAMENTOSOS DE INTERESSE TECNOLÓGICO A PARTIR DA CASCA DE CAFÉ	XXI Congresso Brasileiro de Engenharia Química	NATIVIDADE, F. P. ; Sarrouh, B		
trabalhoCompletoEmCongresso	Boutros Sarrouh	2015		CARACTERIZAÇÃO DE ENZIMAS COM ATIVIDADE CELULOLÍTICA PRODUZIDAS POR FUNGOS ISOLADOS A PARTIR DA CASCA DE CAFÉ	XX SIMPÓSIO NACIONAL DE BIOPROCESSOS XI SIMPÓSIO DE HIDRÓLISE ENZIMÁTICA DE BIOMASSAS	FARIA, T. N. ; DURSO, T. F. ; SANTOS, A. F. C. ; Sarrouh, B		
trabalhoCompletoEmCongresso	Boutros Sarrouh	2015		ISOLAMENTO DE FUNGOS COM ATIVIDADES ENZIMÁTICAS DE INTERESSE BIOTECNOLÓGICO A PARTIR DA CASCA DE CAFÉ	XX SIMPÓSIO NACIONAL DE BIOPROCESSOS XI SIMPÓSIO DE HIDRÓLISE ENZIMÁTICA DE BIOMASSAS	NATIVIDADE, F. P. ; DURSO, T. F. ; Sarrouh, B		
artigoEmPeriodico	Antonio Helvecio Totola	2015	http://dx.doi.org/10.1111/jvec.12134	Dengue virus detection in <i>Aedes aegypti</i> larvae from southeastern Brazil	Journal of Vector Ecology	CECÍLIO, SAMYRA GIAROLA ; JÚNIOR, WILLER FERREIRA SILVA ; TÓTOLA, ANTÔNIO HELVÉCIO ; DE BRITO MAGALHÃES, CÍNTIA LOPES ; FERREIRA, JAQUELINE MARIA SIQUEIRA ; DE MAGALHÃES, JOSÉ CARLOS	B1	
artigoEmPeriodico	Antonio Helvecio Totola	2015	http://dx.doi.org/10.1016/j.chroma.2015.03.052	Adsorption of immunoglobulin Y in supermacroporous continuous cryogel with immobilized Cu2+ ions	Journal of Chromatography (Print)	JÚNIOR, WILLER FERREIRA DA SILVA ; CANO, RODRIGO ; TOTOLA, ANTONIO HELVÉCIO ; CARVALHO, LORENDANE MILENA DE ; CERRI, MARCEL OTÁVIO ; COIMBRA, JANE SÉLIA DOS REIS ; CARVALHO, GLEIDSON GIORDANO PINTO DE ; CARVALHO, BRUNA MARA APARECIDA DE	A1	
artigoEmPeriodico	Antonio Helvecio Totola	2013	http://dx.doi.org/10.1186/2193-1801-2-430	Combination of extracts from Aristolochia cymbifera with streptomycin as a potential antibacterial drug	SpringerPlus	SILVA, WILLER F ; CECÍLIO, SAMYRA G ; MAGALHÃES, CINTIA LB ; FERREIRA, JAQUELINE MS ; TÓTOLA, ANTONIO H ; DE MAGALHAES, JOSE C	Qualis nao identificado	SpringerPlus
artigoEmPeriodico	Antonio Helvecio Totola	2013	http://dx.doi.org/10.1016/j.jcv.2013.06.015	Evaluation of laboratory tests for dengue diagnosis in clinical specimens from consecutive patients with suspected dengue in Belo Horizonte, Brazil	Journal of Clinical Virology	FERRAZ, FERNANDA OLIVEIRA ; BOMFIM, MARIA ROSA QUARESMA ; Totola, Antônio Helvécio ; ÁVILA, THIAGO VINÍCIUS ; CISALPINO, DANIEL ; PESSANHA, JOSÉ EDUARDO MARQUES ; DE SOUZA, DANIELLE DA GLÓRIA ; TEIXEIRA JÚNIOR, ANTÔNIO LÚCIO ; NOGUEIRA, MAURÍCIO LACERDA ; BRUNA-ROMERO, OSCAR ; TEIXEIRA, MAURO MARTINS	A1	
artigoEmPeriodico	Antonio Helvecio Totola	2013	http://dx.doi.org/10.5433/2316-5200.2013v2n2espp73	Desenvolvimento de teste imunocromatográfico para detecção de proteínas não estruturais da dengue	BBR - Biochemistry and Biotechnology Reports	Machado ; Totola, A. H.	B5	
trabalhoCompletoEmCongresso	Antonio Helvecio Totola	2014		PRODUÇÃO, PURIFICAÇÃO E CARACTERIZAÇÃO DE ANTICORPOS IGY	XXI Seminário de Iniciação Científica - UFSJ	PEREIRA, M. A. F. ; Totola, A. H.		
artigoEmPeriodico	Silvana de Queiroz Silva	2016	http://dx.doi.org/10.1590/0104-6632.20160334s20150270	APPLICATION OF RESIDUAL YEAST AS A SOURCE OF REDOX MEDIATORS FOR THE ANAEROBIC DECOLORIZATION OF A MODEL AZO DYE	BRAZILIAN JOURNAL OF CHEMICAL ENGINEERING (ONLINE)	Victral, D.M. ; DIAS, H. R. A. E. ; Baeta, B.E.L. ; SILVA, S. Q. ; AQUINO, S. F.	A2	Brazilian Journal of Chemical Engineering (Impresso)
artigoEmPeriodico	Silvana de Queiroz Silva	2016	http://dx.doi.org/10.1002/rcm.7724	Characterization of metformin by-products under photolysis, photocatalysis, ozonation and chlorination by high performance liquid chromatography coupled to high-resolution mass spectrometry (HPLC/HRMS)	RCM. Rapid Communications in Mass Spectrometry	QUINTÃO, FREDERICO JEHÁR OLIVEIRA ; FREITAS, JULIA RAQUEL LINO ; DE FÁTIMA MACHADO, CÉLIA ; AQUINO, SÉRGIO FRANCISCO ; DE QUEIROZ SILVA, SILVANA ; DE CÁSSIA FRANCO AFONSO, ROBSON JOSÉ	A2	
artigoEmPeriodico	Silvana de Queiroz Silva	2016	http://dx.doi.org/10.1590/0104-6632.20160334s20150031	INFLUENCE OF THE APPLIED ORGANIC LOAD (OLR) ON TEXTILE WASTEWATER TREATMENT USING SUBMERGED ANAEROBIC MEMBRANE BIOREACTORS (SAMBR) IN THE PRESENCE OF REDOX MEDIATOR AND POWDERED ACTIVATED CARBON (PAC)	BRAZILIAN JOURNAL OF CHEMICAL ENGINEERING (ONLINE)	Baêta, B. E. L. ; LIMA, D.R.S. ; SILVA, S. Q. ; Aquino, S. F.	A2	Brazilian Journal of Chemical Engineering (Impresso)
artigoEmPeriodico	Silvana de Queiroz Silva	2016	http://dx.doi.org/10.1080/09593330.2016.1198831	Enhancement of anaerobic degradation of azo dye with riboflavin and NAD harvested by osmotic lysis of wasted fermentation yeasts	Environmental Technology	VICTRAL, DAVI M. ; DIAS, HEITOR R. A. ; Silva, Silvana Q. ; BAETA, BRUNO E. L. ; Aquino, Sérgio F.	A2	
artigoEmPeriodico	Silvana de Queiroz Silva	2015	http://dx.doi.org/10.2166/wst.2015.244	Evaluation of EPS extraction protocols from anaerobic sludge for gel-based proteomic studies	Water Science and Technology	ZOREL, J. A. ; AQUINO, Sérgio Francisco de ; Sanson, A. L. ; Borges, W.C. ; SILVA, S. Q.	A2	
artigoEmPeriodico	Silvana de Queiroz Silva	2014		Microbial dynamics during azo dye degradation in a UASB reactor supplied with yeast extract	Brazilian Journal of Microbiology (Online)	Silva, S.Q.; Silva, D.C. ; Lanna, M.C.S ; BAETA, B. E. L. ; Aquino, Sérgio F.	B1	
artigoEmPeriodico	Silvana de Queiroz Silva	2014	http://dx.doi.org/10.5935/0100-4042.20140133	USE OF MULTIVARIATE EXPERIMENTAL DESIGNS FOR OPTIMIZING THE REDUCTIVE DEGRADATION OF AN AZO DYE IN THE PRESENCE OF REDOX MEDIATORS	Química Nova (Impresso)	LIMA, D. R. ; Baêta, B. E. L. ; SILVA, G. A. ; Silva, S.Q. ; Aquino, S. F.	A2	
artigoEmPeriodico	Silvana de Queiroz Silva	2014	http://dx.doi.org/10.1016/j.cej.2014.08.050	Evaluation of soluble microbial products and aromatic amines accumulation during a combined anaerobic/aerobic treatment of a model azo dye	Chemical Engineering Journal (1996)	BAÊTA, B.E.L. ; LIMA, D.R.S. ; Silva, S.Q. ; Aquino, S.F.	A1	
artigoEmPeriodico	Silvana de Queiroz Silva	2013	http://dx.doi.org/10.1016/j.jenvman.2013.05.038	Degradation of a model azo dye in submerged anaerobic membrane bioreactor (SAMBR) operated with powdered activated carbon (PAC)	Journal of Environmental Management	BAÊTA, B.E.L. ; LUNA, H.J. ; SANSON, A.L. ; Silva, S.Q. ; Aquino, S.F.	A1	
artigoEmPeriodico	Silvana de Queiroz Silva	2013	http://dx.doi.org/10.4028/www.scientific.net/amr.825.540	Identification of a Bacterial Consortium with Biotechnological Potential for Arsenic Bioremediation	Advanced Materials Research (Online)	MOREIRA, MARIANA ; DE QUEIROZ SILVA, SILVANA ; TEIXEIRA, MÔNICA CRISTINA	Qualis nao identificado	Advanced Materials Research (Online)
trabalhoCompletoEmCongresso	Silvana de Queiroz Silva	2015		Metabolic characterization of glycerol conversion to hydrogen by Enterobacter sp strains	14th World Congress on Anaerobic Digestion	ZOREL, J. A. ; COELHO, E.D.G. ; NUNES, R. P. ; LIMA, D.R.S. ; Aquino, S. F. ; SILVA, S. Q.		
trabalhoCompletoEmCongresso	Silvana de Queiroz Silva	2015		Isolation of fermentative bacteria able to use xylose and arabionose as carbon source for hydrogen production	14th World Congress on Anaerobic Digestion	CAMPOS, I. M. ; Baêta, B. E. L. ; Aquino, S. F. ; SILVA, S. Q.		
trabalhoCompletoEmCongresso	Silvana de Queiroz Silva	2015		Anaerobic decolorization of a model azo dye with redox mediators from mechanical and ultrasonication lysis of residual yeast	14th World Congress on Anaerobic Digestion	Victral, D.M. ; Aquino, S. F. ; SILVA, S. Q. ; DIAS, H. R. A. E. ; Baêta, B. E. L.		
trabalhoCompletoEmCongresso	Silvana de Queiroz Silva	2014		Microbiological aspects of anaerobic biodegradation of crude glycerol	XI Taller y Simposio Latinoamericano de digestion anaerobia	Silva, S.Q.; ALBUQUERQUE, M. F. G. ; FREITAS, J. F. ; ZOREL, J. A. ; Aquino, Sérgio F.		
trabalhoCompletoEmCongresso	Silvana de Queiroz Silva	2014		Evaluation of EPS extraction protocols from anaerobic sludge for gel based proteomic studies	XI Taller y Simposio Latinoamericano de Digestion Anaerobia	ZOREL, J. A. ; Silva, S.Q. ; Sanson, A. L. ; Borges, W.C. ; Aquino, S. F.		
trabalhoCompletoEmCongresso	Silvana de Queiroz Silva	2014		Application of residual yeast as a source of redox mediators for the anaerobic decolorization of a model Azo Dye	XI Taller y Simposio Latinoamericano de Digestion Anaerobia	Victral, D.M. ; AQUINO, Sérgio Francisco de ; Silva, S.Q. ; Baeta, B.E.L.		
trabalhoCompletoEmCongresso	Silvana de Queiroz Silva	2013		Evaluation of anaerobic treatment of crude glycerol from biodiesel production in a UASB reactor	13th World Congress on Anaerobic Digestion	ALBUQUERQUE, M. F. G. ; SILVA, K. G. ; ALZAMORRA, B. R. ; Aquino, Sérgio F. ; SILVA, S. Q.		
resumoExpandidoEmCongresso	Silvana de Queiroz Silva	2016	Effect of glycerol concentration on kinetics of hydrogen production of two Enterobacter sp. strains	XII Taller y Simposio Latino Americano en Digestion Anaerobia, 2016, Cusco. XII Taller y Simposio Latino Americano en Digestion Anaerobia	ZOREL, J. A. ; CAMPOS, I. M. ; Silva, F. ; Adarme, O.F.H. ; Sousa, I.M. ; AQUINO, S. F. ; SILVA, S. Q.		
resumoExpandidoEmCongresso	Silvana de Queiroz Silva	2016	VFA profile and biohydrogen production during glucose fermentation by different Enterobacteriaceae strains	XII Taller y Simposio Latino Americano en Digestion Anaerobia, 2016, Cusco. XII Taller y Simposio Latino Americano en Digestion Anaerobia	CAMPOS, I. M. ; ZOREL, J. A. ; AQUINO, S. F. ; SILVA, S. Q.		
resumoExpandidoEmCongresso	Silvana de Queiroz Silva	2013	Identification of proteins produced during anaerobic degradation of glucose in bench scale UASB reactors	13th World Congress on Anaerobic Digestion, 2013, Santiago de Compostela. 13th World Congress on Anaerobic Digestion	ZOREL, J. A. ; Aquino, Sérgio F. ; Borges, W.C. ; Silva, S.Q.		
artigoEmPeriodico	Sandra de Cassia Dias	2016		CO-CULTIVO DE ASPERGILLUS NIGER E CERIPORIOPSIS SUBVERMISPORA PARA PRODUÇÃO DE ENZIMAS LIGNOCELULOLÍTICAS E AÇÚCARES REDUTORES	Revista Mundi Meio ambiente e agrárias	Magri, P. M ; Dias, S. C ou Cassia Dias, S	Qualis nao identificado	Revista Mundi Meio ambiente e agrárias
trabalhoCompletoEmCongresso	Sandra de Cassia Dias	2015		Influência da Temperatura e pH na produção de ácido clavulânico pelo Streptomyces Clavuligerus	XX SIMPÓSIO NACIONAL DE BIOPROCESSOS XI SIMPÓSIO DE HIDRÓLISE ENZIMÁTICA DE BIOMASSAS	PINELLI, J. J. ; Dias, S. C ou Cassia Dias, S		
trabalhoCompletoEmCongresso	Sandra de Cassia Dias	2015		PLANEJAMENTO EXPERIMENTAL PARA PRODUÇÃO DE BIOSSURFACTANTE A PARTIR DO SORO DE LEITE	XX SIMPÓSIO NACIONAL DE BIOPROCESSOS XI SIMPÓSIO DE HIDRÓLISE ENZIMÁTICA DE BIOMASSAS	de Cássia Dias, Sandra; NOGUEIRA, V. R.		
trabalhoCompletoEmCongresso	Sandra de Cassia Dias	2013		Influência de diferentes fontes de nitrogênio para a produção de ácido clavulânico por Streptomyces clavuligerus	XIX Simpósio Nacional de Bioprocessos	SOUZA, A. T. ; RODRIGUES, K. C. S. ; Dias, S. C ; Cerri, M. O ; Dias, S. C ou Cassia Dias, S		
trabalhoCompletoEmCongresso	Sandra de Cassia Dias	2013		Purificação da lactoferrina a partir de soro de queijo	XIX Simpósio Nacional de Bioprocessos	Camargo, D.P ; Verdan, A. K. A ; Dias, S. C ou Cassia Dias, S		
artigoEmPeriodico	Rogério Antonio Picoli	2015		A distinção entre realismo e antirrealismo na metaética	Revista Estudos Filosóficos	PICOLI, Rogério Antonio	B4	
artigoEmPeriodico	Rogério Antonio Picoli	2013		O conceito de liberdade em Paley e o eclipse do republicanismo	CADERNOS DE ÉTICA E FILOSOFIA POLÍTICA (USP)	PICOLI, Rogério A	B2	
trabalhoCompletoEmCongresso	Rogério Antonio Picoli	2016		Desenvolvimento de método de caracterização socioambiental utilizando técnica de suporte à decisão e SIG	III Simpósio sobre Sistemas Sustentáveis	Romanelli, João Paulo ; PICOLI, Rogério A.		
trabalhoCompletoEmCongresso	Rogério Antonio Picoli	2016		Desenvolvimento de método para avaliação socioambiental visando o planejamento de pequenas centrais hidrelétricas em Minas Gerais	X Conferência de Pequenas Centrais Hidrelétricas	Romanelli, João Paulo ; Silva, Luiz G. Martins da ; PICOLI, Rogério A.		
trabalhoCompletoEmCongresso	Rogério Antonio Picoli	2014		Sustentabillidade urbana: conceitualização e aplicabilidade	IV Simpósio de Desenvolvimento	SOUZA, Cássia Silva ; PICOLI, Rogério A.		
resumoExpandidoEmCongresso	Rogério Antonio Picoli	2013	O debate em torno da imoralidade do moralismo	XVII Congresso da Sociedade Interamericana de Filosofia, 2013, Salvador. XVII Congresso Interamericano de Filosofia. Slavador: Editora Quarteto	PICOLI, Rogério Antonio		
artigoEmPeriodico	André Aguiar Mendes	2016	http://dx.doi.org/10.1080/19443994.2014.966333	Behavior of dihydroxybenzenes and gallic acid on the Fenton-based decolorization of dyes	Desalination and Water Treatment (Print)	BARRETO, FERNANDA ; SANTANA, CÁSSIA SIDNEY ; AGUIAR, André	Qualis nao identificado	Desalination and Water Treatment (Print)
artigoEmPeriodico	André Aguiar Mendes	2016	http://dx.doi.org/10.1007/s11270-015-2703-0	Effect of Lignin-Derived Methoxyphenols in Dye Decolorization by Fenton Systems	Water, Air and Soil Pollution (Print)	SANTANA, CÁSSIA SIDNEY ; AGUIAR, André	A1	
artigoEmPeriodico	André Aguiar Mendes	2016	http://dx.doi.org/10.1007/s00449-015-1527-z	Alkaline-sulfite pretreatment and use of surfactants during enzymatic hydrolysis to enhance ethanol production from sugarcane bagasse	Bioprocess and Biosystems Engineering (Print)	MESQUITA, JÉSSICA FARIA ; FERRAZ, André ; Aguiar, André	A2	
artigoEmPeriodico	André Aguiar Mendes	2015	http://dx.doi.org/10.1016/j.ibiod.2015.05.007	Effect of biological mediator, 3-hydroxyanthranilic acid, in dye decolorization by Fenton processes	International Biodeterioration & Biodegradation	SANTANA, C. S. ; AGUIAR, André	A2	
artigoEmPeriodico	André Aguiar Mendes	2014	http://dx.doi.org/10.1016/j.funbio.2014.08.004	Metabolite secretion, Fe3+-reducing activity and wood degradation by the white-rot fungus Trametes versicolor ATCC 20869	Fungal Biology	AGUIAR, André ; Gavioli D.M. ; FERRAZ, André	Qualis nao identificado	Fungal Biology
artigoEmPeriodico	André Aguiar Mendes	2013	http://dx.doi.org/10.1016/j.ibiod.2013.03.013	Extracellular activities and wood component losses during Pinus taeda biodegradation by the brown-rot fungus Gloeophyllum trabeum	International Biodeterioration & Biodegradation	AGUIAR, André ; Gavioli D.M. ; FERRAZ, André	A2	
trabalhoCompletoEmCongresso	André Aguiar Mendes	2016		Aplicação de processos Fenton mediados por metoxifenóis sobre o azocorante Pardo de Bismarck Y	XXI Congresso Brasileiro de Engenharia Química - Cobeq 2016	SOUZA, J. L. ; DIAS, S. C. ; AGUIAR, André		
trabalhoCompletoEmCongresso	André Aguiar Mendes	2016		Avaliação de ácidos fenólicos pró-oxidantes na descoloração de corantes via reagentes Fenton	XXI Congresso Brasileiro de Engenharia Química - Cobeq 2016	SANTANA, C. S. ; AGUIAR, André		
trabalhoCompletoEmCongresso	André Aguiar Mendes	2016		Efeito de di-hidroxibenzenos e ácido gálico como mediadores na descoloração do corante Pardo de Bismarck Y por reagentes Fenton	XXI Congresso Brasileiro de Engenharia Química - Cobeq 2016	SOUZA, J. L. ; DIAS, S. C. ; AGUIAR, André		
trabalhoCompletoEmCongresso	André Aguiar Mendes	2016		Participação de compostos aromáticos não redutores de íons férricos como mediadores na descoloração de um azocorante por reagentes Fenton	XXI Congresso Brasileiro de Engenharia Química - Cobeq 2016	SOUZA, J. L. ; DIAS, S. C. ; AGUIAR, André		
trabalhoCompletoEmCongresso	André Aguiar Mendes	2015	http://dx.doi.org/10.5151/chemeng-cobeq2014-0892-22769-178268	EFEITO DO MEDIADOR NATURAL SIRINGALDEÍDO NA DESCOLORAÇÃO DE CORANTES POR REAGENTES FENTON	XX Congresso Brasileiro de Engenharia Química	SANTANA, C. S. ; AGUIAR, A.		
trabalhoCompletoEmCongresso	André Aguiar Mendes	2015	http://dx.doi.org/10.5151/chemeng-cobeq2014-0900-22667-148775	EFEITO DE COMPOSTOS FENÓLICOS REDUTORES DE FE3+ NA DESCOLORAÇÃO DE PARDO DE BISMARK Y POR REAGENTES FENTON (Fe/H2O2)	XX Congresso Brasileiro de Engenharia Química	SOUZA, J. L. ; AGUIAR, A.		
trabalhoCompletoEmCongresso	André Aguiar Mendes	2015	http://dx.doi.org/10.5151/chemeng-cobeq2014-0897-22709-148814	COMPORTAMENTO DE DI-HIDROXIBENZENOS NA DESCOLORAÇÃO DE CROMOTROPE 2R POR REAÇÃO DE FENTON CUPROSA	XX Congresso Brasileiro de Engenharia Química	VELLOSO, C. C. V. ; SANTANA, C. S. ; AGUIAR, A.		
trabalhoCompletoEmCongresso	André Aguiar Mendes	2015	http://dx.doi.org/10.17648/sinaferm-2015-33754	Uso do metabólito ácido 3-hidroxiantranílico como mediador redox na degradação de vermelho de fenol por reagentes Fenton	XX Simpósio Nacional de Bioprocessos/ XI Simpósio de Hidrólise Enzimática de Biomassas	SANTANA, CÁSSIA SIDNEY ; AGUIAR, André		
trabalhoCompletoEmCongresso	André Aguiar Mendes	2015		Efeito do ácido gálico na descoloração de corantes por reagentes Fenton (Fe/H2O2)	18º Congresso Brasileiro de Catálise - CBCat 2015	SANTANA, CÁSSIA SIDNEY ; AGUIAR, André		
trabalhoCompletoEmCongresso	André Aguiar Mendes	2013		Uso de pré-tratamentos para a sacarificação enzimática de bagaço de cana de açúcar	XIX Simpósio nacional de Bioprocessos/X Simpósio de Hidrólise Enzimática de Biomassas	MESQUITA, J. F. ; FERRAZ, André ; AGUIAR, André		
trabalhoCompletoEmCongresso	André Aguiar Mendes	2013		Efeito de metabólito fúngico na degradação de corantes por reagentes Fenton (Fe/H2O2)	XIX Simpósio nacional de Bioprocessos/XSimpósio de Hidrólise Enzimática de Biomassas	SANTANA, C. S. ; AGUIAR, André		
artigoEmPeriodico	Marcelo Perencin de Arruda Ribeiro	2016	http://dx.doi.org/10.1016/j.biortech.2015.12.069	Monitoring of the cellulosic ethanol fermentation process by near-infrared spectroscopy	Bioresource Technology	PINTO, ARIANE S.S. ; PEREIRA, SANDRA C. ; RIBEIRO, MARCELO P.A. ; FARINAS, CRISTIANE S.	A1	
artigoEmPeriodico	Marcelo Perencin de Arruda Ribeiro	2016	http://dx.doi.org/10.1016/j.molcatb.2016.08.002	Diffusion effects of bovine serum albumin on cross-linked aggregates of catalase	Journal of Molecular Catalysis. B, Enzymatic (Print)	MAFRA, AGNES CRISTINA OLIVEIRA ; KOOP, WILLIAN ; BELTRAME, MAISA BONTORIN ; DE LIMA CAMARGO GIORDANO, RAQUEL ; DE ARRUDA RIBEIRO, MARCELO PERENCIN ; TARDIOLI, PAULO WALDIR	A2	
artigoEmPeriodico	Marcelo Perencin de Arruda Ribeiro	2016	http://dx.doi.org/10.1002/jctb.4937	A new approach for <i> k <sub>L</sub> a </i> determination by gassing-out method in pneumatic bioreactors	Journal of Chemical Technology and Biotechnology (1986)	CERRI, MARCEL OTAVIO ; NORDI ESPERANÇA, MATEUS ; COLLI BADINO, ALBERTO ; PERENCIN DE ARRUDA RIBEIRO, MARCELO	A2	
artigoEmPeriodico	Marcelo Perencin de Arruda Ribeiro	2016	http://dx.doi.org/10.1002/jctb.5157	Automated algorithm to determine k <sub>L</sub> a considering system delay.	JOURNAL OF CHEMICAL TECHNOLOGY AND BIOTECHNOLOGY	TORRES, PAULINA ; CERRI, MARCEL OTAVIO ; DE ARRUDA RIBEIRO, MARCELO PERENCIN ; RICARDO PEREZ-CORREA, J. ; AGOSIN, EDUARDO	A2	
artigoEmPeriodico	Marcelo Perencin de Arruda Ribeiro	2015	http://dx.doi.org/10.1007/s00449-015-1397-4	Oxygen transfer in a pressurized airlift bioreactor	Bioprocess and Biosystems Engineering (Internet)	CAMPANI, GILSON ; RIBEIRO, MARCELO PERENCIN ARRUDA ; HORTA, ANTÔNIO CARLOS LUPERNI ; GIORDANO, ROBERTO CAMPOS ; BADINO, ALBERTO COLLI ; ZANGIROLAMI, TERESA CRISTINA	A2	Biosystems Engineering
artigoEmPeriodico	Marcelo Perencin de Arruda Ribeiro	2014	http://dx.doi.org/10.1007/s12155-014-9488-7	Fast Determination of the Composition of Pretreated Sugarcane Bagasse Using Near-Infrared Spectroscopy	BioEnergy Research	RODRÍGUEZ-ZÚÑIGA, URSULA FABIOLA ; FARINAS, CRISTIANE SANCHEZ ; CARNEIRO, RENATO LAJARIM ; DA SILVA, GISLENE MOTA ; CRUZ, ANTONIO JOSE GONÇALVES ; DE LIMA CAMARGO GIORDANO, RAQUEL ; DE CAMPOS GIORDANO, ROBERTO ; DE ARRUDA RIBEIRO, MARCELO PERENCIN	A2	
trabalhoCompletoEmCongresso	Marcelo Perencin de Arruda Ribeiro	2015	http://dx.doi.org/10.5151/chemeng-cobeq2014-1263-20189-138533	GREEN ROUTE FOR AMOXICILLIN PRODUCTION THROUGH THE INTEGRATION WITH THE RECYCLE OF THE BY-PRODUCT (P-HYDROXYPHENYLGLYCINE)	XX Congresso Brasileiro de Engenharia Química	Pereira, S. C. ; CASTRAL, T. C. ; RIBEIRO, M. P. A. ; GIORDANO, R. L. C. ; GIORDANO, R. C.		
trabalhoCompletoEmCongresso	Marcelo Perencin de Arruda Ribeiro	2015	http://dx.doi.org/10.5151/chemeng-cobeq2014-1549-18713-137621	MONITORAMENTO DA PRODUÇÃO DE ETANOL CELULÓSICO POR ESPECTROSCOPIA NO INFRAVERMELHO PRÓXIMO	XX Congresso Brasileiro de Engenharia Química	PINTO, A. S. S. ; Pereira, S. C. ; RIBEIRO, M. P. A. ; FARINAS, C. S.		
trabalhoCompletoEmCongresso	Marcelo Perencin de Arruda Ribeiro	2015	http://dx.doi.org/10.5151/chemeng-cobeq2014-1882-17057-177089	TRANSFERÊNCIA DE OXIGÊNIO EM BIORREATOR AIRLIFT PRESSURIZADO	XX Congresso Brasileiro de Engenharia Química	CAMPANI, G. ; HORTA, A. C. L. ; RIBEIRO, M. P. A. ; GIORDANO, R. C. ; BADINO, A. C. ; ZANGIROLAMI, T. C.		
trabalhoCompletoEmCongresso	Marcelo Perencin de Arruda Ribeiro	2014	http://dx.doi.org/10.5151/chemeng-cobeq2014-1205-20483-160850	CROSS-LINKED ENZYME AGGREGATES OF CATALASE FROM BOVINE LIVER	XX Congresso Brasileiro de Engenharia Química	MAFRA, A. C. O. ; KOPP, W. ; RAMOS, M. D. ; BELTRAME, M. B. ; RIBEIRO, M. P. A. ; BADINO, A. C ; TARDIOLI, P. W.		
trabalhoCompletoEmCongresso	Marcelo Perencin de Arruda Ribeiro	2015	http://dx.doi.org/10.5151/chemeng-cobeqic2015-061-32041-262678	AVALIAÇÃO DE PROTEÍNA DE SOJA COMO AGENTE ESPAÇADOR NA PRODUÇÃO cleas DE INVERTASE	XI Congresso Brasileiro de Engenharia Química em Iniciação Científica	BELTRAME, M. B. ; MAFRA, A. C. O. ; RIBEIRO, M. P. A. ; BADINO, A. C. ; TARDIOLI, P. W.		
trabalhoCompletoEmCongresso	Marcelo Perencin de Arruda Ribeiro	2015		Modelagem da cinética de inativação de CLEAs de catalase de fígado bovino co-imobilizados com albumina de soro bovino	XX Simpósio Nacional de Bioprocessos (SINAFERM)	MAFRA, A. C. O. ; KOPP, W. ; Giordano, Raquel L. C. ; TARDIOLI, P. W. ; RIBEIRO, M.P.A.		
trabalhoCompletoEmCongresso	Marcelo Perencin de Arruda Ribeiro	2015		Síntese de agregados reticulados de invertase (CLEAs) como biocatalisador para a produção de açúcar invertido	XX Simpósio Nacional de Bioprocessos (SINAFERM)	MAFRA, A. C. O. ; BELTRAME, M. B. ; GIORDANO, R. L. C. ; RIBEIRO, M.P.A. ; TARDIOLI, P. W.		
trabalhoCompletoEmCongresso	Marcelo Perencin de Arruda Ribeiro	2015		Uso de redes neurais para simulação de variáveis manipuladas e previsão do custo de produção de proteína recombinante em cultivos de Escherichia coli	XX Simpósio Nacional de Bioprocessos (SINAFERM)	MIRANDA, L. P. ; OLIVEIRA, L. ; CAMPANI JUNIOR, G. ; SARGO, C. R. ; FURLONG, V. B. ; RIBEIRO, M.P.A. ; Giordano, R.C. ; Zangirolami, T.C. ; Horta, A.C.L.		
trabalhoCompletoEmCongresso	Marcelo Perencin de Arruda Ribeiro	2015		Hydrolysis reactor of sugarcane bagasse monitoring through neural network	XX Simpósio Nacional de Bioprocessos (SINAFERM)	FURLONG, V. B. ; CORREA, L. J. ; SOUZA, R. B. A. ; PRATTO, B. ; CRUZ, A. J. G. ; Giordano, R.C. ; RIBEIRO, M.P.A.		
trabalhoCompletoEmCongresso	Marcelo Perencin de Arruda Ribeiro	2015		Optimization of the reactor feeding profile for enzymatic hydrolysis of sugarcane bagasse	XX Simpósio Nacional de Bioprocessos (SINAFERM)	FURLONG, V. B. ; CORREA, L. J. ; SOUZA, R. B. A. ; PRATTO, B. ; CRUZ, A. J. G. ; RIBEIRO, M.P.A. ; Giordano, R.C.		
trabalhoCompletoEmCongresso	Marcelo Perencin de Arruda Ribeiro	2013		Avaliação de sensor de capacitãncia para monitoramento e modelagem de crescimento aeróbio de leveduras em biorreatores	XIX Simpósio Nacional de Bioprocessos - X Simpóseio de Hidrólise Enzimática de Biomassas	COELHO, R. S. ; Cerri, M.O. ; RIBEIRO, M.P.A.		
trabalhoCompletoEmCongresso	Marcelo Perencin de Arruda Ribeiro	2013		Métodos de multicalibração para o monitoramento da síntese enzimática de galactooligossacarídeos a partir da lactose	XIX Simpósio Nacional de Bioprocessos - X Simpóseio de Hidrólise Enzimática de Biomassas	LANA, T. G. A. B. ; Bicas, J.C. ; RIBEIRO, M.P.A.		
artigoEmPeriodico	Marcel Otavio Cerri	2016		Biorreatores Pneumáticos: Simples e Eficientes	Revista Brasileira de Engenharia Química	BADINO, A.C. ; MENDES, C. E. ; CERRI, M. O. ; ESPERANCA, M. N. ; BETTEGA, R.	B3	
artigoEmPeriodico	Marcel Otavio Cerri	2016	http://dx.doi.org/10.1002/jctb.4937	A new approach for <i> k <sub>L</sub> a </i> determination by gassing-out method in pneumatic bioreactors	Journal of Chemical Technology and Biotechnology (1986)	CERRI, MARCEL OTAVIO ; NORDI ESPERANÇA, MATEUS ; COLLI BADINO, ALBERTO ; PERENCIN DE ARRUDA RIBEIRO, MARCELO	A2	
artigoEmPeriodico	Marcel Otavio Cerri	2016	http://dx.doi.org/10.1002/jctb.5157	Automated algorithm to determine k <sub>L</sub> a considering system delay.	JOURNAL OF CHEMICAL TECHNOLOGY AND BIOTECHNOLOGY	TORRES, PAULINA ; Cerri, Marcel Otavio ; DE ARRUDA RIBEIRO, MARCELO PERENCIN ; RICARDO PEREZ-CORREA, J. ; AGOSIN, EDUARDO	A2	
artigoEmPeriodico	Marcel Otavio Cerri	2015	http://dx.doi.org/10.1016/j.chroma.2015.03.052	Adsorption of immunoglobulin Y in supermacroporous continuous cryogel with immobilized Cu2+ ions	Journal of Chromatography (Print)	JÚNIOR, WILLER FERREIRA DA SILVA ; CANO, RODRIGO ; TOTOLA, ANTONIO HELVÉCIO ; CARVALHO, LORENDANE MILENA DE ; CERRI, MARCEL OTÁVIO ; COIMBRA, JANE SÉLIA DOS REIS ; CARVALHO, GLEIDSON GIORDANO PINTO DE ; CARVALHO, BRUNA MARA APARECIDA DE	A1	
artigoEmPeriodico	Marcel Otavio Cerri	2014	http://dx.doi.org/10.1016/j.ces.2013.12.018	Corrigendum to -Comparison between average shear rates in conventional bioreactor with Rushton and Elephant ear impellers- [Chem. Eng. Sci. 90 (2013) 92-100]	Chemical Engineering Science	BUSTAMANTE, MARITZA C.C. ; Cerri, Marcel O. ; Badino, Alberto C.	A1	
artigoEmPeriodico	Marcel Otavio Cerri	2014	http://dx.doi.org/10.1007/s00449-013-1049-5	Gas hold-up and oxygen mass transfer in three pneumatic bioreactors operating with sugarcane bagasse suspensions	Bioprocess and Biosystems Engineering (Internet)	ESPERANÇA, M. N. ; CUNHA, F. M. ; CERRI, M. O. ; Zangirolami, T. C. ; FARINAS, C. S. ; BADINO, A.C.	A2	Biosystems Engineering
artigoEmPeriodico	Marcel Otavio Cerri	2013	http://dx.doi.org/10.1016/j.ces.2012.12.028	Comparison between average shear rates in conventional bioreactor with Rushton and Elephant ear impellers	Chemical Engineering Science	BUSTAMANTE, M.C.C. ; Cerri, M.O. ; Badino, Alberto C.	A1	
artigoEmPeriodico	Marcel Otavio Cerri	2013		Otimização das variáveis, pH, força iônica e meio nutricional na descoloração de corante industrial têxtil pelo fungo Aspergillus aculeatus	BBR - Biochemistry and Biotechnology Reports	SILVA, K. C. ; SILVA, T. M. ; SILVA JUNIOR, W. F. ; Cerri, M.O. ; SILVA, S. L. ; CARVALHO, B. M. A.	B5	
artigoEmPeriodico	Marcel Otavio Cerri	2013		Influence of gas-liquid separator design on performance of airlift bioreactors	World Academy of Science, Engineering and Technology (Online)	ESPERANCA, M. N. ; CERRI, M. O. ; BADINO, A.C.	B2	
trabalhoCompletoEmCongresso	Marcel Otavio Cerri	2016		FOTOBIORREATOR TIPO TANQUE ESTREITO BASEADO EM AIRLIFT PARA O CULTIVO DE MICROALGAS	Congresso Brasileiro de Engenharia Química	GUEDES, V. C. ; HORTA, A. C. L. ; Cerri, M.O.		
trabalhoCompletoEmCongresso	Marcel Otavio Cerri	2016		Determinação do coeficiente volumétrico de transferência de oxigênio em biorreatores aerados e agitados com independência da sensibilidade do eletrodo	Congresso Brasileiro de Engenharia Química	RIBEIRO, R. M. M. G. P. ; Ribeiro, M. P. A. ; ESPERANCA, M. N. ; BADINO, A.C. ; Cerri, M.O.		
trabalhoCompletoEmCongresso	Marcel Otavio Cerri	2016		Produção de ácido clavulânico por Streptomyces clavuligerus em shaker utilizando diferentes conformações de Erlenmeyers	Congresso Brasileiro de Engenharia Química	VIEIRA, T. C. ; Cerri, M.O.		
trabalhoCompletoEmCongresso	Marcel Otavio Cerri	2016		Aumento da produção de ácido clavulânico por Streptomyces clavuligerus aplicando diferentes condições de temperatura	Congresso Brasileiro de Engenharia Química	RODRIGUES, K. C. S. ; COSTA, C. L. L. ; BADINO, A.C. ; Cerri, M.O.		
trabalhoCompletoEmCongresso	Marcel Otavio Cerri	2014		Avaliação e Comparação da Hidrodinâmica e de Transferência de Oxigênio em Biorreator Convencional Agitado e Aerado e Biorreatores Pneumáticos	XX Congresso Brasileiro de Engenharia Química	OLIVEIRA, R. G. ; CERRI, M. O.		
trabalhoCompletoEmCongresso	Marcel Otavio Cerri	2013		Influence of Gas-Liquid Separator Design on Performance of Airlift Bioreactors	International Conference on Chemical and Biological Engineering	Esperança, M. N. ; CERRI, M. O. ; Badino, Alberto C.		
resumoExpandidoEmCongresso	Marcel Otavio Cerri	2013	Otimização da variáveis, pH, força iônica e meio nutricional da descoloração de corante industrial têxtil pelo fungo Aspergillus aculeatus	IV Jornada Acadêmica Internacional de Bioquímica, 2013, Divinópolis. Anais da IV Jornada Acadêmica Internacional de Bioquímica	SILVA, K. C. ; CERRI, M. O. ; CARVALHO, B. M. A.		
resumoExpandidoEmCongresso	Marcel Otavio Cerri	2013	Influência de diferentes fontes de nitrogênio para a produção de ácido clavulânico por Streptomyces clavuligerus	XIX Simpósio Nacional de Bioprocessos, 2013, Foz de Iguaçu. Anais do XIX Simpósio Nacional de Bioprocessos	SOUZA, A. T. ; RODRIGUES, K. C. S. ; Cerri, M.O. ; DIA, S. C.		
resumoExpandidoEmCongresso	Marcel Otavio Cerri	2013	Avaliação da produção de ácido clavulânico por Streptomyces clavuligerus a partir de testes com diferentes composições de sai e fontes de nitrogênio	XIX Simpósio Nacional de Bioprocessos, 2013, Foz de Iguaçu. Anais do XIX Simpósio Nacional de Bioprocessos	RODRIGUES, K. C. S. ; SOUZA, A. T. ; DIA, S. C. ; Cerri, M.O.		
resumoExpandidoEmCongresso	Marcel Otavio Cerri	2013	AVALIAÇÃO DE SENSOR DE CAPACITÂNCIA PARA MONITORAMENTO E MODELAGEM DE CRESCIMENTO AERÓBIO DE LEVEDURAS EM BIORREATORES	XIX Simpósio Nacional de Bioprocessos, 2013, Foz de Iguaçu. Anais do XIX Simpósio Nacional de Bioprocessos	COELHO, R. S. ; CERRI, M. O. ; Ribeiro, M. P. A.		
resumoExpandidoEmCongresso	Marcel Otavio Cerri	2013	INFLUENCE OF L-GLUTAMATE, L-ORNITHINE, L-ARGININE AND L-THREONINE IN THE PRODUCTION OF CLAVULANIC ACID	9th World Congress of Chemical Engineering, 2013, Seoul. Proceedings of World Congress of Chemical Engineering	CERRI, M. O.; RODRIGUES, K. C. S. ; CARMO, M. R. A. ; SOUZA, A. T. ; Dias, S. C ; BADINO JUNIOR, A. C.		
resumoExpandidoEmCongresso	Marcel Otavio Cerri	2013	COMPARISON OF AVERAGE SHEAR RATE IN PNEUMATIC AND CONVENTIONAL BIOREACTORS	9th World Congress of Chemical Engineering, 2013, Seoul. Proceedings of World Congress of Chemical Engineering	CERRI, M. O.; Badino, Alberto C.		
artigoEmPeriodico	Juliano Lemos Bicas	2016		O Mercado de Bioaditivos para a Indústria de Alimentos	Revista Processos Químicos	FELIPE, L. O. ; Bicas, Juliano Lemos	B4	
artigoEmPeriodico	Juliano Lemos Bicas	2016		BIOPROSPECÇÃO DE MICRORGANISMOS PRODUTORES DE ENZIMAS DE INTERESSE INDUSTRIAL REALIZADA NO PARQUE ESTADUAL SERRA DO OURO BRANCO, BRASIL	Interbio	LUZ, B. D. S. ; Juliano Lemos Bicas ; Sarrouh, B ; Renata Carolina Zanetti Lofrano	Qualis nao identificado	Interbio
artigoEmPeriodico	Juliano Lemos Bicas	2015	http://dx.doi.org/10.1016/j.algal.2015.02.004	Use of methylene blue uptake for assessing cell viability of colony-forming microalgae	ALGAL RES	Bicas, Juliano Lemos; KLEINEGRIS, D. M. ; BARBOSA, M. J.	Qualis nao identificado	ALGAL RES
artigoEmPeriodico	Juliano Lemos Bicas	2015	http://dx.doi.org/10.1016/j.foodchem.2014.11.059	Comparative study of the bioconversion process using R-(+)- and S-(-)-limonene as substrates for Fusarium oxysporum 152B	Food Chemistry	Molina, Gustavo ; BUTION, MURILLO L. ; Bicas, Juliano Lemos ; DOLDER, MARY ANNE HEIDI ; Pastore, Gláucia Maria	A1	
resumoExpandidoEmCongresso	Juliano Lemos Bicas	2015	Isolamento e Seleção de Micro-organismos produtores de bioaromas	XX Simpósio Nacional de Bioprocessos, 2015, Fortaleza - CE. Anais do Simpósio Nacional de Bioprocessos	FELIPE, L. O. ; BICAS, JULIANO L. ; OLIVEIRA, A. M. ; NEVES, B. ; OLIVEIRA JR., E. N. ; PASTORE, GLÁUCIA M. ; PINTO, L. L.		
resumoExpandidoEmCongresso	Juliano Lemos Bicas	2013	PRODUÇÃO DE PIGMENTOS MICROBIANOS COM POTENCIAL INTERESSE PARA A INDÚSTRIA ALIMENTÍCIA	XIX SIMPÓSIO NACIONAL DE BIOPROCESSOS (Sinaferm), 2013, Foz do Iguaçu. XIX SIMPÓSIO NACIONAL DE BIOPROCESSOS	PINELLI, J. J. ; Bicas, Juliano Lemos		
artigoEmPeriodico	José Carlos de Magalhães	2013		Arbiragem Multiparte, Consituição do Tribunal Arbitrral,Principio da Igualdade e Vinculação à Cláusula Compromissória	Revista de Arbitragem e Mediação	MAGALHÃES, J. C	B4	
artigoEmPeriodico	José Carlos de Magalhães	2013		A Responsabilidade dos Administradores em Alienações e Aquisições de Ativos Relevantes	Revista de Arbitragem e Mediação	MAGALHÃES, J. C	B4	
artigoEmPeriodico	José Carlos de Magalhães	2013		Vícios na Constituição do Tribunal Arbitral. Sentença Arbitral Extra Petita. Ausência de Jurisdição do Tribunal Arbitral	Revista de Arbitragem e Mediação	MAGALHÃES, J. C	B4	
artigoEmPeriodico	Heraldo Nunes Pitanga	2016	http://dx.doi.org/10.1590/0370-44672015690165	Gas permeability of bentonite barriers: development, construction and testing of a measurement system	REM - International Engineering Journal	Pitanga, Heraldo Nunes; Vilar, Orencio Monje ; Pierson, Patrick	Qualis nao identificado	REM - International Engineering Journal
artigoEmPeriodico	Heraldo Nunes Pitanga	2016	http://dx.doi.org/10.14393/19834071.2016.34274	Proposta metodológica para modelagem digital de elevação por meio de Laser Scanning terrestre com ênfase em projetos geométricos de vias	Ciência & Engenharia	LOPES, EMERSON CORDEIRO ; DA SILVA, TACIANO OLIVEIRA ; DOS SANTOS, AFONSO DE PAULA ; FERRAZ, ANTONIO SANTANA ; DE CARVALHO, CARLOS ALEXANDRE BRAZ ; PINTANGA, HERALDO NUNES	B2	Ciência & Engenharia (UFU. Impresso)
artigoEmPeriodico	Heraldo Nunes Pitanga	2016	http://dx.doi.org/10.1590/0100-67622016000500015	MCT CLASSIFICATION FOR COMPACTED MIXTURES OF SOIL-STEEL SLAG-FLY ASH FOR APPLICATION IN FOREST ROADS	Revista Árvore (Online)	PITANGA, HERALDO NUNES ; SILVA, TACIANO OLIVEIRA DA ; SANTOS, ANDRÉ LUÍS DOS ; SILVA, ANA CLAUDIA BERNARDES ; LIMA, DARIO CARDOSO DE	B1	
artigoEmPeriodico	Heraldo Nunes Pitanga	2015	http://dx.doi.org/10.4025/actascitechnol.v37i4.26096	<b>Soil susceptibility to accelerated hydric erosion: geotechnical evaluation of cut slopes in residual soil profiles</b>	Acta Scientiarum. Technology (Online)	SILVA, TACIANO OLIVEIRA DA ; NASCIMENTO, RAQUEL CORDEIRO ; FARIA, JHONATAN WILLIAN SOUZA ; Pitanga, Heraldo Nunes ; LIMA, DARIO CARDOSO DE ; SANT'ANNA, GIOVANI LEVI	B1	
artigoEmPeriodico	Heraldo Nunes Pitanga	2015	http://dx.doi.org/10.1590/0100-67622015000400015	MODELING A COMPUTER APPLICATION FOR MANAGEMENT OF MAINTENANCE ACTIVITIES OF UNPAVED ROADS	Revista Árvore (Online)	DIAS, LUDMÍLIA DE SOUZA ; SILVA, TACIANO OLIVEIRA DA ; Pitanga, Heraldo Nunes ; CASTRO, RENATO VINÍCIUS OLIVEIRA ; LEITE, HÉLIO GARCIA ; MACHADO, CARLOS CARDOSO	B1	
artigoEmPeriodico	Heraldo Nunes Pitanga	2015		Áreas de risco no município de Ouro Branco-MG: identificação e relação com o crescimento urbano da região do Alto Paraopeba	Revista de Geografia	PITANGA, H. N.; SILVA, T. O. ; Rodrigues, F.D. ; FERREIRA, M. A. ; PINTO, P. M. P.	B4	
artigoEmPeriodico	Heraldo Nunes Pitanga	2013	http://dx.doi.org/10.1590/S0370-44672013000200014	Wear resistance of geosynthetic interfaces constituted by geomembranes and geospacers	REM. Revista Escola de Minas (Impresso)	PITANGA, H. N.; VILAR, O. M. ; Gourc, Jean-Pierre	B1	
trabalhoCompletoEmCongresso	Heraldo Nunes Pitanga	2016		Estudo do comportamento mecânico de misturas asfálticas a quente produzidas com ligantes convencional e modificado por polímero SBS	XXX ANPET	TINAJEROS, R. A. P. ; SILVA, T. O. ; PITANGA, H. N. ; LIMA, D. C. ; MARQUES, G. L. O.		
trabalhoCompletoEmCongresso	Heraldo Nunes Pitanga	2016		Comportamento mecânico de misturas asfálticas a quente dosadas pela metodologia Marshall e compactadas no compactador Marshall e no CGS (Compactador Giratório Superpave)	XXX ANPET	BORGES, P. R. ; PEREIRA, G. S. ; SILVA, T. O. ; PITANGA, H. N. ; SANTANNA, G. L. ; CARMO, C. A. T. ; MARQUES, G. L. O.		
trabalhoCompletoEmCongresso	Heraldo Nunes Pitanga	2016		Influência do gradiente hidráulico na permeabilidade de um solo compactado	COBRAMSEG 2016	COSTA, W. G. S. ; SOARES, L. F. C. ; PINTO, F. M. ; BARBOSA, P. S. A. ; PITANGA, H. N. ; LIMA, D. C.		
trabalhoCompletoEmCongresso	Heraldo Nunes Pitanga	2016		Estudo do comportamento mecânico de misturas solo-resíduo compactadas a diferentes energias	COBRAMSEG 2016	GOULART, C. G. P. ; MARCAL, G. S. ; NASCIMENTO, M. C. ; RAMOS, R. C. ; MARINHO, R. S. ; PITANGA, H. N.		
trabalhoCompletoEmCongresso	Heraldo Nunes Pitanga	2016		Estudo do comportamento mecânico de solos residuais estabilizados com cinza volante e resíduo mineral	COBRAMSEG 2016	SILVA, B. M. ; AYUPE, G. S. ; TRESSE, T. S. ; RODRIGUES, K. H. P. ; PITANGA, H. N.		
trabalhoCompletoEmCongresso	Heraldo Nunes Pitanga	2016		Resistência à compressão simples de solos residuais compactados reforçados com geossintético	COBRAMSEG 2016	OLIVEIRA, L. V. C. ; CARMO, A. K. F. ; FONTES, G. A. A. ; SOL, R. R. S. ; PITANGA, H. N. ; SILVA, T. O.		
trabalhoCompletoEmCongresso	Heraldo Nunes Pitanga	2016		Calibração de um simulador de chuvas para utilização nas aulas práticas de Hidrologia	XXVII Congresso Latino-americano de Hidráulica	TEIXEIRA, E. K. C. ; REIS, B. E. C. ; COIMBRA, M. D. A. ; PITANGA, H. N. ; REIS, E. D.		
trabalhoCompletoEmCongresso	Heraldo Nunes Pitanga	2015		Estudo do Comportamento Mecânico de Misturas Solo-Resíduo Compactadas	GEOSSINTÉTICOS / REGEO 2015	GOULART, C. G. P. ; MARCAL, G. S. ; NASCIMENTO, M. C. ; RAMOS, R. C. ; MARINHO, R. S. ; PITANGA, H. N.		
trabalhoCompletoEmCongresso	Heraldo Nunes Pitanga	2015		Estudo do Comportamento Mecânico de Solo Residual Reforçado com Geotêxtil	GEOSSINTÉTICOS/REGEO 2015	OLIVEIRA, L. V. C. ; CARMO, A. K. F. ; FONTES, G. A. A. ; SOL, R. R. S. ; PITANGA, H. N. ; SILVA, T. O.		
trabalhoCompletoEmCongresso	Heraldo Nunes Pitanga	2015		Influência da Posição do Reforço Geotêxtil no Comportamento Mecânico de Solo Residual Compactado	GEOSSINTÉTICOS/REGEO 2015	TEIXEIRA, B. P. ; FELIX, E. G. M. ; FARIA, A. C. ; PITANGA, H. N. ; SILVA, T. O.		
trabalhoCompletoEmCongresso	Heraldo Nunes Pitanga	2015		Emprego de Geocomposto Bentonítico na Minimização de Drenagem Ácida de Mina Resultante de Resíduos de Mineração	VII CONGRESSO BRASILEIRO DE GEOSSINTÉTICOS (REGEO 2015)	PITANGA, H. N. ; LOFRANO, R. C. Z. ; Rodrigues, K. H. P. ; de Almeida, R. P.		
trabalhoCompletoEmCongresso	Heraldo Nunes Pitanga	2015		Estudo e projeto de estabilização de talude urbano utilizando a técnica de solo grampeado: caso de obra no município de Senador Firmino-MG	GEOSSINTÉTICOS/REGEO 2015	MENEZES, A. C. C. ; TONIETO, F. P. ; RANGEL, L. V. C. ; BARBOSA, P. S. A. ; PITANGA, H. N.		
trabalhoCompletoEmCongresso	Heraldo Nunes Pitanga	2014		Emprego de Barreiras Argilosas Impermeabilizantes para fins de Minimização de Drenagem Ácida de Mina (DAM) Resultante de Resíduos de Mineração da Região do Alto Paraopeba/MG	XVII Congresso Brasileiro de Mecânica dos Solos e Engenharia Geotécnica	Rodrigues, K. H. P. ; PITANGA, H. N. ; de Almeida, R. P. ; LOFRANO, R. C. Z.		
trabalhoCompletoEmCongresso	Heraldo Nunes Pitanga	2014		Resistência Mecânica de Misturas de Solo-Escória de Aciaria-Cinza Volante Visando Aplicação em Pavimentação	XVII Congresso Brasileiro de Mecânica dos Solos e Engenharia Geotécnica	SILVA, T. O. ; PITANGA, H. N. ; RODRIGUES, K. H. P.		
trabalhoCompletoEmCongresso	Heraldo Nunes Pitanga	2014		Estudo do Comportamento Mecânico de Misturas Solo-Cimento Para Fins de Aplicação em Vias Não-Pavimentadas na Região do Alto Paraopeba	XVII Congresso Brasileiro de Mecânica dos Solos e Engenharia Geotécnica	BARROS, R. C. ; PITANGA, H. N. ; SILVA, T. O.		
trabalhoCompletoEmCongresso	Heraldo Nunes Pitanga	2014		Estudo das Propriedades Mecânicas de Misturas Solo-Resíduos Siderúrgicos na Condição Compactada	XVII Congresso Brasileiro de Mecânica dos Solos e Engenharia Geotécnica	OLIVEIRA, L. C. P. ; PITANGA, H. N. ; SILVA, T. O.		
trabalhoCompletoEmCongresso	Heraldo Nunes Pitanga	2013		EMPREGO DE BARREIRAS ARGILOSAS IMPERMEABILIZANTES PARA FINS DE MINIMIZAÇÃO DE DRENAGEM ÁCIDA DE MINA (DAM) RESULTANTE DE RESÍDUOS DE MINERAÇÃO DA REGIÃO DO ALTO PARAOPEBA-MG	XI Congresso de Produção Científica da UFSJ	RODRIGUES, K. H. P. ; PITANGA, H. N.		
trabalhoCompletoEmCongresso	Heraldo Nunes Pitanga	2013		ESTUDO DA RESISTÊNCIA AO CISALHAMENTO DE INTERFACES DO TIPO GEOMEMBRANA - SOLO COMPACTADO PARA FINS DE USO EM SISTEMAS DE REVESTIMENTO DE ATERROS DE CONTENÇÃO DE RESÍDUOS	XI Congresso de Produção Científica da UFSJ	OLIVEIRA, L. C. P. ; PITANGA, H. N.		
trabalhoCompletoEmCongresso	Heraldo Nunes Pitanga	2013		ESTUDO DO COMPORTAMENTO MECÂNICO DE MISTURAS SOLO-CIMENTO PARA FINS DE APLICAÇÃO EM VIAS NÃO-PAVIMENTADAS NA REGIÃO DO ALTO PARAOPEBA	XI Congresso de Produção Científica da UFSJ	BARROS, R. C. ; PITANGA, H. N.		
trabalhoCompletoEmCongresso	Heraldo Nunes Pitanga	2013		SELEÇÃO GEOTÉCNICA DE SOLOS RESIDUAIS DA REGIÃO DO ALTO PARAOPEBA PARA APLICAÇÃO EM BARREIRAS MINERAIS IMPERMEABILIZANTES DE ATERROS DE CONTENÇÃO DE RESÍDUOS SÓLIDOS URBANOS	XI Congresso de Produção Científica da UFSJ	NEVES, C. A. ; PITANGA, H. N.		
trabalhoCompletoEmCongresso	Heraldo Nunes Pitanga	2013		Aplicações de misturas solo-escória de aciaria-cinza volante em pavimentos convencionais: Classificação MCT e resistência mecânica via mini-CBR	42a Reunião Anual de Pavimentação	SILVA, M. O. ; LEITE, R. R. ; SILVA, T. O. ; PITANGA, H. N.		
resumoExpandidoEmCongresso	Heraldo Nunes Pitanga	2014	Caracterização físico-química da escória de aciaria e da cinza volante: estudo do potencial de uso como agregados em misturas com solo para utilização em pavimentação	37a Reunião Anual da Sociedade Brasileira de Química, 2014, Natal. 37a Reunião Anual da Sociedade Brasileira de Química	SANTOS, A. L. ; BERNARDES-SILVA, A. C. ; SILVA, T. O. ; PITANGA, H. N.		
artigoEmPeriodico	Ênio Nazaré de Oliveira Júnior	2015	http://dx.doi.org/10.1590/0104-1428.1778	Caracterização química e efeito cicatrizante de quitosana, com baixos valores de massa molar e grau de acetilação, em lesões cutâneas	Polímeros (São Carlos. Online)	FRAGUAS, R. M. ; ROCHA, D. A. ; QUEIROZ, E. R. ; ABREU, C. M. P. ; SOUZA, R. V. ; Oliveira Junior, Enio Nazaré de	Qualis nao identificado	Polímeros (São Carlos. Online)
artigoEmPeriodico	Ênio Nazaré de Oliveira Júnior	2015	http://dx.doi.org/10.1590/0104-1428.1656	Preparo e caracterização de filmes comestíveis de quitosana	Polímeros (São Carlos. Online)	FRAGUAS, R. M. ; SIMAO, A. A. ; FARIA, P. V. ; QUEIROZ, E. R. ; OLIVEIRA JUNIOR, E. N. ; ABREU, C. M. P.	Qualis nao identificado	Polímeros (São Carlos. Online)
artigoEmPeriodico	Ênio Nazaré de Oliveira Júnior	2014	http://dx.doi.org/10.1155/2014/853572	Physicochemical Characterization of Thermally Treated Chitosans and Chitosans Obtained by Alkaline Deacetylation	International Journal of Polymer Science	OLIVEIRA, A. M. ; FRANCO, T. T. ; Oliveira Junior, Enio Nazaré de	Qualis nao identificado	International Journal of Polymer Science
artigoEmPeriodico	Ênio Nazaré de Oliveira Júnior	2014	http://dx.doi.org/10.1155/2014/273650	BIOSYNTHESIS OF XANTHAN GUM FROM FERMENTING SHRIMP SHELL: YIELD AND APPARENT VISCOSITY	International Journal of Polymer Science	Alves, LSC ; CAMPOS, M. I. ; DRUZIAN, JI ; OLIVEIRA, A. M. ; Enio Nazaré de Oliveira Junior	Qualis nao identificado	International Journal of Polymer Science
trabalhoCompletoEmCongresso	Ênio Nazaré de Oliveira Júnior	2016		PREPARO E CARACTERIZAÇÃO DE FILMES FORMADOS A PARTIR DO AMIDO EXTRAÍDO DA FRUTA-DE-LOBO (SOLANUM LYCOCARPUM)	XXI Congresso Brasileiro de Engenharia Química (COBEQ)	RIBEIRO, T. C. ; OLIVEIRA JUNIOR, E. N.		
trabalhoCompletoEmCongresso	Ênio Nazaré de Oliveira Júnior	2016		Goma Xantana produzida por Xanthomonas campestris a partir da fermentação do resíduo da indústria de sucos como substrato	XXI Congresso Brasileiro de Engenharia Química (COBEQ)	SILVA, T. O. P. ; XAVIER, K. R. ; CARMO, A. C. B. ; DIAS, P. R. P. ; CONCEICAO, W. M. D. ; OLIVEIRA JUNIOR, E. N.		
trabalhoCompletoEmCongresso	Ênio Nazaré de Oliveira Júnior	2016		Biossíntese de Goma Xantana produzida por Xanthomonas campestris a partir da Fermentação da Casca de Camarão como Substrato	XXI Congresso Brasileiro de Engenharia Química (COBEQ)	DIAS, P. R. P. ; XAVIER, K. R. ; CARMO, A. C. B. ; SILVA, T. O. P. ; OLIVEIRA JUNIOR, E. N.		
trabalhoCompletoEmCongresso	Ênio Nazaré de Oliveira Júnior	2016		Controle do crescimento do fungo Botrytis cinerea utilizando quitosana	XXI Congresso Brasileiro de Engenharia Química (COBEQ)	RODRIGUES, R. A. L. ; OLIVEIRA JUNIOR, E. N.		
trabalhoCompletoEmCongresso	Ênio Nazaré de Oliveira Júnior	2016		Otimização da produção de goma xantana a partir da fermentação do soro de leite	XXI Congresso Brasileiro de Engenharia Química (COBEQ)	XAVIER, K. R. ; CARMO, A. C. B. ; DIAS, P. R. P. ; CONCEICAO, W. M. D. ; SILVA, T. O. P. ; OLIVEIRA JUNIOR, E. N.		
trabalhoCompletoEmCongresso	Ênio Nazaré de Oliveira Júnior	2016		PRODUÇÃO E CARACTERIZAÇÃO DE FILMES DE QUITOSANA UTILIZANDO DIFERENTES SOLVENTES	XXI Congresso Brasileiro de Engenharia Química (COBEQ)	OLIVEIRA, C.S. ; OLIVEIRA JUNIOR, E. N.		
trabalhoCompletoEmCongresso	Ênio Nazaré de Oliveira Júnior	2016		Produção de goma xantana a partir de resíduos agroindustriais	Produção de goma xantana a partir de resíduos agroindustriais	COSTA, M. R. M. F. ; OLIVEIRA JUNIOR, E. N. ; NUCCI, E.R.		
trabalhoCompletoEmCongresso	Ênio Nazaré de Oliveira Júnior	2016		Biodegradação do surfactante Linear alquilbenzeno sulfonato de sódio (LAS) utilizando fungos filamentosos	XXI Congresso Brasileiro de Engenharia Química (COBEQ)	COSTA, M. F. ; SANTOS, S. A. A. ; GONTIJO, K. S. J. ; CARVALHO, B. M. A. ; OLIVEIRA, A. M. ; OLIVEIRA JUNIOR, E. N.		
trabalhoCompletoEmCongresso	Ênio Nazaré de Oliveira Júnior	2016		Biodegradação do Linear alquilbenzeno sulfonato de sódio (LAS) utilizando Penicillium chrysogenum	XXI Congresso Brasileiro de Engenharia Química (COBEQ)	GONTIJO, K. S. J. ; SANTOS, S. A. A. ; COSTA, M. F. ; OLIVEIRA, A. M. ; OLIVEIRA JUNIOR, E. N.		
trabalhoCompletoEmCongresso	Ênio Nazaré de Oliveira Júnior	2015	http://dx.doi.org/10.17648/sinaferm-2015-33712	BIODEGRADAÇÃO DO SURFACTANTE LINEAR ALQUILBENZENO SULFONATO DE SÓDIO UTILIZANDO FUNGOS FILAMENTOSOS	XX SIMPÓSIO NACIONAL DE BIOPROCESSOS e XI SIMPÓSIO DE HIDRÓLISE ENZIMÁTICA DE BIOMASSA	AMENO, A. C. ; COSTA, M. F. ; OLIVEIRA, A. M. ; OLIVEIRA JUNIOR, E. N.		
trabalhoCompletoEmCongresso	Ênio Nazaré de Oliveira Júnior	2015	http://dx.doi.org/10.17648/sinaferm-2015-33561	Isolamento e Seleção de Micro-organismos produtores de bioaromas	XX SIMPÓSIO NACIONAL DE BIOPROCESSOS E XI SIMPÓSIO DE HIDRÓLISE ENZIMÁTICA DE BIOMASSA	FELIPE, L. O. ; BICAS, J.L. ; OLIVEIRA, A. M. ; OLIVEIRA JUNIOR, E. N. ; NEVES, B. P. ; PINTO, L. L. L. ; PASTORE, G. M.		
trabalhoCompletoEmCongresso	Ênio Nazaré de Oliveira Júnior	2015	http://dx.doi.org/10.17648/sinaferm-2015-33436	CONTROLE DO CRESCIMENTO DO FUNGO BOTRYTIS CINEREA EM MORANGOS UTILIZANDO QUITOSANA	XX SIMPÓSIO NACIONAL DE BIOPROCESSOS E XI SIMPÓSIO DE HIDRÓLISE ENZIMÁTICA DE BIOMASSA	RODRIGUES, R. A. L. ; COUTINHO, T. C. ; OLIVEIRA JUNIOR, E. N.		
trabalhoCompletoEmCongresso	Ênio Nazaré de Oliveira Júnior	2015	http://dx.doi.org/10.17648/sinaferm-2015-33563	Avaliação do efeito da quitosana na inibição do crescimento in vitro do fungo Penicillium digitatum, causador do mofo verde em laranjas	Simpósio Nacional de Bioprocessos e Simpósio de Hidrólise Enzimática de Biomassa	CARVALHO COUTINHO, THAMARA ; Oliveira Junior, Enio Nazaré de ; LEANDRO RODRIGUES, RITA ALAIDE		
trabalhoCompletoEmCongresso	Ênio Nazaré de Oliveira Júnior	2015	http://dx.doi.org/10.17648/sinaferm-2015-33828	OTIMIZAÇÃO DA PRODUÇÃO DE GOMA XANTANA À PARTIR DE SORO DE LEITE	XX SIMPÓSIO NACIONAL DE BIOPROCESSOS e XI SIMPÓSIO DE HIDRÓLISE ENZIMÁTICA DE BIOMASSA	CONCEICAO, W. M. D. ; OLIVEIRA JUNIOR, E. N.		
trabalhoCompletoEmCongresso	Ênio Nazaré de Oliveira Júnior	2015		PRODUÇÃO DE GOMA XANTANA A PARTIR DE SORO DE LEITE	XIII CONGRESSO DE PRODUÇÃO CIENTÍFICA E ACADÊMICA	CONCEICAO, W. M. D. ; OLIVEIRA JUNIOR, E. N.		
trabalhoCompletoEmCongresso	Ênio Nazaré de Oliveira Júnior	2014		PRODUÇÃO DE GOMA XANTANA A PARTIR DE SORO DE LEITE	XX Congresso Brasileiro de Engenharia Química	COSTA, M. R. M. F. ; NUCCI, E.R. ; OLIVEIRA JUNIOR, E. N.		
trabalhoCompletoEmCongresso	Ênio Nazaré de Oliveira Júnior	2014		BIODEGRADAÇÃO DO SURFACTANTE LINEAR ALQUILBENZENO SULFONATO DE SÓDIO UTILIZANDO FUNGOS FILAMENTOSOS	XX Congresso Brasileiro de Engenharia Química	COSTA, M. F. ; CARVALHO, B. M. A. ; OLIVEIRA, A. M. ; Oliveira Junior, Enio Nazaré		
trabalhoCompletoEmCongresso	Ênio Nazaré de Oliveira Júnior	2014		ESTUDO DE UMA COLUNA DE ABSORÇÃO DE DIÓXIDO DE CARBONO EM SOLUÇÃO DE HIDRÓXIDO DE SÓDIO	XX Congresso Brasileiro de Engenharia Química	COUTO, I. C. P. ; COUTO, S. C. P. ; Oliveira Junior, Enio Nazaré		
trabalhoCompletoEmCongresso	Ênio Nazaré de Oliveira Júnior	2014		AVALIAÇÃO DA INIBIÇÃO DO CRESCIMENTO DO FUNGO Penicillium digitatum COM QUITOSANA	XX Congresso Brasileiro de Engenharia Química	COUTINHO, T. C. ; Oliveira Junior, Enio Nazaré de		
trabalhoCompletoEmCongresso	Ênio Nazaré de Oliveira Júnior	2013		BIOSYNTHESIS OF XANTHAN GUM BY FERMENTING SHRIMP SHELL: YIELD AND APPARENT VISCOSITY	XIX SIMPÓSIO NACIONAL DE BIOPROCESSOS E X SIMPÓSIO DE HIDRÓLISE ENZIMÁTICA DE BIOMASSAS	Alves, LSC ; CAMPOS, M. I. ; DRUZIAN, JI ; Oliveira Junior, Enio N.		
trabalhoCompletoEmCongresso	Ênio Nazaré de Oliveira Júnior	2013		PRODUÇÃO E CARACTERIZAÇÃO DE QUITOSANAS MODIFICADAS POR EXTRATO ENZIMÁTICO DA FOLHA DE FIGO (Ficus carica)	XIX SIMPÓSIO NACIONAL DE BIOPROCESSOS E X SIMPÓSIO DE HIDRÓLISE ENZIMÁTICA DE BIOMASSAS	OLIVEIRA, C.S. ; SALES, S.L. ; Oliveira Junior, Enio Nazaré		
trabalhoCompletoEmCongresso	Ênio Nazaré de Oliveira Júnior	2013		CONTROLE DE CRESCIMENTO DE Candida albicans COM QUITOSANA	XIX SIMPÓSIO NACIONAL DE BIOPROCESSOS E X SIMPÓSIO DE HIDRÓLISE ENZIMÁTICA DE BIOMASSAS	RODRIGUES, R. A. L. ; ARAUJO, K. C. ; Oliveira Junior, Enio Nazaré		
resumoExpandidoEmCongresso	Ênio Nazaré de Oliveira Júnior	2013	DETERMINAÇÃO DA MASSA MOLAR E GRAU DE ACETILAÇÃO DE QUITOSANAS MODIFICADAS ENZIMATICAMENTE	XX Seminário de Iniciação Científica, 2013, Ouro Branco. XX Seminário de Iniciação Científica	OLIVEIRA JUNIOR, E. N.; SALES, S.L.		
resumoExpandidoEmCongresso	Ênio Nazaré de Oliveira Júnior	2013	DETERMINAÇÃO DA MASSA MOLAR DA QUITOSANA POR VISCOSIMETRIA	XX Seminário de Iniciação Científica, 2013, Ouro Branco. XX Seminário de Iniciação Científica	OLIVEIRA, C.S. ; Oliveira Junior, Enio Nazaré de		
resumoExpandidoEmCongresso	Ênio Nazaré de Oliveira Júnior	2013	ESTUDO DA DESPOLIMERIZAÇÃO ENZIMÁTICA DE QUITOSANA POR MEIO DE EXTRATOS BRUTOS VEGETAIS DE LÁTEX DE MAMÃO (CARICA PAPAYA)	XX Seminário de Iniciação Científica, 2013, Ouro Branco. XX Seminário de Iniciação Científica	COSTA, M. F. ; Oliveira Junior, Enio Nazaré de		
resumoExpandidoEmCongresso	Ênio Nazaré de Oliveira Júnior	2013	CONTROLE DE CRESCIMENTO DE CANDIDA ALBICANS COM QUITOSANA	XX Seminário de Iniciação Científica, 2013, Ouro Branco. XX Seminário de Iniciação Científica	RODRIGUES, R. A. L. ; Oliveira Junior, Enio Nazaré de		
resumoExpandidoEmCongresso	Ênio Nazaré de Oliveira Júnior	2013	ESTUDO CINÉTICO DA DESPOLIMERIZAÇÃO ENZIMÁTICA DE QUITOSANA POR MEIO DE LÁTEX DE FIGO (Ficus carica L.)	XX Seminário de Iniciação Científica, 2013, Ouro Branco. XX Seminário de Iniciação Científica	Oliveira Junior, Enio Nazaré de; SALES, S.L.		
