strict graph grafo2 {
	graph [bb="0,0,2583,81",
		id=grafo2,
		overlap=False
	];
	node [fontsize=8,
		label="\N",
		shape=rectangle,
		style=filled
	];
	0	 [URL="http://lattes.cnpq.br/6347400432232688",
		color="#17272B",
		fontcolor="#FFFFFF",
		height=0.23611,
		label="Jose Weberszpil [0]",
		pos="40,72.5",
		width=1.1111];
	1	 [URL="http://lattes.cnpq.br/7027356679555355",
		color="#17272B",
		fontcolor="#FFFFFF",
		height=0.23611,
		label="Gizelle Kupac Vianna [1]",
		pos="148,72.5",
		width=1.375];
	9	 [URL="http://lattes.cnpq.br/7618571401128973",
		color="#17272B",
		fontcolor="#FFFFFF",
		height=0.23611,
		label="Sergio M. Serra da Cruz [1]",
		pos="148,8.5",
		width=1.4722];
	1 -- 9	 [fontsize=8,
		label=1.0,
		lp="153.5,40.5",
		pos="148,63.898 148,51.998 148,29.102 148,17.165"];
	2	 [URL="http://lattes.cnpq.br/7657422977567514",
		color="#17272B",
		fontcolor="#FFFFFF",
		height=0.23611,
		label="Frederico A. de Oliveira Cruz [0]",
		pos="278,72.5",
		width=1.7222];
	3	 [URL="http://lattes.cnpq.br/3801901177718984",
		color="#17272B",
		fontcolor="#FFFFFF",
		height=0.23611,
		label="Claudia Mazza Dias [0]",
		pos="405,72.5",
		width=1.2917];
	4	 [URL="http://lattes.cnpq.br/6855043946282080",
		color="#17272B",
		fontcolor="#FFFFFF",
		height=0.23611,
		label="Clarissa da Silva Oliveira [0]",
		pos="525,72.5",
		width=1.5278];
	5	 [URL="http://lattes.cnpq.br/2087099684752643",
		color="#17272B",
		fontcolor="#FFFFFF",
		height=0.23611,
		label="Carlos M. Rabello de Sant'Anna [0]",
		pos="664,72.5",
		width=1.8194];
	6	 [URL="http://lattes.cnpq.br/5956779016222823",
		color="#17272B",
		fontcolor="#FFFFFF",
		height=0.23611,
		label="Camila Silva de Magalhães [0]",
		pos="806,72.5",
		width=1.6111];
	7	 [URL="http://lattes.cnpq.br/2933812315339699",
		color="#17272B",
		fontcolor="#FFFFFF",
		height=0.23611,
		label="Angel R. Sanchez Delgado [1]",
		pos="939,72.5",
		width=1.5833];
	12	 [URL="http://lattes.cnpq.br/7385995443437070",
		color="#17272B",
		fontcolor="#FFFFFF",
		height=0.23611,
		label="Marcelo Dib Cruz [1]",
		pos="939,8.5",
		width=1.1944];
	7 -- 12	 [fontsize=8,
		label=1.0,
		lp="944.5,40.5",
		pos="939,63.898 939,51.998 939,29.102 939,17.165"];
	8	 [URL="http://lattes.cnpq.br/5312565962811745",
		color="#17272B",
		fontcolor="#FFFFFF",
		height=0.23611,
		label="Adria Ramos de Lyra [0]",
		pos="1063,72.5",
		width=1.3472];
	10	 [URL="http://lattes.cnpq.br/0342736330192292",
		color="#17272B",
		fontcolor="#FFFFFF",
		height=0.23611,
		label="Rafael Bernardo Teixeira [0]",
		pos="1184,72.5",
		width=1.5139];
	11	 [URL="http://lattes.cnpq.br/0537492315736566",
		color="#17272B",
		fontcolor="#FFFFFF",
		height=0.23611,
		label="Moisés A. da S. Monteiro de Araújo [0]",
		pos="1329,72.5",
		width=2];
	13	 [URL="http://lattes.cnpq.br/6509989261742578",
		color="#17272B",
		fontcolor="#FFFFFF",
		height=0.23611,
		label="Carlos A. Reyna Vera-Tudela [0]",
		pos="1481,72.5",
		width=1.7083];
	14	 [URL="http://lattes.cnpq.br/5959809258429388",
		color="#17272B",
		fontcolor="#FFFFFF",
		height=0.23611,
		label="Duilio T. da Conceicao Junior [0]",
		pos="1623,72.5",
		width=1.7222];
	15	 [URL="http://lattes.cnpq.br/7773124399449504",
		color="#17272B",
		fontcolor="#FFFFFF",
		height=0.23611,
		label="Robson Mariano da Silva [0]",
		pos="1758,72.5",
		width=1.5139];
	16	 [URL="http://lattes.cnpq.br/2704717555047499",
		color="#17272B",
		fontcolor="#FFFFFF",
		height=0.23611,
		label="Priscila M. Vieira Lima [0]",
		pos="1883,72.5",
		width=1.4444];
	17	 [URL="http://lattes.cnpq.br/2228366161014170",
		color="#17272B",
		fontcolor="#FFFFFF",
		height=0.23611,
		label="Rosane de Oliveira Ferreira [0]",
		pos="2011,72.5",
		width=1.6111];
	18	 [URL="http://lattes.cnpq.br/4502104424266743",
		color="#17272B",
		fontcolor="#FFFFFF",
		height=0.23611,
		label="Ronaldo Malheiros Gregório [0]",
		pos="2147,72.5",
		width=1.6667];
	19	 [URL="http://lattes.cnpq.br/3091684617912159",
		color="#17272B",
		fontcolor="#FFFFFF",
		height=0.23611,
		label="Wanderson José Lambert [0]",
		pos="2280,72.5",
		width=1.5139];
	20	 [URL="http://lattes.cnpq.br/3648148709641027",
		color="#17272B",
		fontcolor="#FFFFFF",
		height=0.23611,
		label="Wagner de Souza Tassinari [0]",
		pos="2411,72.5",
		width=1.6111];
	21	 [URL="http://lattes.cnpq.br/2115137917689655",
		color="#17272B",
		fontcolor="#FFFFFF",
		height=0.23611,
		label="Marcos Bacis Ceddia [0]",
		pos="2535,72.5",
		width=1.3333];
}
