trabalhoCompletoEmCongresso	Carla Kazue Nakao Cavaliero	2015	http://dx.doi.org/10.13140/RG.2.1.2182.0563	Hydroelectricity introduction through hydrogen as fuel for long-distance passenger buses: a sustainable alternative for Paraguay	Global Conference on Energy and Sustainable Development GCESD2015	RIVEROS-GODOY, GUSTAVO ARTURO ; CAVALIERO, C. K. N. ; FERREIRA, P. F. P.		
trabalhoCompletoEmCongresso	Carla Kazue Nakao Cavaliero	2015		ANÁLISE DA DISTRIBUICAO ESPACIAL DA MALHA DUTOVIÁRIA PARA GÁS NATURAL E DO BIOGÁS E DO BIOMETANO COMO ALTERNATIVAS ENERGÉTICAS PARA AGRONEGÓCIO DO BRASIL	AGRENER GD 2015 - 10º Congresso sobre Geração Distribuída e Energia no Meio Rural	MARIANI, L. ; CAVALIERO, C. K. N. ; GALVAO, R. R. A. ; MITO, J. Y. L.		
trabalhoCompletoEmCongresso	Carla Kazue Nakao Cavaliero	2015		PRODUCCIÓN DE BIOGAS POR LA BIODIGESTIÓN DE DESECHOS DE LECHERIAS DE LA COLONIA DELTA - SAN JOSÉ ? URUGUAY	VII Encuentro de la RedBioLAC - Red de Biodigestores Para Latino América y el Caribe	MARIANI, L. ; MARENDA, W. ; LUCIO, L. T. ; GALVAO, R. R. A. ; BLEY JR., C. J. ; CAVALIERO, C. K. N.		
resumoExpandidoEmCongresso	Carla Kazue Nakao Cavaliero	2015	Análise dos aspectos ambientais, técnicos e sociais de uma proposta de aproveitamneto energético de efluentes da bovinocultura leiteira	Simpósio Internacional sobre Gerenciamento de Resíduos Agropecuários e Agroindustriais - Sigera, 2015, Rio de Janeiro. Anais do IV Simpósio Internacional sobre Gerenciamento de Resíduos Agropecuários e Agroindustriais	MARIANI, L. ; CAVALIERO, C. K. N. ; BLEY JR., C. J. ; LEVY, N. M. ; LUCIO, L. T. ; MITO, J. Y. L.		
artigoEmPeriodico	Arnaldo Cesar da Silva Walter	2015	http://dx.doi.org/10.1080/09593330.2015.1024758	Environmental implications of anaerobic digestion for manure management in dairy farms in Mexico: a life cycle perspective	Environmental Technology	RIVAS-GARCÍA, PASIANO ; BOTELLO-ÁLVAREZ, JOSÉ E. ; ABEL SEABRA, JOAQUIM E. ; DA SILVA WALTER, ARNALDO C. ; ESTRADA-BALTAZAR, ALEJANDRO	A2	
artigoEmPeriodico	Arnaldo Cesar da Silva Walter	2015	http://dx.doi.org/10.1007/s00267-015-0559-0	Bioenergy and Biodiversity: Key Lessons from the Pan American Region	Environmental Management (New York)	KLINE, KEITH L. ; MARTINELLI, FERNANDA SILVA ; MAYER, AUDREY L. ; MEDEIROS, RODRIGO ; OLIVEIRA, CAMILA ORTOLAN F. ; SPAROVEK, GERD ; WALTER, ARNALDO ; VENIER, LISA A.	A2	
artigoEmPeriodico	Arnaldo Cesar da Silva Walter	2015	http://dx.doi.org/10.1016/j.rser.2015.07.127	The use of socioeconomic indicators to assess the impacts of sugarcane production in Brazil	Renewable & Sustainable Energy Reviews	MACHADO, PEDRO GERBER ; PICOLI, MICHELLE CRISTINA ARAUJO ; TORRES, LAURA JIMENA ; OLIVEIRA, JANAÍNA GARCIA ; WALTER, ARNALDO	A1	
artigoEmPeriodico	Arnaldo Cesar da Silva Walter	2015		Regime Climático e as Normas do Comércio Internacional : uma análise à luz do Direito Internacional do Desenvolvimento Sustentável	Revista de Direito Ambiental	Correia, BB ; Walter, A.	A1	
artigoEmPeriodico	Arnaldo Cesar da Silva Walter	2015		Condições de trabalho na atividade canavieira brasileira	Revista de Politica Agricola	CAPITANI, D. H. D. ; GOMES, M. S. ; Walter, A.C.S ; LEAL, M. R. L. V.	B2	
artigoEmPeriodico	Andre Tosi Furtado	2015	http://dx.doi.org/10.1080/2157930X.2015.1057978	Innovation dynamics of the wind energy industry in South Africa and Brazil: technological and institutional lock-ins	INNOVATION AND DEVELOPMENT	Furtado, André Tosi; PERROT, RADHIKA	B1	International Journal of Technological Learning, Innovation and Development (Print)
artigoEmPeriodico	Andre Tosi Furtado	2015		A Atualidade do Pensamento de Celso Furtado	Cadernos do Desenvolvimento	FURTADO, A. T.; SILVA, D. R. M. ; OLIVEIRA FILHO, A. A. ; BARASSA, E.	B3	
trabalhoCompletoEmCongresso	Andre Tosi Furtado	2015		A NATUREZA SISTÊMICA DOS SURVEYS DE INOVAÇÃO E DA AVALIAÇÃO DE POLÍTICAS DE INOVAÇÃO	ALTEC 2015 Brasil - XVI Congresso Latino-Iberoamericano de Gestão da Tecnologia	SILVA, D. R. M. ; FURTADO, A. T.		
trabalhoCompletoEmCongresso	Andre Tosi Furtado	2015		DIVERSIFICAÇÃO TECNOLÓGICA EM PETROLÍFERAS PRIVADAS: UMA ANÁLISE DAS PATENTES EM BIOCOMBUSTÍVEIS LÍQUIDOS	ALTEC 2015 Brasil - XVI Congresso Latino-Iberoamericano de Gestão da Tecnologia	Gardim, N. ; FURTADO, A. T.		
trabalhoCompletoEmCongresso	Andre Tosi Furtado	2015		As políticas de Inovação em Solar Fotovoltaico (FV) nos países líderes: o que o Brasil pode aprender	ALTEC 2015 Brasil - XVI Congresso Latino-Iberoamericano de Gestão da Tecnologia	Buitrago. J. A. M. ; Camillo, Edialine V. ; FURTADO, A. T.		
trabalhoCompletoEmCongresso	Andre Tosi Furtado	2015		Impacts of the Aircrtaft AMX's Aquisition Programa (1982-1994) on the technological management capability of the Brazilian Aeronautical Command	ALTEC 2015 Brasil - XVI Congresso Latino-Iberoamericano de Gestão da Tecnologia	Francelino, A. F. ; Urbina, L.M.S. ; FURTADO, A. T. ; Damiani, J.H.S.		
trabalhoCompletoEmCongresso	Andre Tosi Furtado	2015		UMA DISCUSSÃO SOBRE O PROCESSO DE CONSTRUÇÃO DE INDICADORES COMPOSTOS DE INOVAÇÃO E SEU USO PELOS FORMULADORES DE POLÍTICA	ALTEC 2015 Brasil - XVI Congresso Latino-Iberoamericano de Gestão da Tecnologia	Beneli, D.S. ; CARVALHO, S.A.D. ; FURTADO, A. T.		
artigoEmPeriodico	Conrado Augustus de Melo	2015		Cost-effectiveness of CO2 emissions reduction through energy efficiency in Brazilian building sector	Energy Efficiency	DE MELO, CONRADO AUGUSTUS; de Martino Jannuzzi, Gilberto	B3	
artigoEmPeriodico	Carlos Eduardo Keutenedjian Mady	2015	http://dx.doi.org/10.1016/j.energy.2015.03.096	A thermodynamic assessment of therapeutic hypothermia techniques	Energy (Oxford)	MADY, CARLOS EDUARDO KEUTENEDJIAN; Henriques, I.B. ; Oliveira Junior, S	A1	
trabalhoCompletoEmCongresso	Carlos Eduardo Keutenedjian Mady	2015		Is MVR an efficient alternative to optimize the energy use in an evaporation unity of electrolytic caustic soda production? An exergy approach to the diaphragm arrangement	ECOS	Mady, C. E. K.; Jardin Junior, R.N. ; Oliveira-Junior, S.		
trabalhoCompletoEmCongresso	Carlos Eduardo Keutenedjian Mady	2015		Exergy model of human heart	ECOS	Henriques, I.B. ; Mady, C. E. K. ; Oliveira Junior, S		
resumoExpandidoEmCongresso	Carlos Eduardo Keutenedjian Mady	2015	Evaluation of different methods of mechanical work calculation and their effect on the thermodynamic analysis of runners on a treadmill test	ENEBI, 2015, Uberlândia. Anais do 5o Encontro Nacional de Engenharia Biomecânica	Mady, C. E. K.; Henriques, I. B. ; Albuquerque, C. ; Yanagihara, J.I. ; Oliveira Jr, S.		
artigoEmPeriodico	Sergio Valdir Bajay	2015		Biorefining for the Brasilian pulp and paper industry	O Papel (São Paulo)	BERNI, Mauro Donizetti ; Bajay, S. V. ; MEYERS, P. ; FORSTER, T.	B3	
trabalhoCompletoEmCongresso	Sergio Valdir Bajay	2015		Brazilian research in municipal solid waste biogas: how large is it and how far has it gone?	International Conference on Solid Waste Technology and Management	Carvalho, R. Q. ; Santos, G. V. ; Tavares, A. ; Bajay, S. V.		
trabalhoCompletoEmCongresso	Sergio Valdir Bajay	2015		Industrial and energy policies for biogás-based electricity from municipal solid waste in Brazil	International Conference on Solid Waste Technology and Management	Carvalho, R. Q. ; Tavares, A. ; Santos, G. V. ; Bajay, S. V.		
trabalhoCompletoEmCongresso	Sergio Valdir Bajay	2015		Análise das políticas no aproveitamento energético de resíduos sólidos urbanos no Brasil	Congresso sobre Geração Distribuída e Energia no Meio Rural (Agrener GD 2015)	ALBARRACIN, A. L. T. ; Bajay, S. V.		
trabalhoCompletoEmCongresso	Sergio Valdir Bajay	2015		Estudos de repotenciação de usinas hidrelétricas por meio da motorização de poços vazios existentes	9o Congresso Brasileiro de Regulação	LEMOS, H. F. ; Bajay, S. V.		
artigoEmPeriodico	Waldyr Luiz Ribeiro Gallo	2015		Load control in spark-ignited engines possibilities: early or late intake valve closure	SAE Technical Paper Series	de Sanctis, C. M. ; GALLO, W. L. R.	B4	
trabalhoCompletoEmCongresso	Waldyr Luiz Ribeiro Gallo	2015		Intake and exhaust systems pressure waves: the effects on engine performance	23rd ABCM International Congress of Mechanical Engineering - COBEM2015	de Sanctis, C. M. ; GALLO, W. L. R.		
trabalhoCompletoEmCongresso	Waldyr Luiz Ribeiro Gallo	2015		Exergetic and thermoeconomic analysis of a cogeneration plant on a Brazilian Pre-Salt oil offshore platform	23dr ABCM International Congress of Mechanical Engineering - COBEM2015	DIAS, R. ; GALLO, W. L. R.		
trabalhoCompletoEmCongresso	Waldyr Luiz Ribeiro Gallo	2015		First and second law analysis of CO2 offshore compression system	23dr ABCM International Congress of Mechanical Engineering - COBEM2015	ORTIZ C., H. Y. ; GALLO, W. L. R.		
trabalhoCompletoEmCongresso	Waldyr Luiz Ribeiro Gallo	2015		Exergoeconomic Analysis of a Cogeneration Plant on a Brazilian Pre-Salt FPSO Considering Different Fuel Gas Compositions	XXXVI Ibero-Latin american Congress on Computatioinal Methods in Engineering	DIAS, R. ; GALLO, W. L. R.		
trabalhoCompletoEmCongresso	Waldyr Luiz Ribeiro Gallo	2015		Diagnóstico de emissões de gases de efeito estufa em plataformas FPSO	XI Latin-American Congress Electricity Generation and Transmission - CLAGTEE2015	Acevedo B., V. L. ; GALLO, W. L. R.		
artigoEmPeriodico	Sonia Regina da Cal Seixas	2015		FLOODS AND SOCIOENVIRONMENTAL VULNERABILITY IN THE MUNICIPALITY OF ATIBAIA, SP ? BRAZIL	Revista Meio Ambiente e Sustentabilidade	GONÇALVES, N de M ; SEIXAS, S R C ; HOEFFEL, J. L. M. ; Lima, F B	Qualis nao identificado	Revista Meio Ambiente e Sustentabilidade
artigoEmPeriodico	Michelle Cristina Araujo Picoli	2015	http://dx.doi.org/10.1016/j.rser.2015.07.127	The use of socioeconomic indicators to assess the impacts of sugarcane production in Brazil	Renewable & Sustainable Energy Reviews	MACHADO, PEDRO GERBER ; PICOLI, MICHELLE CRISTINA ARAUJO ; TORRES, LAURA JIMENA ; OLIVEIRA, JANAÍNA GARCIA ; WALTER, ARNALDO	A1	
trabalhoCompletoEmCongresso	Michelle Cristina Araujo Picoli	2015		Avaliação do desempenho de classificadores em imagens de Veículo Aéreo Não Tripulado (VANT)	XVII Simpósio Brasileiro de Sensoriamento Remoto	SIMOES, I. ; DUFT, D. G. ; MIRANDA, C. G. ; SANCHES, G. M. ; PICOLI, Michelle Cristina Araujo		
trabalhoCompletoEmCongresso	Michelle Cristina Araujo Picoli	2015		Comparação do desempenho de índices de vegetação do sensor MODIS para mapeamento sistemático da cana-de-açúcar	http://www.dsr.inpe.br/sbsr2015/files/p0542.pdf	DUFT, D. G. ; PICOLI, Michelle Cristina Araujo ; SCARPARE, FABIO VALE ; HERNANDES, T. A. D. ; GALDOS, MARCELO VALADARES		
trabalhoCompletoEmCongresso	Michelle Cristina Araujo Picoli	2015		Avaliação da expansão da cana-de-açúcar segundo os critérios de sustentabilidade da Diretiva Europeia 2009/28/ce: estudo de caso de Rancharia - SP	10º Congresso sobre Geração Distribuída e Energia no Meio Rural ? X AGRENER	MIRANDA, C. G. ; DUFT, D. G. ; PICOLI, MICHELLE C. A. ; JESUS, K. R. E.		
trabalhoCompletoEmCongresso	Michelle Cristina Araujo Picoli	2015		Proposta metodológica de um sistema de avaliação do uso e expansão da cana - de - açúcar utilizando a abordagem de Landscape Design	10º Congresso sobre Geração Distribuída e Energia no Meio Rural ? X AGRENER	MIRANDA, C. G. ; PICOLI, MICHELLE C. A. ; RAMPAZO, N. A. M. ; PEREZ FILHO, A. ; JESUS, K. R. E.		
trabalhoCompletoEmCongresso	Michelle Cristina Araujo Picoli	2015		Cenário agroenergético da cana-de-açúcar em São Paulo: uma avaliação da sensibilidade socioeconômica e ambiental utilizando Sistema De Informação Geográfica (SIG)	10º Congresso sobre Geração Distribuída e Energia no Meio Rural ? X AGRENER	RAMPAZO, N. A. M. ; PICOLI, MICHELLE C. A. ; DUFT, D. G. ; MACHADO, P. G. ; MIRANDA, C. G. ; JESUS, K. R. E.		
trabalhoCompletoEmCongresso	Michelle Cristina Araujo Picoli	2015		Análise estatística do uso da média mensal do NDVI no monitoramento da cana-de-açúcar no estado de São Paulo	XLIV Congresso Brasileiro de Engenharia Agrícola - CONBEA 2015	MOREIRA, M. E. M. ; LEAL, M. R. L. V. ; PICOLI, MICHELLE C. A. ; DUFT, D. G.		
resumoExpandidoEmCongresso	Michelle Cristina Araujo Picoli	2015	Caracterização dos remanescentes de vegetação no município de Chapadão do Céu ? GO, e a expansão da cultura canavieira	XII Congresso de Ecologia do Brasil, 2015, Lourenço - MG. XII Congresso de Ecologia do Brasil	GUARENGHI, M. ; WALTER, A. ; PICOLI, MICHELLE C. A. ; DUFT, D. G.		
artigoEmPeriodico	Joaquim Eugênio Abel Seabra	2015	http://dx.doi.org/10.1016/j.energy.2014.12.050	Life cycle assessment of biofuels from an integrated Brazilian algae-sugarcane biorefinery	Energy (Oxford)	SOUZA, SIMONE P. ; GOPAL, ANAND R. ; SEABRA, JOAQUIM E.A.	A1	
artigoEmPeriodico	Joaquim Eugênio Abel Seabra	2015	http://dx.doi.org/10.1080/09593330.2015.1024758	Environmental implications of anaerobic digestion for manure management in dairy farms in Mexico: a life cycle perspective	Environmental Technology	RIVAS-GARCÍA, PASIANO ; BOTELLO-ÁLVAREZ, JOSÉ E. ; ABEL SEABRA, JOAQUIM E. ; DA SILVA WALTER, ARNALDO C. ; ESTRADA-BALTAZAR, ALEJANDRO	A2	
trabalhoCompletoEmCongresso	Joaquim Eugênio Abel Seabra	2015		Metodologia de precificação da cana-de-açúcar levando em consideração o uso do bagaço para a cogeração	IX Workshop Agroenergia: matérias primas	RIBEIRO, C. H. ; SEABRA, JOAQUIM EUGÊNIO ABEL		
artigoEmPeriodico	Ieda Geriberto Hidalgo	2015	http://dx.doi.org/10.2166/wpt.2015.050	Management of inflow forecasting studies	Water Practice and Technology	HIDALGO, I. G.; BARBOSA, P. S. F. ; FRANCATO, A. L. ; LUNA, I. ; CORREIA, P. B. ; Pedro, P. S. M.	Qualis nao identificado	Water Practice and Technology
artigoEmPeriodico	Ieda Geriberto Hidalgo	2015	http://dx.doi.org/10.1155/2015/701851	Metaheuristic Approaches for Hydropower System Scheduling	Journal of Applied Mathematics	HIDALGO, I. G.; BARROS, R. S. ; FERNANDES, J. P. T. ; ESTRÓCIO, J. P. F. ; CORREIA, P. B.	B1	IMA Journal of Applied Mathematics
trabalhoCompletoEmCongresso	Ieda Geriberto Hidalgo	2015		Metaheurística Aplicada na Otimização do Despacho Dinâmico de Unidades Hidrelétricas Considerando Curvas de Eficiência Individualizadas	VII Congresso de Inovação Tecnológica em Energia Elétrica (VIII CITENEL)	CORREIA, PAULO B. ; Hidalgo, Ieda G. ; FERNANDES, JÉSSICA P. T. ; DE BARROS, REGIANE S. ; ESTRÓCIO, JOÃO PAULO F.		
artigoEmPeriodico	Gilberto De Martino Jannuzzi	2015	http://dx.doi.org/10.1007/s12053-014-9322-2	Cost-effectiveness of CO2 emissions reduction through energy efficiency in Brazilian building sector	Energy Efficiency (Print)	DE MELO, CONRADO AUGUSTUS ; DE MARTINO JANNUZZI, GILBERTO	B3	
artigoEmPeriodico	Gilberto De Martino Jannuzzi	2015		Energy Efficient Diagnostic of Lighting System in a Public Building - A Simulation Example	ESPAÇO ENERGIA	Piai, Juliani ; SFEIR, B. O ; RIBEIRO, C. H. ; LARINI, M. M. ; MODESTO, A. L. N. ; JANNUZZI, G. M.	B4	
trabalhoCompletoEmCongresso	Gilberto De Martino Jannuzzi	2015	http://dx.doi.org/10.19146/pibic-2015-37117	Prospecção e detalhamento do mercado de energia fotovoltaica no setor educacional em Campinas	XXIII Congresso de Iniciação Científica da Unicamp	De Martino Jannuzzi, Gilberto; BRAZ GÓES, CAROLINA		
resumoExpandidoEmCongresso	Fabio Vale Scarpare	2015	Comparação do desempenho de índices de vegetação do sensor MODIS para o mapeamento sistemático da cana-de-açúcar	XVII Simpósio Brasileiro de Sensoriamento Remoto, 2015, João Pessoa. XVII Simpósio Brasileiro de Sensoriamento Remoto	DUFT, D. G. ; PICOLI, M. C. ; SCARPARE, F. V. ; HERNANDES, T. A. D. ; GALDOS, M. V.		
resumoExpandidoEmCongresso	Fabio Vale Scarpare	2015	Cana-de-açúcar nas microrregiões do Sudoeste de Goiás e de Quirinópolis, GO - I: Caracterização edafoclimática e produtividade de colmos sob condições de sequeiro e irrigação	XIX Congresso Brasileiro de Agrometeorologia, 2015, Lavras. XIX Congresso Brasileiro de Agrometeorologia	DIAS, H. B. ; SCARPARE, F. V. ; SENTELHAS, P. C. ; MONTEIRO, L. A.		
resumoExpandidoEmCongresso	Fabio Vale Scarpare	2015	Cana-de-açúcar nas microrregiões do Sudoeste de Goiás e de Quirinópolis, GO - II: Produtividade de palha e sacarose sob condições de sequeiro	XIX Congresso Brasileiro de Agrometeorologia, 2015, Lavras. XIX Congresso Brasileiro de Agrometeorologia	DIAS, H. B. ; SCARPARE, F. V. ; SENTELHAS, P. C. ; MONTEIRO, L. A.		
resumoExpandidoEmCongresso	Fabio Vale Scarpare	2015	Parametrização e calibração de um modelo simples para simulação da produtividade potencial da cultura de soja em áreas de baixas latitudes	XIX Congresso Brasileiro de Agrometeorologia, 2015, Lavras. XIX Congresso Brasileiro de Agrometeorologia	RUIZ-CORREA, S. T. ; DOURADO-NETO, D. ; SCARPARE, F. V. ; VIVIAN, R.		
resumoExpandidoEmCongresso	Fabio Vale Scarpare	2015	Ajuste de séries históricas de temperatura média do ar e radiação solar global diárias às funções densidade de probabilidade Normal, Gamma e Weibull em Piracicaba - SP	XIX Congresso Brasileiro de Agrometeorologia, 2015, Lavras. XIX Congresso Brasileiro de Agrometeorologia	RUIZ-CORREA, S. T. ; DOURADO-NETO, D. ; SCARPARE, F. V. ; VIVIAN, R.		
resumoExpandidoEmCongresso	Fabio Vale Scarpare	2015	Tecnologia da fertirrigação na produtividade de diferentes genótipos de cana-de-açúcar	XXXV Congresso Brasileiro de Ciência do Solo, 2015, Natal. XXXV Congresso Brasileiro de Ciência do Solo	ARLANCH, A. B. ; GAVA, G. J. C. ; DELLABIGLIA, W. J. ; RUIZ-CORREA, S. T. ; SCARPARE, F. V.		
artigoEmPeriodico	Ennio Peres da Silva	2015		ANÁLISE ENERGÉTICA DO PROJETO DE UM SISTEMA HÍBRIDO EÓLICO-FOTOVOLTAICO COM ARMAZENAMENTO DE ENERGIA ELÉTRICA ATRAVÉS DO HIDROGÊNIO E BANCO DE BATERIAS	Revista Brasileira de Energia	MATOS, M. B. ; SILVA, E. P. ; VARELLA, F. K. O. M.	B3	
artigoEmPeriodico	Ennio Peres da Silva	2015		Análise do suprimento de frota de veículos elétricos por usina solar fotovoltaica de 1 MWp	Revista dos Transportes Públicos	STRANGUETO, Karina. M. ; SILVA, E. P.	B3	
