4436183480921146
4557872105710945
4568078356220240
9663765935778795
7490177315436850
9388832325351882
4879977915136752
9405464382040544
8725620123788586
0964904990750978
2450886895107490
2883331787707769
4747844086411846
6024077393559967
0785743182319556
5321503129467150
4095466014284922
9752017313590790
4805585223096573
7535636807201892
9258600363992264
1747029901469557
8793625585377645
1408233334149281
0123751726938510
8209807760593439
1724681850499161
1855639994329973
7783872304499386
5171712967732710
6741026914548492
3284961892472829
5721531589684189
0015478917428941
9702430844330119
2257137656357636
9697423942721162
3399621063210711
5990729462575602
3220111929133519
8918904607205362
5613750541452884
1161317972489632
6548813024674907
3556223779801431
1672274202055214
0981284061039261
2534052377718350
7608752466824342
8212959359349775
7315592936477868
2279792280361552
4854372533657671
1400946725262701
9171815778534257
7768163469697986
4112063838658098
3404344924625004
3290248496804159
0964079839708912
4962262512044838
6670798990638833
3295322038304033
1074454168866282
1258429277577053
2158499051567196
0511176018315533
4672766298301524
2150558011507981
8911895513681203
4045461101775296
4972511619847291
4200127829867976
2081734411813094
2971879661725798
9336984736808060
7836090711894254
5960813120832073
0976963496435630
3434386217662038
3615688579946805
0845486662407480
0136631228418007
1183201737914250
6992824817295435
9245677535636963
2406135520780881
2635785865810165
9098047398813476
8739431159426389
4609757905232939
2938728391656955
6340896483716647
1268148957855195
9562911881045203
3915273434856862
2985086752327431
5631346504733396
1999072996132654
9799870668339275
1599542221994875
2239246201786471
3744972422639190
4999509031047259
8060875213921446
7151888562278431
8139095662827864
2517885926462618
7307702766087200
2148914089304856
9008186664173955
0527085500008970
0208687027494137
3243324890334576
5522815415073059
4301479038166394
2241425930197153
7924615833462279
2322415620914430
0767556327924829
6917976245462312
8114814504709448
9369928320175297
9790946905639244
2892051287737605
5604807772579360
8279836147973860
7907503278098258
9324913005385365
8271069134769858
1265572757415786
5526383460332378
8638236111895553
1309300835320812
2468073449692765
0744190581971770
9725501529378304
5757301340362350
4168538689240017
8147291425757679
2188154440681419
0674388514483380
9608330080707599
5710822505622847
1314948153361579
1058528453390010
3402918606433168
7865840011524014
9036541085964477
3546577463374439
8444210181194986
8218100821612345
4725009683130950
0831388652787701
9571488360812994
0834145228895928
5229442671399164
1119850274802558
2701382557962687
3581816157957538
4519888592231795
2181615073847520
4420704264028661
9139738182304749
0609118456725363
2955796151289221
1758306905062349
9872595544846709
7740917144757410
9546187879719254
5754913226872247
2967325931922468
8926756641425188
3430318662329086
5452800042411901
8779460879145087
6948724141234232
5516755786380532
6003210915464722
0044915261354363
1095018145418746
0701568383219812
9325051019864649
8893208461166213
6113290608219088
2172046254229187
5181999838042131
1030141577031498
6654924341615471
9545281451905132
7037830015864655
9447955837477221
7077529747552333
4613010410524009
0550741650919815
3795255632885903
3861805074353496
9246469540554542
5494459022670775
3987091765361506
4770280890958869
0229734734009338
8563876963887343
2770691272825932
3921195152536523
4822303155884764
2464685002862801
7920838688044313
8908009613435024
6801813581350104
9970894005778087
6523255861320165
8201803720073001
2057851769511465
2752210156480636
7528952471956006
8047038427537028
5636463588776882
7830368617720691
8703740676075525
7279360933683556
5371182439582804
2317714197108593
5219013163859829
7924815022468819
3515030978060643
6559922606981572
1030086768997057
8849008666380358
6853475905155340
6413207883357197
9735333846587797
9482434736920128
8741029675242016
6935503527357767
3156647464982290
8679061908680077
8203775174455802
2236531683258299
7509084995553647
5457197162245079
3752267717128879
6910167965247014
