artigoEmPeriodico	2013	http://dx.doi.org/10.1590/S0103-65132012005000094	Melhores práticas em implantação de escritório de gerenciamento de projeto: desenvolvimento de referenciais de sucesso	Produção (São Paulo. Impresso)	ALVES, RICARDO OLIVEIRA ; COSTA, Helder Gomes ; QUELHAS, O L G ; SILVA, LICÍNIO ESMERALDO DA ; PIMENTEL, LEONARDO BEZERRA	B1	
artigoEmPeriodico	2013		PEOPLE MANAGEMENT FOR SUSTAINABILITY IN BRAZILIAN COMPANIES	European Journal of Business and Social Sciences	Arruda, Luis Roberto ; QUELHAS, O. L. G. ; LAMEIRA, V. J. ; PEREIRA, F. N.	Qualis nao identificado	European Journal of Business and Social Sciences
artigoEmPeriodico	2013		Quantification of aluminium in soil of the Solimões Formation, Acre state, Brazil	Revista Brasileira de Ciência do Solo (Impresso)	BERNINI, T. A. ; PEREIRA, M. G. ; ANJOS, L. H. C. ; PÉREZ, D. V. ; FONTANA, A. ; CALDERANO, S. B. ; WADT, P. G. S.	A2	
artigoEmPeriodico	2013		Avaliação de desempenho no Inmetro: uma contribuição do Apoio Multicritério à Decisão.	Revista de Administração do Gestor	Berzins, L. ; GOMES, C. F. S. ; Rangel, Luis Alberto Duncan	C	
artigoEmPeriodico	2013		Avaliação de desempenho no Inmetro: uma contribuição do Apoio Multicritério à Decisão	Revista de Administração do Gestor	Berzins, Lorena Jacobson ; GOMES, L. F. A. M. ; RANGEL, L. A. D.	C	
artigoEmPeriodico	2013		Geografia e Planejamento: apogeu e crise	Revista Territorium Terram	BINSZTOK, J	Qualis nao identificado	Revista Territorium Terram
artigoEmPeriodico	2013		Desenvolvimento Capitalista e (Des)Estruturação de Comunidades Ribeirinhas no Baixo Amazonas (Santarém ? Oriximiná ? PA)	Revista Geoaraguaia	BINSZTOK, J.; FARIA, C. S.	B4	
artigoEmPeriodico	2013	http://dx.doi.org/10.7177/sg.2012.v8.n2.a7	Levantamento e Análise Qualitativa de Dados de Acidentes de Trabalho: Um Estudo das Ocorrências a Bordo de Navios Petroleiros	S & G. Sistemas & Gestão	BRAGA, JOÃO ; BARROS, SERGIO ; LIMA, GILSON	B3	
artigoEmPeriodico	2013	http://dx.doi.org/10.4236/ojsst.2013.32004	Comparing SLIM, SPAR-H and Bayesian Network Methodologies	Open Journal of Safety Science and Technology	CALIXTO, EDUARDO ; LIMA, GILSON BRITO ALVES ; FIRMINO, PAULO RENATO ALVES	Qualis nao identificado	Open Journal of Safety Science and Technology
artigoEmPeriodico	2013	http://dx.doi.org/10.5132/eec.2013.02.003	Disposição continental de resíduos de mineração de carvão: drenagem ácida, ecotoxicidade aguda e biodisponibilidade de metais	Ecotoxicology and Environmental Contamination	Cesar, R.G. ; COELHO, M.B. ; ALVARO, T.T. ; COLONESE, J.P. ; Castilhos, Z.C. ; ENGLER, S.G. ; Bidone, E.D. ; Polivanov, H. ; ALEXANDRE, N.Z.	Qualis nao identificado	Ecotoxicology and Environmental Contamination
artigoEmPeriodico	2013	http://dx.doi.org/10.1007/s10661-013-3468-9	Disposal of dredged sediments in tropical soils: ecotoxicological effects on earthworms	Environmental Monitoring and Assessment (Print)	CESAR, RICARDO ; NATAL-DA-LUZ, TIAGO ; SOUSA, JOSÉ PAULO ; COLONESE, JUAN ; BIDONE, EDISON ; CASTILHOS, ZULEICA ; EGLER, SILVIA ; POLIVANOV, HELENA	A1	
artigoEmPeriodico	2013	http://dx.doi.org/10.5539/eer.v3n2p198	Carbon Market Funding for the Development of Areas of Pastures: The Case of Small Farms in the State of Rio de Janeiro, Brazil	Energy and Environment Research	CHAGAS, F. ; QUELHAS, O. L. G. ; PEREIRA, R. G. ; LAMEIRA, V. J. ; ALMEIDA, L. S. F.	Qualis nao identificado	Energy and Environment Research
artigoEmPeriodico	2013		Gestão da qualidade bacteriológica da água dos rios Macacu, Caceribu, Guapi-Açu e Guapi-Macacu, RJ, Brasil.	Engevista (UFF)	Côrtes, M.B.V. ; WASSERMAN, J.C. ; Bastos, O.M. ; Sobral Barcellos, Renato G. ; BARBOSA, A. S.	B2	
artigoEmPeriodico	2013		Antecipação do período de diagnose foliar em laranjeira 'Pêra' no Amazonas	Pesquisa Agropecuária Brasileira (Online)	DIAS, J. R. M. ; TUCCI, C. A. F. ; WADT, P. G. S. ; PÉREZ, D. V. ; PARTELLI, F. L. ; ESPINDULA, M. C. ; TOMIO, D. B.	B1	
artigoEmPeriodico	2013	http://dx.doi.org/10.1590/S1984-02922013000100006	O trabalho de Eros e de Tanatos na regulação social	Fractal: Revista de Psicologia	DOMINGOS, MARIA DE LURDES COSTA	B1	
artigoEmPeriodico	2013	http://dx.doi.org/10.1590/s0100-06832013000300023	Atributos físicos e matéria orgânica de organossolos háplicos em distintos ambientes no Brasil	Revista Brasileira de Ciência do Solo (Impresso)	EBELING, Adierson Gilvani ; ANJOS, Lucia Helena Cunha dos ; Pérez, Daniel Vidal ; PEREIRA, Marcos Gervasio ; NOVOTNY, ETELVINO HENRIQUE	A2	
artigoEmPeriodico	2013	http://dx.doi.org/10.1590/S1806-66902013000200003	Substâncias húmicas e suas relações com o grau de subsidência em Organossolos de diferentes ambientes de formação no Brasil	Revista Ciência Agronômica (UFC. Impresso)	EBELING, Adierson Gilvani ; ANJOS, Lúcia Helena Cunha dos ; PEREIRA, Marcos Gervasio ; VALLADARES, Gustavo Souza ; PÉREZ, D. V.	B1	
artigoEmPeriodico	2013	http://dx.doi.org/10.1080/23249676.2013.878882	Coupling bacterial decay and hydrodynamic models for sewage outfall simulation	Journal of Applied Water Engineering and Research	FEITOSA, R. C. ; BLENINGER, T. ; ROSMAN, P. C. C. ; Wasserman, Julio Cesar	Qualis nao identificado	Journal of Applied Water Engineering and Research
artigoEmPeriodico	2013	http://dx.doi.org/10.2166/wst.2013.286	Comparative study of fecal bacterial decay models for the simulation of plumes of submarine sewage outfalls	Water Science and Technology	FEITOSA, R. C. ; ROSMAN, P. C. C. ; CARVALHO, J. L. B. ; Côrtes, M.B.V. ; WASSERMAN, J. C.	A2	
artigoEmPeriodico	2013	http://dx.doi.org/10.5327/z0102-9800201300010003	Ecological risk index for aquatic pollution control: a case study of coastal water bodies from the Rio de Janeiro State, southeastern Brazil	Geochimica Brasiliensis	FIORI, CRISTIANE DA SILVEIRA ; RODRIGUES, Ana Paula de Castro ; SANTELLI, RICARDO ERTHAL ; CORDEIRO, Renato Campello ; CARVALHEIRA, RODRIGO GUERRA ; ARAÚJO, PATRÍCIA CORREA ; CASTILHOS, Z. C. ; BIDONE, E. D.	B2	
artigoEmPeriodico	2013	http://dx.doi.org/10.1149/05701.3031ecst	Study of Ceria-Nickel Composites for Anode Catalytic Layer for Direct Ethanol SOFC	ECS Transactions (Online)	FONSECA, F. C. ; TABUTI, F. N. ; NORONHA, F. B. ; AUGUSTO, B. L. ; Matos, L. V.	B3	
artigoEmPeriodico	2013		Práticas Pedagógicas como Ferramenta para Controle Higienicossanitário em um Restaurante Universitário.	Higiene Alimentar	FRANCO, R. M. ; FARIAS FILHO, J. R. ; CARVALHO, L. R.	B3	
artigoEmPeriodico	2013		Analysis of the business practices of sustainability in construction companies in the infra-structure sector in Brazil	International Journal of Environmental Technology and Management	FRANÇA, Sergio Luiz Braga; MEIRIÑO, Marcelo Jasmim ; PIMENTEL, Leonardo Bezerra	B2	
artigoEmPeriodico	2013		Análise das práticas empresariais de sustentabilidade nas empresas de construção pesada do setor de infraestrutura no Brasil	Engevista (UFF)	FRANÇA, Sergio Luiz Braga; ARRUDA, L. R. ; QUELHAS, Osvaldo Luiz Gonçalves	B2	
artigoEmPeriodico	2013		Falhas organizacionais em análise de acidentes: considerações sobre o caso Costa Concordia	Revista Marítima Brasileira	GAVIÃO, L. O. ; LIMA, G. B. A.	B3	
artigoEmPeriodico	2013		Multicriteria analysis with unknown preferences: An application of the SMAA-2 method	Revista de la Escuela de Perfeccionamiento en Investigación Operativa	GOMES, C. F. S. ; SANT'ANNA, Annibal Parracho ; Rangel, Luis Alberto Duncan	B5	Investigación Operativa
artigoEmPeriodico	2013		Behavioral multi-criteria decision analysis: the TODIM method with criteria interactions	Annals of Operation Research	GOMES, L. F. A. M. ; MACHADO, M. A. ; Rangel, Luis Alberto Duncan	A2	
artigoEmPeriodico	2013	http://dx.doi.org/10.1016/j.procs.2013.05.042	Criteria Interactions in Multiple Criteria Decision Aiding: A Choquet Formulation for the TODIM Method	Procedia Computer Science	GOMES, L. F. A. M. ; MACHADO, Maria Augusta Soares ; DA COSTA, FRANCISCO FERREIRA ; RANGEL, L. A. D.	C	
artigoEmPeriodico	2013	http://dx.doi.org/10.1007/s10479-013-1454-9	Erratum to: Behavioral multi-criteria decision analysis: the TODIM method with criteria interactions	Annals of Operation Research	GOMES, L. F. A. M. ; MACHADO, Maria Augusta Soares ; GONZALEZ, XAVIER IGNACIO ; RANGEL, L. A. D.	A2	
artigoEmPeriodico	2013	http://dx.doi.org/10.1007/s10479-013-1345-0	Behavioral multi-criteria decision analysis: the TODIM method with criteria interactions	Annals of Operation Research	GOMES, L. F. A. M. ; MACHADO, Maria Augusta Soares ; González, X.I. ; RANGEL, L. A. D.	A2	
artigoEmPeriodico	2013		Criteria Interactions in Multiple Criteria Decision Aiding: A Choquet Formulation for the TODIM Method	Procedia Computer Science	GOMES, L. F. A. M. ; Rangel, Luis Alberto Duncan ; Machado, M.A.S. ; COSTA, F. F.	C	
artigoEmPeriodico	2013		Multicriteria analysis with unknown preferences: An application of the SMAA-2 method	Investigación Operativa	GOMES, L. F. A. M. ; SANT'ANNA, Annibal Parracho ; RANGEL, L. A. D.	B5	
artigoEmPeriodico	2013		Does location or sector matters ? Analysis of Euro-zone energy companies	Journal of Materials Science and Engineering (A&B)	LAMEIRA, V. J. ; GIMARÃES, R P ; QUELHAS, O. L. G.	A1	Journal of Materials Science
artigoEmPeriodico	2013	http://dx.doi.org/10.3390/su5104312	Sustainability in the Brazilian Heavy Construction Industry: An Analysis of Organizational Practices	Sustainability (Basel)	LAMEIRA, V. J. ; HARRIS, J. ; Jr, Walter Lee Ness ; Pereira, Roberto ; QUELHAS, O. L. G.	B5	
artigoEmPeriodico	2013	http://dx.doi.org/10.1504/ijmef.2013.056398	Corruption, governance and sustainable development	International Journal of Monetary Economics and Finance	LAMEIRA, V. J. ; NESS, W. L. ; AMARAL-BAPTISTA, M. A. ; PEREIRA, R. G. ; QUELHAS, O. L. G.	B4	International Journal of Monetary Economics and Finance (Print)
artigoEmPeriodico	2013		ABORDAGEM ESTRATÉGICA SOBRE SEGURANÇA, MEIO AMBIENTE E SAÚDE (SMS) E RESPONSABILIDADE SOCIAL CORPORATIVA (RSC)	Relatórios de Pesquisa em Engenharia de Produção (UFF)	LEAO, R. M. A. ; LIMA, G. B. A.	B5	
artigoEmPeriodico	2013		STRATEGICALLY ALLIANCE IN TECHNOLOGICAL DEVELOPMENT AND INNOVATION: PERFORMANCE EVALUATION OF CO-CREATION BETWEEN COMPANIES AND THEIR SUPPLY CHAIN	Journal of Industrial Engineering and Management	MONTEIRO, L. O. ; FARIAS FILHO, J. R. ; BARRETO, L. ; CORREA, A. A. ; CUNHA, A. A. ; GRAMACHO, J. M.	Qualis nao identificado	Journal of Industrial Engineering and Management
artigoEmPeriodico	2013	http://dx.doi.org/10.1590/s0104-530x2013000200007	Avaliação da importância relativa dos critérios para a seleção de Sistemas Integrados de Gestão (ERP) para uso em empresas da construção civil	GESTÃO & PRODUÇÃO (UFSCAR. IMPRESSO)	Méxas, Mirian Picinini Picinini; COSTA, HELDER GOMES ; QUELHAS, OSVALDO LUIZ GONÇALVES	A2	
artigoEmPeriodico	2013	http://dx.doi.org/10.4018/jeis.2013040103	A Set of Criteria for Selection of Enterprise Resource Planning (ERP)	International Journal of Enterprise Information Systems	Méxas, Mirian Picinini ; QUELHAS, OSVALDO LUIS GONÇALVES ; COSTA, HEDER GOMES ; Lameira, Valdir De Jesus	Qualis nao identificado	International Journal of Enterprise Information Systems
artigoEmPeriodico	2013		Teores de metais em solos: o meu 4,2 é igual ao seu 4,2?	Boletim Informativo (Sociedade Brasileira de Ciência do Solo)	Pérez, D.V.; SANTOS, F. T. ; COSTA, A. C. S.	B5	
artigoEmPeriodico	2013	http://dx.doi.org/10.1504/PIE.2013.060662	Applying an ethical decision-making model: the case of Avco Environmental	Progress in Industrial Ecology, An International Journal	LEAL FILHO, W. ; MANOLAS, E. ; QUELHAS, Osvaldo Luiz Gonçalves ; FRANÇA, Sergio Luiz Braga	Qualis nao identificado	Progress in Industrial Ecology, An International Journal
artigoEmPeriodico	2013	http://dx.doi.org/10.7819/rbgn.v15i46.1302	Sustainability, Value, Performance and Risk in the Brazilian Capital Markets	Revista Brasileira de Gestão de Negócios (São Paulo. Impresso)	QUELHAS, O. L. G. ; Lameira, Valdir De Jesus ; Pereira, Roberto Guimaraes ; Jr, Walter Lee Ness	B1	
artigoEmPeriodico	2013		PROPOSTA DE ABORDAGEM PARA CICLO DE VIDA NA GESTÃO DE EVENTOS	Relatórios de Pesquisa em Engenharia de Produção (UFF)	RAMALHO, L. S. ; DIUANA, G. A ; NOGUEIRA, M. A. R. ; LIMA, G. B. A.	B5	
artigoEmPeriodico	2013	http://dx.doi.org/10.1016/j.marpolbul.2012.12.023	Combined SEM/AVS and attenuation of concentration models for the assessment of bioavailability and mobility of metals in sediments of Sepetiba Bay (SE Brazil)	Marine Pollution Bulletin.	RIBEIRIO, Andreza Portela ; FIGUEIREDO, Ana Maria Graziano ; SANTOS, José Osman dos ; Dantas, Elizabeth ; COTRIM, M. E. B. ; FIGUEIRA, R. C. ; SILVA FILHO, Emmanoel Vieira da ; WASSERMAN, J.C.	A1	
artigoEmPeriodico	2013	http://dx.doi.org/10.1007/s11244-013-0098-y	Ethanol Steam Reforming: Higher Dehydrogenation Selectivities Observed by Tuning Oxygen-Mobility and Acid/Base Properties with Mn in CeO2·MnOx·SiO2 Catalysts	Topics in Catalysis	RIBEIRO, M. C. ; Jacobs, G. ; DAVIS, B. H. ; L. V. Mattos ; NORONHA, F. B.	Qualis nao identificado	Topics in Catalysis
artigoEmPeriodico	2013		Agregação automática de classes nos atributos de decisão em aplicações de Rough Sets com dominância	S & G. Sistemas & Gestão	SANT'ANNA, A. P.; MOREIRA FILHO, R. M.	B3	
artigoEmPeriodico	2013		Procedimento de Cálculo para a Composição Probabilística de PreferênciasI	Relatórios de Pesquisa em Engenharia de Produção (UFF)	SANT'ANNA, Annibal Parracho	B5	
artigoEmPeriodico	2013		Detalhamento de uma Metodologia de Classificação baseda na Composição Probabilística de Preferências	Relatórios de Pesquisa em Engenharia de Produção (UFF)	SANT'ANNA, Annibal Parracho	B5	
artigoEmPeriodico	2013		Aplicação da Composição Probabillística e do Método das k-médias à Classificação de Municípios quanto à Oferta de Creches	Cadernos do IME. Série Estatística	SANT'ANNA, Annibal Parracho; FARIA, F. ; Costa, H. G.	B5	
artigoEmPeriodico	2013		Transparency in government institutions: a literature review	Brazilian Journal of Operations and Production Management	Santos, Carlos Soares do ; QUELHAS, O L G ; Braga França, Sergio Luiz ; ZOTES, L. P. ; Meirino, Marcelo Jasmim	B3	
artigoEmPeriodico	2013		Transparency in government institutions: a literature review	Brazilian Journal of Operations and Production Management	Santos, Carlos Soares do ; QUELHAS, Osvaldo Luís Gonçalves ; Braga França, Sergio Luiz ; ZOTES, L. P. ; Meirino, Marcelo Jasmim	B3	
artigoEmPeriodico	2013	http://dx.doi.org/10.1016/j.cattod.2013.04.033	The study of the performance of Ni-based catalysts obtained from LaNiO3 perovskite-type oxides synthesized by the combustion method for the production of hydrogen by reforming of ethanol	Catalysis Today (Print)	SILVA, A. A. A. ; COSTA, L. O. O. ; Lisiane V. Mattos ; NORONHA, F. B.	A1	
artigoEmPeriodico	2013		ANALYSIS OF MODELS AND PRACTICES OF PRODUCTION MANAGEMENT IN THE OIL AND GAS INDUSTRY	Asian Journal of Business and Management Sciences	SILVA, I. M. D. ; QUELHAS, O L G ; MEIRIÑO, Marcelo Jasmim ; FRANÇA, Sergio Luiz Braga ; BERGIANTE, N. C. R.	Qualis nao identificado	Asian Journal of Business and Management Sciences
artigoEmPeriodico	2013		Draft Procedures for Supplier Development: The Case of the Electric Power Distribution Company	Asian Journal of Business and Management Sciences	SOUZA, N. V. ; QUELHAS, Osvaldo Luiz Gonçalves ; MEIRIÑO, Marcelo Jasmim ; FRANÇA, Sergio Luiz Braga ; LAMEIRA, V. J.	Qualis nao identificado	Asian Journal of Business and Management Sciences
artigoEmPeriodico	2013		Draft Produceres For Supplier Development: The Case Of Electric Power Distribution Company	Asian Journal of Business and Management Sciences	SOUZA, N. V. ; QUELHAS, O. L. G. ; MEIRIÑO, M. J. ; FRANÇA, Sergio L.B.	Qualis nao identificado	Asian Journal of Business and Management Sciences
artigoEmPeriodico	2013		EFEITO DE DIFERENTES DOSAGENS DE Fe3+ NA GERMINAÇÃO DO GIRASSOL	Revista Internacional de Ciências	SOUZA, P. S. ; RIGO, M. M. ; CERQUEIRA, A. A. ; SOUZA, A. C. F. ; MARQUES, M. R. ; PÉREZ, D. V.	B5	Comunicação & Mercado - Revista Internacional de Ciências Sociais Aplicadas da UNIGRAN
artigoEmPeriodico	2013		Estudo Preliminar de Metais Traço por Critérios de Qualidade Ambiental em Sedimentos de um Manguezal do Saco do Mamanguá (Baía da Ilha Grande, Rio de Janeiro, Brasil)	Revista Virtual de Química	SOUZA, Paulo S. ; Costa Marques, Mônica Regina ; Soarez, M.L.G. ; Pérez, D.V. ; Cerqueira, A.A.	B2	
artigoEmPeriodico	2013	http://dx.doi.org/10.12957/ric.2013.7623	EFEITO DE DIFERENTES DOSAGENS DE Fe3+ NA GERMINAÇÃO DO GIRASSOL	Revista Internacional de Ciências	SOUZA, PAULO SÉRGIO ; RIGO, MICHELLE MACHADO ; CERQUEIRA, ALEXANDRE ANDRADE ; FERREIRA, ANA CARLA ; MARQUES, MÔNICA REGINA ; PEREZ, DANIEL VIDAL	B5	Comunicação & Mercado - Revista Internacional de Ciências Sociais Aplicadas da UNIGRAN
artigoEmPeriodico	2013		GESTÃO DE DESEMPENHO EM SEGURANÇA DE PROCESSO: ESTUDO DE CASO EM UMA EMPRESA DE ENERGIA	Relatórios de Pesquisa em Engenharia de Produção (UFF)	SOUZA, Rodrigo G. ; Lima, Aline Pereira de ; LIMA, G. B. A.	B5	
artigoEmPeriodico	2013		GESTÃO DE DESEMPENHO EM SEGURANÇA DE PROCESSO: ESTUDO DE CASO EM UMA EMPRESA DE ENERGIA	Relatórios de Pesquisa em Engenharia de Produção (UFF)	SOUZA, Rodrigo G. ; Lima, Aline Pereira de. ; LIMA, G. B. A.	B5	
artigoEmPeriodico	2013		Relationship with stakeholders in Brazilian energy companies	European Journal of Business and Social Sciences	TAVARES, L. A. ; DAMAS, D. S. ; QUELHAS, O. L. G. ; LAMEIRA, V. J.	Qualis nao identificado	European Journal of Business and Social Sciences
artigoEmPeriodico	2013	http://dx.doi.org/10.1016/j.chemosphere.2012.09.037	Pyrene photochemical species in commercial clays	Chemosphere (Oxford)	TEIXEIRA, SILVIO CESAR GODINHO ; OLIVEIRA, ANABELA ; DUARTE, PAULO ; VIEIRA FERREIRA, LUIS FILIPE ; MOREIRA, JOSINO COSTA ; PERÉZ, DANIEL VIDAL ; MARQUES, MONICA REGINA DA COSTA	A1	
artigoEmPeriodico	2013		The integration between corporate and operational strategies: an analysis of scientific publications using a bibliometric method	Brazilian Journal of Operations and Production Management	TREINTA, F. T. ; FARIAS FILHO, J. R. ; CHAGAS, D. L. ; OLIVEIRA, L. R. ; ROCHA, M. M. ; MEDEIROS, R. M. ; MANSUR, R. T.	B3	
artigoEmPeriodico	2013		Metodologia de pesquisa bibliográfica com a utilização de método multicritério de apoio à decisão	Produção (São Paulo. Impresso)	TREINTA, F. T. ; FARIAS FILHO, J. R. ; SANT'ANNA, A. P. ; RABELO, L. M.	B1	
artigoEmPeriodico	2013		Sustainability in the Civil Construction Industry: An exploratory study of cicle analysis methods	International Journal of Environmental Technology and Management	VIEIRA NETO, Julio; FARIAS FILHO, J.R	B2	
artigoEmPeriodico	2013	http://dx.doi.org/10.1016/j.jenvman.2013.02.024	Planning dredging services in contaminated sediments for balanced environmental and investment costs	Journal of Environmental Management	WASSERMAN, J. C.; BARROS, Sergio Ricardo da Silveira ; LIMA, Gilson Brito Alves	A1	
trabalhoCompletoEmCongresso	2013		A aprendizagem e a capacitação como estratégia de enfrentamento do problema de acúmulo de documentos no serviço público	XX Simpósio de Engenharia de Produção - SIMPEP 2013	ALMEIDA, L. ; ANDRADE, E. P.		
trabalhoCompletoEmCongresso	2013		A aprendizagem e a capacitação na resolução do problema de acúmulo de documentos no serviço público: estudo de caso na área de recursos humanos em instituição de energia nuclear	IV Encontro Fluminense de Engenharia de Produção	ALMEIDA, L. ; ANDRADE, E. P.		
trabalhoCompletoEmCongresso	2013		Composição Probabilística e Indice de Malmquist para Avaliação de Eficiência em Distribuidoras de Energia Elétrica	XLV SBPO	Andrade, G. N. ; Annibal Parracho		
trabalhoCompletoEmCongresso	2013		Estimativa do Impacto das Variações de Temperatura sobre o Consumo Residencial de Energia Elétrica no Rio de Janeiro	XLV SBPO	Andrade, G. N. ; SANT'ANNA, Annibal Parracho		
trabalhoCompletoEmCongresso	2013		Atividades Da Manutenção Como Ferramenta De Eficiência Energética	28º CONGRESSO BRASILEIRO DE MANUTENÇÃO E GESTÃO DE ATIVOS	ANDRADE, J. A. B. ; LIMA, G. B. A. ; FORTES, M. Z.		
trabalhoCompletoEmCongresso	2013		Adaptação Estratégica Organizacional: Um Estudo de Caso Transversal Sobre Estratégias e Resultados em Empresa Centenária e Global	IX Congresso Nacional de Excelência em Gestão	BARATEIRO, C. E. R. B. ; FARIAS FILHO, J. R. ; CAMPAGNAC, L. A. P.		
trabalhoCompletoEmCongresso	2013		Aspectos comportamentais da segurança do trabalho: relato e reflexões de experiências na aplicação de um programa de auditoria comportamental em uma empresa de construção naval	IX CONGRESSO NACIONAL DE EXCELÊNCIA EM GESTÃO	Benevenuto, R c ; GOMES, R. S. ; BARROS, Sergio R. S. ; LIMA, G. B. A.		
trabalhoCompletoEmCongresso	2013		A DIFERENCIAÇÃO SOCIOESPACIAL NO VALE DO PARAÍBA	XIV Encuentro de Geógrafos de América Latina	BINSZTOK, J.; MACEDO, G. R.		
trabalhoCompletoEmCongresso	2013		A Influência da mudança climática na intensidade e distribuição das chuvas em quatro estações meteorológicas	I Congresso Fluminense de Engenharia	BOU, A. S. F. ; CARANZANO, J. ; JESUS, T. L. ; MATIAS, F. ; Wasserman, Julio C.A.		
trabalhoCompletoEmCongresso	2013		Procedures and Practices to Improve Post-Project Results	7th International Conference on Industrial Engineering and Industrial Management and XVII Congresso de Ingenieria de Organización	CASTRO, M. S. ; FARIAS FILHO, J. R.		
trabalhoCompletoEmCongresso	2013		Boas Práticas em Gestão de Conhecimento para Melhorar Resultados de Projeto	XXXIII ENEGEP	CASTRO, M. S. ; FARIAS FILHO, J. R. ; TORRES, A. L. M.		
trabalhoCompletoEmCongresso	2013		FATORES CRÍTICOS DE SUCESSOS NA BUSCA PELA EXCELÊNCIA NO GERENCIAMENTO DE MEGAPROJETOS	Simpósio de Engenharia de Produção	DUARTE, D. L. ; FARIAS FILHO, J. R. ; MIRANDA JUNIOR, H. L. ; BRAZ, L. T. S. M. ; MACHADO FILHO, M. V.		
trabalhoCompletoEmCongresso	2013		Gestão De Mudanças Em Processos Industriais: O Caso Da Aplicação da Ferramenta SIGM	IX CONGRESSO NACIONAL DE EXCELÊNCIA EM GESTÃO	ESTRADA, J. A. F. D. ; LIMA, G. B. A. ; GUTIERREZ, R.H. ; SANTOS, H. R. da F.		
trabalhoCompletoEmCongresso	2013		Comparação entre Resultados da Composição Probabilística de Preferências e da Formação de Agrupamentos pelo Método das K-Médias	XLV SBPO	FARIA, F. ; Costa, H. G. ; SANT'ANNA, A. P.		
trabalhoCompletoEmCongresso	2013		Contrato de Aliança: Modelo de Contrato	IX Congresso Nacional de Excelência em Gestão	FARIAS FILHO, J. R		
trabalhoCompletoEmCongresso	2013		Percepções a respeito da implantação da gestão por processos em uma área de uma Empresa de Energia	IX Congresso Nacional de Excelência em Gestão	FARIAS FILHO, J. R		
trabalhoCompletoEmCongresso	2013		Desirable Criteria for Evaluation of the Maturity of Business Processo Management: A Quantitative Evaluation of a Company of Oil and Gas Exploration and Prodution	7th International Conference on Industrial Engineering and Industrial Management and XVII Congresso de Ingenieria de Organización	FARIAS FILHO, J. R		
trabalhoCompletoEmCongresso	2013		ANALISE DA LOGÍSTICA REVERSA PARA A COMPETITIVIDADE DAS ORGANIZAÇÕES. REFERENCIAIS TEÓRICOS E TENDÊNCIAS	XX SIMPÓSIO DE ENGENHARIA DE PRODUÇÃO	FERREIRA, F. D. S. L. ; FARIAS FILHO, Jose Rodrigues de ; QUELHAS, O. L. G.		
trabalhoCompletoEmCongresso	2013		Contribuição Do Círculo De Stakeholders Na Etapa De Comunicação E Consulta Da Isso 31000 Em Uma Empresa Do Setor De Energia	ENCONTRO NACIONAL EM ENGENHARIA DE PRODUÇÃO	FERREIRA, R. O. ; LIMA, A. J. Q. ; LIMA, G. B. A. ; TREITA, F. T		
trabalhoCompletoEmCongresso	2013		As Atividades Da Manutenção Como Ferramenta De Eficiência Energética	28º CONGRESSO BRASILEIRO DE MANUTENÇÃO E GESTÃO DE ATIVOS	FORTES, M. Z. ; ANDRADE, J. A. B. ; LIMA, G. B. A.		
trabalhoCompletoEmCongresso	2013		TRANSPARENCY IN GOVERNMENT INSTITUTIONS: A LITERATURE REVIEW	XIX International Conference on Industrial Engineering and Operations Management / XVII Congreso de Ingeniería de Organización	SANTOS, C. S. ; QUELHAS, O. L. G. ; FRANÇA, Sergio Luiz Braga ; ZOTES, L. P. ; MEIRINO, M. J.		
trabalhoCompletoEmCongresso	2013		Gestão da Cadeia de Suprimentos: Estudo do Desenvolvimento de Fornecedores	XXXIII ENEGEP - ENCONTRO NACIONAL DE ENGENHARIA DE PRODUÇÃO	FRANÇA, Sergio Luiz Braga; QUELHAS, Osvaldo Luiz Gonçalves ; MEIRIÑO, Marcelo Jasmim ; ALMEIDA, L. S. F. ; SOUZA, N. V.		
trabalhoCompletoEmCongresso	2013		Avaliação do Desempenho Ambiental na Indústria Naval. Estudo de Caso em Estaleiro Localizado no Estado do Rio de Janeiro	IX Congresso Nacional de Excelência em Gestão - CNEG	FRANÇA, Sergio Luiz Braga		
trabalhoCompletoEmCongresso	2013		Análise de Técnicas Construtivas Sustentáveis para Indústria da Construção Civil. Estudo de Caso em Serviços de Edifício Residencial	IX Congresso Nacional de Excelência em Gestão - CNEG	FRANÇA, Sergio Luiz Braga		
trabalhoCompletoEmCongresso	2013		Estratégia de Implementação de um Projeto de Mecanismo de Desenvolvimento Limpo	IX CNEG - Congresso Nacional de Excelência em Gestão	FRANÇA, Sergio Luiz Braga; LAGES, Raphael Talayer Silva		
trabalhoCompletoEmCongresso	2013		Análise da Implementação de um Sistema de Gestão Integrado em Organizações de Tecnologia da Informação sob a Ótica da Alta Administração	XX SIMPEP - Simpósio de Engenharia de Produção	FRANÇA, Sergio Luiz Braga; LAGES, Raphael Talayer Silva		
trabalhoCompletoEmCongresso	2013		Clima Organizacional e Satisfação no Trabalho: Estudo de Caso junto a Assistentes em Administração de uma Instituição Federal de Ensino Superior	IX CNEG - Congresso Nacional de Excelência em Gestão	FRANÇA, Sergio Luiz Braga; SALLES, M. C.		
trabalhoCompletoEmCongresso	2013		Competências para a Sustentabilidade: uma contribuição para o desenvolvimento de pessoas	IX CNEG - Congresso Nacional de Excelência em Gestão	FRANÇA, Sergio Luiz Braga; SOARES, F. H.		
trabalhoCompletoEmCongresso	2013		APLICAÇÃO DO ALGORITMO DE CAMINHO MÍNIMO EM PROBLEMA DE LOCALIZAÇÃO	IV ENFEPRO - Encontro Fluminense de Engenharia de Produção	GARCIA, A. E. N. ; Rangel, Luis Alberto Duncan		
trabalhoCompletoEmCongresso	2013		Um estudo bibliométrico sobre o desenvolvimento das técnicas e soluções analíticas para análise de produtos de investimentos	IX Congresso Nacional de Excelência em Gestão	Garrido, de Oliveira Marcos ; ZOTES, L. P. ; PINHEIRO, M. A. C.		
trabalhoCompletoEmCongresso	2013		Educação Da Sustentabilidade: Uma Proposta De Indicadores De Sustentabilidade Escolar Por Lógica De FUZZY	ENCONTRO NACIONAL EM ENGENHARIA DE PRODUÇÃO	GAVIÃO, L. O. ; LIMA, G. B. A.		
trabalhoCompletoEmCongresso	2013		Criteria interactions in multiple criteria decision aiding: A Choquet formulation for the TODIM method	First International Conference on Information Technology and Quantitative Management	GOMES, C. F. S. ; MACHADO, M. A. ; RANGEL, L. A. D.		
trabalhoCompletoEmCongresso	2013		Criteria interactions in multiple criteria decision aiding: A Choquet formulation for the TODIM method	First International Conference on Information Technology and Quantitative Management	GOMES, L. F. A. M. ; MACHADO, M. A. ; Rangel, Luis Alberto Duncan		
trabalhoCompletoEmCongresso	2013		Modelling interactions between criteria in MCDA: A comparative analysis of the bipolar Choquet integral and an ELECTRE method	XLV Simpósio Brasileiro de Pesquisa Operacional	Gomes, Luiz Flavio Autran Monteiro ; Machado, M.A.S. ; Rangel, Luis Alberto Duncan		
trabalhoCompletoEmCongresso	2013		Avaliação dos Estados Nordestinos para Abertura de um Centro de Distribuição	IV ENFEPRO - Encontro Fluminense de Engenharia de Produção	GONCALVES, C. L. ; Rangel, Luis Alberto Duncan		
trabalhoCompletoEmCongresso	2013		Análise Sanitária da Água do Baixo Curso do Rio São João para Consumo Humano	I Congresso Fluminense de Engenharia	KEIM, R. ; Côrtes, M.B.V. ; SILVA, L. O. ; Sobral Barcellos, Renato G. ; CHUEIRI, D. M. ; Wasserman, Julio Cesar		
trabalhoCompletoEmCongresso	2013		HQE certification applied to the reality of the civil construction industry in Brasil	7th international Conference on Industrial Engineering and Industrial Management and XVII Congresso de Ingenieria de Organización	ALMEIDA, M. L. ; QUELHAS, Osvaldo Luiz Gonçalves ; LIMA, Gilson Brito Alves ; MEIRIÑO, M. J. ; FARIAS FILHO, J. R.		
trabalhoCompletoEmCongresso	2013		Gestão De Segurança, Meio Ambiente E Saúde E Responsabilidade Social Corporativa: O Conceito De Integração	IV Encontro Fluminense de Engenharia de Produção (IV ENFEPro)	LEAO, R. M. A. ; LIMA, G. B. A.		
trabalhoCompletoEmCongresso	2013		Gestão de Confiabilidade na Indústria do Petróleo	Congresso Abrisco 2013	LIMA, G. B. A.; SIMÕES FILHO, Salvador		
trabalhoCompletoEmCongresso	2013		Análise Crítica Do Atendimento Aos Requisitos De SMS Do Cadastro De Fornecedores De Uma Empresa Do Seguimento De Petroleo E Gás No Brasil	IX CONGRESSO NACIONAL DE EXCELÊNCIA EM GESTÃO	MACEDO, F. B. L. ; LIMA, G. B. A. ; ANDRADE, E. T. ; HALL, J.		
trabalhoCompletoEmCongresso	2013		Gestão do conhecimento como recurso estratégico para o desenvolvimento de competências: estudo de caso em uma universidade pública	IX Congresso Nacional de Excelência em Gestão	MARINHO, R. C. P. ; ANDRADE, E. P.		
trabalhoCompletoEmCongresso	2013		Fiscalização de contratos em universidade pública: fazendo confluir manual de procedimentos de controle e gestão do conhecimento	IX Encontro Mineiro de Engenharia de Produção	MARINHO, R. C. P. ; ANDRADE, E. P.		
trabalhoCompletoEmCongresso	2013		Procedimentos de controle como estratégia de disseminação do conhecimento: proposta de implantação de um manual de fiscalização de contratos em uma universidade pública	IV Encontro Fluminense de Engenharia de Produção	MARINHO, R. C. P. ; ANDRADE, E. P.		
trabalhoCompletoEmCongresso	2013		Aplicação do Método da análise Hierárquica no auxílio à decisão na escolha de uma operadora de saúde suplementar	XLVSBPO Simpósio Brasileiro de Pesquisa Operacional	Marins, Mirtes Nunes de ; ZOTES, L. P.		
trabalhoCompletoEmCongresso	2013		Estudo do desempenho dos catalisadores PtNi/CeO2 na reforma a vapor de etanol a baixa temperatura	17º Congresso Brasileiro de Catálise	MORAES, T. S. ; da Silva, M. Adriana ; RIBEIRO, M. C. ; RABELO NETO, R. C. ; NORONHA, F. B. ; Lisiane V. Mattos		
trabalhoCompletoEmCongresso	2013		Aplicação Da Ferramenta ?Pegada Ecológica? Para Análise De Impactos Ambientais Gerados Pelas Atividades Acadêmicas Dos Alunos Da Escola De Engenharia Da Universidade Federal Fluminense	ENCONTRO NACIONAL EM ENGENHARIA DE PRODUÇÃO	NASCIMENTO, S. C. ; LIMA, G. B. A. ; MACIEL, G. F. S. C.		
trabalhoCompletoEmCongresso	2013		Proposta de Diretrizes para Planejamento de Edificações Sustentáveis	International Workshop Advances in Cleaner Production	Oliveira, Maurício Landwoigt ; QUELHAS, O. L. G. ; SIMÃO, V. G.		
trabalhoCompletoEmCongresso	2013		A Tecnologia da Informação e Comunicação (TIC) e os Processos de Comunicação Auxiliam em Gestão de Projeto	XXXIII Encontro Nacional de Engenharia de Produção	OLIVEIRA, U. C. ; FARIAS FILHO, J. R.		
trabalhoCompletoEmCongresso	2013		PERSPECTIVAS INOVADORAS NA ABORDAGEM DAS AUDITORIAS INTERNAS DE SAÚDE, SEGURANÇA E MEIO AMBIENTE (HSE)	IX CONGRESSO NACIONAL DE EXCELÊNCIA EM GESTÃO	PARÁ, P. C. D. ; LIMA, G. B. A.		
trabalhoCompletoEmCongresso	2013		ANALYSIS OF PLANNING AND MANAGEMENT PRACTICES IN THE CONSTRUCTION INDUSTRY	ICIEOM 2013 e CIO 2013 - XIX International Conference on Industrial Engineering and Operations Management / XVII Congreso de Ingeniería de Organización	PIMENTEL, A. ; QUELHAS, Osvaldo Luiz Gonçalves ; ZOTES, Luis Perez ; MEIRIÑO, Marcelo Jasmim ; FRANÇA, Sergio Luiz Braga		
trabalhoCompletoEmCongresso	2013		?PROPOSTA DE INDICADORES DE SUSTENTABILIDADE PARA SISTEMAS DE INTEGRAÇÃOLAVOURAPECUÁRIA-FLORESTA (ILPF). ESTUDO DE CASO: ILPF NO MUNICÍPIO DE ALEGRE, ESPÍRITO SANTO	IX CNEG ? Congresso Nacional de Excelência em Gestão	QUELHAS, O. L. G.		
trabalhoCompletoEmCongresso	2013		PROPOSTA DE DIRETRIZES PARA GESTÃO DE CONTRATOS NA ADMINISTRAÇÃO PÚBLICA	IX CNEG ? Congresso Nacional de Excelência em Gestão	QUELHAS, O. L. G.		
trabalhoCompletoEmCongresso	2013		ADMINISTRAÇÃO DE CONTRATOS NO SETOR PÚBLICO: UMA REVISÃO DA LITERATURA	IX CNEG ? Congresso Nacional de Excelência em Gestão	QUELHAS, O. L. G.		
trabalhoCompletoEmCongresso	2013		Numerical modeling of acoustic waves in 2D-frequency domains	COBEM 2013	RAMOS, M. F. R. ; FERREIRA, G. G. ; VELANDIA, E. F. R. ; MOREIRA, R. M.		
trabalhoCompletoEmCongresso	2013		Avaliação de alternativas pelo método TODIM considerando diferentes valores do fator de atenuação de perdas	XLV Simpósio Brasileiro de Pesquisa Operacional	RANGEL, L. A. D.; Gomes, Luiz Flavio Autran Monteiro ; RANGEL, SILVANA VALITUTTO DUNCAN		
trabalhoCompletoEmCongresso	2013		Comparing two evaluations of residential properties: Multicriteria decision making versus fuzzy expert systems	SPOLM 2013 - XVI Simpósio de Pesquisa Operacional Logística da Marinha	RANGEL, L. A. D.; Gomes, Luiz Flavio Autran Monteiro ; SALOMON, V. A. P		
trabalhoCompletoEmCongresso	2013		Multicriteria evaluation of alternatives with TODIM by using different values of the loss attenuation factor	XLV Brazilian Symposium of Operations Research	Rangel, Luis Alberto Duncan; GOMES, L. F. A. M. ; RANGEL, SILVANA VALITUTTO DUNCAN		
trabalhoCompletoEmCongresso	2013		Caos e Ordem: A Relação de Equilíbrio de Vir a Ser Socialmente Responsável e Sustentável no Mundo Comtemporâneo	IX Congresso Nacional de Excelência em Gestão	RIBEIRO, A. V. ; MEIRIÑO, M. J. ; QUELHAS, O. L. G. ; GOMES JUNIOR, S. F.		
trabalhoCompletoEmCongresso	2013		Pensamento Complexo: Um Caminho para a Sustentabilidade Corporativa do Mundo Contemporâneo	IX Congresso Nacional de Excelência em Gestão	RIBEIRO, A. V. ; MEIRIÑO, M. J. ; QUELHAS, O. L. G. ; GOMES JUNIOR, S. F.		
trabalhoCompletoEmCongresso	2013		Tratamento de lixiviado do aterro de Gramacho - RJ por Eletro-Fenton	Reunião Anual da Sociedade Brasileira de Química	Rigo, M.M. ; SOUZA, A. C. ; Cerqueira, A.A. ; Souza, P.S.A. ; MARQUES, MONICA REGINA DA COSTA ; Pérez, D.V.		
trabalhoCompletoEmCongresso	2013		Composição Probabilística de Preferências	IV Encontro de Pesquisa Operacional do Nordeste	SANT'ANNA, A. P		
trabalhoCompletoEmCongresso	2013		A new approach to prevention of accidents based on the application of control charts	European Safety and Reliability Symposium 2013	SANT'ANNA, Annibal Parracho; LIMA, G. B. A. ; Rios, V. C. ; AIZEMBERG, L. ; GARCIA, P. A. A.		
trabalhoCompletoEmCongresso	2013		Aprendendo com a mudança: capacitação e aprendizagem em empresas de transporte ferroviário urbano	XXXIII Encontro Nacional de Engenharia de Produção	SANTOS, D. F. ; ANDRADE, E. P. ; MOTTA, E. F. R. O.		
trabalhoCompletoEmCongresso	2013		Desenvolvimento de Algoritmo em Problemas de Corte com uma Dimensão	IV ENFEPRO - Encontro Fluminense de Engenharia de Produção	SANTOS, L. ; Rangel, Luis Alberto Duncan ; NEVES, T. A.		
trabalhoCompletoEmCongresso	2013		Avaliação do desempenho catalítico de perovskitas LaCoO3 na reação de reforma a vapor e oxidativa do etanol	17º Congresso Brasileiro de Catálise	SILVA, A. A. A. ; B.L. Augusto ; VIANA, K. D. ; SIGNORELLI, M. R. M. ; Lisiane V. Mattos ; Noronha, Fabio B.		
trabalhoCompletoEmCongresso	2013		Caracterização e avaliação do desempenho de catalisadores Ni/YCeO2 na reforma a vapor do etanol	17º Congresso Brasileiro de Catalise	SILVA, A. A. A. ; BALBI, M. A. ; COSTA, L. O. O. ; da Silva, M. Adriana ; Noronha, Fabio B. ; Lisiane V. Mattos		
trabalhoCompletoEmCongresso	2013		Inteligência competitiva e gestão por competência como horizonte de ação para os núcleos de inovação tecnológica em instituições públicas de ciência e tecnologia	Encontro da Associação Nacional de Pesquisa e Pós-Graduação em Administração	SILVA, A. M. ; ANDRADE, E. P.		
trabalhoCompletoEmCongresso	2013		Núcleos de Inovação Tecnológica, atuação nas instituições públicas de ciência e tecnologia frente às práticas organizacionais facilitadoras da gestão do conhecimento: inteligência competitiva e gestão por competência	VII Congresso Nacional de Gestão do Conhecimento na Esfera Pública	SILVA, A. M. ; ANDRADE, E. P.		
trabalhoCompletoEmCongresso	2013		A caracterização de reservatórios de petróleo e a prospecção sísmica	I Congresso Fluminense de Engenharia	SILVA, P. S. R. S. ; MOREIRA, R. M.		
trabalhoCompletoEmCongresso	2013		AVALIAÇÃO DE FORNECEDORES ATRAVÉS DO MÉTODO ELECTRE TRI	IV ENFEPRO - Encontro Fluminense de Engenharia de Produção	SIMOES, R. G. ; RANGEL, L. A. D.		
trabalhoCompletoEmCongresso	2013		Um experimento pontual de gestão do conhecimento em plataforma de petróleo	XXXIII Encontro Nacional de Engenharia de Produção	SOUZA, C. N. ; RAMOS, V. A. ; POLIVANOV, A. B. ; ANDRADE, E. P.		
trabalhoCompletoEmCongresso	2013		Multiple perspectives on waste management systems: towards more effective models for decision support	14th International Waste Management and Landfill Symposium	SOUZA, R. G.; Rosenhead, J. ; LINS, M. P. E. ; Valle		
trabalhoCompletoEmCongresso	2013		Problem structuring methods as an input to life cycle sustainability assessment: the case of Brazilian WEEE reverse logistics	14th International Waste Management and Landfill Symposium	SOUZA, R. G.; Salhofer, S. ; Rosenhead, J. ; LINS, M. P. E. ; Valle		
trabalhoCompletoEmCongresso	2013		Importância Dos Elementos Estruturantes De Um Programa De Gestão De Segurança De Processo: Estudo De Caso Em Uma Empresa De Energia	IX CONGRESSO NACIONAL DE EXCELÊNCIA EM GESTÃO	SOUZA, Rodrigo G. ; LIMA, G. B. A.		
trabalhoCompletoEmCongresso	2013		Análise Crítica De Aplicação De Práticas De P + L	IX CNEG ? Congresso Nacional de Excelência em Gestão	Terra, G.P. ; WASSERMAN, J.C. ; LIMA, Gilson Brito Alves ; Quelhas, O.L.G.		
trabalhoCompletoEmCongresso	2013		Análise de aspectos de segurança, meio ambiente e saúde (SMS) no processo de avaliação de fornecedores de serviços da indústria de petróleo e gás	IX CONGRESSO NACIONAL DE EXCELÊNCIA EM GESTÃO	VALLADARES, M. B. E. C. ; LIMA, G. B. A.		
trabalhoCompletoEmCongresso	2013		Uma Proposta de Modelo Conceitual de Desdobramento de Processos:Um Estudo de Caso em Uma Empresa Integrada de Energia	XXXIII ENEGEP	WARRAK, A. K. E. ; FARIAS FILHO, J. R.		
resumoExpandidoEmCongresso	2013	O gradiente salino no baixo curso do Rio São João, RJ	XIV Congresso Brasileiro de Geoquímica, 2013, Diamantina. Anais do XIV Congresso Brasileiro de Geoquímica. Rio de Janeiro: SBGq	Almeida, A.M. ; Wasserman, Julio C. ; Sobral Barcellos, Renato G. ; Côrtes, M.B.V. ; CHUEIRI, D. M. ; KEIM, R. ; PEREIRA-JUNIOR, N. D.		
resumoExpandidoEmCongresso	2013	HYDROGEN PRODUCTION BY STEAM REFORMING OF ETHANOL OVER NI-BASED CATALYSTS. EFFECT OF ALLOY FORMATION ON CATALYST STABILITY	11th European Congress on Catalysis, EuropaCat-XI, 2013, Lion. Proceedings of 11th European Congress on Catalysis, EuropaCat-XI	ANJANEYULU, C. ; da Costa, Lídia O.O. ; RIBEIRO, M. C. ; Lisiane V. Mattos ; VENUGOPAL, A. ; NORONHA, F. B.		
resumoExpandidoEmCongresso	2013	Avaliação de risco à saúde humana por exposição ambiental a metais via ingestão de águas em área de lavra de Ni na região leste do Estado do Piauí	XIV CONGRESSO BRASILEIRO DE GEOQUIMICA e Simpósio Latino-Americano de Mapeamento Geoquímico, 2013, DIAMANTINA. ANAIS DO XIV CONGRESSO BRASILEIRO DE GEOQUIMICA e Simpósio Latino-Americano de Mapeamento Geoquímico	Castilhos, Z.C. ; Cesar, RG ; SILVA, RSV ; FLORENCIO, J. ; ARAUJO, P. C. ; Bidone, Edison D.		
resumoExpandidoEmCongresso	2013	Ecotoxicidade de solos tropicais impactados pela disposição terrestre de sedimentos dragados: bioensaios com organismos aquáticos	XIV Congresso Brasileiro de Geoquímica, 2013, Diamantina. XIV Congresso Brasileiro de Geoquímica	Cesar, R.G. ; ALVARO, T. T. ; COLONESE, J. P. ; BIDONE, E. D. ; Castilhos, Z.C. ; Egler, S.G. ; POLIVANOV, HELENA		
resumoExpandidoEmCongresso	2013	Disposição de sedimentos de dragagem em solos tropicais: avaliação de risco ecotoxicológico com base em bioensaios com minhocas	XIV Congresso Brasileiro de Geoquímica e Simpósio Latino Americano de Mapeamento Geoquímico, 2013, Diamantina. XIV Congresso Brasileiro de Geoquímica	Cesar, R.G. ; NATAL-DA-LUZ, T. ; SOUSA, J. P. ; Bidone, Edison D. ; Castilhos, Z.C. ; Egler, S.G. ; POLIVANOV, HELENA		
resumoExpandidoEmCongresso	2013	Disposição continental de sedimentos de dragagem em solos tropicais: uma abordagem ecotoxicológica utilizando colêmbolos e enquitreídeos	14º Congresso Brasileiro de Geologia de Engenharia e Ambiental, 2013, Rio de Janeiro. 14º Congresso Brasileiro de Geologia de Engenharia e Ambiental	Cesar, R.G. ; POLIVANOV, HELENA ; NATAL-DA-LUZ, T. ; SOUSA, J. P. ; BIDONE, E. D. ; Castilhos, Z.C.		
resumoExpandidoEmCongresso	2013	Avaliação da contaminação por arsênio (As) em águas de bacias hidrográficas no Município de Paracatu	XIV Congresso Brasileiro de Geoquímica e Simpósio Latino Americano de Mapeamento Geoquímico, 2013, DIAMANTINA. ANAIS DO XIV CONGRESSO BRASILEIRO DE GEOQUIMICA e Simpósio Latino-Americano de Mapeamento Geoquímico	Maria Carla Barreto Santos ; Castilhos, Z.C. (Zuleica Carmen Castilhos) ; Luiz Carlos Bertolino ; Bidone, Edison D.		
resumoExpandidoEmCongresso	2013	Estudo da qualidade da água do baixo curso do Rio São João, Casimiro de Abreu, RJ	XIV Congresso Brasileiro de Geoquímica, 2013, Diamantina. Anais do XIV Congresso Brasileiro de Geoquímica. Rio de Janeiro: SBGq	MARTINS, A. R. A. ; CHUEIRI, D. M. ; Wasserman, Julio C. ; Côrtes, M.B.V. ; PEREIRA-JUNIOR, N. D. ; BARCELLOS, Renato Gomes ; KEIM, R.		
resumoExpandidoEmCongresso	2013	Low Temperature Steam Reforming of Ethanol over Ni/CeO2 Catalysts	23rd North American Catalysis Society Meeting, 2013, Louisville. Proceedings of 23rd North American Catalysis Society Meeting	MORAES, T. S. ; Costa, O.O. Lídia ; RABELO NETO, R. C. ; VERYKIOS, X. ; Noronha, Fabio B. ; Lisiane V. Mattos		
resumoExpandidoEmCongresso	2013	THE STUDY OF THE PERFORMANCE OF PTNI/CEO2 CATALYSTS FOR LOW TEMPERATURE STEAM REFORMING OF ETHANOL	11th European Congress on Catalysis, EuropaCat-XI, 2013, Lion. Proceedings of 11th European Congress on Catalysis, EuropaCat-XI	MORAES, T. S. ; da Costa, Lídia O.O. ; RABELO NETO, R. C. ; VERYKIOS, X. ; Noronha, Fábio B. ; Lisiane V. Mattos		
resumoExpandidoEmCongresso	2013	Pd-Ag based membrane for H2 purification from ethanol steam reforming over Rh catalysts	11th International Conference on Catalysis in Membrane Reactors, 2013, Porto. 11th International Conference on Catalysis in Membrane Reactors	MUNERA, J. F. ; CORNAGLIA, L. M. ; LOMBARDO, E. A. ; Lisiane V. Mattos ; NORONHA, F. B.		
resumoExpandidoEmCongresso	2013	The effect of support on hydrodeoxygenation of phenol	23rd North American Catalysis Society Meeting, 2013, Louisville. Proceedings of 23rd North American Catalysis Society Meeting	RIBEIRO, M. C. ; Jacobs, G. ; Davis, Burtron H. ; Lisiane V. Mattos ; Noronha, Fabio B.		
resumoExpandidoEmCongresso	2013	Efeito das doses de chorume tratado por eletro-fenton na germinação de sementes de girassol olerífero var. brs 321 (helianthus annuus l.)	Congresso Nacional do Meio Ambiente de Poços de Caldas, 2013, Poços de Caldas. X Congresso Nacional do Meio Ambiente de Poços de Caldas	Rigo, M.M. ; Souza, P.S.A. ; Cerqueira, A.A. ; FERREIRA, A. C. ; STEINER, V. M. ; MARQUES, MONICA REGINA DA COSTA ; Pérez, D.V.		
resumoExpandidoEmCongresso	2013	Bóia de Deriva para Monitoramento de Parâmetros Geoquímicos em Ambientes Lagunares	XIV Congresso Brasileiro de Geoquímica, 2013, Diamantina. Anais do XIV Congresso Brasileiro de Geoquímica. Rio de Janeiro: SBGq	Sobral Barcellos, Renato G. ; PINTO, K. G.M.P. ; SANTOS FILHO, J. F. ; SILVA, D. V. C. ; Wasserman, Julio C.		
resumoExpandidoEmCongresso	2013	MIXING PROBLEM STRUCTURING METHODS FOR SUSTAINABILITY: THE CASE OF REVERSE LOGISTICS	26th European Conference on Operational Research, 2013, Roma. 26th EURO/INFORMS Proceedings	SOUZA, R. G.; Rosenhead, J. ; LINS, M. P. E. ; Valle		
