strict digraph grafo3 {
	graph [bb="0,0,6876.5,465",
		id=grafo3,
		overlap=False
	];
	node [fontsize=8,
		label="\N",
		shape=rectangle,
		style=filled
	];
	0	 [URL="http://lattes.cnpq.br/2275828437667452",
		color="#17272B",
		fontcolor="#FFFFFF",
		height=0.23611,
		label="Nicolino Trompieri Filho [0]",
		pos="54.5,456.5",
		width=1.5139];
	1	 [URL="http://lattes.cnpq.br/6577452599388165",
		color="#17272B",
		fontcolor="#FFFFFF",
		height=0.23611,
		label="Gerardo Cristino Filho [2]",
		pos="177.5,456.5",
		width=1.4028];
	34	 [URL="http://lattes.cnpq.br/1478333245297251",
		color="#17272B",
		fontcolor="#FFFFFF",
		height=0.23611,
		label="Lissiana M. Vasconcelos Aguiar [2]",
		pos="177.5,392.5",
		width=1.8333];
	1 -> 34	 [arrowhead=normal,
		arrowsize=0.75,
		fontsize=8,
		label=1.0,
		lp="167,424.5",
		penwidth=3.5,
		pos="e,170.54,401.26 171.22,447.85 167.6,442.93 163.41,436.23 161.5,429.5 159.39,422.06 162.27,414.16 166.14,407.67"];
	34 -> 1	 [arrowhead=normal,
		arrowsize=0.75,
		fontsize=8,
		label=1.0,
		lp="183,424.5",
		penwidth=3.5,
		pos="e,177.5,447.9 177.5,401.16 177.5,410.86 177.5,427.8 177.5,440.19"];
	2	 [URL="http://lattes.cnpq.br/4215337018359713",
		color="#17272B",
		fontcolor="#FFFFFF",
		height=0.23611,
		label="Edson H. Teixeira Junior [0]",
		pos="300.5,456.5",
		width=1.5];
	3	 [URL="http://lattes.cnpq.br/6367176618425888",
		color="#17272B",
		fontcolor="#FFFFFF",
		height=0.23611,
		label="Armenio Aguiar dos Santos [0]",
		pos="431.5,456.5",
		width=1.625];
	4	 [URL="http://lattes.cnpq.br/2023603210832390",
		color="#17272B",
		fontcolor="#FFFFFF",
		height=0.23611,
		label="Walter Araujo Zin [0]",
		pos="551.5,456.5",
		width=1.2083];
	5	 [URL="http://lattes.cnpq.br/1068691320807960",
		color="#17272B",
		fontcolor="#FFFFFF",
		height=0.23611,
		label="Igor I. Castro da Silva [2]",
		pos="662.5,456.5",
		width=1.375];
	32	 [URL="http://lattes.cnpq.br/5537817532828798",
		color="#17272B",
		fontcolor="#FFFFFF",
		height=0.23611,
		label="Maristela I. Osawa Vasconcelos [15]",
		pos="662.5,392.5",
		width=1.875];
	5 -> 32	 [arrowhead=normal,
		arrowsize=0.75,
		fontsize=8,
		label=1.0,
		lp="652,424.5",
		penwidth=3.5,
		pos="e,655.54,401.26 656.22,447.85 652.6,442.93 648.41,436.23 646.5,429.5 644.39,422.06 647.27,414.16 651.14,407.67"];
	32 -> 5	 [arrowhead=normal,
		arrowsize=0.75,
		fontsize=8,
		label=0.13,
		lp="670,424.5",
		penwidth=0.89,
		pos="e,662.5,447.9 662.5,401.16 662.5,410.86 662.5,427.8 662.5,440.19"];
	31	 [URL="http://lattes.cnpq.br/9795597292263465",
		color="#17272B",
		fontcolor="#FFFFFF",
		height=0.23611,
		label="Eliany Nazaré Oliveira [7]",
		pos="790.5,72.5",
		width=1.4167];
	32 -> 31	 [arrowhead=normal,
		arrowsize=0.75,
		fontsize=8,
		label=0.03,
		lp="995,232.5",
		penwidth=0.59,
		pos="e,841.8,74.959 729.84,385.35 825.03,375.72 987.5,355.49 987.5,329.5 987.5,329.5 987.5,329.5 987.5,135.5 987.5,111.25 968.41,109.89 \
946.5,99.5 916.31,85.183 879.57,78.602 849.34,75.638"];
	69	 [URL="http://lattes.cnpq.br/9251743262592177",
		color="#17272B",
		fontcolor="#FFFFFF",
		height=0.23611,
		label="Maria S. de Araujo Dias [17]",
		pos="654.5,136.5",
		width=1.5278];
	32 -> 69	 [arrowhead=normal,
		arrowsize=0.75,
		fontsize=8,
		label=0.5,
		lp="435,264.5",
		penwidth=2.0,
		pos="e,599.46,141.72 595.11,386.66 526.29,379.81 429.5,364.03 429.5,329.5 429.5,329.5 429.5,329.5 429.5,199.5 429.5,165.65 525.32,149.58 \
591.9,142.5"];
	25	 [URL="http://lattes.cnpq.br/3817419583415614",
		color="#17272B",
		fontcolor="#FFFFFF",
		height=0.23611,
		label="Geison Vasconcelos Lira [3]",
		pos="511.5,200.5",
		width=1.5];
	32 -> 25	 [arrowhead=normal,
		arrowsize=0.75,
		fontsize=8,
		label=0.03,
		lp="518,296.5",
		penwidth=0.59,
		pos="e,509.84,209.02 607.61,383.96 591.6,380.1 574.63,374.28 560.5,365.5 546.58,356.85 546.64,350.38 536.5,337.5 524.29,321.99 516.57,\
320.28 510.5,301.5 501.15,272.59 505.05,236.48 508.46,216.52"];
	30	 [URL="http://lattes.cnpq.br/8155612498783539",
		color="#17272B",
		fontcolor="#FFFFFF",
		height=0.23611,
		label="Izabelle M. Napoleão Albuquerque [8]",
		pos="690.5,264.5",
		width=1.9583];
	32 -> 30	 [arrowhead=normal,
		arrowsize=0.75,
		fontsize=8,
		label=0.17,
		lp="664,328.5",
		penwidth=1.01,
		pos="e,683.63,273.21 660.07,383.75 656.26,370.37 649.96,342.16 656.5,319.5 660.83,304.48 670.72,289.61 678.72,279.29"];
	28	 [URL="http://lattes.cnpq.br/9270913804724785",
		color="#17272B",
		fontcolor="#FFFFFF",
		height=0.23611,
		label="Cibelly A. S. Lima Freitas [8]",
		pos="785.5,328.5",
		width=1.5556];
	32 -> 28	 [arrowhead=normal,
		arrowsize=0.75,
		fontsize=8,
		label=0.13,
		lp="736,360.5",
		penwidth=0.89,
		pos="e,768.14,337.03 675.75,383.91 688.97,376.42 709.94,364.78 728.5,355.5 739.07,350.22 750.93,344.73 761.09,340.17"];
	31 -> 32	 [arrowhead=normal,
		arrowsize=0.75,
		fontsize=8,
		label=0.07,
		lp="1033,232.5",
		penwidth=0.71,
		pos="e,729.87,389.48 841.71,74.96 895.42,77.334 975.58,83.514 1001.5,99.5 1017.9,109.6 1025.5,116.27 1025.5,135.5 1025.5,329.5 1025.5,\
329.5 1025.5,329.5 1025.5,348.73 1018.1,355.78 1001.5,365.5 979.33,378.48 830.51,385.83 737.57,389.21"];
	31 -> 69	 [arrowhead=normal,
		arrowsize=0.75,
		fontsize=8,
		label=0.43,
		lp="747,104.5",
		penwidth=1.79,
		pos="e,674.61,127.99 776.53,81.045 762.34,88.601 739.65,100.38 719.5,109.5 707.21,115.06 693.36,120.68 681.62,125.27"];
	31 -> 30	 [arrowhead=normal,
		arrowsize=0.75,
		fontsize=8,
		label=0.21,
		lp="808,168.5",
		penwidth=1.13,
		pos="e,741.88,255.88 792.51,81.319 798.7,107.45 814.67,192.62 772.5,237.5 766.04,244.37 757.79,249.43 749.01,253.16"];
	31 -> 28	 [arrowhead=normal,
		arrowsize=0.75,
		fontsize=8,
		label=0.21,
		lp="952,200.5",
		penwidth=1.13,
		pos="e,841.56,327.51 841.78,73.844 886.58,77.183 944.5,90.25 944.5,135.5 944.5,265.5 944.5,265.5 944.5,265.5 944.5,308.49 893.42,322.67 \
849.16,326.88"];
	22	 [URL="http://lattes.cnpq.br/7385143792598274",
		color="#17272B",
		fontcolor="#FFFFFF",
		height=0.23611,
		label="Maria A. Monteiro da Silva [3]",
		pos="698.5,8.5",
		width=1.6111];
	31 -> 22	 [arrowhead=normal,
		arrowsize=0.75,
		fontsize=8,
		label=0.07,
		lp="735,40.5",
		penwidth=0.71,
		pos="e,702.96,17.053 764.14,63.942 752.22,59.723 738.4,53.648 727.5,45.5 719.43,39.465 712.3,30.69 707.13,23.314"];
	69 -> 32	 [arrowhead=normal,
		arrowsize=0.75,
		fontsize=8,
		label=0.44,
		lp="603,264.5",
		penwidth=1.82,
		pos="e,656.23,383.84 647.08,145.17 628.42,165.41 581.96,222.24 595.5,273.5 606.41,314.81 635.49,356.82 651.52,377.79"];
	69 -> 31	 [arrowhead=normal,
		arrowsize=0.75,
		fontsize=8,
		label=0.18,
		lp="708,104.5",
		penwidth=1.04,
		pos="e,752.5,81.053 662.32,127.83 670.98,119.72 685.69,107.07 700.5,99.5 714.31,92.438 730.32,87.03 744.98,83.023"];
	69 -> 25	 [arrowhead=normal,
		arrowsize=0.75,
		fontsize=8,
		label=0.09,
		lp="572,168.5",
		penwidth=0.77,
		pos="e,520.72,191.9 618.95,145.02 602,149.29 581.72,155.41 564.5,163.5 550.95,169.86 537.01,179.48 526.82,187.17"];
	69 -> 30	 [arrowhead=normal,
		arrowsize=0.75,
		fontsize=8,
		label=0.03,
		lp="685,200.5",
		penwidth=0.59,
		pos="e,688.83,255.89 657.71,145.15 659.79,150.29 662.49,157.24 664.5,163.5 674.05,193.24 682.64,228.79 687.15,248.48"];
	69 -> 28	 [arrowhead=normal,
		arrowsize=0.75,
		fontsize=8,
		label=0.12,
		lp="841,232.5",
		penwidth=0.86,
		pos="e,790.96,319.88 709.52,138.72 751.87,140.96 805.46,147.08 819.5,163.5 857.11,207.5 815.68,282.22 795.38,313.29"];
	69 -> 22	 [arrowhead=normal,
		arrowsize=0.75,
		fontsize=8,
		label=0.15,
		lp="663,72.5",
		penwidth=0.95,
		pos="e,689.52,17.193 653,127.64 650.76,114.09 647.59,85.632 655.5,63.5 661.23,47.462 673.85,32.59 683.94,22.531"];
	25 -> 32	 [arrowhead=normal,
		arrowsize=0.75,
		fontsize=8,
		label=0.17,
		lp="540,296.5",
		penwidth=1.01,
		pos="e,606.43,383.93 512.01,209.35 514.14,235.6 524.62,321.08 572.5,365.5 580.08,372.53 589.44,377.67 599.24,381.43"];
	25 -> 69	 [arrowhead=normal,
		arrowsize=0.75,
		fontsize=8,
		label=0.5,
		lp="532,168.5",
		penwidth=2.0,
		pos="e,599.25,143.54 512.54,191.93 514.09,183.66 517.82,170.64 526.5,163.5 536.79,155.04 564.58,148.87 591.65,144.67"];
	25 -> 30	 [arrowhead=normal,
		arrowsize=0.75,
		fontsize=8,
		label=0.33,
		lp="620,232.5",
		penwidth=1.49,
		pos="e,668.55,255.9 533.35,209.07 565.45,220.19 625.43,240.96 661.28,253.38"];
	30 -> 32	 [arrowhead=normal,
		arrowsize=0.75,
		fontsize=8,
		label=0.31,
		lp="686,328.5",
		penwidth=1.43,
		pos="e,664.17,384 688.81,273.12 684.27,293.53 671.8,349.65 665.8,376.63"];
	30 -> 31	 [arrowhead=normal,
		arrowsize=0.75,
		fontsize=8,
		label=0.19,
		lp="780,168.5",
		penwidth=1.07,
		pos="e,788.93,81.328 727.72,255.96 738.39,252.09 749.12,246.26 756.5,237.5 757.71,236.06 779.25,129.46 787.4,88.915"];
	30 -> 69	 [arrowhead=normal,
		arrowsize=0.75,
		fontsize=8,
		label=0.06,
		lp="661,200.5",
		penwidth=0.68,
		pos="e,652.85,145.29 683.03,255.9 674,246.13 659.28,228.17 653.5,209.5 647.69,190.73 649.39,167.87 651.57,153.02"];
	30 -> 25	 [arrowhead=normal,
		arrowsize=0.75,
		fontsize=8,
		label=0.13,
		lp="579,232.5",
		penwidth=0.89,
		pos="e,522,209.26 638.75,255.98 617.45,251.92 592.83,245.96 571.5,237.5 556.02,231.36 539.91,221.47 528.29,213.61"];
	30 -> 28	 [arrowhead=normal,
		arrowsize=0.75,
		fontsize=8,
		label=0.31,
		lp="759,296.5",
		penwidth=1.43,
		pos="e,776.22,319.93 705.63,273.18 714.99,278.11 727.17,284.81 737.5,291.5 748.87,298.86 761.07,308.03 770.32,315.27"];
	28 -> 32	 [arrowhead=normal,
		arrowsize=0.75,
		fontsize=8,
		label=0.25,
		lp="768,360.5",
		penwidth=1.25,
		pos="e,700.44,383.89 779.29,337.2 772.35,345.33 760.38,358 747.5,365.5 735.35,372.58 721.08,377.91 707.74,381.85"];
	28 -> 31	 [arrowhead=normal,
		arrowsize=0.75,
		fontsize=8,
		label=0.19,
		lp="901,200.5",
		penwidth=1.07,
		pos="e,830.91,81.043 830.05,320 859.8,312.14 893.5,296.42 893.5,265.5 893.5,265.5 893.5,265.5 893.5,135.5 893.5,107.55 865.32,91.877 \
838.44,83.284"];
	28 -> 69	 [arrowhead=normal,
		arrowsize=0.75,
		fontsize=8,
		label=0.25,
		lp="766,232.5",
		penwidth=1.25,
		pos="e,665.4,145.25 785.16,319.88 784.26,306.21 781.03,276.92 769.5,255.5 744.86,209.72 697.24,169.46 671.69,149.97"];
	28 -> 30	 [arrowhead=normal,
		arrowsize=0.75,
		fontsize=8,
		label=0.31,
		lp="730,296.5",
		penwidth=1.43,
		pos="e,695.6,273.03 759.93,319.92 747.91,315.64 733.79,309.52 722.5,301.5 713.94,295.42 706.08,286.64 700.29,279.28"];
	22 -> 31	 [arrowhead=normal,
		arrowsize=0.75,
		fontsize=8,
		label=0.17,
		lp="767,40.5",
		penwidth=1.01,
		pos="e,782.11,63.822 714.5,17.206 724.05,22.037 736.27,28.634 746.5,35.5 756.95,42.513 767.9,51.47 776.27,58.695"];
	22 -> 69	 [arrowhead=normal,
		arrowsize=0.75,
		fontsize=8,
		label=0.83,
		lp="687,72.5",
		penwidth=2.99,
		pos="e,657.12,128 695.84,17.125 688.71,37.527 669.12,93.645 659.69,120.63"];
	6	 [URL="http://lattes.cnpq.br/9516354961432684",
		color="#17272B",
		fontcolor="#FFFFFF",
		height=0.23611,
		label="Márcia V. Alves Saraiva [2]",
		pos="917.5,456.5",
		width=1.4861];
	56	 [URL="http://lattes.cnpq.br/7013269523847698",
		color="#17272B",
		fontcolor="#FFFFFF",
		height=0.23611,
		label="José R. Viana Silva [2]",
		pos="917.5,392.5",
		width=1.25];
	6 -> 56	 [arrowhead=normal,
		arrowsize=0.75,
		fontsize=8,
		label=1.0,
		lp="907,424.5",
		penwidth=3.5,
		pos="e,910.54,401.26 911.22,447.85 907.6,442.93 903.41,436.23 901.5,429.5 899.39,422.06 902.27,414.16 906.14,407.67"];
	56 -> 6	 [arrowhead=normal,
		arrowsize=0.75,
		fontsize=8,
		label=1.0,
		lp="923,424.5",
		penwidth=3.5,
		pos="e,917.5,447.9 917.5,401.16 917.5,410.86 917.5,427.8 917.5,440.19"];
	7	 [URL="http://lattes.cnpq.br/3193698890688967",
		color="#17272B",
		fontcolor="#FFFFFF",
		height=0.23611,
		label="Karuza M. Alves Pereira [1]",
		pos="1248.5,456.5",
		width=1.4861];
	19	 [URL="http://lattes.cnpq.br/1918056067943429",
		color="#17272B",
		fontcolor="#FFFFFF",
		height=0.23611,
		label="Rodrigo M. Silva da Cunha [1]",
		pos="1129.5,392.5",
		width=1.6111];
	7 -> 19	 [arrowhead=normal,
		arrowsize=0.75,
		fontsize=8,
		label=0.17,
		lp="1157,424.5",
		penwidth=1.01,
		pos="e,1131.7,401.02 1195.1,449.63 1179.2,445.84 1162.6,439.64 1149.5,429.5 1142.6,424.15 1137.8,415.74 1134.5,408.38"];
	62	 [URL="http://lattes.cnpq.br/0614961188016863",
		color="#17272B",
		fontcolor="#FFFFFF",
		height=0.23611,
		label="Mirna Marques Bezerra [3]",
		pos="1219.5,264.5",
		width=1.4444];
	7 -> 62	 [arrowhead=normal,
		arrowsize=0.75,
		fontsize=8,
		label=0.42,
		lp="1303,360.5",
		penwidth=1.76,
		pos="e,1236.2,273.03 1254.6,447.8 1270.5,426.54 1310.9,365.52 1288.5,319.5 1279.1,300.12 1258.9,285.64 1242.8,276.58"];
	65	 [URL="http://lattes.cnpq.br/3839272083508826",
		color="#17272B",
		fontcolor="#FFFFFF",
		height=0.23611,
		label="Norma M. Barros Benevides [1]",
		pos="1219.5,328.5",
		width=1.6667];
	7 -> 65	 [arrowhead=normal,
		arrowsize=0.75,
		fontsize=8,
		label=0.42,
		lp="1256,392.5",
		penwidth=1.76,
		pos="e,1226.1,337.18 1249.1,447.87 1250,430.66 1250.8,387.79 1237.5,355.5 1235.8,351.31 1233.3,347.12 1230.7,343.37"];
	19 -> 7	 [arrowhead=normal,
		arrowsize=0.75,
		fontsize=8,
		label=0.33,
		lp="1202,424.5",
		penwidth=1.49,
		pos="e,1231.8,447.78 1142.8,401.17 1155.9,408.62 1176.4,420.14 1194.5,429.5 1204.4,434.6 1215.4,439.97 1224.9,444.5"];
	19 -> 62	 [arrowhead=normal,
		arrowsize=0.75,
		fontsize=8,
		label=0.33,
		lp="1093,328.5",
		penwidth=1.49,
		pos="e,1167.4,268.63 1119.1,383.85 1103.4,371.25 1076.4,345.01 1085.5,319.5 1096.2,289.57 1129.2,276.04 1159.7,270.01"];
	19 -> 65	 [arrowhead=normal,
		arrowsize=0.75,
		fontsize=8,
		label=0.33,
		lp="1193,360.5",
		penwidth=1.49,
		pos="e,1209.8,337.21 1142.6,383.83 1150.9,378.8 1162,371.98 1171.5,365.5 1182.4,358.03 1194.4,349.1 1203.6,342.01"];
	62 -> 7	 [arrowhead=normal,
		arrowsize=0.75,
		fontsize=8,
		label=0.28,
		lp="1323,360.5",
		penwidth=1.34,
		pos="e,1261.9,447.78 1247.8,273.06 1259.9,277.21 1273.7,283.22 1284.5,291.5 1309.4,310.61 1310.7,324.32 1314.5,355.5 1318.8,390.72 1308.2,\
403.11 1284.5,429.5 1279.8,434.69 1274,439.46 1268.3,443.46"];
	62 -> 19	 [arrowhead=normal,
		arrowsize=0.75,
		fontsize=8,
		label=0.11,
		lp="1143,328.5",
		penwidth=0.83,
		pos="e,1128,383.68 1197.8,273.02 1177.9,281.15 1149.5,296.17 1135.5,319.5 1125.1,336.73 1125.4,360.62 1127,376.07"];
	62 -> 65	 [arrowhead=normal,
		arrowsize=0.75,
		fontsize=8,
		label=0.28,
		lp="1227,296.5",
		penwidth=1.34,
		pos="e,1219.5,319.9 1219.5,273.16 1219.5,282.86 1219.5,299.8 1219.5,312.19"];
	41	 [URL="http://lattes.cnpq.br/6899498686139516",
		color="#17272B",
		fontcolor="#FFFFFF",
		height=0.23611,
		label="Vicente de P. Teixeira Pinto [1]",
		pos="1219.5,200.5",
		width=1.6389];
	62 -> 41	 [arrowhead=normal,
		arrowsize=0.75,
		fontsize=8,
		label=0.33,
		lp="1208,232.5",
		penwidth=1.49,
		pos="e,1211.2,209.16 1211.7,255.6 1207.5,250.8 1202.7,244.3 1200.5,237.5 1198,229.74 1201.6,221.65 1206.3,215.12"];
	65 -> 7	 [arrowhead=normal,
		arrowsize=0.75,
		fontsize=8,
		label=0.42,
		lp="1235,392.5",
		penwidth=1.76,
		pos="e,1244.7,447.66 1219.7,337.18 1220.2,350.47 1221.9,378.54 1227.5,401.5 1230.9,415.18 1236.8,430.05 1241.5,440.71"];
	65 -> 19	 [arrowhead=normal,
		arrowsize=0.75,
		fontsize=8,
		label=0.17,
		lp="1160,360.5",
		penwidth=1.01,
		pos="e,1132.6,383.88 1188.3,337.07 1176.2,341.11 1162.8,347.04 1152.5,355.5 1145.4,361.28 1139.9,369.82 1136,377.13"];
	65 -> 62	 [arrowhead=normal,
		arrowsize=0.75,
		fontsize=8,
		label=0.42,
		lp="1208,296.5",
		penwidth=1.76,
		pos="e,1211.2,273.16 1211.7,319.6 1207.5,314.8 1202.7,308.3 1200.5,301.5 1198,293.74 1201.6,285.65 1206.3,279.12"];
	41 -> 62	 [arrowhead=normal,
		arrowsize=0.75,
		fontsize=8,
		label=1.0,
		lp="1225,232.5",
		penwidth=3.5,
		pos="e,1219.5,255.9 1219.5,209.16 1219.5,218.86 1219.5,235.8 1219.5,248.19"];
	8	 [URL="http://lattes.cnpq.br/0430275226558223",
		color="#17272B",
		fontcolor="#FFFFFF",
		height=0.23611,
		label="Leonardo Damasceno de Sá [0]",
		pos="1378.5,456.5",
		width=1.625];
	9	 [URL="http://lattes.cnpq.br/5941161934316711",
		color="#17272B",
		fontcolor="#FFFFFF",
		height=0.23611,
		label="Maria Elias Soares [0]",
		pos="1499.5,456.5",
		width=1.2222];
	10	 [URL="http://lattes.cnpq.br/8957236315615454",
		color="#17272B",
		fontcolor="#FFFFFF",
		height=0.23611,
		label="Maria do S. Rodrigues de Sousa [0]",
		pos="1627.5,456.5",
		width=1.8194];
	11	 [URL="http://lattes.cnpq.br/3993754230332852",
		color="#17272B",
		fontcolor="#FFFFFF",
		height=0.23611,
		label="Andre Jalles Monteiro [0]",
		pos="1760.5,456.5",
		width=1.375];
	12	 [URL="http://lattes.cnpq.br/8799551213988584",
		color="#17272B",
		fontcolor="#FFFFFF",
		height=0.23611,
		label="Vicente Lima Crisóstomo [0]",
		pos="1883.5,456.5",
		width=1.5278];
	13	 [URL="http://lattes.cnpq.br/2149928021922564",
		color="#17272B",
		fontcolor="#FFFFFF",
		height=0.23611,
		label="Alberto Sampaio Lima [2]",
		pos="2007.5,456.5",
		width=1.4028];
	14	 [URL="http://lattes.cnpq.br/0506346607081493",
		color="#17272B",
		fontcolor="#FFFFFF",
		height=0.23611,
		label="Wagner Bandeira Andriola [2]",
		pos="2007.5,392.5",
		width=1.5833];
	13 -> 14	 [arrowhead=normal,
		arrowsize=0.75,
		fontsize=8,
		label=1.0,
		lp="1997,424.5",
		penwidth=3.5,
		pos="e,2000.5,401.26 2001.2,447.85 1997.6,442.93 1993.4,436.23 1991.5,429.5 1989.4,422.06 1992.3,414.16 1996.1,407.67"];
	14 -> 13	 [arrowhead=normal,
		arrowsize=0.75,
		fontsize=8,
		label=1.0,
		lp="2013,424.5",
		penwidth=3.5,
		pos="e,2007.5,447.9 2007.5,401.16 2007.5,410.86 2007.5,427.8 2007.5,440.19"];
	15	 [URL="http://lattes.cnpq.br/0145509726999114",
		color="#17272B",
		fontcolor="#FFFFFF",
		height=0.23611,
		label="Maxweel Veras Rodrigues [1]",
		pos="2146.5,456.5",
		width=1.5694];
	66	 [URL="http://lattes.cnpq.br/5234277371908895",
		color="#17272B",
		fontcolor="#FFFFFF",
		height=0.23611,
		label="Joao W. Carneiro Alexandre [1]",
		pos="2142.5,392.5",
		width=1.6528];
	15 -> 66	 [arrowhead=normal,
		arrowsize=0.75,
		fontsize=8,
		label=1.0,
		lp="2136,424.5",
		penwidth=3.5,
		pos="e,2137.2,401.16 2140.2,447.85 2136.6,442.93 2132.4,436.23 2130.5,429.5 2128.5,422.39 2130.5,414.6 2133.5,408.1"];
	66 -> 15	 [arrowhead=normal,
		arrowsize=0.75,
		fontsize=8,
		label=1.0,
		lp="2151,424.5",
		penwidth=3.5,
		pos="e,2146,447.9 2143,401.16 2143.6,410.86 2144.7,427.8 2145.5,440.19"];
	16	 [URL="http://lattes.cnpq.br/1962466876884560",
		color="#17272B",
		fontcolor="#FFFFFF",
		height=0.23611,
		label="Sueli M. de Araújo Cavalcante [0]",
		pos="2284.5,456.5",
		width=1.7639];
	17	 [URL="http://lattes.cnpq.br/4257594561432768",
		color="#17272B",
		fontcolor="#FFFFFF",
		height=0.23611,
		label="Eloisa Maia Vidal [0]",
		pos="2409.5,456.5",
		width=1.1944];
	18	 [URL="http://lattes.cnpq.br/8992341585329383",
		color="#17272B",
		fontcolor="#FFFFFF",
		height=0.23611,
		label="Virginia Bentes Pinto [0]",
		pos="2519.5,456.5",
		width=1.3472];
	20	 [URL="http://lattes.cnpq.br/3883239297819453",
		color="#17272B",
		fontcolor="#FFFFFF",
		height=0.23611,
		label="Andre Haguette [0]",
		pos="2625.5,456.5",
		width=1.0972];
	21	 [URL="http://lattes.cnpq.br/6087042073634790",
		color="#17272B",
		fontcolor="#FFFFFF",
		height=0.23611,
		label="Francisco P. Nogueira Arcanjo [0]",
		pos="2746.5,456.5",
		width=1.7639];
	23	 [URL="http://lattes.cnpq.br/4138758876612437",
		color="#17272B",
		fontcolor="#FFFFFF",
		height=0.23611,
		label="Luiz O. Monteiro de Andrade [0]",
		pos="2889.5,456.5",
		width=1.7083];
	24	 [URL="http://lattes.cnpq.br/2222107613838755",
		color="#17272B",
		fontcolor="#FFFFFF",
		height=0.23611,
		label="Percy A. Galimbertti Catanio [0]",
		pos="3030.5,456.5",
		width=1.6944];
	26	 [URL="http://lattes.cnpq.br/8444547145601106",
		color="#17272B",
		fontcolor="#FFFFFF",
		height=0.23611,
		label="Camilla A. Lopes Vieira [1]",
		pos="3162.5,456.5",
		width=1.4722];
	29	 [URL="http://lattes.cnpq.br/1065956470701739",
		color="#17272B",
		fontcolor="#FFFFFF",
		height=0.23611,
		label="Deborah Christina Antunes [1]",
		pos="3162.5,392.5",
		width=1.5972];
	26 -> 29	 [arrowhead=normal,
		arrowsize=0.75,
		fontsize=8,
		label=1.0,
		lp="3152,424.5",
		penwidth=3.5,
		pos="e,3155.5,401.26 3156.2,447.85 3152.6,442.93 3148.4,436.23 3146.5,429.5 3144.4,422.06 3147.3,414.16 3151.1,407.67"];
	29 -> 26	 [arrowhead=normal,
		arrowsize=0.75,
		fontsize=8,
		label=1.0,
		lp="3168,424.5",
		penwidth=3.5,
		pos="e,3162.5,447.9 3162.5,401.16 3162.5,410.86 3162.5,427.8 3162.5,440.19"];
	27	 [URL="http://lattes.cnpq.br/7174269574652869",
		color="#17272B",
		fontcolor="#FFFFFF",
		height=0.23611,
		label="Luis A. Rodrigues Furtado [0]",
		pos="3290.5,456.5",
		width=1.5833];
	33	 [URL="http://lattes.cnpq.br/4989617783837981",
		color="#17272B",
		fontcolor="#FFFFFF",
		height=0.23611,
		label="Ana L. Figueiredo Porto [0]",
		pos="3418.5,456.5",
		width=1.4722];
	35	 [URL="http://lattes.cnpq.br/2834403735297272",
		color="#17272B",
		fontcolor="#FFFFFF",
		height=0.23611,
		label="José L. de Lima Filho [0]",
		pos="3538.5,456.5",
		width=1.3611];
	36	 [URL="http://lattes.cnpq.br/4999713109630711",
		color="#17272B",
		fontcolor="#FFFFFF",
		height=0.23611,
		label="Kyria Santiago do Nascimento [11]",
		pos="3670.5,456.5",
		width=1.8056];
	37	 [URL="http://lattes.cnpq.br/7732407650135099",
		color="#17272B",
		fontcolor="#FFFFFF",
		height=0.23611,
		label="Celso Shiniti Nagano [7]",
		pos="3561.5,392.5",
		width=1.3333];
	36 -> 37	 [arrowhead=normal,
		arrowsize=0.75,
		fontsize=8,
		label=0.26,
		lp="3578,424.5",
		penwidth=1.28,
		pos="e,3561.3,401.2 3605.4,449.22 3592.5,445.25 3580,439.06 3570.5,429.5 3565.2,424.11 3562.8,416.05 3561.9,408.92"];
	42	 [URL="http://lattes.cnpq.br/5029704662813380",
		color="#17272B",
		fontcolor="#FFFFFF",
		height=0.23611,
		label="Benildo Sousa Cavada [13]",
		pos="3640.5,264.5",
		width=1.4444];
	36 -> 42	 [arrowhead=normal,
		arrowsize=0.75,
		fontsize=8,
		label=0.67,
		lp="3720,360.5",
		penwidth=2.51,
		pos="e,3656,273.13 3676,447.79 3690.5,426.5 3727,365.41 3705.5,319.5 3696.7,300.73 3677.8,286.22 3662.6,277"];
	61	 [URL="http://lattes.cnpq.br/8248342079629374",
		color="#17272B",
		fontcolor="#FFFFFF",
		height=0.23611,
		label="Bruno A. Matias da Rocha [4]",
		pos="3640.5,328.5",
		width=1.5694];
	36 -> 61	 [arrowhead=normal,
		arrowsize=0.75,
		fontsize=8,
		label=0.08,
		lp="3678,392.5",
		penwidth=0.74,
		pos="e,3647.5,337.11 3671.1,447.85 3672.2,430.59 3673.2,387.62 3659.5,355.5 3657.6,351.15 3654.9,346.84 3652.2,343.01"];
	37 -> 36	 [arrowhead=normal,
		arrowsize=0.75,
		fontsize=8,
		label=0.35,
		lp="3624,424.5",
		penwidth=1.55,
		pos="e,3653.2,447.86 3572.2,401.1 3583.1,408.7 3600.6,420.52 3616.5,429.5 3626,434.88 3636.8,440.23 3646.3,444.67"];
	37 -> 42	 [arrowhead=normal,
		arrowsize=0.75,
		fontsize=8,
		label=0.48,
		lp="3515,328.5",
		penwidth=1.94,
		pos="e,3588.5,268.82 3548.5,383.84 3529.6,371.64 3497.9,346.42 3507.5,319.5 3518.1,289.87 3550.6,276.33 3580.8,270.22"];
	37 -> 61	 [arrowhead=normal,
		arrowsize=0.75,
		fontsize=8,
		label=0.17,
		lp="3614,360.5",
		penwidth=1.01,
		pos="e,3630.7,337.16 3571.2,383.9 3584.5,373.49 3608.4,354.65 3624.4,342.11"];
	42 -> 36	 [arrowhead=normal,
		arrowsize=0.75,
		fontsize=8,
		label=0.56,
		lp="3740,360.5",
		penwidth=2.18,
		pos="e,3683,448 3667.3,273.07 3678.9,277.24 3692.2,283.27 3702.5,291.5 3726.9,310.99 3727.7,324.51 3731.5,355.5 3735.8,390.25 3726.8,\
402.52 3704.5,429.5 3700.1,434.77 3694.5,439.61 3689.1,443.65"];
	42 -> 37	 [arrowhead=normal,
		arrowsize=0.75,
		fontsize=8,
		label=0.29,
		lp="3567,328.5",
		penwidth=1.37,
		pos="e,3558.9,383.79 3618.8,273.14 3599.3,281.29 3571.9,296.25 3559.5,319.5 3550,337.17 3553.2,360.95 3556.9,376.25"];
	42 -> 61	 [arrowhead=normal,
		arrowsize=0.75,
		fontsize=8,
		label=0.14,
		lp="3648,296.5",
		penwidth=0.92,
		pos="e,3640.5,319.9 3640.5,273.16 3640.5,282.86 3640.5,299.8 3640.5,312.19"];
	61 -> 36	 [arrowhead=normal,
		arrowsize=0.75,
		fontsize=8,
		label=0.21,
		lp="3657,392.5",
		penwidth=1.13,
		pos="e,3666.7,447.65 3640.8,337.18 3641.6,350.47 3643.7,378.54 3649.5,401.5 3653,415.15 3658.9,430.03 3663.6,440.7"];
	61 -> 37	 [arrowhead=normal,
		arrowsize=0.75,
		fontsize=8,
		label=0.33,
		lp="3585,360.5",
		penwidth=1.49,
		pos="e,3563.1,383.93 3609.6,337.03 3598.4,341.02 3586.3,346.92 3577.5,355.5 3571.7,361.12 3567.9,369.2 3565.4,376.28"];
	61 -> 42	 [arrowhead=normal,
		arrowsize=0.75,
		fontsize=8,
		label=0.46,
		lp="3629,296.5",
		penwidth=1.88,
		pos="e,3632.2,273.16 3632.7,319.6 3628.5,314.8 3623.7,308.3 3621.5,301.5 3619,293.74 3622.6,285.65 3627.3,279.12"];
	38	 [URL="http://lattes.cnpq.br/4856342729161082",
		color="#17272B",
		fontcolor="#FFFFFF",
		height=0.23611,
		label="Paulo V. Alves Carneiro [0]",
		pos="3806.5,456.5",
		width=1.4722];
	39	 [URL="http://lattes.cnpq.br/6177966440557388",
		color="#17272B",
		fontcolor="#FFFFFF",
		height=0.23611,
		label="Jose R. Vasconcelos da Graca [0]",
		pos="3939.5,456.5",
		width=1.7222];
	40	 [URL="http://lattes.cnpq.br/3982243706104818",
		color="#17272B",
		fontcolor="#FFFFFF",
		height=0.23611,
		label="Marcelo de Miranda Melo [0]",
		pos="4075.5,456.5",
		width=1.5556];
	43	 [URL="http://lattes.cnpq.br/6672867433887720",
		color="#17272B",
		fontcolor="#FFFFFF",
		height=0.23611,
		label="Christian D. Monteiro de Oliveira [0]",
		pos="4217.5,456.5",
		width=1.8889];
	44	 [URL="http://lattes.cnpq.br/9262063602399799",
		color="#17272B",
		fontcolor="#FFFFFF",
		height=0.23611,
		label="Maria D. de Brito Mota [0]",
		pos="4355.5,456.5",
		width=1.4444];
	45	 [URL="http://lattes.cnpq.br/7986697292459304",
		color="#17272B",
		fontcolor="#FFFFFF",
		height=0.23611,
		label="Fernando J. Pires de Sousa [0]",
		pos="4482.5,456.5",
		width=1.5833];
	46	 [URL="http://lattes.cnpq.br/6222392839472168",
		color="#17272B",
		fontcolor="#FFFFFF",
		height=0.23611,
		label="Carlos A. Leite Moreira [0]",
		pos="4610.5,456.5",
		width=1.4583];
	47	 [URL="http://lattes.cnpq.br/5941867047206757",
		color="#17272B",
		fontcolor="#FFFFFF",
		height=0.23611,
		label="Alba M. Pinho de Carvalho [0]",
		pos="4739.5,456.5",
		width=1.6111];
	48	 [URL="http://lattes.cnpq.br/4445388887592052",
		color="#17272B",
		fontcolor="#FFFFFF",
		height=0.23611,
		label="Elza M. Franco Braga [0]",
		pos="4864.5,456.5",
		width=1.3611];
	49	 [URL="http://lattes.cnpq.br/6074006170274002",
		color="#17272B",
		fontcolor="#FFFFFF",
		height=0.23611,
		label="Francisca S. de Sousa Monte [0]",
		pos="4991.5,456.5",
		width=1.6667];
	50	 [URL="http://lattes.cnpq.br/6362352492858096",
		color="#17272B",
		fontcolor="#FFFFFF",
		height=0.23611,
		label="Rejane Batista Vasconcelos [0]",
		pos="5128.5,456.5",
		width=1.625];
	51	 [URL="http://lattes.cnpq.br/7306722117822350",
		color="#17272B",
		fontcolor="#FFFFFF",
		height=0.23611,
		label="Alcides Fernando Gussi [1]",
		pos="5257.5,456.5",
		width=1.4583];
	54	 [URL="http://lattes.cnpq.br/8758840770361071",
		color="#17272B",
		fontcolor="#FFFFFF",
		height=0.23611,
		label="Lea Carvalho Rodrigues [1]",
		pos="5257.5,392.5",
		width=1.4722];
	51 -> 54	 [arrowhead=normal,
		arrowsize=0.75,
		fontsize=8,
		label=1.0,
		lp="5247,424.5",
		penwidth=3.5,
		pos="e,5250.5,401.26 5251.2,447.85 5247.6,442.93 5243.4,436.23 5241.5,429.5 5239.4,422.06 5242.3,414.16 5246.1,407.67"];
	54 -> 51	 [arrowhead=normal,
		arrowsize=0.75,
		fontsize=8,
		label=1.0,
		lp="5263,424.5",
		penwidth=3.5,
		pos="e,5257.5,447.9 5257.5,401.16 5257.5,410.86 5257.5,427.8 5257.5,440.19"];
	52	 [URL="http://lattes.cnpq.br/2352567866641388",
		color="#17272B",
		fontcolor="#FFFFFF",
		height=0.23611,
		label="Elione M. Nogueira Diogenes [0]",
		pos="5390.5,456.5",
		width=1.7222];
	53	 [URL="http://lattes.cnpq.br/9529052562255476",
		color="#17272B",
		fontcolor="#FFFFFF",
		height=0.23611,
		label="Gema G. S. Leite Esmeraldo [0]",
		pos="5530.5,456.5",
		width=1.6667];
	55	 [URL="http://lattes.cnpq.br/3048795266534895",
		color="#17272B",
		fontcolor="#FFFFFF",
		height=0.23611,
		label="Luiz A. Maciel de Paula [0]",
		pos="5661.5,456.5",
		width=1.4722];
	57	 [URL="http://lattes.cnpq.br/1810849698154444",
		color="#17272B",
		fontcolor="#FFFFFF",
		height=0.23611,
		label="Antonio A. Rodrigues e Silva [0]",
		pos="5794.5,456.5",
		width=1.7083];
	58	 [URL="http://lattes.cnpq.br/3660059315904005",
		color="#17272B",
		fontcolor="#FFFFFF",
		height=0.23611,
		label="Carla T. Vasconcelos de Melo [0]",
		pos="5936.5,456.5",
		width=1.7361];
	59	 [URL="http://lattes.cnpq.br/0156118338258425",
		color="#17272B",
		fontcolor="#FFFFFF",
		height=0.23611,
		label="André L. Coelho da Silva [0]",
		pos="6072.5,456.5",
		width=1.5278];
	60	 [URL="http://lattes.cnpq.br/4451863190439405",
		color="#17272B",
		fontcolor="#FFFFFF",
		height=0.23611,
		label="Ricardo Pires dos Santos [0]",
		pos="6199.5,456.5",
		width=1.5];
	63	 [URL="http://lattes.cnpq.br/6492671109544154",
		color="#17272B",
		fontcolor="#FFFFFF",
		height=0.23611,
		label="Eduardo Girao Santiago [0]",
		pos="6324.5,456.5",
		width=1.4583];
	64	 [URL="http://lattes.cnpq.br/7275712282541003",
		color="#17272B",
		fontcolor="#FFFFFF",
		height=0.23611,
		label="José A. Farias Filho [0]",
		pos="6441.5,456.5",
		width=1.2778];
	67	 [URL="http://lattes.cnpq.br/1161853804012604",
		color="#17272B",
		fontcolor="#FFFFFF",
		height=0.23611,
		label="Roberta C. Muniz Lira [0]",
		pos="6556.5,456.5",
		width=1.4028];
	68	 [URL="http://lattes.cnpq.br/0926082188345417",
		color="#17272B",
		fontcolor="#FFFFFF",
		height=0.23611,
		label="Ivana C. de H. Cunha Barreto [0]",
		pos="6686.5,456.5",
		width=1.7083];
	70	 [URL="http://lattes.cnpq.br/5589121427880123",
		color="#17272B",
		fontcolor="#FFFFFF",
		height=0.23611,
		label="Paulo Roberto dos Santos [0]",
		pos="6821.5,456.5",
		width=1.5278];
}
