strict digraph grafo3 {
	graph [bb="0,0,3869.5,529",
		id=grafo3,
		overlap=False
	];
	node [fontsize=8,
		label="\N",
		shape=rectangle,
		style=filled
	];
	0	 [URL="http://lattes.cnpq.br/8929629898766359",
		color="#17272B",
		fontcolor="#FFFFFF",
		height=0.23611,
		label="Luísa A. Gachet Barbosa [6]",
		pos="962.5,520.5",
		width=1.5];
	47	 [URL="http://lattes.cnpq.br/9757080572695495",
		color="#17272B",
		fontcolor="#FFFFFF",
		height=0.23611,
		label="Wislei R. Ramos Osorio [1]",
		pos="962.5,456.5",
		width=1.4722];
	0 -> 47	 [arrowhead=normal,
		arrowsize=0.75,
		fontsize=8,
		label=0.08,
		lp="952,488.5",
		penwidth=0.74,
		pos="e,955.44,465.02 954.68,511.8 948.46,504.71 941.29,493.77 944.5,483.5 945.85,479.18 948.2,474.94 950.76,471.18"];
	52	 [URL="http://lattes.cnpq.br/3986122703645318",
		color="#17272B",
		fontcolor="#FFFFFF",
		height=0.23611,
		label="Rosa C. Cecche Lintz [7]",
		pos="962.5,392.5",
		width=1.3611];
	0 -> 52	 [arrowhead=normal,
		arrowsize=0.75,
		fontsize=8,
		label=0.92,
		lp="893,456.5",
		penwidth=3.26,
		pos="e,942.15,401.04 942.52,511.88 923.94,503.59 897.4,488.39 885.5,465.5 871.55,438.67 907.68,416.48 935.06,404.12"];
	47 -> 0	 [arrowhead=normal,
		arrowsize=0.75,
		fontsize=8,
		label=0.5,
		lp="968,488.5",
		penwidth=2.0,
		pos="e,962.5,511.9 962.5,465.16 962.5,474.86 962.5,491.8 962.5,504.19"];
	47 -> 52	 [arrowhead=normal,
		arrowsize=0.75,
		fontsize=8,
		label=0.5,
		lp="952,424.5",
		penwidth=2.0,
		pos="e,955.54,401.26 956.22,447.85 952.6,442.93 948.41,436.23 946.5,429.5 944.39,422.06 947.27,414.16 951.14,407.67"];
	52 -> 0	 [arrowhead=normal,
		arrowsize=0.75,
		fontsize=8,
		label=0.79,
		lp="1035,456.5",
		penwidth=2.87,
		pos="e,977.01,511.85 977.8,401.02 999.95,413.04 1037,438.02 1024.5,465.5 1016.2,483.81 998.22,498.33 983.77,507.68"];
	52 -> 47	 [arrowhead=normal,
		arrowsize=0.75,
		fontsize=8,
		label=0.07,
		lp="970,424.5",
		penwidth=0.71,
		pos="e,962.5,447.9 962.5,401.16 962.5,410.86 962.5,427.8 962.5,440.19"];
	8	 [URL="http://lattes.cnpq.br/6694143241761752",
		color="#17272B",
		fontcolor="#FFFFFF",
		height=0.23611,
		label="Carmenlucia S. Giordano Penteado [3]",
		pos="962.5,328.5",
		width=1.9583];
	52 -> 8	 [arrowhead=normal,
		arrowsize=0.75,
		fontsize=8,
		label=0.14,
		lp="951,360.5",
		penwidth=0.92,
		pos="e,954.25,337.16 954.67,383.6 950.47,378.8 945.72,372.3 943.5,365.5 940.97,357.74 944.59,349.65 949.32,343.12"];
	8 -> 52	 [arrowhead=normal,
		arrowsize=0.75,
		fontsize=8,
		label=0.33,
		lp="970,360.5",
		penwidth=1.49,
		pos="e,962.5,383.9 962.5,337.16 962.5,346.86 962.5,363.8 962.5,376.19"];
	50	 [URL="http://lattes.cnpq.br/5530984461673946",
		color="#17272B",
		fontcolor="#FFFFFF",
		height=0.23611,
		label="Simone Andréa Pozza [4]",
		pos="962.5,264.5",
		width=1.375];
	8 -> 50	 [arrowhead=normal,
		arrowsize=0.75,
		fontsize=8,
		label=0.67,
		lp="952,296.5",
		penwidth=2.51,
		pos="e,955.44,273.02 954.68,319.8 948.46,312.71 941.29,301.77 944.5,291.5 945.85,287.18 948.2,282.94 950.76,279.18"];
	50 -> 8	 [arrowhead=normal,
		arrowsize=0.75,
		fontsize=8,
		label=0.5,
		lp="968,296.5",
		penwidth=2.0,
		pos="e,962.5,319.9 962.5,273.16 962.5,282.86 962.5,299.8 962.5,312.19"];
	33	 [URL="http://lattes.cnpq.br/9070607576528017",
		color="#17272B",
		fontcolor="#FFFFFF",
		height=0.23611,
		label="Ana E. Antunes da Silva [4]",
		pos="768.5,200.5",
		width=1.4861];
	50 -> 33	 [arrowhead=normal,
		arrowsize=0.75,
		fontsize=8,
		label=0.13,
		lp="843,232.5",
		penwidth=0.89,
		pos="e,780.35,209.25 913.04,256.81 889.16,252.72 860.36,246.51 835.5,237.5 818.32,231.28 800.14,221.26 787.06,213.38"];
	40	 [URL="http://lattes.cnpq.br/0597865875425201",
		color="#17272B",
		fontcolor="#FFFFFF",
		height=0.23611,
		label="Guilherme Palermo Coelho [2]",
		pos="927.5,136.5",
		width=1.6111];
	50 -> 40	 [arrowhead=normal,
		arrowsize=0.75,
		fontsize=8,
		label=0.13,
		lp="950,200.5",
		penwidth=0.89,
		pos="e,928.71,145.16 959.29,255.93 954.99,245.59 947.36,226.41 942.5,209.5 936.95,190.22 932.56,167.47 930,152.79"];
	49	 [URL="http://lattes.cnpq.br/8764055579040640",
		color="#17272B",
		fontcolor="#FFFFFF",
		height=0.23611,
		label="Talía S. d. Santos Ximenes [1]",
		pos="1078.5,200.5",
		width=1.5833];
	50 -> 49	 [arrowhead=normal,
		arrowsize=0.75,
		fontsize=8,
		label=0.25,
		lp="1035,232.5",
		penwidth=1.25,
		pos="e,1064.2,209.16 976.72,255.9 996.9,245.11 1034,225.3 1057.4,212.79"];
	1	 [URL="http://lattes.cnpq.br/9412302739552855",
		color="#17272B",
		fontcolor="#FFFFFF",
		height=0.23611,
		label="Luís Fernando de Ávila [0]",
		pos="1086.5,520.5",
		width=1.4444];
	2	 [URL="http://lattes.cnpq.br/7266558656801036",
		color="#17272B",
		fontcolor="#FFFFFF",
		height=0.23611,
		label="Luis A. Angelotti Meira [0]",
		pos="1209.5,520.5",
		width=1.4583];
	3	 [URL="http://lattes.cnpq.br/7149846081415916",
		color="#17272B",
		fontcolor="#FFFFFF",
		height=0.23611,
		label="Lubienska C. L. Jaquiê Ribeiro [3]",
		pos="1344.5,520.5",
		width=1.7778];
	5	 [URL="http://lattes.cnpq.br/5571022514393377",
		color="#17272B",
		fontcolor="#FFFFFF",
		height=0.23611,
		label="Jose G. Pena de Andrade [1]",
		pos="1218.5,456.5",
		width=1.5];
	3 -> 5	 [arrowhead=normal,
		arrowsize=0.75,
		fontsize=8,
		label=0.33,
		lp="1239,488.5",
		penwidth=1.49,
		pos="e,1219.1,465.01 1289.8,511.96 1265.5,507.62 1240.5,501.44 1231.5,493.5 1225.6,488.24 1222.3,480.06 1220.6,472.83"];
	27	 [URL="http://lattes.cnpq.br/8266551989579822",
		color="#17272B",
		fontcolor="#FFFFFF",
		height=0.23611,
		label="Marta S. Guilherme Pires [1]",
		pos="1345.5,456.5",
		width=1.5278];
	3 -> 27	 [arrowhead=normal,
		arrowsize=0.75,
		fontsize=8,
		label=0.33,
		lp="1323,488.5",
		penwidth=1.49,
		pos="e,1332.3,465.13 1331.5,512 1321.6,505.21 1310.4,494.6 1315.5,483.5 1317.9,478.24 1321.9,473.64 1326.3,469.82"];
	53	 [URL="http://lattes.cnpq.br/7525387214456841",
		color="#17272B",
		fontcolor="#FFFFFF",
		height=0.23611,
		label="Ronalton Evandro Machado [1]",
		pos="1477.5,456.5",
		width=1.6389];
	3 -> 53	 [arrowhead=normal,
		arrowsize=0.75,
		fontsize=8,
		label=0.33,
		lp="1427,488.5",
		penwidth=1.49,
		pos="e,1461.1,465.16 1360.8,511.9 1384.1,501.02 1427.2,480.96 1454,468.47"];
	5 -> 3	 [arrowhead=normal,
		arrowsize=0.75,
		fontsize=8,
		label=1.0,
		lp="1295,488.5",
		penwidth=3.5,
		pos="e,1329,511.9 1234.1,465.16 1256.2,476.03 1296.7,495.97 1322,508.44"];
	27 -> 3	 [arrowhead=normal,
		arrowsize=0.75,
		fontsize=8,
		label=1.0,
		lp="1351,488.5",
		penwidth=3.5,
		pos="e,1344.6,511.9 1345.4,465.16 1345.2,474.86 1344.9,491.8 1344.7,504.19"];
	53 -> 3	 [arrowhead=normal,
		arrowsize=0.75,
		fontsize=8,
		label=1.0,
		lp="1459,488.5",
		penwidth=3.5,
		pos="e,1388.3,511.94 1471.1,465.26 1464,473.45 1451.7,486.15 1438.5,493.5 1425.4,500.79 1410.1,506.15 1395.7,510.04"];
	4	 [URL="http://lattes.cnpq.br/0847386182199613",
		color="#17272B",
		fontcolor="#FFFFFF",
		height=0.23611,
		label="Leonardo L. Bravo Roger [0]",
		pos="1490.5,520.5",
		width=1.5278];
	6	 [URL="http://lattes.cnpq.br/5495322642019035",
		color="#17272B",
		fontcolor="#FFFFFF",
		height=0.23611,
		label="Vitor Rafael Coluci [1]",
		pos="1613.5,520.5",
		width=1.2639];
	43	 [URL="http://lattes.cnpq.br/9246879554920774",
		color="#17272B",
		fontcolor="#FFFFFF",
		height=0.23611,
		label="Gisela de Aragão Umbuzeiro [8]",
		pos="1623.5,456.5",
		width=1.6806];
	6 -> 43	 [arrowhead=normal,
		arrowsize=0.75,
		fontsize=8,
		label=1.0,
		lp="1604,488.5",
		penwidth=3.5,
		pos="e,1613,465.14 1606.6,511.8 1601,504.52 1594.6,493.3 1598.5,483.5 1600.4,478.7 1603.7,474.28 1607.3,470.51"];
	43 -> 6	 [arrowhead=normal,
		arrowsize=0.75,
		fontsize=8,
		label=0.13,
		lp="1627,488.5",
		penwidth=0.89,
		pos="e,1614.7,511.9 1622.3,465.16 1620.7,474.86 1618,491.8 1616,504.19"];
	13	 [URL="http://lattes.cnpq.br/4898006494427762",
		color="#17272B",
		fontcolor="#FFFFFF",
		height=0.23611,
		label="Diego S. Teodoro Martinez [1]",
		pos="1319.5,392.5",
		width=1.6111];
	43 -> 13	 [arrowhead=normal,
		arrowsize=0.75,
		fontsize=8,
		label=0.13,
		lp="1427,424.5",
		penwidth=0.89,
		pos="e,1336.8,401.06 1562.9,449.26 1512.9,443.82 1445.9,435.85 1419.5,429.5 1393.1,423.15 1364,412.2 1344,404.04"];
	15	 [URL="http://lattes.cnpq.br/3491836142954364",
		color="#17272B",
		fontcolor="#FFFFFF",
		height=0.23611,
		label="Cassiana C. Montagner Raimundo [3]",
		pos="1464.5,392.5",
		width=1.9167];
	43 -> 15	 [arrowhead=normal,
		arrowsize=0.75,
		fontsize=8,
		label=0.38,
		lp="1523,424.5",
		penwidth=1.64,
		pos="e,1473.3,401.26 1575.4,447.99 1556.2,443.96 1534.3,438.02 1515.5,429.5 1502.2,423.48 1488.8,413.85 1479.1,406.06"];
	18	 [URL="http://lattes.cnpq.br/5243256763404267",
		color="#17272B",
		fontcolor="#FFFFFF",
		height=0.23611,
		label="Celmar Guimarães da Silva [1]",
		pos="1609.5,392.5",
		width=1.6111];
	43 -> 18	 [arrowhead=normal,
		arrowsize=0.75,
		fontsize=8,
		label=0.06,
		lp="1609,424.5",
		penwidth=0.68,
		pos="e,1605.4,401.11 1614.5,447.83 1609.6,443.11 1604.1,436.61 1601.5,429.5 1599,422.67 1600.3,414.82 1602.5,408.19"];
	26	 [URL="http://lattes.cnpq.br/5082574173461443",
		color="#17272B",
		fontcolor="#FFFFFF",
		height=0.23611,
		label="Maurea Nicoletti Flynn [2]",
		pos="1680.5,328.5",
		width=1.4306];
	43 -> 26	 [arrowhead=normal,
		arrowsize=0.75,
		fontsize=8,
		label=0.19,
		lp="1690,392.5",
		penwidth=1.07,
		pos="e,1681.8,337.05 1634.8,447.9 1647.5,438.64 1667.6,421.69 1676.5,401.5 1684.5,383.31 1684.1,359.98 1682.7,344.88"];
	45	 [URL="http://lattes.cnpq.br/2493281934291188",
		color="#17272B",
		fontcolor="#FFFFFF",
		height=0.23611,
		label="Enelton Fagnani [1]",
		pos="1776.5,392.5",
		width=1.1111];
	43 -> 45	 [arrowhead=normal,
		arrowsize=0.75,
		fontsize=8,
		label=0.13,
		lp="1743,424.5",
		penwidth=0.89,
		pos="e,1765.7,401.03 1658.3,447.92 1675.8,443.54 1697.2,437.33 1715.5,429.5 1731,422.87 1747.4,413.02 1759.3,405.29"];
	13 -> 43	 [arrowhead=normal,
		arrowsize=0.75,
		fontsize=8,
		label=1.0,
		lp="1489,424.5",
		penwidth=3.5,
		pos="e,1580.8,447.95 1352.4,401.05 1385.5,408.57 1437.9,420.27 1483.5,429.5 1513.2,435.51 1546.5,441.72 1573.2,446.56"];
	15 -> 43	 [arrowhead=normal,
		arrowsize=0.75,
		fontsize=8,
		label=1.0,
		lp="1560,424.5",
		penwidth=3.5,
		pos="e,1604,447.9 1484.2,401.16 1512.5,412.22 1564.9,432.66 1596.8,445.08"];
	18 -> 43	 [arrowhead=normal,
		arrowsize=0.75,
		fontsize=8,
		label=0.5,
		lp="1628,424.5",
		penwidth=2.0,
		pos="e,1623.6,447.94 1613.4,401.02 1615.9,406.09 1618.9,413.03 1620.5,419.5 1622.1,426.11 1622.9,433.6 1623.3,440.02"];
	18 -> 26	 [arrowhead=normal,
		arrowsize=0.75,
		fontsize=8,
		label=0.5,
		lp="1631,360.5",
		penwidth=2.0,
		pos="e,1655.4,337 1611.3,383.71 1613.4,375.74 1617.8,363.43 1625.5,355.5 1631.8,349.08 1639.9,344.06 1648.1,340.21"];
	26 -> 43	 [arrowhead=normal,
		arrowsize=0.75,
		fontsize=8,
		label=0.75,
		lp="1838,392.5",
		penwidth=2.75,
		pos="e,1684.1,450.6 1732,335.19 1782.4,343.15 1848.3,361.42 1825.5,401.5 1813.5,422.64 1801.3,421.12 1778.5,429.5 1751,439.6 1719.3,445.8 \
1691.7,449.59"];
	26 -> 18	 [arrowhead=normal,
		arrowsize=0.75,
		fontsize=8,
		label=0.25,
		lp="1657,360.5",
		penwidth=1.25,
		pos="e,1618.2,383.9 1671.7,337.16 1659.8,347.61 1638.2,366.45 1623.9,378.96"];
	45 -> 43	 [arrowhead=normal,
		arrowsize=0.75,
		fontsize=8,
		label=1.0,
		lp="1769,424.5",
		penwidth=3.5,
		pos="e,1684,453.41 1773.7,401.14 1770.3,409.48 1763.7,422.55 1753.5,429.5 1735.4,441.88 1712.8,448.64 1691.5,452.26"];
	7	 [URL="http://lattes.cnpq.br/9237052618243015",
		color="#17272B",
		fontcolor="#FFFFFF",
		height=0.23611,
		label="Carolina S. Franco Picone [0]",
		pos="1733.5,520.5",
		width=1.5556];
	33 -> 50	 [arrowhead=normal,
		arrowsize=0.75,
		fontsize=8,
		label=0.13,
		lp="885,232.5",
		penwidth=0.89,
		pos="e,938.71,255.9 792.18,209.07 827.12,220.23 892.52,241.14 931.32,253.54"];
	33 -> 40	 [arrowhead=normal,
		arrowsize=0.75,
		fontsize=8,
		label=0.38,
		lp="909,168.5",
		penwidth=1.64,
		pos="e,920.86,145.08 821.91,193.29 842.54,189.46 865.87,183.32 885.5,173.5 896.86,167.82 907.7,158.4 915.51,150.62"];
	9	 [URL="http://lattes.cnpq.br/6938680728798425",
		color="#17272B",
		fontcolor="#FFFFFF",
		height=0.23611,
		label="Antonio Carlos Zambon [1]",
		pos="709.5,136.5",
		width=1.4722];
	33 -> 9	 [arrowhead=normal,
		arrowsize=0.75,
		fontsize=8,
		label=0.08,
		lp="751,168.5",
		penwidth=0.74,
		pos="e,716.79,145.16 761.27,191.9 751.53,181.67 734.07,163.32 722.15,150.79"];
	10	 [URL="http://lattes.cnpq.br/9343261628675642",
		color="#17272B",
		fontcolor="#FFFFFF",
		height=0.23611,
		label="André L. Sampaio Gradvohl [1]",
		pos="854.5,72.5",
		width=1.6528];
	33 -> 10	 [arrowhead=normal,
		arrowsize=0.75,
		fontsize=8,
		label=0.08,
		lp="841,136.5",
		penwidth=0.74,
		pos="e,852.07,81.248 782.05,191.92 789.39,187.32 798.21,180.9 804.5,173.5 826.81,147.26 842.21,109.35 849.57,88.556"];
	42	 [URL="http://lattes.cnpq.br/0016546400683999",
		color="#17272B",
		fontcolor="#FFFFFF",
		height=0.23611,
		label="Gisele Busichia Baioco [1]",
		pos="744.5,8.5",
		width=1.4306];
	33 -> 42	 [arrowhead=normal,
		arrowsize=0.75,
		fontsize=8,
		label=0.08,
		lp="648,104.5",
		penwidth=0.74,
		pos="e,722.81,17.084 723.29,192 696.27,184.93 664.08,171.35 647.5,145.5 618.89,100.89 655.65,72.587 693.5,35.5 699.8,29.323 707.87,24.302 \
715.72,20.379"];
	24	 [URL="http://lattes.cnpq.br/6970261362941505",
		color="#17272B",
		fontcolor="#FFFFFF",
		height=0.23611,
		label="Paulo S. Martins Pedro [4]",
		pos="365.5,136.5",
		width=1.4167];
	33 -> 24	 [arrowhead=normal,
		arrowsize=0.75,
		fontsize=8,
		label=0.13,
		lp="523,168.5",
		penwidth=0.89,
		pos="e,392.1,145.02 714.91,196.07 663.51,192.3 583.84,185.16 515.5,173.5 475.22,166.63 429.68,155.16 399.45,147.02"];
	22	 [URL="http://lattes.cnpq.br/3618876400150348",
		color="#17272B",
		fontcolor="#FFFFFF",
		height=0.23611,
		label="Regina L. de Oliveira Moraes [2]",
		pos="61.5,72.5",
		width=1.7083];
	33 -> 22	 [arrowhead=normal,
		arrowsize=0.75,
		fontsize=8,
		label=0.13,
		lp="95,136.5",
		penwidth=0.89,
		pos="e,61.471,81.242 715.02,198.07 563.74,193.63 140.29,178.37 87.5,145.5 68.497,133.67 63.245,106.24 61.875,88.855"];
	40 -> 50	 [arrowhead=normal,
		arrowsize=0.75,
		fontsize=8,
		label=0.25,
		lp="971,200.5",
		penwidth=1.25,
		pos="e,963.36,255.99 936.88,145.22 942,149.96 948,156.46 951.5,163.5 965.17,191.01 965.25,227.92 963.96,248.33"];
	40 -> 33	 [arrowhead=normal,
		arrowsize=0.75,
		fontsize=8,
		label=0.75,
		lp="874,168.5",
		penwidth=2.75,
		pos="e,795.24,191.91 908.64,145.07 896.49,150.06 880.43,156.88 866.5,163.5 857.88,167.6 856.28,169.77 847.5,173.5 833.14,179.59 816.84,\
185.17 802.79,189.58"];
	49 -> 50	 [arrowhead=normal,
		arrowsize=0.75,
		fontsize=8,
		label=1.0,
		lp="1067,232.5",
		penwidth=3.5,
		pos="e,1005.9,255.98 1074.2,209.26 1069.3,217.45 1060.4,230.16 1049.5,237.5 1038.7,244.78 1025.8,250.06 1013.2,253.89"];
	9 -> 33	 [arrowhead=normal,
		arrowsize=0.75,
		fontsize=8,
		label=0.33,
		lp="725,168.5",
		penwidth=1.49,
		pos="e,743.66,191.99 709.37,145.18 709.63,153.06 711.15,165.3 717.5,173.5 722.43,179.86 729.35,184.8 736.5,188.58"];
	9 -> 10	 [arrowhead=normal,
		arrowsize=0.75,
		fontsize=8,
		label=0.33,
		lp="739,104.5",
		penwidth=1.49,
		pos="e,795.2,76.306 712.06,127.88 715.27,119.57 721.57,106.52 731.5,99.5 747.86,87.938 768.29,81.325 787.78,77.598"];
	9 -> 42	 [arrowhead=normal,
		arrowsize=0.75,
		fontsize=8,
		label=0.33,
		lp="694,72.5",
		penwidth=1.49,
		pos="e,730.62,17.017 700.05,127.91 694.98,123.21 689.23,116.71 686.5,109.5 679.26,90.381 679.61,82.748 686.5,63.5 693.08,45.133 710.16,\
30.546 724.1,21.186"];
	10 -> 33	 [arrowhead=normal,
		arrowsize=0.75,
		fontsize=8,
		label=0.33,
		lp="1008,136.5",
		penwidth=1.49,
		pos="e,821.81,194.81 908.82,81.015 958.07,90.271 1019.4,109.41 994.5,145.5 975.86,172.48 889.78,186.97 829.41,193.95"];
	10 -> 9	 [arrowhead=normal,
		arrowsize=0.75,
		fontsize=8,
		label=0.33,
		lp="777,104.5",
		penwidth=1.49,
		pos="e,720.56,127.74 823.55,81.013 807.14,85.48 786.84,91.784 769.5,99.5 754.47,106.19 738.55,115.87 726.89,123.51"];
	10 -> 42	 [arrowhead=normal,
		arrowsize=0.75,
		fontsize=8,
		label=0.33,
		lp="845,40.5",
		penwidth=1.49,
		pos="e,784.67,17.071 850.38,63.769 845.65,55.609 837.16,42.922 826.5,35.5 816.25,28.36 803.94,23.111 792.02,19.278"];
	42 -> 33	 [arrowhead=normal,
		arrowsize=0.75,
		fontsize=8,
		label=0.33,
		lp="794,104.5",
		penwidth=1.49,
		pos="e,771.61,191.93 749.19,17.07 758.19,32.097 777.61,67.051 784.5,99.5 790.88,129.58 781.08,165.24 774.22,184.81"];
	42 -> 9	 [arrowhead=normal,
		arrowsize=0.75,
		fontsize=8,
		label=0.33,
		lp="737,72.5",
		penwidth=1.49,
		pos="e,711.35,127.75 742.11,17.419 737.41,33.058 726.71,69.034 718.5,99.5 716.66,106.32 714.75,113.91 713.16,120.35"];
	42 -> 10	 [arrowhead=normal,
		arrowsize=0.75,
		fontsize=8,
		label=0.33,
		lp="815,40.5",
		penwidth=1.49,
		pos="e,840.49,63.814 757.99,17.279 770.72,24.607 790.37,35.868 807.5,45.5 815.96,50.259 825.32,55.448 833.44,59.93"];
	24 -> 33	 [arrowhead=normal,
		arrowsize=0.75,
		fontsize=8,
		label=0.13,
		lp="605,168.5",
		penwidth=0.89,
		pos="e,718.73,191.97 413.93,145.06 460.86,152.37 534.05,163.75 597.5,173.5 635.28,179.3 677.77,185.76 710.94,190.79"];
	24 -> 22	 [arrowhead=normal,
		arrowsize=0.75,
		fontsize=8,
		label=0.13,
		lp="101,104.5",
		penwidth=0.89,
		pos="e,65.803,81.083 314.47,135.03 246.63,133.66 130.94,128.5 93.5,109.5 83.909,104.63 75.878,95.567 70.26,87.752"];
	11	 [URL="http://lattes.cnpq.br/8382118396658129",
		color="#17272B",
		fontcolor="#FFFFFF",
		height=0.23611,
		label="Andre Franceschi de Angelis [1]",
		pos="417.5,72.5",
		width=1.6806];
	24 -> 11	 [arrowhead=normal,
		arrowsize=0.75,
		fontsize=8,
		label=0.25,
		lp="407,104.5",
		penwidth=1.25,
		pos="e,412.46,81.211 374.05,127.62 379.29,122.63 386.04,115.92 391.5,109.5 397.42,102.54 403.43,94.315 408.18,87.481"];
	35	 [URL="http://lattes.cnpq.br/1913450752136533",
		color="#17272B",
		fontcolor="#FFFFFF",
		height=0.23611,
		label="Ieda Geriberto Hidalgo [1]",
		pos="547.5,72.5",
		width=1.4167];
	24 -> 35	 [arrowhead=normal,
		arrowsize=0.75,
		fontsize=8,
		label=0.25,
		lp="511,104.5",
		penwidth=1.25,
		pos="e,536.01,81.202 413.94,127.97 435.36,123.82 460.61,117.8 482.5,109.5 499.19,103.17 516.83,93.169 529.51,85.31"];
	38	 [URL="http://lattes.cnpq.br/0497424493730558",
		color="#17272B",
		fontcolor="#FFFFFF",
		height=0.23611,
		label="Marcos Sergio Goncalves [1]",
		pos="209.5,8.5",
		width=1.5278];
	24 -> 38	 [arrowhead=normal,
		arrowsize=0.75,
		fontsize=8,
		label=0.13,
		lp="181,72.5",
		penwidth=0.89,
		pos="e,202.23,17.135 314.19,131.64 272.01,127.74 216.1,120.67 196.5,109.5 176.64,98.184 166.88,85.377 173.5,63.5 178.15,48.14 188.77,\
33.155 197.28,22.883"];
	44	 [URL="http://lattes.cnpq.br/2324929401155175",
		color="#17272B",
		fontcolor="#FFFFFF",
		height=0.23611,
		label="Francisco José Arnold [3]",
		pos="289.5,72.5",
		width=1.375];
	24 -> 44	 [arrowhead=normal,
		arrowsize=0.75,
		fontsize=8,
		label=0.13,
		lp="308,104.5",
		penwidth=0.89,
		pos="e,289.93,81.049 330.66,127.91 319.74,124.01 308.48,118.18 300.5,109.5 295.29,103.83 292.54,95.748 291.1,88.679"];
	22 -> 33	 [arrowhead=normal,
		arrowsize=0.75,
		fontsize=8,
		label=0.25,
		lp="298,136.5",
		penwidth=1.25,
		pos="e,715.19,196.07 62.716,81.139 64.466,89.469 68.531,102.54 77.5,109.5 153.35,168.37 195.76,129.96 290.5,145.5 368.66,158.32 387.88,\
163.87 466.5,173.5 549.78,183.7 646.46,191.28 707.55,195.54"];
	22 -> 24	 [arrowhead=normal,
		arrowsize=0.75,
		fontsize=8,
		label=0.25,
		lp="141,104.5",
		penwidth=1.25,
		pos="e,314.25,134.89 76.144,81.168 95.421,91.208 127.57,107.75 133.5,109.5 190.75,126.44 258.93,132.49 306.5,134.58"];
	29	 [URL="http://lattes.cnpq.br/8433486304141432",
		color="#17272B",
		fontcolor="#FFFFFF",
		height=0.23611,
		label="Marcos A. Francisco Borges [1]",
		pos="64.5,8.5",
		width=1.6528];
	22 -> 29	 [arrowhead=normal,
		arrowsize=0.75,
		fontsize=8,
		label=0.5,
		lp="59,40.5",
		penwidth=2.0,
		pos="e,60.163,17.428 57.883,63.793 54.92,56.515 51.515,45.289 53.5,35.5 54.244,31.834 55.521,28.044 56.949,24.528"];
	11 -> 24	 [arrowhead=normal,
		arrowsize=0.75,
		fontsize=8,
		label=1.0,
		lp="386,104.5",
		penwidth=3.5,
		pos="e,367.3,127.96 402.99,81.054 395.47,85.572 386.6,91.909 380.5,99.5 375.56,105.65 372.02,113.65 369.61,120.55"];
	35 -> 24	 [arrowhead=normal,
		arrowsize=0.75,
		fontsize=8,
		label=1.0,
		lp="473,104.5",
		penwidth=3.5,
		pos="e,386.54,127.9 523.64,81.081 507.71,86.185 486.31,93.125 467.5,99.5 442.47,107.98 414.14,118.02 393.7,125.33"];
	38 -> 24	 [arrowhead=normal,
		arrowsize=0.75,
		fontsize=8,
		label=0.5,
		lp="225,72.5",
		penwidth=2.0,
		pos="e,314.36,130.03 208.24,17.186 206.36,31.496 204.47,62.492 219.5,81.5 240.51,108.08 275.96,121.58 306.67,128.43"];
	38 -> 44	 [arrowhead=normal,
		arrowsize=0.75,
		fontsize=8,
		label=0.5,
		lp="276,40.5",
		penwidth=2.0,
		pos="e,284.49,63.846 228.13,17.041 238.02,21.554 250.05,27.892 259.5,35.5 267.36,41.828 274.65,50.474 280.07,57.708"];
	44 -> 24	 [arrowhead=normal,
		arrowsize=0.75,
		fontsize=8,
		label=0.17,
		lp="340,104.5",
		penwidth=1.01,
		pos="e,356.18,127.9 298.9,81.165 311.7,91.61 334.79,110.45 350.13,122.96"];
	44 -> 38	 [arrowhead=normal,
		arrowsize=0.75,
		fontsize=8,
		label=0.17,
		lp="248,40.5",
		penwidth=1.01,
		pos="e,214.75,17.124 271.29,63.834 261.62,59.285 249.83,52.952 240.5,45.5 232.51,39.116 224.98,30.468 219.35,23.248"];
	32	 [URL="http://lattes.cnpq.br/4346810447071054",
		color="#17272B",
		fontcolor="#FFFFFF",
		height=0.23611,
		label="Rangel Arthur [1]",
		pos="319.5,8.5",
		width=1.0278];
	44 -> 32	 [arrowhead=normal,
		arrowsize=0.75,
		fontsize=8,
		label=0.33,
		lp="314,40.5",
		penwidth=1.49,
		pos="e,315.79,17.165 293.18,63.898 297.95,54.043 306.36,36.648 312.4,24.18"];
	37	 [URL="http://lattes.cnpq.br/0517805915866063",
		color="#17272B",
		fontcolor="#FFFFFF",
		height=0.23611,
		label="Elaine C. Catapani Poletti [1]",
		pos="430.5,8.5",
		width=1.5417];
	44 -> 37	 [arrowhead=normal,
		arrowsize=0.75,
		fontsize=8,
		label=0.33,
		lp="376,40.5",
		penwidth=1.49,
		pos="e,413.07,17.165 306.79,63.898 331.63,52.974 377.55,32.785 405.91,20.311"];
	29 -> 22	 [arrowhead=normal,
		arrowsize=0.75,
		fontsize=8,
		label=1.0,
		lp="71,40.5",
		penwidth=3.5,
		pos="e,62.626,63.784 64.756,17.232 64.937,24.527 65.06,35.766 64.5,45.5 64.3,48.97 63.952,52.688 63.562,56.196"];
	32 -> 44	 [arrowhead=normal,
		arrowsize=0.75,
		fontsize=8,
		label=1.0,
		lp="339,40.5",
		penwidth=3.5,
		pos="e,310.42,63.817 325.46,17.006 330.66,24.531 336.63,36.291 331.5,45.5 328.2,51.423 322.93,56.168 317.23,59.897"];
	37 -> 44	 [arrowhead=normal,
		arrowsize=0.75,
		fontsize=8,
		label=1.0,
		lp="422,40.5",
		penwidth=3.5,
		pos="e,338.97,64.084 427.29,17.106 423.38,25.406 415.98,38.45 405.5,45.5 395.53,52.207 370.63,58.193 346.44,62.725"];
	12	 [URL="http://lattes.cnpq.br/7150028902000426",
		color="#17272B",
		fontcolor="#FFFFFF",
		height=0.23611,
		label="Edson Luiz Ursini [1]",
		pos="1850.5,520.5",
		width=1.1944];
	48	 [URL="http://lattes.cnpq.br/7138726557754661",
		color="#17272B",
		fontcolor="#FFFFFF",
		height=0.23611,
		label="Varese Salvador Timoteo [1]",
		pos="1850.5,456.5",
		width=1.5278];
	12 -> 48	 [arrowhead=normal,
		arrowsize=0.75,
		fontsize=8,
		label=1.0,
		lp="1840,488.5",
		penwidth=3.5,
		pos="e,1843.5,465.26 1844.2,511.85 1840.6,506.93 1836.4,500.23 1834.5,493.5 1832.4,486.06 1835.3,478.16 1839.1,471.67"];
	48 -> 12	 [arrowhead=normal,
		arrowsize=0.75,
		fontsize=8,
		label=1.0,
		lp="1856,488.5",
		penwidth=3.5,
		pos="e,1850.5,511.9 1850.5,465.16 1850.5,474.86 1850.5,491.8 1850.5,504.19"];
	14	 [URL="http://lattes.cnpq.br/5567790309424113",
		color="#17272B",
		fontcolor="#FFFFFF",
		height=0.23611,
		label="Cristiano de Mello Gallep [0]",
		pos="1967.5,520.5",
		width=1.5417];
	16	 [URL="http://lattes.cnpq.br/6753230320037937",
		color="#17272B",
		fontcolor="#FFFFFF",
		height=0.23611,
		label="José Carlos Magossi [0]",
		pos="2088.5,520.5",
		width=1.3056];
	17	 [URL="http://lattes.cnpq.br/4372943322993518",
		color="#17272B",
		fontcolor="#FFFFFF",
		height=0.23611,
		label="Ivan L. Marques Ricarte [0]",
		pos="2206.5,520.5",
		width=1.4722];
	19	 [URL="http://lattes.cnpq.br/2958819814013623",
		color="#17272B",
		fontcolor="#FFFFFF",
		height=0.23611,
		label="Cassiana M. Reganhan Coneglian [0]",
		pos="2345.5,520.5",
		width=1.8889];
	20	 [URL="http://lattes.cnpq.br/1541934303361072",
		color="#17272B",
		fontcolor="#FFFFFF",
		height=0.23611,
		label="Ivan Camargo de Oliveira [0]",
		pos="2487.5,520.5",
		width=1.5417];
	21	 [URL="http://lattes.cnpq.br/8810347636088336",
		color="#17272B",
		fontcolor="#FFFFFF",
		height=0.23611,
		label="Renato Falcão Dantas [0]",
		pos="2610.5,520.5",
		width=1.3611];
	23	 [URL="http://lattes.cnpq.br/4793528013383985",
		color="#17272B",
		fontcolor="#FFFFFF",
		height=0.23611,
		label="Peterson Bueno de Moraes [0]",
		pos="2734.5,520.5",
		width=1.5833];
	25	 [URL="http://lattes.cnpq.br/3069249114434330",
		color="#17272B",
		fontcolor="#FFFFFF",
		height=0.23611,
		label="Patricia Prediger [0]",
		pos="2850.5,520.5",
		width=1.125];
	28	 [URL="http://lattes.cnpq.br/2699192560269798",
		color="#17272B",
		fontcolor="#FFFFFF",
		height=0.23611,
		label="Maria A. Carvalho de Medeiros [0]",
		pos="2974.5,520.5",
		width=1.8056];
	30	 [URL="http://lattes.cnpq.br/6366443994619479",
		color="#17272B",
		fontcolor="#FFFFFF",
		height=0.23611,
		label="Marco A. Garcia de Carvalho [0]",
		pos="3119.5,520.5",
		width=1.7083];
	31	 [URL="http://lattes.cnpq.br/9002330620493052",
		color="#17272B",
		fontcolor="#FFFFFF",
		height=0.23611,
		label="Luiz Camolesi Júnior [0]",
		pos="3247.5,520.5",
		width=1.3472];
	34	 [URL="http://lattes.cnpq.br/6838511087413418",
		color="#17272B",
		fontcolor="#FFFFFF",
		height=0.23611,
		label="Jaime Portugheis [0]",
		pos="3355.5,520.5",
		width=1.1528];
	36	 [URL="http://lattes.cnpq.br/7835935043066010",
		color="#17272B",
		fontcolor="#FFFFFF",
		height=0.23611,
		label="Eloisa Dezen Kempter [1]",
		pos="3465.5,520.5",
		width=1.3889];
	41	 [URL="http://lattes.cnpq.br/7466715243528129",
		color="#17272B",
		fontcolor="#FFFFFF",
		height=0.23611,
		label="Gisleiva C. d. Santos Ferreira [1]",
		pos="3465.5,456.5",
		width=1.6944];
	36 -> 41	 [arrowhead=normal,
		arrowsize=0.75,
		fontsize=8,
		label=1.0,
		lp="3455,488.5",
		penwidth=3.5,
		pos="e,3459.2,465.15 3458.5,511.74 3453,504.6 3446.6,493.63 3449.5,483.5 3450.7,479.4 3452.7,475.31 3454.9,471.62"];
	41 -> 36	 [arrowhead=normal,
		arrowsize=0.75,
		fontsize=8,
		label=1.0,
		lp="3471,488.5",
		penwidth=3.5,
		pos="e,3465.5,511.9 3465.5,465.16 3465.5,474.86 3465.5,491.8 3465.5,504.19"];
	39	 [URL="http://lattes.cnpq.br/7079057342886624",
		color="#17272B",
		fontcolor="#FFFFFF",
		height=0.23611,
		label="Guilherme Ribeiro Lotufo [0]",
		pos="3589.5,520.5",
		width=1.5556];
	46	 [URL="http://lattes.cnpq.br/0957577806208187",
		color="#17272B",
		fontcolor="#FFFFFF",
		height=0.23611,
		label="Nelma de M. Silva Oliveira [0]",
		pos="3721.5,520.5",
		width=1.6111];
	51	 [URL="http://lattes.cnpq.br/9149503296606174",
		color="#17272B",
		fontcolor="#FFFFFF",
		height=0.23611,
		label="Sandro Tonso [0]",
		pos="3833.5,520.5",
		width=1];
}
