artigoEmPeriodico	Luísa Andréia Gachet Barbosa	2015	http://dx.doi.org/10.1016/j.conbuildmat.2015.05.027	Investigation on the properties of concrete tactile paving blocks made with recycled tire rubber	Construction & Building Materials	Silva, F.M. ; GACHET-BARBOSA, L. A. ; LINTZ, Rosa Cristina Cecche ; JACINTHO, A. E. P. G. A.	A2	
artigoEmPeriodico	Luísa Andréia Gachet Barbosa	2015	http://dx.doi.org/10.1016/j.conbuildmat.2015.07.166	Effects of spheroid and fiber-like waste-tire rubbers on interrelation of strength-to-porosity in rubberized cement and mortars	Construction & Building Materials	ANGELIN, ANDRESSA F. ; ANDRADE, MATHEUS F.F. ; BONATTI, RODRIGO ; CECCHE LINTZ, ROSA C. ; GACHET-BARBOSA, LUÍSA A. ; OSÓRIO, WISLEI R.	A2	
trabalhoCompletoEmCongresso	Luísa Andréia Gachet Barbosa	2015		Propriedades físicas e mecânicas do concreto auto adensável modificado com argila expandida e pó de borracha	57o Congresso Brasileiro do Concreto	ANGELIN, A. F. ; Silva, F.M. ; GIORNO, L. S. ; LINTZ, R. C. C. ; GACHET-BARBOSA, L. A.		
trabalhoCompletoEmCongresso	Luísa Andréia Gachet Barbosa	2015		Estudo de concreto com diferentes granulometrias de borracha visando sua aplicação em pavimentos intertravados	57o Congresso Brasileiro do Concreto	Silva, F.M. ; GIORNO, L. S. ; ANGELIN, A. F. ; LINTZ, R. C. C. ; GACHET-BARBOSA, L. A.		
trabalhoCompletoEmCongresso	Luísa Andréia Gachet Barbosa	2015		Uma abordagem para a aplicação efetiva da borracha de poneus como agregados de concreto utilizando a simulação de Monte Carlo	57o Congresso Brasileiro do Concreto	Pedro, P. S. M. ; Ursini, E. L. ; Flores, R. ; LINTZ, R. C. C. ; GACHET-BARBOSA, L. A.		
trabalhoCompletoEmCongresso	Luísa Andréia Gachet Barbosa	2015		Reutilização de resíduos de pneu em argamassa colante	57o Congresso Brasileiro do Concreto	Pfeifer, W.P. ; Fronza, R. ; SOARES, M. S. ; GACHET-BARBOSA, L. A. ; LINTZ, R. C. C.		
resumoExpandidoEmCongresso	Luísa Andréia Gachet Barbosa	2015	Utilização de agregados de Usinas de reciclagem para dosagem de concretos permeáveis	XXIII Congresso de Iniciação Científica da Unicamp, 2015	ANDREIA GACHET BARBOSA, LUISA; LOMBARDI, NATHALIA		
resumoExpandidoEmCongresso	Luísa Andréia Gachet Barbosa	2015	Sustentabilidade e meio ambiente	XXIII Congresso de Iniciação Científica da Unicamp, 2015	ANDREIA GACHET BARBOSA, LUISA; ADRIEN FERREIRA DA SILVA, CAUÊ ; DE JESUS BERTANHA, CAROLINE		
resumoExpandidoEmCongresso	Luísa Andréia Gachet Barbosa	2015	A INFLUÊNCIA DA VARIAÇÃO DO TEOR DE ARGAMASSA SOBRE AS CARACTERÍSTICAS DO CONCRETO AUTO-ADENSÁVEL	XXIII Congresso de Iniciação Científica da Unicamp, 2015	ANDREIA GACHET BARBOSA, LUISA; FELITO DE PAULA, JEFERSON		
trabalhoCompletoEmCongresso	Luis Augusto Angelotti Meira	2015		Fusion Tree Sorting	Simpósio Brasileiro de Pesquisa Operacional	MEIRA, L.A.A.; LIMA, Rogério. H. B.		
trabalhoCompletoEmCongresso	Lubienska Cristina Lucas Jaquiê Ribeiro	2015		Redução de Perdas Físicas no Sistema de Distribuição de Água	XIV SEREA - SEMINARIO IBEROAMERICANO DE REDES DE AGUA Y DRENAJE	ZAMBON, A. G. ; ANDRADE, J. G. P. ; RIBEIRO, L C L J		
trabalhoCompletoEmCongresso	Lubienska Cristina Lucas Jaquiê Ribeiro	2015		RISCO DE DEGRADAÇÃO HÍDRICA NA UNIDADE DE GERENCIAMENTO DE RECURSOS HÍDRICOS (UGRHI ? 5) ? PIRACICABA/ CAPIVARI/ JUNDIAÍ/ (PCJ) ? SP	XXI Simpósio Brasileiro de Recursos Hídricos	SANTOS, D. ; MACHADO, R. E. ; RIBEIRO, L C L J		
trabalhoCompletoEmCongresso	Lubienska Cristina Lucas Jaquiê Ribeiro	2015		A INCLUSÃO DA PESSOA COM DEFICIÊNCIA NA UNIVERSIDADE: EDUCAÇÃO AMBIENTAL E O EMPODERAMENTO	VIII Fórum Brasileiro de Educação Ambiental	Guerra, F. A. A ; RIBEIRO, L. C. L. J. ; SILVA, I. R.		
trabalhoCompletoEmCongresso	Lubienska Cristina Lucas Jaquiê Ribeiro	2015		A INCLUSÃO DE ALUNOS COM DEFICIÊNCIA NA UNIVERSIDADE PÚBLICA: DESAFIO DA EDUCAÇÃO AMBIENTAL	VIII EPEA	Guerra, F. A. A ; RIBEIRO, L. C. L. J. ; SILVA, I. R.		
trabalhoCompletoEmCongresso	Lubienska Cristina Lucas Jaquiê Ribeiro	2015		POLÍTICAS PÚBLICAS E MEIO AMBIENTE: MEIO FACILITADOR DE INCLUSÃO A PESSOA COM DEFICÊNCIA	Congresso de Engenharia Ambiental do Sul do Brasil	Guerra, F. A. A ; RIBEIRO, L. C. L. J. ; SILVA, I. R. ; Fabri, L. A.		
trabalhoCompletoEmCongresso	Lubienska Cristina Lucas Jaquiê Ribeiro	2015		Avaliação da eficiência de uma wetland construída, em escala de laboratório, no pós tratamento de efluentes domésticos	2º Simpósio Brasileiro sobre Wetlands Construídas	MOURÃO, JADE R. ; Silva, M A V ; ARRUDA, D. S. ; RIBEIRO, L. C. L. J. ; PIRES, M. S. G.		
resumoExpandidoEmCongresso	Lubienska Cristina Lucas Jaquiê Ribeiro	2015	ESTUDO DA TÉCNICA E DO MODELO NUMÉRICO DE SIMULAÇÃO DE FLUIDODINÂMICA COMPUTACIONAL (CFD) PARA TUBO VENTURI	VII SBEA - Simpósio Brasileiro de Engenharia Ambiental, 2015, Curitiba. VII SBEA - Simpósio Brasileiro de Engenharia Ambiental	OLIVEIRA, W. D. ; OLIVEIRA, E. C. M. ; SILVA, M. O. M. ; PIRES, M. S. G. ; RIBEIRO, L C L J		
resumoExpandidoEmCongresso	Lubienska Cristina Lucas Jaquiê Ribeiro	2015	ESTUDO TEÓRICO E EXPERIMENTAL DE MEDIDORES DE VAZÃO BASEADOS EM PRESSÃO DIFERENCIAL	VII SBEA - Simpósio Brasileiro de Engenharia Ambiental, 2015, Curitiba. VII SBEA - Simpósio Brasileiro de Engenharia Ambiental	OLIVEIRA, W. D. ; BRESSAN, C. K. ; OLIVEIRA, E. C. M. ; SILVA, M. O. M. ; Pires,M.S.G. ; RIBEIRO, L C L J		
resumoExpandidoEmCongresso	Lubienska Cristina Lucas Jaquiê Ribeiro	2015	IDENTIFICATION OF ENVIRONMENTALLY SENSITIVE AREAS AND SUBSIDIES TO A MANAGEMENT PLAN FOR WATERSHED THROUGH TECHNIQUES OF MODELING AND GIS	SWAT - Soil Water Assessment Tool, 2015, SARDINIA, ITALY. SWAT - Soil Water Assessment Tool	MACHADO, R. E. ; RIBEIRO, L C L J ; LOPES, M. S.		
resumoExpandidoEmCongresso	Lubienska Cristina Lucas Jaquiê Ribeiro	2015	SIMULAÇÃO DE CENÁRIOS DE USO DA TERRA NA BACIA HIDROGRÁFICA DO RIBEIRÃO PINHAL, SP, POR MEIO DE TÉCNICAS DE MODELAGEM E GEOPROCESSAMENTO	XXI - Simpósio Brasileiro de Recursos Hídricos, 2015, Brasília. XXI - Simpósio Brasileiro de Recursos Hídricos	MACHADO, R. E. ; RIBEIRO, L C L J ; LOPES, M. S.		
artigoEmPeriodico	Leonardo Lorenzo Bravo Roger	2015	http://dx.doi.org/10.1109/TLA.2015.7069083	Prediction of the Performance of a Reconfigurable Resonator for RFID Chipeless Tags	Revista IEEE América Latina	APARECIDA DE CASTRO ALVES, ANDREIA ; LORENZO BRAVO ROGER, LEONARDO ; JOSE ARNOLD, FRANCISCO	B1	
trabalhoCompletoEmCongresso	Jose Geraldo Pena de Andrade	2015		Redução de Perdas Físicas no Sistema de Distribuição de Água	XIV SEREA - Seminário IberoAmericano de Redes de Agua Y Drenaje	ZAMBON, A. ; Andrade, J. P. G. ; RIBEIRO, L. C. L. J.		
artigoEmPeriodico	Vitor Rafael Coluci	2015	http://dx.doi.org/10.1016/j.carbon.2015.09.039	Torsional Superplasticity of Graphyne Nanotubes	Carbon (New York)	DE SOUSA, J.M. ; BRUNETTO, G. ; Coluci, V.R. ; GALVÃO, D.S.	A1	
artigoEmPeriodico	Carolina Siqueira Franco Picone	2015	http://dx.doi.org/10.1016/j.lwt.2014.08.004	Effect of prebiotic ingredients on the rheological properties and microstructure of reduced-sodium and low-fat meat emulsions	Lebensmittel-Wissenschaft + Technologie / Food Science + Technology	FELISBERTO, M. H. F. ; GALVAO, M. T. E. ; PICONE, C. S. F. ; CUNHA, R. L. ; POLLONIO, M. A. R.	A2	
artigoEmPeriodico	Carolina Siqueira Franco Picone	2015	http://dx.doi.org/10.1016/j.carbpol.2014.09.019	Preparation, characterization and in vitro digestibility of gellan and chitosan-gellan microgels	Carbohydrate Polymers	VILELA, JOICE ALINE PIRES ; PERRECHIL, FABIANA DE ASSIS ; Picone, Carolina Siqueira Franco ; SATO, ANA CARLA KAWAZOE ; CUNHA, Rosiane Lopes da	A1	
artigoEmPeriodico	Carolina Siqueira Franco Picone	2015	http://dx.doi.org/10.1016/j.colsurfb.2015.03.010	Breaking oil-in-water emulsions stabilized by yeast	Colloids and Surfaces. B, Biointerfaces (Print)	FURTADO, GUILHERME F. ; PICONE, CAROLINA S.F. ; CUELLAR, MARIA C. ; Cunha, Rosiane L.	A1	
artigoEmPeriodico	Carmenlucia Santos Giordano Penteado	2015		A Greenhouse Gas Inventory in the Municipal Landfill of the City of Limeira, Brazil	Chemical Engineering Transactions	POZZA, S.A. ; SANTOS, C. ; CRISCUOLO, V. G.	B2	
artigoEmPeriodico	Carmenlucia Santos Giordano Penteado	2015	http://dx.doi.org/10.1016/j.jclepro.2015.06.142	Reusing Ceramic Tile Polishing Waste in Paving Block Manufacturing	Journal of Cleaner Production	Giordano Penteado, Carmenlucia Santos; VIVIANI DE CARVALHO, EDUARDO ; CECCHE LINTZ, ROSA CRISTINA	A1	
trabalhoCompletoEmCongresso	Carmenlucia Santos Giordano Penteado	2015		LIFE CYCLE ASSESSMENT OF CONSTRUCTION AND DEMOLITION WASTES FROM SMALL GENERATORS	Fifteenth International Waste Management and Landfill Symposium	Penteado, C.S.G.; ROSADO, L. P. ; Lopes, A.A		
trabalhoCompletoEmCongresso	Carmenlucia Santos Giordano Penteado	2015		PROPOSALS TO FACE CHALLENGES OF BRAZILIAN NATIONAL POLICY OF SOLID WASTE	Fifteenth International Waste Management and Landfill Symposium	Lopes, A.A ; Penteado, C.S.G. ; FALONE, S. Z. ; FERNANDEZ, J. A. B. ; BATISTELLE, R. G.		
trabalhoCompletoEmCongresso	Carmenlucia Santos Giordano Penteado	2015		STRATEGIES FOR SUSTAINABILITY IN MANAGEMENT OF GREEN WASTE	Fifteenth International Waste Management and Landfill Symposium	FERNANDEZ, J. A. B. ; Lopes, A.A ; Penteado, C.S.G.		
resumoExpandidoEmCongresso	Carmenlucia Santos Giordano Penteado	2015	Avaliação dos impactos ambientais do transporte de pequenos volumes de Resíduos da Construção Civil	IV SIRS - Simpósio sobre Resíduos Sólidos, 2015, São Carlos. Anais do IV SIRS - Simpósio sobre Resíduos Sólidos. São Carlos, SP: EESC/USP	ROSADO, L. P. ; Penteado, C.S.G.		
resumoExpandidoEmCongresso	Carmenlucia Santos Giordano Penteado	2015	APLICAÇÃO DE AGREGADO SIDERÚRGICO NA PRODUÇÃO DE PEÇAS DE PAVIMENTAÇÃO	IV SIRS ? Simpósio sobre Resíduos Sólidos, 2015, São Carlos. Anais do IV SIRS ? Simpósio sobre Resíduos Sólidos. São Carlos: EESC: USP	EVANGELISTA, B. L. ; Penteado, C.S.G. ; LINTZ, R. C. C.		
artigoEmPeriodico	Antonio Carlos Zambon	2015		Utilização do Modelo Orientado à Representação do Pensamento Humano (MORPH) no estabelecimento do Índice de Sensibilidade Fluvial (ISF): uma proposta de contribuição à Classificação da Sensibilidade Ambiental ao Óleo	Pesquisas em Geociências (Online)	COSTA, D. M. ; RIEDEL, P. S. ; LUPINACCI, C. M. ; ZAMBON, A. C.	B2	
artigoEmPeriodico	Antonio Carlos Zambon	2015	http://dx.doi.org/10.1590/1678-69712015/administracao.v16n4p231-258	OBSOLESCÊNCIA ACELERADA DE PRODUTOS TECNOLÓGICOS E OS IMPACTOS NA SUSTENTABILIDADE DA PRODUÇÃO	RAM. Revista de Administração Mackenzie (Online)	ZAMBON, A. C.; SILVA, A. E. A. ; BAIOCO, G. B. ; GRADVOHL, A. L. S. ; GARCIA-NUNES, P. I.	B1	
artigoEmPeriodico	André Leon Sampaio Gradvohl	2015	http://dx.doi.org/10.5281/zenodo.840392	Comparação Brasil-França à luz de indicadores de Ciência e Tecnologia selecionados	PASSAGES DE PARIS (APEB-FR)	GRADVOHL, ANDRÉ LEON SAMPAIO	B1	
artigoEmPeriodico	André Leon Sampaio Gradvohl	2015	http://dx.doi.org/10.5281/zenodo.840391	Sensoriamento participativo para determinação de prioridades no atendimento de vítimas de desastres naturais	PASSAGES DE PARIS (APEB-FR)	GRADVOHL, ANDRÉ LEON SAMPAIO	B1	
artigoEmPeriodico	André Leon Sampaio Gradvohl	2015	http://dx.doi.org/10.1590/1678-69712015/administracao.v16n4p231-258	OBSOLESCÊNCIA ACELERADA DE PRODUTOS TECNOLÓGICOS E OS IMPACTOS NA SUSTENTABILIDADE DA PRODUÇÃO	RAM. Revista de Administração Mackenzie (Online)	ZAMBON, ANTONIO CARLOS ; SILVA, ANA ESTELA ANTUNES DA ; BAIOCO, GISELE BUSICHIA ; GRADVOHL, ANDRÉ LEON SAMPAIO ; NUNES, PEDRO IVO GARCIA	B1	
trabalhoCompletoEmCongresso	Edson Luiz Ursini	2015		Seletive Packet Forwarding Provided by an IP Based Multimedia Gateway	12ª Conferência Internacional sobre Sistemas de Informação e Gestão de Tecnologia ? CONTECSI	DIORIO, R. F. ; Timóteo, V. S. ; URSINI, E. L.		
trabalhoCompletoEmCongresso	Edson Luiz Ursini	2015		Proactive Network Management in Cloud Computing Environments Using Cacti and Nagios Free Software Solutions	12ª Conferência Internacional sobre Sistemas de Informação e Gestão de Tecnologia	DIORIO, R. F. ; Timóteo, V. S. ; URSINI, E. L.		
trabalhoCompletoEmCongresso	Edson Luiz Ursini	2015		Modeling and Simulation Applied to Link Dimensioning of Stream Traffic with Incremental Validation	Winter Simulation Conference	URSINI, E. L.; Martins, P. ; Timóteo, V. S. ; MASSARO F. R.		
trabalhoCompletoEmCongresso	Edson Luiz Ursini	2015		A Flexible, Simulation-Based Approach to Sustainable Interlocked Concrete-Pavement Testing	CBC57 - Congresso Brasileiro do Concreto	URSINI, E. L.; Martins, P. ; LINTZ, R. C. C. ; BARBOSA, L. A. G. ; SILVA, R. F.		
artigoEmPeriodico	Diego Stéfani Teodoro Martinez	2015	http://dx.doi.org/10.2174/1568026615666150108144217	Graphene Oxide: A Carrier for Pharmaceuticals and a Scaffold for Cell Interactions	Current Topics in Medicinal Chemistry (Print)	DURAN, NELSON ; MARTINEZ, DIEGO ; SILVEIRA, CAMILA ; DURAN, MARCELA ; DE MORAES, ANA ; SIMOES, MATEUS ; ALVES, OSWALDO ; FAVARO, WAGNER	Qualis nao identificado	Current Topics in Medicinal Chemistry (Print)
artigoEmPeriodico	Diego Stéfani Teodoro Martinez	2015	http://dx.doi.org/10.1016/j.ecoenv.2014.10.005	Ecotoxicological effects of carbofuran and oxidised multiwalled carbon nanotubes on the freshwater fish Nile tilapia: Nanotubes enhance pesticide ecotoxicity	Ecotoxicology and Environmental Safety	CAMPOS-GARCIA, JANAÍNA ; Martinez, Diego Stéfani T. ; Alves, Oswaldo L. ; LEONARDO, ANTÔNIO FERNANDO GERVÁSIO ; BARBIERI, EDISON	A1	
artigoEmPeriodico	Diego Stéfani Teodoro Martinez	2015	http://dx.doi.org/10.5935/0100-4042.20150132	CHARACTERIZATION AND <i>IN VITRO</i> EVALUATION OF POLY (L-LACTIC ACID) AND PURIFIED MULTIWALLED CARBON NANOTUBES NANOCOMPOSITES	Química Nova (Impresso)	LEAL, CLAUDENETE VIEIRA ; Martinez, Diego Stéfani Teodoro ; ESPÓSITO, ANDRÉA RODRIGUES ; MÁS, BRUNA ANTUNES ; MORAES, ANA CAROLINA MAZARIN ; Alves, Oswaldo Luiz ; DUEK, ELIANA APARECIDA REZENDE DE	A2	
artigoEmPeriodico	Diego Stéfani Teodoro Martinez	2015	http://dx.doi.org/10.1002/ejic.201500573	Monitoring the Hemolytic Effect of Mesoporous Silica Nanoparticles after Human Blood Protein Corona Formation	European Journal of Inorganic Chemistry (Print)	Martinez, Diego Stéfani T.; Paula, Amauri J. ; FONSECA, LEANDRO C. ; LUNA, LUIS AUGUSTO V. ; SILVEIRA, CAMILA P. ; DURÁN, NELSON ; Alves, Oswaldo L.	A2	
artigoEmPeriodico	Diego Stéfani Teodoro Martinez	2015	http://dx.doi.org/10.1088/1742-6596/617/1/012019	Interlab study on nanotoxicology of representative graphene oxide	Journal of Physics. Conference Series (Print)	DURÁN, NELSON ; MARTINEZ, DIEGO S T ; JUSTO, GISELLE Z ; DE LIMA, RENATA ; DE CASTRO, VERA LÚCIA ; UMBUZEIRO, GISELA A ; BARBIERI, EDISON ; DURÁN, MARCELA ; MELO, PATRICIA S ; ALVES, OSWALDO L ; FÁVARO, WAGNER J	B2	
artigoEmPeriodico	Diego Stéfani Teodoro Martinez	2015	http://dx.doi.org/10.1186/s12951-015-0114-4	Silver nanoparticle protein corona and toxicity: a mini-review	Journal of Nanobiotechnology	DURÁN, NELSON ; SILVEIRA, CAMILA P. ; DURÁN, MARCELA ; Martinez, Diego Stéfani T.	A2	Journal of Biotechnology
artigoEmPeriodico	Cristiano de Mello Gallep	2015	http://dx.doi.org/10.1002/mop.28796	Fiber link tests of wavelength reuse after amplitude erasure in semiconductor optical amplifier	Microwave and Optical Technology Letters (Print)	Ribeiro, Napoleão S. ; GALLEP, Cristiano de Mello ; CONFORTI, E.	B1	
artigoEmPeriodico	Cristiano de Mello Gallep	2015	http://dx.doi.org/10.1002/bio.2872	Fluorescence decay of dyed protozoa: differences between stressed and non-stressed cysts	Luminescence (Chichester, England Print)	SANTOS, Samuel Ricardo dos ; BRANCO, N. ; Franco, Regina M. B. ; PATERNIANI, J. E. S. ; KATSUMATA, M. ; BARLOW, P. W. ; GALLEP, Cristiano de Mello	Qualis nao identificado	Luminescence (Chichester, England Print)
artigoEmPeriodico	Cristiano de Mello Gallep	2015	http://dx.doi.org/10.1002/mop.29121	Comparison of electro-optical switching performances of dissimilar semiconductor optical amplifiers	Microwave and Optical Technology Letters (Print)	Figueiredo, R. C. ; RIBEIRO, Napoleão dos Santos ; GALLEP, Cristiano de Mello ; CONFORTI, E.	B1	
artigoEmPeriodico	Cristiano de Mello Gallep	2015	http://dx.doi.org/10.1117/1.OE.54.11.114107	Frequency- and time-domain simulations of semiconductor optical amplifiers using equivalent circuit modeling	Optical Engineering (Bellingham. Print)	Figueiredo, R. C. ; RIBEIRO, Napoleão dos Santos ; GALLEP, Cristiano de Mello ; CONFORTI, E.	B1	
artigoEmPeriodico	Cristiano de Mello Gallep	2015	http://dx.doi.org/10.1117/1.OE.54.10.106110	All-optical mitigation of amplitude and phase-shift drift noise in semiconductor optical amplifiers	Optical Engineering (Bellingham. Print)	Rocha, Peterson ; Gallep, Cristiano M. ; Conforti, Evandro	B1	
trabalhoCompletoEmCongresso	Cristiano de Mello Gallep	2015	http://dx.doi.org/10.1109/imoc.2015.7369069	Electro-optical conversion analysis of chip-on-carrier and packaged semiconductor optical amplifiers	2015 SBMO/IEEE MTTS International Microwave and Optoelectronics Conference (IMOC)	FIGUEIREDO, RAFAEL C. ; SUTILI, TIAGO ; RIBEIRO, NAPOLEAO S. ; Conforti, Evandro ; Gallep, Cristiano M.		
trabalhoCompletoEmCongresso	Cristiano de Mello Gallep	2015	http://dx.doi.org/10.1109/IMOC.2015.7369133	Distortion and regeneration of optical 32QAM by semiconductor optical amplifiers	2015 SBMO/IEEE MTTS International Microwave and Optoelectronics Conference (IMOC)	Rocha, Peterson ; Gallep, Cristiano M. ; Conforti, Evandro		
resumoExpandidoEmCongresso	Cristiano de Mello Gallep	2015	All-optical mitigation of non-linear gain in SOA	PIERS 2015 - Progress In Electromagnetics Research Symposium, 2015, Praga. proceed. of. Cambridge USA: The Electromagnetics Academy	GALLEP, Cristiano de Mello; Rocha, Peterson ; CONFORTI, E.		
resumoExpandidoEmCongresso	Cristiano de Mello Gallep	2015	Study of Seedling?s Photon Emission in Earth and Orbital Flight Conditions	COSPAR Symposium 2015, 2015, Foz do Iguaçu. proceed. of	Gallep, Cristiano M.; Mayburov, S. ; Ilyin, V. K.		
artigoEmPeriodico	Cassiana Carolina Montagner Raimundo	2015	http://dx.doi.org/10.4161/23273747.2014.983384	Potential Endocrine Disruptor Activity of Drinking Water Samples	Endocrine Disruptors	SOLANO, M. ; Montagner, Cassiana C. ; VACCARI, C. ; JARDIM, W. F. ; ALSEMO-FRANCI, J. A. ; CAROLINO, R. O. ; LUVIZATTO, J. F. ; UMBUZEIRO, G. A. ; CAMARGO, J. L.	Qualis nao identificado	Endocrine Disruptors
artigoEmPeriodico	Cassiana Carolina Montagner Raimundo	2015		Comparison of two yeast bioluminescent assays applied to water monitoring of estrogenic activity	APPLIED RESEARCH IN TOXICOLOGY	Eldridge, Melanie L. ; FRANCA, D. D. ; MONTAGNER, C.C. ; QUINAGLIA, G. A. ; SAYLER, G. ; JARDIM, W. F. ; UMBUZEIRO, G. A.	Qualis nao identificado	APPLIED RESEARCH IN TOXICOLOGY
trabalhoCompletoEmCongresso	Cassiana Carolina Montagner Raimundo	2015		E-Screen assay validation: evaluation of estrogenic activity by MCF7 cell culture bioassay, in drinking water from different watersheds of São Paulo, Brazil	Aquaculture Europe 2015	MARTINS, A. M. C. R. ; HIPOLITO, M. ; BACH, E. ; DAGLIA, M. L. Z. ; BERSANO, J. G. ; CASSIANO, L. L. ; BOFFONI, L. ; MONTAGNER, C. C. ou RAIMUNDO, C.C.M.		
trabalhoCompletoEmCongresso	José Carlos Magossi	2015		DIMENSÕES DA METODOLOGIA CHAIN: EXPERIÊNCIA E ADERÊNCIA	INOVAÇÕES EM ATIVIDADES CURRICULARES EDIÇÃO 2015 ?POR UM CURRÍCULO ATENTO AOS DESAFIOS DO SÉCULO XXI''	MAGOSSI, José Carlos; OLIVEIRA, A. F.		
trabalhoCompletoEmCongresso	José Carlos Magossi	2015	http://dx.doi.org/10.1063/1.4905969	Shannon's formula and Hartley's rule: A mathematical coincidence?	BAYESIAN INFERENCE AND MAXIMUM ENTROPY METHODS IN SCIENCE AND ENGINEERING (MAXENT 2014)	RIOUL, OLIVIER ; MAGOSSI, JOSÉ CARLOS		
trabalhoCompletoEmCongresso	José Carlos Magossi	2015		Perspectivas Metodológicas para o Ensino de Matemática: para além da racionalidade instrumental	III Simpósio Internacional de Inovação em Educação	MAGOSSI, JOSÉ CARLOS; OLIVEIRA, A. F.		
artigoEmPeriodico	Ivan Luiz Marques Ricarte	2015		Gestão do Conhecimento em Empresas de Desenvolvimento Ágil de Software: Conceitos e Práticas Essenciais	Journal on Advances in Theoretical and Applied Informatics	SAKAI, E. ; RICARTE, I. L. M.	Qualis nao identificado	Journal on Advances in Theoretical and Applied Informatics
trabalhoCompletoEmCongresso	Ivan Luiz Marques Ricarte	2015	http://dx.doi.org/10.3233/978-1-61499-564-7-55	Identification of Patient Safety Risks Associated with Electronic Health Records: A Software Quality Perspective	MEDINFO - World Congress on Health and Biomedical Informatics	VIRGINIO JUNIOR, L. A. ; RICARTE, I. L. M.		
trabalhoCompletoEmCongresso	Ivan Luiz Marques Ricarte	2015		Técnicas e Fatores que Promovem a Criação de Conhecimento no Desenvolvimento de Software	Congresso Internacional de Conhecimento e Inovação	SAKAI, E. ; RICARTE, I. L. M.		
resumoExpandidoEmCongresso	Ivan Luiz Marques Ricarte	2015	Investigação de Estratégias de Mitigação de Riscos para a Segurança do Paciente Associados aos Sistemas de Registro Eletrônico de Saúde	Encontro dos Alunos e Docentes do Departamento de Engenharia de Computação e Automação Industrial, 2015, Campinas. VIII Encontro dos Alunos e Docentes do Departamento de Engenharia de Computação e Automação Industrial. Campinas: DCA-UNICAMP	VIRGINIO JUNIOR, L. A. ; RICARTE, I. L. M.		
artigoEmPeriodico	Celmar Guimarães da Silva	2015		VisSed Software as a tool in monitoring programs for benthic data interpretation	RevInter	Flynn, M.N. ; SILVA, C. G. ; SUMIDA, P. Y. G. ; GUTH, A. Z. ; ALVES, B. G. R. ; UMBUZEIRO, G.A.	B5	
artigoEmPeriodico	Renato Falcão Dantas	2015	http://dx.doi.org/10.1080/09593330.2014.995235	Oestrogenicity assessment of s-triazines by-products during ozonation	Environmental Technology	Samanta Pereira ; SOUZA, BRUNO S. ; DANTAS, R. F. ; SANS, Carme ; ESPLUGAS, Santiago ; Marcia Dezotti	A2	
artigoEmPeriodico	Renato Falcão Dantas	2015	http://dx.doi.org/10.1016/j.apcatb.2015.04.007	Photocatalytic treatment of metoprolol with B-doped TiO2: Effect of water matrix, toxicological evaluation and identification of intermediates	Applied Catalysis. B, Environmental (Print)	CAVALCANTE, R. P. ; Dantas, Renato F. ; BAYARRI, BERNARDÍ ; GONZALES, Oscar ; GIMÉNEZ, JAIME ; ESPLUGAS, Santiago ; MACHULEK JUNIOR, A.	A1	
artigoEmPeriodico	Renato Falcão Dantas	2015	http://dx.doi.org/10.1002/jctb.4711	Catalytic studies for the abatement of emerging contaminants by ozonation	Journal of Chemical Technology and Biotechnology (1986)	MARTINS, R. C. ; CARDOSO, M. ; DANTAS, R. F. ; SANS, Carmen ; ESPLUGAS, Santiago ; FERREIRA, R. M. Q.	A2	
artigoEmPeriodico	Renato Falcão Dantas	2015	http://dx.doi.org/10.1016/j.apcatb.2015.05.025	Study of Fe(III)-NTA chelates stability for applicability in photo-Fenton at neutral pH	Applied Catalysis. B, Environmental (Print)	de Luca, Antonella ; DANTAS, R. F. ; Esplugas, S.	A1	
artigoEmPeriodico	Renato Falcão Dantas	2015	http://dx.doi.org/10.1002/jsfa.7258	Kinetic studies of the reaction between pesticides and hydroxyl radical generated by laser flash photolysis	Journal of the Science of Food and Agriculture	GOZZI, F. ; OLIVEIRA, S. C. ; DANTAS, R. F. ; SILVA, V. O. ; QUINA, F. H. ; MACHULEK JR, A.	A2	
artigoEmPeriodico	Renato Falcão Dantas	2015	http://dx.doi.org/10.1080/01919512.2015.1053427	Ozone/H o Performance on the Degradation of Sulfamethoxazole	Ozone: Science & Engineering	MARTINS, R. C. ; DANTAS, R. F. ; SANS, Carmen ; ESPLUGAS, Santiago ; FERREIRA, R. M. Q.	Qualis nao identificado	Ozone: Science & Engineering
artigoEmPeriodico	Renato Falcão Dantas	2015	http://dx.doi.org/10.1016/j.seppur.2015.09.052	Removal of organophosphate esters from municipal secondary effluent by ozone and UV/H2O2 treatments	Separation and Purification Technology (Print)	YUAN, X. ; LACORTE, S. ; CRISTALE, J. ; DANTAS, R. F. ; SANS, Carmen ; ESPLUGAS, Santiago ; QIANG, Z.	A2	
artigoEmPeriodico	Renato Falcão Dantas	2015	http://dx.doi.org/10.5935/0103-5053.20150293	Use of Natural Rubber Membranes as Support for Powder TiO <sub>2</sub> and Ag/TiO <sub>2</sub> Photocatalysts	Journal of the Brazilian Chemical Society (Impresso)	STROPA, J. M. ; HERRERO, A. S. ; OLIVEIRA, S. C. ; CAVALHEIRO, A. A. ; DANTAS, R. F. ; OLIVEIRA, S. L. ; MACHULEK JR, A. ; OLIVEIRA, L. C.	A2	
artigoEmPeriodico	Renato Falcão Dantas	2015	http://dx.doi.org/10.1007/s11356-014-2678-1	Synthesis and characterization of TiO2 and TiO2/Ag for use in photodegradation of methylviologen, with kinetic study by laser flash photolysis	Environmental Science and Pollution Research	RAMOS, DAYANA DOFFINGER ; BEZERRA, PAULA C. S. ; QUINA, FRANK H. ; Dantas, Renato F. ; CASAGRANDE, GLEISON A. ; OLIVEIRA, SILVIO C. ; OLIVEIRA, MÁRCIO R. S. ; OLIVEIRA, LINCOLN C. S. ; FERREIRA, VALDIR S. ; OLIVEIRA, SAMUEL L. ; MACHULEK, AMILCAR	A2	
trabalhoCompletoEmCongresso	Renato Falcão Dantas	2015		Assessment of Fe(III)-NTA use in photo-Fenton at neutral pH	Ozone and advanced oxidation leading-edge science and technologies	de Luca, Antonella ; ESPLUGAS, Santiago ; DANTAS, R. F.		
artigoEmPeriodico	Regina Lúcia de Oliveira Moraes	2015	http://dx.doi.org/10.5753/rbie.2015.23.02.60	Desenvolvimento de um jogo educativo para crianças com hemofilia	Revista Brasileira de Informática na Educação	MATSUNAGA, ROBERTA MAYUMI ; MORAES, REGINA LÚCIA DE OLIVEIRA ; BORGES, MARCOS AUGUSTO FRANCISCO	B1	
trabalhoCompletoEmCongresso	Regina Lúcia de Oliveira Moraes	2015		Requirements, Design and Evaluation of a Privacy Reference Architecture for Web Applications and Services	The 30th ACM/SIGAPP Symposium On Applied Computing	BASSO, T. ; MORAES, R. ; JINO, M. ; VIEIRA, M.		
trabalhoCompletoEmCongresso	Regina Lúcia de Oliveira Moraes	2015		A Database Framework for Expressing and Enforcing Personal Privacy Preferences	XVI Workshop de Testes e Tolerância a Falhas - WTF2015	BASSO, T. ; PIARDI, L. ; MORAES, R. ; JINO, M. ; ANTUNES, N. ; VIEIRA, M.		
trabalhoCompletoEmCongresso	Regina Lúcia de Oliveira Moraes	2015		An Approach to Clustering and Sequencing Textual Requirements	IEEE/IFIP Int. Conference on Dependable Computing and Network	BARBOSA, R. ; JANUARIO, D. ; SILVA, A. E. A. ; MORAES, R. ; Martins, P.		
trabalhoCompletoEmCongresso	Regina Lúcia de Oliveira Moraes	2015		Towards a UML Profile for Privacy-Aware Applications	The 15th IEEE International Conference on Computer and Information Technology - CIT2015	BASSO, T. ; MONTECCHI, L. ; MORAES, R. ; JINO, M. ; BONDAVALLI, A.		
trabalhoCompletoEmCongresso	Regina Lúcia de Oliveira Moraes	2015		Analyzing the Behavior of Communication Faults in ad-hoc Networks	6TH INTERNATIONAL CONFERENCE AND WORKSHOP ON COMPUTING AND COMMUNICATION (IEMCON 2015)	LEME, E. ; NOGAROTTO, D. ; MORAES, R. ; Martins, P.		
resumoExpandidoEmCongresso	Regina Lúcia de Oliveira Moraes	2015	Adaptação de métodos de avaliação de acessibilidade e usabilidade com foco no uso de dispositivos móveis por idosos	XIV Simpósio Brasileiro sobre Fatores Humanos em Sistemas Computacionais (IHC 2015),, 2015, Salvador. Proc. do XIV Simpósio Brasileiro sobre Fatores Humanos em Sistemas Computacionais (IHC 2015),	CASARE, A. ; MORAES, R. ; SILVA, C. G.		
artigoEmPeriodico	Paulo Sergio Martins Pedro	2015	http://dx.doi.org/10.2166/wpt.2015.050	Management of inflow forecasting studies	Water Practice and Technology	HIDALGO, I. G. ; BARBOSA, P. ; FRANCATO, A. ; LUNA, I. ; Martins, P. S.	Qualis nao identificado	Water Practice and Technology
artigoEmPeriodico	Paulo Sergio Martins Pedro	2015	http://dx.doi.org/10.1016/j.phpro.2015.08.187	Evaluation of mechanical losses in piezoelectric plates using genetic algorithm.	Physics Procedia	Arnold, F. J. ; Gonçalves, M. S. ; MASSARO JR, F. ; Pedro, P ou Martins, P.	Qualis nao identificado	Physics Procedia
artigoEmPeriodico	Paulo Sergio Martins Pedro	2015	http://dx.doi.org/10.1016/j.jnca.2015.10.007	Case studies of performance evaluation of cryptographic algorithms for an embedded system and a general purpose computer	Journal of Network and Computer Applications	SILVA, NATSSYA B.F. ; PIGATTO, DANIEL F. ; Martins, Paulo S. ; BRANCO, KALINKA R.L.J.C	Qualis nao identificado	Journal of Network and Computer Applications
trabalhoCompletoEmCongresso	Paulo Sergio Martins Pedro	2015	http://dx.doi.org/10.1109/DSN-W.2015.20	An Approach to Clustering and Sequencing of Textual Requirements	2015 IEEE International Conference on Dependable Systems and Networks Workshops (DSNW)	BARBOSA, RICARDO ; JANUARIO, DANIELE ; SILVA, ANA ESTELA ; MORAES, REGINA ; MARTINS, PAULO		
trabalhoCompletoEmCongresso	Paulo Sergio Martins Pedro	2015		Increasing the Efficiency of the Brazilian Power Grid	DINCON	PAIVA, W. R. ; Martins, P. S. ; Angelis, A.		
trabalhoCompletoEmCongresso	Paulo Sergio Martins Pedro	2015		Performance Evaluation of Asymmetric and Symmetric Cryptographic Algorithms for Embedded Systems	SBAI	SILVA, N. ; PIGATTO, D. F. ; PIRES, R. M. ; Martins, Paulo S. ; BRANCO, K. R. L. J. C.		
trabalhoCompletoEmCongresso	Paulo Sergio Martins Pedro	2015		'Increasing Interlocked-Pavements Sustainability via Rubber-tire Particles and a Monte-Carlo Based Approach'	IBRACON	Ursini, E. L. ; SILVA, R. F. ; LINTZ, R. C. C. ; GACHET, L. B. ; Martins, P. S.		
trabalhoCompletoEmCongresso	Paulo Sergio Martins Pedro	2015		Modeling and Simulation Applied to the Dimensioning of IP Stream-Traffic Links with Incremental Validation	Winter Simulation Conference 2015	Ursini, E. L. ; MASSARO JR, F. ; TIMOTEO, V. S. ; Martins, Paulo S.		
artigoEmPeriodico	Patricia Prediger	2015	http://dx.doi.org/10.1002/anie.201500401	Macrodiolide Formation by the Thioesterase of a Modular Polyketide Synthase	Angewandte Chemie (International ed. Print)	P. PREDIGER,; ZHOU, Y. ; LEADLAY, P. ; DIAS, L. C. ; MURPHY, ANNABEL C.	Qualis nao identificado	Angewandte Chemie (International ed. Print)
artigoEmPeriodico	Patricia Prediger	2015	http://dx.doi.org/10.1016/j.chembiol.2015.05.010	Iterative Mechanism of Macrodiolide Formation in the Anticancer Compound Conglobatin	Chemistry & Biology (London)	ZHOU, Y. ; MURPHY, ANNABEL C. ; SAMBORSKYY, M. ; PREDIGER, PATRICIA ; DIAS, L. C. ; LEADLAY, P.	Qualis nao identificado	Chemistry & Biology (London)
artigoEmPeriodico	Maurea Nicoletti Flynn	2015		VisSed Software as a tool in monitoring programs for benthic data interpretation	RevInter	Flynn, M.N. ; SILVA, C. G. ; SUMIDA, P. Y. G. ; GUTH, A. Z. ; ALVES, B. G. R. ; UMBUZEIRO, G.A.	B5	
artigoEmPeriodico	Maurea Nicoletti Flynn	2015		Biologia populacional de Parhyale hawaiensis associada ao fital, Itanhém, São Paulo.	RevInter	Alegretti, L ; UMBUZEIRO, G. A. ; FLYNN, M. N.	B5	
artigoEmPeriodico	Marta Siviero Guilherme Pires	2015		Diferentes formas de aplicação da semente de Moringa oleifera no tratamento de água	Revista Brasileira de Engenharia Agrícola e Ambiental (Online)	ARANTES, C. C. ; PATERNIANI, J. E. S. ; RODRIGUES, D. S. ; HATORI, P. S. ; PIRES, M. S. G.	B1	
trabalhoCompletoEmCongresso	Marta Siviero Guilherme Pires	2015		CARACTERIZAÇÃO FÍSICO-QUÍMICA E ANÁLISE FITOTOXICOLÓGICA EM AMOSTRAS DE LODO DE ESGOTO	28º Congresso Brasileiro de Engenharia Sanitária e Ambiental	VACCARO, S. ; ZANATTA, M. C. K. ; BUENO, A. A. ; DRAGONI SOBRINHO, GERALDO ; PIRES, M. S. G.		
trabalhoCompletoEmCongresso	Marta Siviero Guilherme Pires	2015		ESTUDO TEÓRICO E EXPERIMENTAL DE MEDIDORES DE VAZÃO BASEADOS EM PRESSÃO DIFERENCIAL	VIII Simpósio Brasileiro de Engenharia Ambiental ? VIII SBEA	BRESSAN, C. K. ; OLIVEIRA, E. C. M. ; OLIVEIRA, W. D. ; SILVA, M. O. M. ; PIRES, M. S. G. ; Ribeiro, L.C.L.J		
trabalhoCompletoEmCongresso	Marta Siviero Guilherme Pires	2015		ESTUDO DA TÉCNICA E DO MODELO NUMÉRICO DE SIMULAÇÃO DE FLUIDODINÂMICA COMPUTACIONAL (CFD) PARA TUBO VENTURI	VIII Simpósio Brasileiro de Engenharia Ambiental ? VIII SBEA	OLIVEIRA, W. D. ; OLIVEIRA, E. C. M. ; SILVA, M. O. M. ; PIRES, M. S. G. ; Ribeiro, L.C.L.J		
trabalhoCompletoEmCongresso	Marta Siviero Guilherme Pires	2015		Avaliação da eficiência de uma wetland construída, em escala de laboratório, no pós tratamento de efluentes domésticos	2º Simpósio Brasileiro sobre Wetlands Construídas	MOURÃO, JADE R. ; Silva, M A V ; ARRUDA, D. S. ; RIBEIRO, L. C. L. J. ; PIRES, M. S. G.		
trabalhoCompletoEmCongresso	Maria Aparecida Carvalho de Medeiros	2015		Investigation of Removal of Natural and Synthetic Hormones in Water Treatments using Ozonation and Liquid Chromatography?Tandem Mass Spectrometry	3rd Conference on Emerging Frontiers for Sustainable Water. A Trilateral Partnership Africa-India-UK	MEDEIROS, M. A. C.; Oliveira, A. F. ; TREVIZAN, L. R. P. ; SIQUEIRA, S.		
trabalhoCompletoEmCongresso	Maria Aparecida Carvalho de Medeiros	2015		Analysis of alternative oxidants and disinfectants applied in water treatment to minimize the formation of disinfection by-products	. 3rd Conference on Emerging Frontiers for Sustainable Water. A Trilateral Partnership Africa-India-UK	MEDEIROS, M. A. C.; RODRIGUES, E. A. M. ; Oliveira, A. F. ; FAUSTINO, N. C. ; ROCHA, A. S.		
artigoEmPeriodico	Marcos Augusto Francisco Borges	2015	http://dx.doi.org/10.5753/rbie.2015.23.02.60	Desenvolvimento de um jogo educativo para crianças com hemofilia	Revista Brasileira de Informática na Educação	MATSUNAGA, ROBERTA MAYUMI ; MORAES, REGINA LÚCIA DE OLIVEIRA ; BORGES, MARCOS AUGUSTO FRANCISCO	B1	
trabalhoCompletoEmCongresso	Marco Antonio Garcia de Carvalho	2015		Fronteras en el desenvolvimiento Tecnológico: Una visión de las distancia entre países en la prevención del cáncer de útero	VII Seminário de Pesquisa Interdisciplinar	FRANCO, R. A. S. ; CARVALHO, M.A.G.		
trabalhoCompletoEmCongresso	Luiz Camolesi Júnior	2015	http://dx.doi.org/10.1007/978-3-319-16486-1_4	Refactoring Rules for Graph Database	World Conference on Information Systems and Technologies (WorldCIST)	FONSECA, A. M. ; CAMOLESI Jr., Luiz		
trabalhoCompletoEmCongresso	Luiz Camolesi Júnior	2015		Aplicação do Processo de Descoberta de Conhecimento em Base de Dados Agrícola para Reconhecimento de Fatores que Impactam na Produtividade da Cana- de-Açúcar	Congresso Nacional de Excelência em Gestão (CNEG)	GARCIA, Ederson ; CAMOLESI Jr., Luiz		
trabalhoCompletoEmCongresso	Luiz Camolesi Júnior	2015		Classificação de Fatores que mais Impactam a Produtividade da Cana-de-Açúcar usando mineração de dados	Congresso Brasileiro de Agroinformática (SBIAgro)	GARCIA, Ederson ; CAMOLESI Jr., Luiz		
resumoExpandidoEmCongresso	Luiz Camolesi Júnior	2015	Ambientes Virtuais de Aprendizagem: Técnica Quantitativa e Enfoques Pedagógicos	Congresso Integrado da Tecnologia da Informação (CITI), 2015, Campos dos Goytacazes (RJ). Anais do 8o Congresso Integrado da Tecnologia da Informação. Campos dos Goytacazes (RJ): Instituto Federal Fluminense - IFF	FORBECK, Vera Lúcia A. ; CAMOLESI Jr., Luiz		
artigoEmPeriodico	Rangel Arthur	2015	http://dx.doi.org/10.1016/j.phpro.2015.03.019	A Driver for Piezoelectric Transducers with Control of Resonance	Physics Procedia	ARNOLD, F.J. ; XIMENES, R.L. ; ARTHUR, R. ; MÜHLEN, S.S.	Qualis nao identificado	Physics Procedia
trabalhoCompletoEmCongresso	Rangel Arthur	2015		Implementation of a Fixed-Point Gaussian Filter for Image Processing based on FPGA	IEEE SPA2015 - ALGORITHMS	CABELLO, F. ; LEON, J. ; IANO, YUZO ; ARTHUR, R.		
trabalhoCompletoEmCongresso	Rangel Arthur	2015	http://dx.doi.org/10.1109/cbms.2015.65	Segmentation of Foveal Avascular Zone of the Retina Based on Morphological Alternating Sequential Filtering	2015 IEEE 28th International Symposium on ComputerBased Medical Systems (CBMS)	SILVA, ALEXANDRE GONCALVES ; FOUTO, MARINA SILVA ; SILVA, ANDRE TAVARES DA ; ARTHUR, RANGEL ; ARTHUR, ANGELICA MOISES ; IANO, YUZO ; FARIA, JACQUELINE MENDONCA LOPES DE		
trabalhoCompletoEmCongresso	Rangel Arthur	2015		On the design of an OFDM Transmission System with Rapid Prototyping Tools	Brazilian Technology Symposium	PAULINO, G. ; ARTHUR, R.		
artigoEmPeriodico	Ana Estela Antunes da Silva	2015		A Clustering Method for Weak Signals to Support Anticipative Intelligence	International Journal of Artificial Intelligence and Expert Systems	MOREIRA, A. L. M. ; HAYASHI, T. W. N. ; COELHO, G. P. ; SILVA, A. E. A.	B4	
artigoEmPeriodico	Ana Estela Antunes da Silva	2015	http://dx.doi.org/10.1590/1678-69712015/administracao.v16n4p231-258	OBSOLESCÊNCIA ACELERADA DE PRODUTOS TECNOLÓGICOS E OS IMPACTOS NA SUSTENTABILIDADE DA PRODUÇÃO	RAM. Revista de Administração Mackenzie (Online)	ZAMBON, ANTONIO CARLOS ; SILVA, ANA ESTELA ANTUNES DA ; BAIOCO, GISELE BUSICHIA ; GRADVOHL, ANDRÉ LEON SAMPAIO ; NUNES, PEDRO IVO GARCIA	B1	
artigoEmPeriodico	Ana Estela Antunes da Silva	2015		Using ensembles of artificial neural networks to improve PM10 forecasts	Chemical Engineering Transactions	SOUZA, R. M. S. ; COELHO, G. P. ; Silva, Ana Estela A. ; POZZA, S. A.	B2	
trabalhoCompletoEmCongresso	Ana Estela Antunes da Silva	2015	http://dx.doi.org/10.1109/DSN-W.2015.20	An Approach to Clustering and Sequencing of Textual Requirements	2015 IEEE International Conference on Dependable Systems and Networks Workshops (DSNW)	BARBOSA, RICARDO ; JANUARIO, DANIELE ; SILVA, ANA ESTELA ; MORAES, REGINA ; MARTINS, PAULO		
trabalhoCompletoEmCongresso	Jaime Portugheis	2015	http://dx.doi.org/10.1109/iwt.2015.7224567	Demodulator quantization of coded OOK FSO systems over atmospheric turbulence channels	2015 International Workshop on Telecommunications (IWT)	RUNGE, CRISTHOF J. R. ; PORTUGHEIS, JAIME		
trabalhoCompletoEmCongresso	Jaime Portugheis	2015		Medidas de Canal para Comunicação Óptica pelo Espaço Livre	XXXIII Simpósio Brasileiro de Telecomunicações	RUNGE, C. J. R. ; DA SILVA, M. V. ; PORTUGHEIS, J.		
artigoEmPeriodico	Ieda Geriberto Hidalgo	2015	http://dx.doi.org/10.2166/wpt.2015.050	Management of inflow forecasting studies	Water Practice and Technology	HIDALGO, I. G.; BARBOSA, P. S. F. ; FRANCATO, A. L. ; LUNA, I. ; CORREIA, P. B. ; Pedro, P. S. M.	Qualis nao identificado	Water Practice and Technology
artigoEmPeriodico	Ieda Geriberto Hidalgo	2015	http://dx.doi.org/10.1155/2015/701851	Metaheuristic Approaches for Hydropower System Scheduling	Journal of Applied Mathematics	HIDALGO, I. G.; BARROS, R. S. ; FERNANDES, J. P. T. ; ESTRÓCIO, J. P. F. ; CORREIA, P. B.	B1	IMA Journal of Applied Mathematics
trabalhoCompletoEmCongresso	Ieda Geriberto Hidalgo	2015		Metaheurística Aplicada na Otimização do Despacho Dinâmico de Unidades Hidrelétricas Considerando Curvas de Eficiência Individualizadas	VII Congresso de Inovação Tecnológica em Energia Elétrica (VIII CITENEL)	CORREIA, PAULO B. ; Hidalgo, Ieda G. ; FERNANDES, JÉSSICA P. T. ; DE BARROS, REGIANE S. ; ESTRÓCIO, JOÃO PAULO F.		
artigoEmPeriodico	Eloisa Dezen Kempter	2015	http://dx.doi.org/10.20396/parc.v6i3.8635020	Questões de localização e conectividade na avaliação de qualidade urbana em empreendimentos de habitação de interesse social em Indaiatuba	PARC : Pesquisa em Arquitetura e Construção	DEZEN-KEMPTER, ELOISA; ANHAIA, J. C. ; TERRA, L.	B3	
artigoEmPeriodico	Eloisa Dezen Kempter	2015	http://dx.doi.org/10.11606/gtp.v10i2.102710	ESCANEAMENTO 3D A LASER, FOTOGRAMETRIA E MODELAGEM DA INFORMAÇÃO DA CONSTRUÇÃO PARA GESTÃO E OPERAÇÃO DE EDIFICAÇÕES HISTÓRICAS	Gestão & Tecnologia de Projetos	DEZEN-KEMPTER, ELOISA; SOIBELMAN, LUCIO ; CHEN, MEIDA ; MÜLLER FILHO, ALEXANDRE VICTOR	Qualis nao identificado	Gestão & Tecnologia de Projetos
trabalhoCompletoEmCongresso	Eloisa Dezen Kempter	2015	http://dx.doi.org/10.13140/RG.2.1.3468.7441	An integrated laser and image surveying approach in support of model-based information technology for inventory of campus historic buildings	32rd international CIB W78 conference	DEZEN-KEMPTER, ELOISA; SOIBELMAN, L. ; CHEN, M. ; MULLER FILHO, A. V.		
resumoExpandidoEmCongresso	Eloisa Dezen Kempter	2015	Incorporation of Sludge WTP in mortars	The 9th International Conference on the Environmental and Technical Implications of Construction with Alternative Materials ?WASCON 2015 ? Resource Efficiency in Construction?, 2015, Santander. Book of extended abstracts of WASCON 2015 ? Resource Efficiency in Construction. Santander: Universidad de Cantabria	FERREIRA, G. C. S. ; KEMPTER, E. D. ; PIRES, M. S. G. ; SARRO, W. ; LINTZ, R. C. C. ; RIBEIRO, L. C. L. J. ; BARBOSA, L. A. G.		
resumoExpandidoEmCongresso	Eloisa Dezen Kempter	2015	O diálogo entre o antigo e o moderno: Análise Digital do novo prédio para o Colégio Técnico de Campinas - Cotuca	XXIII Congresso de Iniciação Científica da Unicamp, 2015	DEZEN KEMPTER, ELOISA; CAROLINE PAVANI, TAÍS		
artigoEmPeriodico	Elaine Cristina Catapani Poletti	2015		Método de Identificação do Leite Cru Adulterado via Ultrassom e Regras Fuzzy	Biomatemática (UNICAMP)	ALVES, LAURA B. ; POLETTI, ELAINE CRISTINA CATAPANI ; ARNOLD, F. J.	B5	
artigoEmPeriodico	Elaine Cristina Catapani Poletti	2015	http://dx.doi.org/10.1504/ijhst.2015.071349	Efficient mathematical model to verify the leaching process effect in a watercourse	International Journal of Hydrology Science and Technology	CUNHA, A. C. ; POLETTI, E. C. C.	Qualis nao identificado	International Journal of Hydrology Science and Technology
artigoEmPeriodico	Marcos Sergio Goncalves	2015		Finite Element Method to Improve the Computational Performance in Optical Devices Analysis	Microwave and Optical Technology Letters (Print)	CLAUDIO, K. ; SANTOS, C. H. S. ; GONCALVES, M. S. ; HERNANDEZ-FIGUEROA, Hugo Enrique	B1	
artigoEmPeriodico	Marcos Sergio Goncalves	2015	http://dx.doi.org/10.1016/j.phpro.2015.08.187	Evaluation of mechanical losses in piezoelectric plates using genetic algorithm.	Physics Procedia	Arnold, F. J. ; Gonçalves, M. S. ; MASSARO JR, F. ; Pedro, P ou Martins, P.	Qualis nao identificado	Physics Procedia
resumoExpandidoEmCongresso	Marcos Sergio Goncalves	2015	Análise Numérica de Filtros Ópticos Através do Método dos Elementos Finitos e Algoritmo Genético	Congressos de Iniciação Científica da UNICAMP, 2015, Campinas. Congressos de Iniciação Científica da UNICAMP	MARANGONI, J. V. ; Goncalves, Marcos Sergio		
artigoEmPeriodico	Guilherme Palermo Coelho	2015		A Clustering Method for Weak Signals to Support Anticipative Intelligence	International Journal of Artificial Intelligence and Expert Systems	MOREIRA, A. L. M. ; HAYASHI, T. W. N. ; COELHO, G. P. ; SILVA, A. E. A.	B4	
artigoEmPeriodico	Guilherme Palermo Coelho	2015		Using ensembles of artificial neural networks to improve PM10 forecasts	Chemical Engineering Transactions	SOUZA, R. M. S. ; COELHO, G. P. ; Silva, Ana Estela A. ; POZZA, S. A.	B2	
artigoEmPeriodico	Gisleiva Cristina dos Santos Ferreira	2015	http://dx.doi.org/10.7763/ijet.2015.v7.820	Inspection of Historic Building Facades for a Development of Restoration Project	International Journal of Engineering and Technology (IJET)	GALLETTO, ADRIANA ; MARIO ANDRELLO, JOSÉ ; C. SANTOS FERREIRA, GISLEIVA	Qualis nao identificado	International Journal of Engineering and Technology (IJET)
artigoEmPeriodico	Gisleiva Cristina dos Santos Ferreira	2015	http://dx.doi.org/10.7763/IJET.2015.V7.818	Elastic Constants of Grout by Ultrasound	International Journal of Engineering and Technology (IJET)	C. S. FERREIRA, GISLEIVA; GUILHERME A. FAVARIN, LUIS ; MACEDO, GABRIELLA	Qualis nao identificado	International Journal of Engineering and Technology (IJET)
artigoEmPeriodico	Gisleiva Cristina dos Santos Ferreira	2015	http://dx.doi.org/10.1080/00207233.2015.1067467	Functional and environmental performance of waste foundry sand applied in landfills	International Journal of Environmental Studies	DOMINGUES, L. G. F. ; FERREIRA, G. C. S.	B3	
artigoEmPeriodico	Gisleiva Cristina dos Santos Ferreira	2015		VIABILIDADE ECONÔMICA DA APLICAÇÃO FUNCIONAL DE UMA MISTURA DE SOLO COM AREIA DESCARTADA DE FUNDIÇÃO (ADF) EM ATERROS SANITÁRIOS	Revista da Abifa	DOMINGUES, L. G. F. ; FERREIRA, G. C. S.	B4	Revista da ABPI
trabalhoCompletoEmCongresso	Gisleiva Cristina dos Santos Ferreira	2015		INSPEÇÃO E ENDs EM PILARES DE CONCRETO ARMADO APÓS SITUAÇÃO DE INCÊNDIO	COTEQ - 13ª Conferência sobre Tecnologia de Equipamentos	GALLETTO, ADRIANA ; FERREIRA, G. C. S.		
trabalhoCompletoEmCongresso	Gisleiva Cristina dos Santos Ferreira	2015		Influencia da granulometria e umidade nas propriedades de solos a partir de ensaios destrutivos e não destrutivos	XXIX ANPET ? Congresso de Pesquisa e Ensino em Transportes	MACEDO, G. ; FERREIRA, G. C. S. ; TEIXEIRA, I. ; CARDOSO, S. M. ; SARRO, W. S.		
trabalhoCompletoEmCongresso	Gisleiva Cristina dos Santos Ferreira	2015		Comportamento de concretos e argamassas com adição de cinza volante da queima de carvão mineral da produção de alumínio	57 Congresso Brasileiro do concreto - CBC	ALTHEMAN, D. ; FERREIRA, G. C. S. ; MONTINI, M. ; GALLO, J. B. ; ROCHA, A. I. B. C.		
trabalhoCompletoEmCongresso	Gisleiva Cristina dos Santos Ferreira	2015		A TÉCNICA DE ULTRASSOM NA IDENTIFICAÇÃO DE PATOLOGIAS EM CONCRETO	57 Congresso Brasileiro do Concreto - CBC	ROCHA, A. I. B. C. ; GALLETTO, ADRIANA ; FERREIRA, L. G. ; FERREIRA, G. C. S.		
trabalhoCompletoEmCongresso	Gisleiva Cristina dos Santos Ferreira	2015		TÉCNICA DE ULTRASSOM APLICADA NA INSPEÇÃO DE EDIFICAÇÕES CONSTRUÍDAS EM SOLO COMPACTADO	57 Congresso Brasileiro do Concreto - CBC	SARRO, W. S. ; FERREIRA, G. C. S. ; GALLETTO, ADRIANA		
resumoExpandidoEmCongresso	Gisleiva Cristina dos Santos Ferreira	2015	Incorporation of Sludge WTP in mortars	The 9th International Conference on the Environmental and Technical Implications of Construction with Alternative Materials ?WASCON 2015 ? Resource Efficiency in Construction?, 2015, Santander. Book of extended abstracts of WASCON 2015 ? Resource Efficiency in Construction. Santander: Universidad de Cantabria	FERREIRA, G. C. S.; SARRO, W. S. ; PIRES, M. S. G. ; DEZEN-KEMPTER, E. ; LINTZ, R. C. C. ; RIBEIRO, L. C. L. J. ; BARBOSA, L. A. G. ; MUKAI, R.		
resumoExpandidoEmCongresso	Gisleiva Cristina dos Santos Ferreira	2015	PARÂMETROS AMBIENTAIS E MECÂNICOS DE ARGAMASSAS COM ADF	IV Simpósio sobre Resíduos Sólidos, 2015, São Carlos, SP. IV Simpósio sobre Resíduos Sólidos. São Carlos, SP: USP - São Carlos	SARRO, W. S. ; CARDOSO, S. M. ; ROCHA, H. L. ; DOMINGUES, L. G. F. ; BUENO, G. M. ; FERREIRA, G. C. S.		
resumoExpandidoEmCongresso	Gisleiva Cristina dos Santos Ferreira	2015	APPLICATION OF ELECTRICAL INSULATOR PORCELAIN WASTE IN MANUFACTURING CONCRETE PIECES FOR PAVIMENTATION	XXIII Congresso de Iniciação Científica da Unicamp, 2015, Campinas, SP. XXIII Congresso de Iniciação Científica da Unicamp. Campinas, SP: UNICAMP	BERENGUER, H. C. ; FERREIRA, G.C.S.		
resumoExpandidoEmCongresso	Gisleiva Cristina dos Santos Ferreira	2015	Correlation between the speed of the superficial and longitudinal ultrasonic pulse onto soil-cement mini ? panels	XXIII Congresso de Iniciação Científica da UNICAMP, 2015, Campinas, SP. XXIII Congresso de Iniciação Científica da UNICAMP. Campinas, SP: UNICAMP	NAGASAKA, G. M. ; FERREIRA, G. C. S.		
resumoExpandidoEmCongresso	Gisleiva Cristina dos Santos Ferreira	2015	Modulus of elasticity for mortars containing discarded waste foundry sand (WFS)	XXIII Congresso de Iniciação Científica da Unicamp, 2015, Campinas, SP. XXIII Congresso de Iniciação Científica da Unicamp. Campinas, SP: UNICAMP	ROCHA, H. L. ; FERREIRA, G. C. S.		
resumoExpandidoEmCongresso	Gisleiva Cristina dos Santos Ferreira	2015	Concrete waste application to the manufacturing of pieces for paving	XXIII Congresso Interno de Iniciação Científica, 2015, Campinas, SP. XXIII Congresso Interno de Iniciação Científica. Campinas, SP: UNICAMP	FERREIRA, G. C. S.; HIRANO, S. C.		
resumoExpandidoEmCongresso	Gisleiva Cristina dos Santos Ferreira	2015	Correlation between dynamic and static modulus of elasticity in mini panels of soil-cement	XXIII Congresso de Iniciação Científica da Unicamp, 2015, Campinas, SP. XXIII Congresso de Iniciação Científica da Unicamp. Campinas, SP: UNICAMP	SARRO, W. S. ; FERREIRA, G. C. S.		
resumoExpandidoEmCongresso	Gisleiva Cristina dos Santos Ferreira	2015	Application of waste foundry sand (WFS) in civil construction	XXIII Congresso de Iniciação Científica da Unicamp, 2015, Campinas, SP. XXIII Congresso de Iniciação Científica da Unicamp. Campinas, SP: UNICAMP	FERREIRA, G. C. S.; DOMINGUES, L. G. F. ; SARRO, W. S. ; MACEDO, G. ; SILVA, G. C. ; BIANCHI, M. ; ROMERO, S. A. ; GEORGINI, M. A.		
artigoEmPeriodico	Gisele Busichia Baioco	2015	http://dx.doi.org/10.1590/1678-69712015/administracao.v16n4p231-258	OBSOLESCÊNCIA ACELERADA DE PRODUTOS TECNOLÓGICOS E OS IMPACTOS NA SUSTENTABILIDADE DA PRODUÇÃO	RAM. Revista de Administração Mackenzie (Online)	ZAMBON, ANTONIO CARLOS ; SILVA, ANA ESTELA ANTUNES DA ; BAIOCO, GISELE BUSICHIA ; GRADVOHL, ANDRÉ LEON SAMPAIO ; NUNES, PEDRO IVO GARCIA	B1	
artigoEmPeriodico	Gisela de Aragão Umbuzeiro	2015	http://dx.doi.org/10.1016/j.scitotenv.2014.12.057	Future water quality monitoring ? Adapting tools to deal with mixtures of pollutants in water resource management	SCIENCE OF THE TOTAL ENVIRONMENT	Altenburger, R. ; Ait-Aissa, S. ; Brack, W. ; UMBUZEIRO, G A ; et al	A1	
artigoEmPeriodico	Gisela de Aragão Umbuzeiro	2015		The need of scientific based regulations of chemicals in water: a proposal for Brazil	Applied Research in Toxicology	Gisela A	Qualis nao identificado	Applied Research in Toxicology
artigoEmPeriodico	Gisela de Aragão Umbuzeiro	2015		Comparison of two yeast bioluminescent assays applied to water monitoring of estrogenic activity	Applied Research in Toxicology	Eldridge, Melanie L. ; FRANCA, D. D. ; MONTAGNER, C.C. ; QUINAGLIA, G. A. ; SAYLER, G. ; JARDIM, W. F. ; UMBUZEIRO, G. A.	Qualis nao identificado	Applied Research in Toxicology
artigoEmPeriodico	Gisela de Aragão Umbuzeiro	2015	http://dx.doi.org/10.1021/es505458g	Detection of benz[j]aceanthrylene in urban air and evaluation of its genotoxic potential	ENVIRONMENTAL SCIENCE & TECHNOLOGY	Lim, H. ; MATTSSON, A. ; JARVIS, I. ; Bergvall, C. ; BOTTAI, M. ; MORALES, DANIEL A. ; KUMMROW, F ; UMBUZEIRO, G A ; STENIUS, ULLA ; Westerholm, R. ; Dreij. K.	B4	
artigoEmPeriodico	Gisela de Aragão Umbuzeiro	2015	http://dx.doi.org/10.1007/s10646-015-1425-9	Ecotoxicity of raw and treated effluents generated by a veterinary pharmaceutical company: a comparison of the sensitivities of different standardized tests	Ecotoxicology (London)	MASELLI, BIANCA DE S. ; LUNA, LUIS A. V. ; PALMEIRA, JOICE DE O. ; TAVARES, KARLA P. ; BARBOSA, SANDRO ; BEIJO, LUIZ A. ; Umbuzeiro, Gisela A. ; KUMMROW, Fábio	A2	
artigoEmPeriodico	Gisela de Aragão Umbuzeiro	2015	http://dx.doi.org/10.1016/j.procbio.2015.01.022	Potential of a bacterial consortium to degrade azo dye Disperse Red 1 in a pilot scale anaerobic-aerobic reactor	Process Biochemistry (1991)	FRANCISCON, ELISANGELA ; MENDONÇA, DANILO ; SEBER, SAMILE ; MORALES, DANIEL ALEXANDRE ; ZOCOLO, GUILHERME JULIÃO ; ZANONI, MARIAVALNICE BOLDRIN ; GROSSMAN, MATTHEW JAMES ; DURRANT, LUCIA REGINA ; FREEMAN, HAROLD S. ; UMBUZEIRO, GISELA ARAGÃO	A2	
artigoEmPeriodico	Gisela de Aragão Umbuzeiro	2015	http://dx.doi.org/10.1088/1742-6596/617/1/012019	Interlab study on nanotoxicology of representative graphene oxide	Journal of Physics. Conference Series (Print)	DURÁN, NELSON ; MARTINEZ, DIEGO S T ; JUSTO, GISELLE Z ; DE LIMA, RENATA ; DE CASTRO, VERA LÚCIA ; Umbuzeiro, Gisela A ; BARBIERI, EDISON ; DURÁN, MARCELA ; MELO, PATRICIA S ; ALVES, OSWALDO L ; FÁVARO, WAGNER J	B2	
artigoEmPeriodico	Gisela de Aragão Umbuzeiro	2015		VisSed Software as a tool in monitoring programs for benthic data interpretation	RevInter	Flynn, M.N. ; SILVA, C. G. ; SUMIDA, P. Y. G. ; GUTH, A. Z. ; ALVES, B. G. R. ; UMBUZEIRO, G.A.	B5	
artigoEmPeriodico	Gisela de Aragão Umbuzeiro	2015		Biologia populacional de Parhyale hawaiensis associada ao fital, Itanhém, São Paulo.	RevInter	Alegretti, L ; UMBUZEIRO, G. A. ; FLYNN, M. N.	B5	
artigoEmPeriodico	Gisela de Aragão Umbuzeiro	2015	http://dx.doi.org/10.3389/fpubh.2015.00246	Pesticides in Drinking Water - The Brazilian Monitoring Program	Frontiers in Public Health	BARBOSA, AURIA M. C. ; SOLANO, MARIZE DE L. M. ; Umbuzeiro, Gisela de A.	Qualis nao identificado	Frontiers in Public Health
artigoEmPeriodico	Gisela de Aragão Umbuzeiro	2015	http://dx.doi.org/10.4161/23273747.2014.983384	Potential endocrine disruptor activity of drinking water samples	ENDOCRINE DISRUPTORS	DE LM SOLANO, MARIZE ; MONTAGNER, CASSIANA C ; VACCARI, CAROLINA ; JARDIM, WILSON F ; ANSELMO-FRANCI, JANETE A ; DE OG CAROLINO, RUITHER ; LUVIZUTTO, JOÃO FL ; DE A UMBUZEIRO, GISELA ; DE CAMARGO, JOÃO LV	Qualis nao identificado	ENDOCRINE DISRUPTORS
artigoEmPeriodico	Gisela de Aragão Umbuzeiro	2015	http://dx.doi.org/10.1080/23273747.2015.1066656	Potential androgenic effects of urban sewage sludge in male rats	ENDOCRINE DISRUPTORS	LUVIZUTTO, JOÃO F. L. ; DE L. M. SOLANO, MARIZE ; MARTINEZ, MEIRE F. ; FERNANDEZ, CARLA D. B. ; De A. Umbuzeiro, Gisela ; DE CAMARGO, JOÃO L. V.	Qualis nao identificado	ENDOCRINE DISRUPTORS
artigoEmPeriodico	Gisela de Aragão Umbuzeiro	2015	http://dx.doi.org/10.1093/chromsci/bmu221	Using SPE-LC-ESI-MS/MS Analysis to Assess Disperse Dyes in Environmental Water Samples	JOURNAL OF CHROMATOGRAPHIC SCIENCE	ZOCOLO, G. J. ; PILON DOS SANTOS, G. ; VENDEMIATTI, J. ; VACCHI, F. I. ; UMBUZEIRO, G. D. A. ; ZANONI, M. V. B.	B1	
resumoExpandidoEmCongresso	Gisela de Aragão Umbuzeiro	2015	Development of the marine amphipod Parhyale hawaiensis as a model organism for ecotoxicology	SETAC Europe 25th Annual Meeting, 2015, Barcelona. Abstract Book	ARTAL, M.C. ; SANTOS, A. ; HENRY, T. B. ; UMBUZEIRO, G A		
resumoExpandidoEmCongresso	Gisela de Aragão Umbuzeiro	2015	Determination of silver in hemolymph of the marine amphipod (Parhyale hawaiensis) as a tool to understand silver nanoparticles diet exposure	SETAC Europe 25th Annual Meeting, 2015, Barcelona. Abstract Book	VANNUCI-SILVA, M. ; ARTAL, M.C. ; PESSOA, G. S. ; OLIVEIRA, S. R. ; ARRUDA, M. A. Z. ; CADORE, S. ; UMBUZEIRO, G A		
resumoExpandidoEmCongresso	Gisela de Aragão Umbuzeiro	2015	Age-specific and time-specific life tables of natural and lab Parhyale hawaiensis populations as potential endpoints for long-term effects of toxic agents	SETAC Europe 25th Annual Meeting, 2015, Espanha. Abstract Book	BURSTIN, B. A. ; ALEGRETTI, L. ; UMBUZEIRO, G A ; Flynn, M.N.		
resumoExpandidoEmCongresso	Gisela de Aragão Umbuzeiro	2015	Hyalella azteca population level endpoints for assessment of toxicological stress	SETAC Europe 25th Annual Meeting, 2015, Barcelona. Abstract Book	FERREIRA, G. L. ; UMBUZEIRO, G A ; Flynn, M.N.		
resumoExpandidoEmCongresso	Gisela de Aragão Umbuzeiro	2015	Genotoxicity assessment of environmental samples under the influence of textile discharges in salmonella/microsome assay and Fpg-modified comet assay	SETAC Europe 25th Annual Meeting, 2015, Barcelona. Abstract Book	VACCHI, F. I. ; VENDEMIATTI, J. A. S. ; BROSSELIN, V. ; BONY, S. ; DEVAUX, A. ; UMBUZEIRO, G A		
resumoExpandidoEmCongresso	Gisela de Aragão Umbuzeiro	2015	Risk evaluation of Fipronil in freshwaters from state of São Paulo, Brazil	SETAC Europe 25th Annual Meeting, 2015, Barcelona. Abstract Book	Montagner, C.C. ; NOGUEIRA, A. J. A. ; ALBUQUERQUE, A.F. ; UMBUZEIRO, G.A.		
artigoEmPeriodico	Francisco José Arnold	2015		Predicción del Desempeño de un Resonador Reconfigurable para Etiquetas Chipless de RFID	Revista IEEE América Latina	ALVES, A. A. C. ; ROGER, L. L. B. ; ARNOLD, F. J.	B1	
artigoEmPeriodico	Francisco José Arnold	2015	http://dx.doi.org/10.1016/j.phpro.2015.03.019	A driver for piezoelectric transducers with control of resonance	Physics Procedia	ARNOLD, F. J.; XIMENES, R. L. ; ARTHUR, R. ; MÜHLEN, S. S.	Qualis nao identificado	Physics Procedia
artigoEmPeriodico	Francisco José Arnold	2015		Dynamic frequencies correction in piezoelectric transducers using Artificial Intelligence techniques	Physics Procedia	ARNOLD, F. J.; BATTILANA, R. B. ; ARANDA, M. C.	Qualis nao identificado	Physics Procedia
artigoEmPeriodico	Francisco José Arnold	2015		Método de identificação de leite cru adulterado via ultrassom e regras fuzzy	Biomatemática (UNICAMP)	ALVES, LAURA B. ; POLETTI, ELAINE CRISTINA CATAPANI ; ARNOLD, F. J.	B5	
artigoEmPeriodico	Francisco José Arnold	2015	http://dx.doi.org/10.1016/j.phpro.2015.08.187	Evaluation of mechanical losses in piezoelectric plates using genetic algorithm.	Physics Procedia	Arnold, F. J. ; Gonçalves, M. S. ; MASSARO JR, F. ; Pedro, P ou Martins, P.	Qualis nao identificado	Physics Procedia
artigoEmPeriodico	Nelma de Mello Silva Oliveira	2015		AVALIAÇÃO MICROBIOLÓGICA DE TETEIRAS DE ORDENHADEIRAS MECÂNICAS,	Higiene Alimentar	PAIVA, M. M. ; RUBINHO, M. P. ; RUFINO, L. R. A. ; Silva, L. M. ; BORIOLLO, M. F. G. ; Fiorini, João Evangelista ; OLIVEIRA, N. M. S.	B3	
artigoEmPeriodico	Nelma de Mello Silva Oliveira	2015		Estudo sobre a composição centesimal de filés de tilápia (Oreochromis niloticus) oriundos da represa de furnas e cultivados em tanques.	Higiene Alimentar	Rocha, M. C. ; Dias, N. O. ; Correia, T. R. ; Rufino, L.R.A. ; OLIVEIRA, N. M. S.	B3	
artigoEmPeriodico	Wislei Riuper Ramos Osorio	2015	http://dx.doi.org/10.5006/1356	Electrochemical Behavior of an Al-Fe-Ni Alloy Affected by Nano-Sized Intermetallic Particles	Corrosion (Houston, Tex.)	OSORIO, Wislei Riuper Ramos; Canté, Manuel V. ; Brito, Crystopher ; Freitas, Emmanuelle S. ; GARCIA, A.	Qualis nao identificado	Corrosion (Houston, Tex.)
artigoEmPeriodico	Wislei Riuper Ramos Osorio	2015	http://dx.doi.org/10.1016/j.ceramint.2014.08.050	Improvement on the melt-texturing performance of a (Y,Ta)0.5BaO3-YBa2Cu3Oy composite with superconductor applications	Ceramics International	BORTOLOZO, AUSDINIR D. ; Osório, Wislei R. ; OLIVEIRA, CÉLIO J.V. ; DOS SANTOS, CARLOS ALBERTO M. ; FILHO, FRANCISCO MOURA ; MACHADO, ANTONIO JEFFERSON S.	A1	
artigoEmPeriodico	Wislei Riuper Ramos Osorio	2015	http://dx.doi.org/10.1007/s11661-015-3023-0	Electrochemical and Mechanical Behavior of Lead-Silver and Lead-Bismuth Casting Alloys for Lead-Acid Battery Components	Metallurgical and Materials Transactions. A, Physical Metallurgy and Materials Science	OSORIO, Wislei Riuper Ramos; Peixoto, Leandro C. ; GARCIA, A.	Qualis nao identificado	Metallurgical and Materials Transactions. A, Physical Metallurgy and Materials Science
artigoEmPeriodico	Wislei Riuper Ramos Osorio	2015	http://dx.doi.org/10.1016/j.conbuildmat.2015.07.166	Effects of spheroid and fiber-like waste-tire rubbers on interrelation of strength-to-porosity in rubberized cement and mortars	Construction & Building Materials	ANGELIN, ANDRESSA F. ; ANDRADE, MATHEUS F.F. ; BONATTI, RODRIGO ; CECCHE LINTZ, ROSA C. ; GACHET-BARBOSA, LUÍSA A. ; Osório, Wislei R.	A2	
artigoEmPeriodico	Varese Salvador Timoteo	2015	http://dx.doi.org/10.1016/j.aop.2014.11.010	Implicit and explicit renormalization: Two complementary views of effective interactions	Annals of Physics (Print)	Ruiz Arriola, E. ; SZPIGEL, S. ; Timóteo, V.S.	A2	
artigoEmPeriodico	Varese Salvador Timoteo	2015	http://dx.doi.org/10.1088/1742-6596/630/1/012036	Unitary neutron matter in the on-shell limit	Journal of Physics. Conference Series (Print)	ARRIOLA, E RUIZ ; SZPIGEL, S ; Timóteo, V S	B2	
artigoEmPeriodico	Varese Salvador Timoteo	2015	http://dx.doi.org/10.1088/1742-6596/630/1/012056	Running of the contact interactions in chiral N3LO potentials from subtractive renormalization	Journal of Physics. Conference Series (Print)	BATISTA, E F ; SZPIGEL, S ; Timóteo, V S	B2	
trabalhoCompletoEmCongresso	Varese Salvador Timoteo	2015	http://dx.doi.org/10.1145/2820426.2820464	A Platform for Multimedia Traffic Forwarding in Software Defined Networks	the 21st Brazilian Symposium	DIORIO, RAFAEL FERNANDO ; TIMÓTEO, VARESE SALVADOR		
trabalhoCompletoEmCongresso	Varese Salvador Timoteo	2015	http://dx.doi.org/10.5748/9788599693117-12CONTECSI/RF-2797	Encaminhamento seletivo de pacotes provido por um Gateway Multimídia baseado em IP	12th CONTECSI International Conference on Information Systems and Technology Management	DIORIO, RAFAEL FERNANDO ; TIMÓTEO, VARESE SALVADOR ; URSINI, EDSON LUIZ		
trabalhoCompletoEmCongresso	Varese Salvador Timoteo	2015	http://dx.doi.org/10.5748/9788599693117-12CONTECSI/PS-1965	Gerenciamento pró-ativo de rede em ambientes de Cloud Computing utilizando as soluções de software livre Cacti e Nagios	12th CONTECSI International Conference on Information Systems and Technology Management	DIORIO, RAFAEL FERNANDO ; TIMÓTEO, VARESE SALVADOR ; URSINI, EDSON LUIZ		
trabalhoCompletoEmCongresso	Varese Salvador Timoteo	2015	http://dx.doi.org/10.1109/WSC.2015.7408408	Modeling and simulation applied to link dimensioning of stream IP traffic with incremental validation	2015 Winter Simulation Conference (WSC)	URSINI, EDSON L. ; MARTINS, PAULO S. ; TIMOTEO, VARESE S. ; MASSARO, FLAVIO R.		
artigoEmPeriodico	Talía Simões dos Santos Ximenes	2015	http://dx.doi.org/10.1590/S1413-41522015020040125106	Análise da Eficiência Energética, Ambiental e Econômica entre Lâmpadas de LED e Convencionais	Engenharia Sanitária e Ambiental	SANTOS, T. S.; BATISTA, M. C. ; POZZA, S. A. ; ROSSI, L. S.	A2	
trabalhoCompletoEmCongresso	Talía Simões dos Santos Ximenes	2015		Desenvolvimento de Forno para Solda de Componentes SMD	DINCON 2015	MECENEIRO, G. D. ; CONRADO, B. T. S. ; XIMENES, R. L. ; SANTOS, T. S.		
artigoEmPeriodico	Simone Andréa Pozza	2015		A Greenhouse Gas Inventory in the Municipal Landfill of the City of Limeira, Brazil	Chemical Engineering Transactions	POZZA, S. A.; Penteado , C. S. G. ; CRISCUOLO, V.G.	B2	
artigoEmPeriodico	Simone Andréa Pozza	2015	http://dx.doi.org/10.1590/S1413-41522015020040125106	Análise da eficiência energética, ambiental e econômica entre lâmpadas de LED e convencionais	Engenharia Sanitária e Ambiental (Online)	SANTOS, T. S. ; BATISTA, M. C. ; POZZA, S. A. ; ROSSI, L. S.	B1	
artigoEmPeriodico	Simone Andréa Pozza	2015		Environmental impact monitoring of a minero-chemical complex in Catalão urban area of PTS, MP10 and PM2.5 by EDX characterization	Chemical Engineering Transactions	Romualdo, L. L. ; SANTOS, R. S. ; LIMA, F. C. ; Andrade, L. S. ; POZZA, S. A. ; FERREIRA, I. M.	B2	
artigoEmPeriodico	Simone Andréa Pozza	2015		Using ensembles of artificial neural networks to improve PM10 forecasts	Chemical Engineering Transactions	SOUZA, R. M. S. ; COELHO, G. P. ; Silva, Ana Estela A. ; POZZA, S. A.	B2	
trabalhoCompletoEmCongresso	Simone Andréa Pozza	2015		Inventário de emissões de gases de efeito estufa (GEES) emitidos durante a coleta de resíduos sólidos	28o. CBESA - Congresso Brasileiro de Engenharia Sanitária e Ambiental	POZZA, S. A.; PAGLERANI, D. C.		
trabalhoCompletoEmCongresso	Simone Andréa Pozza	2015		Análise química e determinação de fontes poluentes em amostras de material particulado MP10 e PTS	28o. CBESA - Congresso Brasileiro de Engenharia Sanitária e Ambiental	SOUZA, A. F. E. ; SILVA, R. M. C. ; PEREIRA, L. M. ; ALBUQUERQUE, A. F. ; POZZA, S. A.		
resumoExpandidoEmCongresso	Simone Andréa Pozza	2015	ESTUDOS DA DEPOSIÇÃO ÁCIDA EM DOIS PONTOS DE MONITORAMENTO NA CIDADE DE LIMEIRA	XXIII Congresso de Iniciação Científica da Unicamp	ANDREA POZZA, SIMONE; HENRIQUE MARTINS, EDUARDO		
resumoExpandidoEmCongresso	Simone Andréa Pozza	2015	Project of a low-cost cyclone for control of particles from ceramics industries	XXIII Congresso de Iniciação Científica da Unicamp	ANDREA POZZA, SIMONE; BEREZIN STELZER, VICTOR		
trabalhoCompletoEmCongresso	Sandro Tonso	2015		O Protagonismo dos camponeses e o Ensino de Ciências nas escolas do campo	X Encontro Nacional em Pesquisa em Educação em Ciências	CARCAIOLI, G.F. ; TONSO, S.		
trabalhoCompletoEmCongresso	Sandro Tonso	2015		Análise de aspectos curriculares na disciplina 'Fundamentos da Educação Ambiental': um olhar a partir das produções dicentes	VIII Encontro de Pesquisa em Educação Ambiental	CASTRO, P.B.L. ; LUZ, W.C. ; SILVA, E.R. ; TONSO, S.		
trabalhoCompletoEmCongresso	Sandro Tonso	2015		Construção de Indicadores e Parâmetros de Educação Ambiental Crítica	VIII Encontro de Pesquisa em Educação Ambiental	LUZ, W.C. ; TONSO, S.		
artigoEmPeriodico	Rosa Cristina Cecche Lintz	2015	http://dx.doi.org/10.1016/j.conbuildmat.2015.07.166	Effects of spheroid and fiber-like waste-tire rubbers on interrelation of strength-to-porosity in rubberized cement and mortars	Construction & Building Materials	ANGELIN, ANDRESSA F. ; ANDRADE, MATHEUS F.F. ; BONATTI, RODRIGO ; CECCHE LINTZ, ROSA C. ; GACHET-BARBOSA, LUÍSA A. ; OSÓRIO, WISLEI R.	A2	
artigoEmPeriodico	Rosa Cristina Cecche Lintz	2015	http://dx.doi.org/10.1016/j.jclepro.2015.06.142	Reusing Ceramic Tile Polishing Waste in Paving Block Manufacturing	Journal of Cleaner Production	GIORDANO PENTEADO, CARMENLUCIA SANTOS ; VIVIANI DE CARVALHO, EDUARDO ; CECCHE LINTZ, ROSA CRISTINA	A1	
artigoEmPeriodico	Rosa Cristina Cecche Lintz	2015	http://dx.doi.org/10.1016/j.conbuildmat.2015.05.027	Investigation on the properties of concrete tactile paving blocks made with recycled tire rubber	Construction & Building Materials	DA SILVA, FABIANA MARIA ; GACHET BARBOSA, LUISA ANDRÉIA ; LINTZ, R. C. C. ; JACINTHO, Ana Elisabete P. G. A.	A2	
trabalhoCompletoEmCongresso	Rosa Cristina Cecche Lintz	2015		Propriedades físicas e mecânicas do concreto auto adensável modificado com argila expandida e pó de borracha	57o Congresso Brasileiro do Concreto	ANGELIN, A. F. ; Silva, F.M. ; GIORNO, L. S. ; LINTZ, R. C. C. ; GACHET-BARBOSA, L. A.		
trabalhoCompletoEmCongresso	Rosa Cristina Cecche Lintz	2015		Estudo de concreto com diferentes granulometrias de borracha visando sua aplicação em pavimentos intertravados	57o Congresso Brasileiro do Concreto	SILVA, R. B. ; GIORNO, L. S. ; ANGELIN, A. F. ; LINTZ, R. C. C. ; GACHET-BARBOSA, L. A.		
trabalhoCompletoEmCongresso	Rosa Cristina Cecche Lintz	2015		Reutilização de resíduos de pneu em argamassa colante	57o Congresso Brasileiro do Concreto	Pfeifer, W.P. ; Fronza, R. ; SOARES, M. S. ; GACHET-BARBOSA, L. A. ; LINTZ, R. C. C.		
trabalhoCompletoEmCongresso	Rosa Cristina Cecche Lintz	2015		Uma abordagem para a aplicação efetiva da borracha de poneus como agregados de concreto utilizando a simulação de Monte Carlo	57o Congresso Brasileiro do Concreto	PEDRO, P. S. M. ; URSINI, E. L. ; FLORES, R. ; LINTZ, R. C. C. ; GACHET-BARBOSA, L. A.		
resumoExpandidoEmCongresso	Rosa Cristina Cecche Lintz	2015	Práticas em Laboratório de Materiais de Construção e Sustentabilidade	XXIII Congresso de Iniciação Científica da Unicamp	CRISTINA CECCHE LINTZ, ROSA; BERNINI DE OLIVEIRA, MARIELLY ; LIMA FLORES, ISABELLE		
resumoExpandidoEmCongresso	Rosa Cristina Cecche Lintz	2015	PISO TATIL DE CONCRETO COM AGREGADOS RECICLADOS DE PNEUS	XXIII Congresso de Iniciação Científica da Unicamp	CRISTINA CECCHE LINTZ, ROSA; JOSE DA ROCHA JUNIOR, ALFREDO		
resumoExpandidoEmCongresso	Rosa Cristina Cecche Lintz	2015	ESTUDO DO COMPORTAMENTO DO CONCRETO POROSO	XXIII Congresso de Iniciação Científica da Unicamp	CRISTINA CECCHE LINTZ, ROSA; DE TROI SILVA, NATHÁLIA		
resumoExpandidoEmCongresso	Rosa Cristina Cecche Lintz	2015	CONTRIBUIÇÃO AO ESTUDO DE ARGAMASSAS CONTENDO RESÍDUOS DE CONSTRUÇÃO E DEMOLIÇÃO	XXIII Congresso de Iniciação Científica da Unicamp	CRISTINA CECCHE LINTZ, ROSA; SHIGUEO ITOKAZU, EMERSON		
resumoExpandidoEmCongresso	Rosa Cristina Cecche Lintz	2015	CONCRETO AUTO ADENSÁVEL COM ARGILA EXPANDIDA COM E SEM ADIÇÃO DE SÍLICA ATIVA	XXIII Congresso de Iniciação Científica da Unicamp, 2015, CAMPINAS	CRISTINA CECCHE LINTZ, ROSA; FERREIRA ROCHE PEREIRA, VANESSA		
trabalhoCompletoEmCongresso	Ronalton Evandro Machado	2015		Simulação de cenários de uso da terra na bacia hidrográfica do ribeirão pinhal, SP, por meio de técnicas de modelagem e geoprocessamento	XXI Simpósio Brasileiro de Recursos Hídricos-SBRH	MACHADO, R. E.; RIBEIRO, L. C. L. J. ; LOPES, M. S.		
trabalhoCompletoEmCongresso	Ronalton Evandro Machado	2015		Distribuição temporal de chuvas intensas em Piracicaba, SP	XXI Simpósio Brasileiro de Recursos Hídricos-SBRH	MACHADO, R. E.; BULL, L. S. R. R. ; CENTELHAS, Paulo César		
trabalhoCompletoEmCongresso	Ronalton Evandro Machado	2015		Risco de degradação hídrica na Unidade De Gerenciamento De Recursos Hídricos (UGRHI - 5) - Piracicaba/ Capivari/ Jundiaí/ (PCJ) - SP	XXI Simpósio Brasileiro de Recursos Hídricos-SBRH	SANTOS, D. ; MACHADO, R. E. ; RIBEIRO, L. C. L. J.		
