strict graph grafo1 {
	graph [bb="0,0,1103.5,233",
		id=grafo1,
		overlap=False
	];
	node [fontsize=8,
		label="\N",
		shape=rectangle,
		style=filled
	];
	0	 [URL="http://lattes.cnpq.br/0812422122265124",
		color="#17272B",
		fontcolor="#FFFFFF",
		height=0.23611,
		label="Regina C. Baptista Belluzzo [0]",
		pos="70,224.5",
		width=1.6389];
	1	 [URL="http://lattes.cnpq.br/1621055168002551",
		color="#17272B",
		fontcolor="#FFFFFF",
		height=0.23611,
		label="Maria da G. Mello Ferracioli [0]",
		pos="207,224.5",
		width=1.6667];
	2	 [URL="http://lattes.cnpq.br/5849711278501873",
		color="#17272B",
		fontcolor="#FFFFFF",
		height=0.23611,
		label="Juliano Maurício de Carvalho [7]",
		pos="214,170.5",
		width=1.7083];
	10	 [URL="http://lattes.cnpq.br/9910965797411044",
		color="#17272B",
		fontcolor="#FFFFFF",
		height=0.23611,
		label="Francisco Rolfsen Belda [4]",
		pos="333,116.5",
		width=1.4722];
	2 -- 10	 [pos="231.3,161.94 253.87,152.08 293.1,134.93 315.68,125.07"];
	13	 [URL="http://lattes.cnpq.br/3036916968393237",
		color="#17272B",
		fontcolor="#FFFFFF",
		height=0.23611,
		label="Juarez T. de Paula Xavier [5]",
		pos="207,116.5",
		width=1.5278];
	2 -- 13	 [pos="212.97,161.83 211.64,152 209.36,135.05 208.04,125.2"];
	16	 [URL="http://lattes.cnpq.br/5884461869811166",
		color="#17272B",
		fontcolor="#FFFFFF",
		height=0.23611,
		label="Antonio Francisco Magnoni [12]",
		pos="161,8.5",
		width=1.6944];
	2 -- 16	 [pos="197.79,161.86 182.51,154.13 159.56,141.12 143,125.5 121.65,105.36 113.86,99.478 105,71.5 102.59,63.873 101.5,60.695 105,53.5 113.22,\
36.597 131.42,24.255 144.85,17.016"];
	17	 [URL="http://lattes.cnpq.br/1882712230914196",
		color="#17272B",
		fontcolor="#FFFFFF",
		height=0.23611,
		label="Antonio Carlos Sementille [6]",
		pos="283,62.5",
		width=1.5694];
	10 -- 17	 [pos="325.62,107.83 316.17,97.996 299.88,81.051 290.41,71.204"];
	12	 [URL="http://lattes.cnpq.br/3280707979820725",
		color="#17272B",
		fontcolor="#FFFFFF",
		height=0.23611,
		label="Denis Porto Renó [6]",
		pos="400,62.5",
		width=1.1806];
	10 -- 12	 [pos="342.89,107.83 355.55,97.996 377.39,81.051 390.07,71.204"];
	13 -- 17	 [pos="218.21,107.83 232.67,97.939 257.63,80.856 271.99,71.035"];
	12 -- 16	 [pos="365.5,53.994 320.13,44.122 240.86,26.874 195.49,17.003"];
	3	 [URL="http://lattes.cnpq.br/1233049484488761",
		color="#17272B",
		fontcolor="#FFFFFF",
		height=0.23611,
		label="Joao Fernando Marar [6]",
		pos="333,224.5",
		width=1.3333];
	3 -- 10	 [pos="333,215.88 333,196.32 333,144.54 333,125.05"];
	3 -- 17	 [pos="287.52,216 234.23,206.75 152.03,190.86 143,179.5 123.09,154.45 124.07,133.3 143,107.5 154.76,91.479 204.17,78.645 240.98,71.063"];
	6	 [URL="http://lattes.cnpq.br/1126886933267406",
		color="#17272B",
		fontcolor="#FFFFFF",
		height=0.23611,
		label="Marcos Américo [9]",
		pos="414,170.5",
		width=1.1389];
	3 -- 6	 [pos="344.95,215.83 360.35,205.94 386.96,188.86 402.26,179.04"];
	6 -- 10	 [pos="402.05,161.83 386.65,151.94 360.04,134.86 344.74,125.04"];
	6 -- 13	 [pos="383.9,161.94 344.65,152.08 276.4,134.93 237.14,125.07"];
	6 -- 16	 [pos="420.93,161.73 438.13,141.51 479.39,86.52 451,53.5 422.12,19.905 298.52,11.651 222.31,9.811"];
	6 -- 17	 [pos="413.73,161.99 412.89,149.19 409.38,123.03 395,107.5 377.12,88.185 349.71,77.224 326.48,71.073"];
	6 -- 12	 [pos="418.24,161.79 424.17,149.98 433.62,126.78 428,107.5 423.9,93.417 413.78,79.538 406.89,71.244"];
	18	 [URL="http://lattes.cnpq.br/8962021573218552",
		color="#17272B",
		fontcolor="#FFFFFF",
		height=0.23611,
		label="Vania C. P. Nogueira Valente [3]",
		pos="580,116.5",
		width=1.7083];
	6 -- 18	 [pos="438.14,161.94 469.61,152.08 524.35,134.93 555.83,125.07"];
	4	 [URL="http://lattes.cnpq.br/1650529446656955",
		color="#17272B",
		fontcolor="#FFFFFF",
		height=0.23611,
		label="Luiz E. Martins Morgado [0]",
		pos="768,224.5",
		width=1.5278];
	5	 [URL="http://lattes.cnpq.br/2302756561160804",
		color="#17272B",
		fontcolor="#FFFFFF",
		height=0.23611,
		label="Maria Cristina Gobbi [4]",
		pos="48,170.5",
		width=1.3333];
	5 -- 13	 [pos="71.12,161.94 101.27,152.08 153.69,134.93 183.85,125.07"];
	5 -- 16	 [pos="49.8,161.97 54.791,142.33 70.366,88.627 99,53.5 112.01,37.54 132.19,24.693 145.96,17.091"];
	7	 [URL="http://lattes.cnpq.br/8417343618934636",
		color="#17272B",
		fontcolor="#FFFFFF",
		height=0.23611,
		label="Leticia Passos Affini [1]",
		pos="161,62.5",
		width=1.3056];
	7 -- 16	 [pos="161,53.827 161,43.996 161,27.051 161,17.204"];
	8	 [URL="http://lattes.cnpq.br/9638407992652406",
		color="#17272B",
		fontcolor="#FFFFFF",
		height=0.23611,
		label="João Pedro Albino [4]",
		pos="651,224.5",
		width=1.2083];
	8 -- 18	 [pos="633.51,215.95 619.1,208.76 599.4,196.5 589,179.5 578.45,162.24 578.48,137.33 579.28,125"];
	9	 [URL="http://lattes.cnpq.br/7838983448809586",
		color="#17272B",
		fontcolor="#FFFFFF",
		height=0.23611,
		label="Humberto Ferasoli Filho [5]",
		pos="651,170.5",
		width=1.4861];
	8 -- 9	 [pos="651,215.83 651,206 651,189.05 651,179.2"];
	14	 [URL="http://lattes.cnpq.br/3751287338655685",
		color="#17272B",
		fontcolor="#FFFFFF",
		height=0.23611,
		label="Jose Luis Bizelli [2]",
		pos="722,116.5",
		width=1.125];
	8 -- 14	 [pos="668.49,215.95 682.9,208.76 702.6,196.5 713,179.5 723.55,162.24 723.52,137.33 722.72,125"];
	9 -- 18	 [pos="640.52,161.83 627.1,152 603.96,135.05 590.52,125.2"];
	9 -- 14	 [pos="661.48,161.83 674.9,152 698.04,135.05 711.48,125.2"];
	11	 [URL="http://lattes.cnpq.br/0237724129941236",
		color="#17272B",
		fontcolor="#FFFFFF",
		height=0.23611,
		label="Francisco N. Machado Filho [0]",
		pos="901,224.5",
		width=1.6528];
	15	 [URL="http://lattes.cnpq.br/3759662136447410",
		color="#17272B",
		fontcolor="#FFFFFF",
		height=0.23611,
		label="Célia M. R. Godoy dos Santos [0]",
		pos="1041,224.5",
		width=1.7361];
}
