strict graph grafo2 {
	graph [bb="0,0,1676.5,209",
		id=grafo2,
		overlap=False
	];
	node [fontsize=8,
		label="\N",
		shape=rectangle,
		style=filled
	];
	0	 [URL="http://lattes.cnpq.br/1161317972489632",
		color="#17272B",
		fontcolor="#FFFFFF",
		height=0.23611,
		label="Roberto Aizik Tenenbaum [0]",
		pos="56.5,200.5",
		width=1.5694];
	1	 [URL="http://lattes.cnpq.br/0543546857869709",
		color="#17272B",
		fontcolor="#FFFFFF",
		height=0.23611,
		label="Luiz N. H. Guedes de Oliveira [0]",
		pos="194.5,200.5",
		width=1.75];
	2	 [URL="http://lattes.cnpq.br/6419554168530740",
		color="#17272B",
		fontcolor="#FFFFFF",
		height=0.23611,
		label="Joaquim Teixeira de Assis [0]",
		pos="331.5,200.5",
		width=1.5556];
	3	 [URL="http://lattes.cnpq.br/0109837868064895",
		color="#17272B",
		fontcolor="#FFFFFF",
		height=0.23611,
		label="Roberto Pinheiro Domingos [1]",
		pos="338.5,136.5",
		width=1.6389];
	13	 [URL="http://lattes.cnpq.br/6725653281197187",
		color="#17272B",
		fontcolor="#FFFFFF",
		height=0.23611,
		label="Ivan Napoleão Bastos [2]",
		pos="425.5,72.5",
		width=1.3611];
	3 -- 13	 [fontsize=8,
		label=1.0,
		lp="393,104.5",
		pos="349.17,127.9 365.87,116 397.99,93.102 414.74,81.165"];
	16	 [URL="http://lattes.cnpq.br/5759364958802333",
		color="#17272B",
		fontcolor="#FFFFFF",
		height=0.23611,
		label="Ricardo Fabbri [1]",
		pos="371.5,8.5",
		width=1.0556];
	3 -- 16	 [fontsize=8,
		label=1.0,
		lp="362,72.5",
		pos="340.33,127.92 343.51,114.77 350.32,86.922 356.5,63.5 360.87,46.942 366.32,27.628 369.3,17.173"];
	13 -- 16	 [fontsize=8,
		label=1.0,
		lp="408,40.5",
		pos="418.88,63.898 408.51,51.998 388.57,29.102 378.18,17.165"];
	4	 [URL="http://lattes.cnpq.br/8300604408079168",
		color="#17272B",
		fontcolor="#FFFFFF",
		height=0.23611,
		label="Ricardo Carvalho de Barros [0]",
		pos="592.5,200.5",
		width=1.625];
	5	 [URL="http://lattes.cnpq.br/6601368978577012",
		color="#17272B",
		fontcolor="#FFFFFF",
		height=0.23611,
		label="Pedro P. G. Watts Rodrigues [0]",
		pos="729.5,200.5",
		width=1.6667];
	6	 [URL="http://lattes.cnpq.br/1627016864213973",
		color="#17272B",
		fontcolor="#FFFFFF",
		height=0.23611,
		label="Leonardo Tavares Stutz [1]",
		pos="859.5,200.5",
		width=1.4444];
	9	 [URL="http://lattes.cnpq.br/1743826010794846",
		color="#17272B",
		fontcolor="#FFFFFF",
		height=0.23611,
		label="Diego Campos Knupp [2]",
		pos="859.5,136.5",
		width=1.375];
	6 -- 9	 [fontsize=8,
		label=1.0,
		lp="865,168.5",
		pos="859.5,191.9 859.5,180 859.5,157.1 859.5,145.16"];
	18	 [URL="http://lattes.cnpq.br/0608816393004565",
		color="#17272B",
		fontcolor="#FFFFFF",
		height=0.23611,
		label="Leôncio D. Tavares Câmara [1]",
		pos="859.5,72.5",
		width=1.6389];
	9 -- 18	 [fontsize=8,
		label=1.0,
		lp="865,104.5",
		pos="859.5,127.9 859.5,116 859.5,93.102 859.5,81.165"];
	7	 [URL="http://lattes.cnpq.br/8409134275489376",
		color="#17272B",
		fontcolor="#FFFFFF",
		height=0.23611,
		label="Josë A. da Silva Neto [0]",
		pos="978.5,200.5",
		width=1.3472];
	8	 [URL="http://lattes.cnpq.br/6680742566331144",
		color="#17272B",
		fontcolor="#FFFFFF",
		height=0.23611,
		label="Francisco D. Moura Neto [2]",
		pos="460.5,200.5",
		width=1.5278];
	8 -- 13	 [fontsize=8,
		label=1.0,
		lp="448,136.5",
		pos="457.72,191.88 453.98,181.48 447.25,162.23 442.5,145.5 435.9,122.27 429.83,94.331 427.06,81.125"];
	11	 [URL="http://lattes.cnpq.br/4140908385855725",
		color="#17272B",
		fontcolor="#FFFFFF",
		height=0.23611,
		label="Gustavo Mendes Platt [2]",
		pos="511.5,136.5",
		width=1.3611];
	8 -- 11	 [fontsize=8,
		label=2.0,
		lp="494,168.5",
		pos="466.75,191.9 476.54,180 495.38,157.1 505.2,145.16"];
	11 -- 13	 [fontsize=8,
		label=1.0,
		lp="479,104.5",
		pos="500.95,127.9 484.45,116 452.69,93.102 436.13,81.165"];
	10	 [URL="http://lattes.cnpq.br/1999072996132654",
		color="#17272B",
		fontcolor="#FFFFFF",
		height=0.23611,
		label="Helio P. Amaral Souto [0]",
		pos="1095.5,200.5",
		width=1.4028];
	12	 [URL="http://lattes.cnpq.br/2182469523085517",
		color="#17272B",
		fontcolor="#FFFFFF",
		height=0.23611,
		label="Anderson Amendoeira Namen [0]",
		pos="1227.5,200.5",
		width=1.75];
	14	 [URL="http://lattes.cnpq.br/9634798722030132",
		color="#17272B",
		fontcolor="#FFFFFF",
		height=0.23611,
		label="Joao F. Vieira de Vasconcellos [0]",
		pos="1372.5,200.5",
		width=1.7639];
	15	 [URL="http://lattes.cnpq.br/1089015137026377",
		color="#17272B",
		fontcolor="#FFFFFF",
		height=0.23611,
		label="Hermes Alves Filho [0]",
		pos="1500.5,200.5",
		width=1.2778];
	17	 [URL="http://lattes.cnpq.br/9401814864083219",
		color="#17272B",
		fontcolor="#FFFFFF",
		height=0.23611,
		label="Daiara Fernandes de Faria [0]",
		pos="1620.5,200.5",
		width=1.5556];
}
