artigoEmPeriodico	Paulo Sérgio Sausen	2013	http://dx.doi.org/10.1109/tsg.2013.2265264	Smart Grid Infrastructure Using a Hybrid Network Architecture	IEEE Transactions on Smart Grid	SALVADORI, Fabiano ; GEHRKE, Camila ; OLIVEIRA, Alexandre Cunha de ; de Campos, Maurício ; SAUSEN, P. S.	B2	
artigoEmPeriodico	Paulo Sérgio Sausen	2013		Método da Procura em Rede Melhorado: Uma Proposta para Estimação dos Parâmetros do Modelo de Rakhmatov e Vrudhula	TEMA. Tendências em Matemática Aplicada e Computacional	SILVA, B. F. ; SAUSEN, A. ; SAUSEN, P. S. ; Manuel Reimbold	B2	
artigoEmPeriodico	Paulo Sérgio Sausen	2013	http://dx.doi.org/10.12785/ijcnt/010104	A Hybrid Network Architecture Applied to Smart Grid	International Journal of Computing and Network Technology	SAUSEN, P. S.; SALVADORI, F. ; GEHRKE, C. S. ; CAMPOS, M. de ; Oliveira, Alexandre Cunha	Qualis nao identificado	International Journal of Computing and Network Technology
trabalhoCompletoEmCongresso	Paulo Sérgio Sausen	2013		Development of an Urban Electric Vehicle as Multidisciplinary Work in Electrical Engineering	Brazilian Power Electronics Conference 2013 - COBEP	BONATTO, L. ; KINAS, J. R. ; CAMPOS, Mauricio de ; SAUSEN, P. S. ; Manuel Reimbold ; SAUSEN, Airam Teresa Zago Romcy		
trabalhoCompletoEmCongresso	Paulo Sérgio Sausen	2013		Smart Distribution Transformer Applied to Smart Grids	XII Brazilian Power Electronics Conference 2013 - COBEP	QUEVEDO, J. O. ; GIACOMINI, J. C. ; BELTRAME, R. C. ; CAZAKEVICIUS, F. E. ; RECH, Cassiano ; SCHUCH, L. ; MARCHESAN, T. B. ; CAMPOS, Mauricio de ; SAUSEN, P. S. ; KINAS, J. R.		
trabalhoCompletoEmCongresso	Paulo Sérgio Sausen	2013		Modelagem Matemática do Tempo de Vida de uma Bateria Utilizando a Estrutura de Modelo Autorregressivo da Teoria da Identificação de Sitemas	Simpósio Brasileiro de Automação Inteligente	MACHADO, M. V. ; MOREIRA, C. J. M. ; SAUSEN, P. S. ; CAMPOS, Mauricio de		
trabalhoCompletoEmCongresso	Paulo Sérgio Sausen	2013	http://dx.doi.org/10.5540/03.2013.001.01.0100	Modelagem matemática da predição do tempo de vida de uma bateria utilizando a estrutura de modelo autorregressivo da teoria da identificação de sistemas	DINCON 2013 Conferência Brasileira de Dinâmica	MACHADO, MARLON VINÍCIUS ; MOREIRA, CÍCERO J. M. ; SAUSEN, AIRAM T. Z. R. ; SAUSEN, PAULO S. ; CAMPOS, Maurício de		
resumoExpandidoEmCongresso	Paulo Sérgio Sausen	2013	Aperfeiçoamento de uma Plataforma para Verificação de Modelos Matemáticos na Predição do Tempo de Vida de Baterias de Dispositivos Móveis	Salão do Conhecimento - Unijuí 2013, 2013, Ijuí -RS. Anais do Salão do Conhecimento Unijuí 2013. Ijuí: Editora Unijuí	SAUTHIER, L. F. ; SAUSEN, P. S.		
resumoExpandidoEmCongresso	Paulo Sérgio Sausen	2013	Comunicação IRDA Aplicada a um Medidor Eletrônico de Energia Trifásico	Salão do Conhecimento - Unijuí 2013, 2013, Ijuí -RS. Anais do Salão do Conhecimento Unijuí 2013. Ijui: Editora Unijuí	ATTUATI, G. ; KARNIKOWSKI, D. D. C. ; CAMPOS, M. de ; SAUSEN, P. S. ; SAUSEN, A.		
resumoExpandidoEmCongresso	Paulo Sérgio Sausen	2013	Desenvolvimento de um Sistema para a Automação de Subestações de Energia Elétrica Subterrâneas	Salão do Conhecimento - Unijuí 2013, 2013, Ijuí -RS. Anais do Salão do Conhecimento Unijuí 2013. Ijuí: Editora Unijuí	Rafael Wuttig ; KINAS, J. R. ; CAMPOS, M. de ; SAUSEN, P. S.		
resumoExpandidoEmCongresso	Paulo Sérgio Sausen	2013	Desenvolvimento de uma Interface de um Sistema de Medidor de Consumo de Energia Elétrica	Salão do Conhecimento - Unijuí 2013, 2013, Ijuí -RS. Anais do Salão do Conhecimento Unijuí 2013. Ijui: Editora Unijuí	MOTYCZKA, L. B. ; SAUSEN, P. S.		
resumoExpandidoEmCongresso	Paulo Sérgio Sausen	2013	Módulo de Sensores Inteligentes Aplicados na Automação de Subestações de Energia Elétrica Subterrâneas	Salão do Conhecimento - Unijuí 2013, 2013, Ijuí -RS. Anais do Salão do Conhecimento Unijuí 2013. Ijui: Editora Unijuí	CARBONERA, L. F. ; CAMPOS, Maurício de ; SAUSEN, A. ; SAUSEN, P. S.		
resumoExpandidoEmCongresso	Paulo Sérgio Sausen	2013	Projeto de um Sistema de medição de Corrente Utilizando a Bobina de Rogowski	Salão do Conhecimento - Unijuí 2013, 2013, Ijuí -RS. Anais do Salão do Conhecimento Unijuí 2013. Ijui: Editora Unijuí	KARNIKOWSKI, D. D. C. ; ATTUATI, G. ; CAMPOS, Mauricio de ; SAUSEN, P. S.		
resumoExpandidoEmCongresso	Paulo Sérgio Sausen	2013	Novas Tendências em Modelos Matemáticos na Predição do Tempo de Vida de Baterias Utilizadas em Dispositivos Móveis	Salão do Conhecimento - Unijuí 2013, 2013, Ijuí -RS. Anais do Salão do Conhecimento Unijuí 2013. Ijui: Editora Unijuí	DUARTE, K. P. ; SAUSEN, A. ; SAUSEN, P. S.		
resumoExpandidoEmCongresso	Paulo Sérgio Sausen	2013	Aplicação do Modelo Autorregressivo na Modelagem do Tempo de vida de baterias	Salão do Conhecimento - Unijuí 2013, 2013, Ijuí -RS. Anais do Salão do Conhecimento Unijuí 2013. Ijui: Editora Unijuí	MACHADO, M. V. ; MOREIRA, C. J. M. ; SAUSEN, A. ; SAUSEN, P. S.		
resumoExpandidoEmCongresso	Paulo Sérgio Sausen	2013	Desenvolvimento de Sistemas de Automação e Controle para Sistemas Eletricos - Automação de Subestações Subterrâneas	Salão do Conhecimento - Unijuí 2013, 2013, Ijuí -RS. Anais do Salão do Conhecimento Unijuí 2013. Ijui: Editora Unijuí	CAMPOS, Maurício de ; SAUSEN, P. S. ; SAUSEN, A. ; Manuel Reimbold ; Julio Cesar Oliveira Bolacell ; ENDERLE, T. P.		
artigoEmPeriodico	Oleg Khatchatourian	2013	http://dx.doi.org/10.4025/actascitechnol.v35i1.12808	Measurement of pavement macrotexture through digital image processing	Acta Scientiarum. Technology (Impresso)	SPECHT, Luciano P. ; KHATCHATOURIAN, O. ; Santos, R.T.	B1	
artigoEmPeriodico	Oleg Khatchatourian	2013	http://dx.doi.org/10.1016/j.biosystemseng.2013.09.001	Modelling and simulation of cross flow grain dryers	Biosystems Engineering	Khatchatourian, Oleg A.; VIELMO, Horácio A ; Bortolaia, L.A.	A2	
trabalhoCompletoEmCongresso	Oleg Khatchatourian	2013		Simulation of airflow in grain storage bins	XI SBAI/Dincon 2013 - Simpôsio Brasileiro de Automação Inteligente/Conferência Brasileira de Dinâmica	Faoro, V. ; Oleg Khatchatourian ; TONIAZZO, Nelson A		
trabalhoCompletoEmCongresso	Oleg Khatchatourian	2013		Simulation of continuous flow grain dryers	XI SBAI/Dincon 2013 - Simpôsio Brasileiro de Automação Inteligente/Conferência Brasileira de Dinâmica	LIMA, R. F. ; WINIK, S. V. ; KHATCHATOURIAN, O.		
trabalhoCompletoEmCongresso	Oleg Khatchatourian	2013		Modelagem matemática do ângulo de incidência em grãos armazenados	XI SBAI/Dincon 2013 - Simpôsio Brasileiro de Automação Inteligente/Conferência Brasileira de Dinâmica	KHATCHATOURIAN, O.; Vasconcellos, Marília		
artigoEmPeriodico	Manuel Martín Pérez Reimbold	2013	http://dx.doi.org/10.1007/s40313-013-0103-5	Evaluation of Model ARX For Elastic Masses MEMS Using the Indexes RMSE, AIC, and BIC	Journal of Control, Automation and Electrical Systems	BEDENDO, ANDRE ; Reimbold, Manuel ; SAUSEN, AIRAM	Qualis nao identificado	Journal of Control, Automation and Electrical Systems
artigoEmPeriodico	Manuel Martín Pérez Reimbold	2013		Método da Procura em Rede Melhorado:Uma Proposta para a Estimação dos Parâmetros do Modelo de Rakhmatov e Vrudhula.	TEMA. Tendências em Matemática Aplicada e Computacional	SILVA, B. F. ; SAUSEN, A. R. Z. ; SAUSEN, P. S. ; Reimbold, Manuel	B2	
artigoEmPeriodico	Manuel Martín Pérez Reimbold	2013		Development of an urban electric vehicle as multidisciplinay work in electrical engineering	IEEE	BONATTO, L. ; KINAS, J. R. ; CAMPOS, M. ; SAUSEN, P. S. ; Reimbold, Manuel ; SAUSEN, A. R. Z.	Qualis nao identificado	IEEE
trabalhoCompletoEmCongresso	Manuel Martín Pérez Reimbold	2013		Protótipo Robô Hexápode para Inspeção em Tubulações de Ar Condicionado	XI SBAI - Simpósio Brasileiro de Automação Inteligente	REIMBOLD, M. M. P.; CAMPOS, M. ; SAUSEN, A. ; KINAS, J. R. ; NETO, D. de M.		
trabalhoCompletoEmCongresso	Manuel Martín Pérez Reimbold	2013		Caharacteristic Parameters Identification of MEMS Resonators using Gray Box Modeling	22nd International Congress of Mechanical Engineering	MOREIRA, C. J. M. ; REIMBOLD, M. M. P. ; MACHADO, M. V. ; VALDIERO, A. C.		
trabalhoCompletoEmCongresso	Manuel Martín Pérez Reimbold	2013		Development of an Urban Electric Vehicle as Multidisciplinary Work in Electrical Engineering	Brazilian Power Electronics Conference 2013 - COBEP	BONATTO, L. ; KINAS, J. R. ; CAMPOS, Mauricio de ; SAUSEN, P. S. ; Manuel Reimbold ; SAUSEN, Airam Teresa Zago Romcy		
trabalhoCompletoEmCongresso	Manuel Martín Pérez Reimbold	2013		Identificação de Modelo ARX sob Critério PACF para Desempenho Comportamental de Estruturas	DINCON Conferência Brasileira de Dinâmica	MOREIRA, C. J. M. ; MACHADO, M. V. ; REIMBOLD, M. M. P. ; SAUSEN, AIRAM		
trabalhoCompletoEmCongresso	Luiz Antônio Rasia	2013	http://dx.doi.org/10.5540/03.2013.001.01.0106	Modelagem matemática de sensores piezoresistivos baseados em filmes finos semicondutores	DINCON 2013 - Conferência Brasileira de Dinâmica	MOI, ALBERTO ; MOREIRA, RODRIGO ; RASIA, LUIZ ANTONIO		
trabalhoCompletoEmCongresso	Luiz Antônio Rasia	2013	http://dx.doi.org/10.5540/03.2013.001.01.0044	Controle de seguimento de trajetória de um atuador pneumático especial	DINCON 2013 - Conferência Brasileira de Dinâmica	RICHTER, ROZIMERLI R. M. ; ZAMBERLAN, CAMILA V. ; VALDIERO, ANTONIO C. ; RASIA, LUIZ A.		
resumoExpandidoEmCongresso	Luiz Antônio Rasia	2013	Fabrication of a Prototype for Teaching Study of Sources Solar Energy	Congresso Brasileiro de Educação em Engenharia, 2013, Gramado. XLI Congresso Brasleiro de Educação em Engenharia - COBENGE 2013. Porto Alegre, RS: ABENGE	RASIA, L. A.; Valdiero, A. C. ; JANHEL, E. L. ; MEOTTI, J. M. ; RADONS, G. ; OSINSKI, G. ; ZANELLA, V. R.		
resumoExpandidoEmCongresso	Luiz Antônio Rasia	2013	Montagem de um Protótipo Didático para Estudo de Fontes de Energia Solar	Salão do Conhecimento UNIJUI 2013, 2013, Ijuí-RS. Salão do Conhecimento. Ijui-RS: Unijui	JANHEL, E. L. ; OSINSKI C ; OSINSKI, G. ; RADONS, G. ; MEOTTI, J. M. ; RASIA, L. A.		
artigoEmPeriodico	José Antonio Gonzalez da Silva	2013	http://dx.doi.org/10.1590/S0100-204X2013000100006	Adaptability and stability of white oat cultivars in relation to chemical composition of the caryopsis	Pesquisa Agropecuária Brasileira (1977. Impressa)	HAWERROTH, MARAISA CRESTANI ; CARVALHO, Fernando Irajá Félix de ; OLIVEIRA, Antonio Costa de ; Silva, José Antonio Gonzalez da ; GUTKOSKI, LUIZ CARLOS ; SARTORI, JOÃO FRANCISCO ; WOYANN, LEOMAR GUILHERME ; BARBIERI, ROSA LÍA ; HAWERROTH, FERNANDO JOSÉ	A2	
artigoEmPeriodico	José Antonio Gonzalez da Silva	2013	http://dx.doi.org/10.1590/s0100-204x2013000200006	Desempenho per se e parâmetros genéticos de linhagens de trigo com expressão do caráter 'stay‑green'	Pesquisa Agropecuária Brasileira (1977. Impressa)	LUCHE, HENRIQUE DE SOUZA ; Silva, José Antonio Gonzalez da ; NÖRNBERG, RAFAEL ; SILVEIRA, SOLANGE FERREIRA SILVEIRA DA ; BARETTA, DIEGO ; GROLI, EDER LICIERI ; Maia, Luciano Carlos da ; Oliveira, Antônio Costa de	A2	
artigoEmPeriodico	José Antonio Gonzalez da Silva	2013	http://dx.doi.org/10.1590/s0103-90162013000300006	Seeding density in wheat: the more, the merrier?	Scientia Agrícola (USP. Impresso)	Valério, Igor Pirez ; CARVALHO, Fernando Irajá Félix de ; BENIN, Giovani ; SILVEIRA, Gustavo da ; Silva, José Antonio Gonzalez da ; NORNBERG, RAFAEL ; HAGEMANN, THAIS ; LUCHE, HENRIQUE DE SOUZA ; Oliveira, Antônio Costa de	A2	
artigoEmPeriodico	José Antonio Gonzalez da Silva	2013		Genetic parameters for grain yield and its components in oat	Triticeae Genomics and Genetics	VALERIO, Igor Pires ; LORENCETTI, Claudir ; SILVA, José Antonio Gonzalez da ; LUCHE, H. S. ; OLIVEIRA, Antonio Costa de ; CARVALHO, Fernando Irajá Félix de	Qualis nao identificado	Triticeae Genomics and Genetics
artigoEmPeriodico	José Antonio Gonzalez da Silva	2013		Associações entre caracteres forrageiros de espécies do gênero Paspalum	Revista de la Facultad de Agronomía. Universidade Nacional de La Pampa	MOTTA, E. A. M. ; PEREIRA, E. A. ; SARAIVA, K. M. ; KUHN, N. J. I. S. ; BATTISTI, G. K. ; Silva, José Antonio Gonzalez da ; SIMIONI, C. ; DALLAGNOL, M.	Qualis nao identificado	Revista de la Facultad de Agronomía. Universidade Nacional de La Pampa
artigoEmPeriodico	José Antonio Gonzalez da Silva	2013		Variabilidade genética de caracteres forrageiros em acessos do gênero Paspalum em diferentes ambientes	Revista de la Facultad de Agronomía. Universidade Nacional de La Pampa	SARAIVA, K. M. ; PEREIRA, E. A. ; MOTTA, E. A. M. ; KUHN, N. J. I. S. ; BATTISTI, G. K. ; Silva, José Antonio Gonzalez da ; SIMIONI, C. ; DALLAGNOL, M.	Qualis nao identificado	Revista de la Facultad de Agronomía. Universidade Nacional de La Pampa
artigoEmPeriodico	José Antonio Gonzalez da Silva	2013		Parâmetros de adaptabilidade e estabilidade em cultivares brasileiras e estrangeiras de aveia branca	Current Agricultural Science and Technology	LUCHE, H. S. ; NORNBERG, R. ; HAWERROTH, M. C. ; RIBEIRO, Guilherme ; WOYNANN, L. G. ; SILVA, José Antonio Gonzalez da ; Maia, Luciano Carlos da ; OLIVEIRA, Antonio Costa de	Qualis nao identificado	Current Agricultural Science and Technology
artigoEmPeriodico	José Antonio Gonzalez da Silva	2013		Absorção de cálcio e magnésio por cultivares de aveia submetida a níveis de toxidez por alumínio	Semina. Ciências Agrárias (Impresso)	Silva, José Antonio Gonzalez da; REIS, Cecília Estima Sacramento dos ; HAWERROTH, MARAISA CRESTANI ; SOUSA, R. O. ; OLIVEIRA, Antonio Costa de ; CARVALHO, Fernando Irajá Félix de	B1	
trabalhoCompletoEmCongresso	José Antonio Gonzalez da Silva	2013		Conteúdo de proteína na cariopse em cultivares de aveia branca cultivadas em diferentes ambientes	XXXIII Reunião da Comissão Brasileira de Pesquisa de Aveia	HAWERROTH, M. C. ; CARVALHO, Fernando Irajá Félix de ; OLIVEIRA, Antonio Costa de ; Silva, José Antônio Gonzalez da ; GUTKOSKI, L. C. ; SARTORI, J. F. ; WOYNANN, L. G. ; BARBIERI, Rosa Lia ; HAWERROTH, F. J.		
trabalhoCompletoEmCongresso	José Antonio Gonzalez da Silva	2013		O agente mutagênico MMS proporciona incremento no rendimento de grãos em populações M4 de aveia preta	XXXIII Reunião da Comissão Brasileira de Pesquisa de Aveia	WOYNANN, L. G. ; TESSMANN, E. W. ; SILVEIRA, Gustavo da ; BARETA, D. ; PARACHU, E. A. M. ; Silva, José Antônio Gonzalez da ; MAIA, Luciano Carlos ; OLIVEIRA, Antonio Costa de		
trabalhoCompletoEmCongresso	José Antonio Gonzalez da Silva	2013		Ensaio Nacional de aveias forrageiras 2012: análise conjunta das linhagens	XXXIII Reunião da Comissão Brasileira de Pesquisa de Aveia	PENHA, L. A. O. ; CARVALHO, I. Q. ; HANISCH, A. L. ; BARBOSA, C. ; PARACHU, E. A. M. ; FLARESSO, J. A. ; Silva, José Antônio Gonzalez da ; GARRAFA, M. ; MIRANDA, M. ; LANGARO, N. C. ; OLIVEIRA, Paulo Henrique ; GALBEIRO, S. ; CECATO, U. ; BARROS, V. L. P.		
trabalhoCompletoEmCongresso	José Antonio Gonzalez da Silva	2013		Regressão polinomial para indicação da densidade ideal de semeadura na cultivar de aveia branca URS Taura sobre os parâmetros fisiológicos	XXXIII Reunião da Comissão Brasileira de Pesquisa de Aveia	ROMITTI, M. V. ; MAROLLI, A. ; MOMBACH, D. I. ; ARENHARDT, E. G. ; PINTO, F. B. ; MAZURKIEVICZ, G. ; GAVIRAGHI, J. ; SBERSE, V. L. ; GEWEHR, E. ; Silva, José Antônio Gonzalez da		
trabalhoCompletoEmCongresso	José Antonio Gonzalez da Silva	2013		Ensaio Nacional de aveias forrageiras 2012: análise conjunta das cultivares	XXXIII Reunião da Comissão Brasileira de Pesquisa de Aveia	CARVALHO, I. Q. ; HANISCH, A. L. ; BARBOSA, C. ; PARACHU, E. A. M. ; FLARESSO, J. A. ; Silva, José Antônio Gonzalez da ; GARRAFA, M. ; MIRANDA, M. ; LANGARO, N. C. ; OLIVEIRA, Paulo Henrique ; GALBEIRO, S. ; CECATO, U. ; BARROS, V. L. P.		
trabalhoCompletoEmCongresso	José Antonio Gonzalez da Silva	2013		A densidade de semeadura sobre os componentes ligados a qualidade industrial da aveia nos sistemas de produção	XXXIII Reunião da Comissão Brasileira de Pesquisa de Aveia	ROMITTI, M. V. ; MAROLLI, A. ; MOMBACH, D. I. ; CARBONERA, R. ; KRUGER, C. A. M. B. ; GARCIA, D. C. ; MULLER, M. ; UBESSI, C. ; GOI, L. R. K. ; TEIXEIRA, V. R. ; Silva, José Antônio Gonzalez da		
trabalhoCompletoEmCongresso	José Antonio Gonzalez da Silva	2013		A eficiência fisiológica da cultivar de aveia branca Barbarasul no aproveitamento de N-fertilizante em sistema de reduzida liberação de N-residual	XXXIII Reunião da Comissão Brasileira de Pesquisa de Aveia	ROMITTI, M. V. ; MANTAI, R. D. ; COSTA, J. S. P. ; MAROLLI, A. ; MOMBACH, D. I. ; CARBONERA, R. ; KRUGER, C. A. M. B. ; MAFALDA, I. U. ; ARENHARDT, E. G. ; PINTO, F. B. ; Silva, José Antônio Gonzalez da		
trabalhoCompletoEmCongresso	José Antonio Gonzalez da Silva	2013		Simulação do desenvolvimento da aveia branca por coeficientes ajustados pelo fotoperíodo e temperatura	XXXIII Reunião da Comissão Brasileira de Pesquisa de Aveia	UBESSI, C. ; MANTAI, R. D. ; COSTA, J. S. P. ; ROMITTI, M. V. ; MAROLLI, A. ; GEWEHR, E. ; SBERSE, V. L. ; GAVIRAGHI, J. ; MULLER, M. ; OLEGARIO, M. B. ; Silva, José Antônio Gonzalez da		
trabalhoCompletoEmCongresso	José Antonio Gonzalez da Silva	2013		A densidade de semeadura em aveia branca sobre os caracteres de interesse industrial no sistema de produção milho/aveia	XXXIII Reunião da Comissão Brasileira de Pesquisa de Aveia	UBESSI, C. ; OLEGARIO, M. B. ; MULLER, M. ; GAVIRAGHI, J. ; GEWEHR, E. ; SBERSE, V. L. ; MAZURKIEVICZ, G. ; PINTO, F. B. ; ARENHARDT, E. G. ; GARCIA, D. C. ; Silva, José Antônio Gonzalez da		
trabalhoCompletoEmCongresso	José Antonio Gonzalez da Silva	2013		O redutor de crescimento de nome comercial 'MODDUS' na expressão do rendimento biológico e de grãos e o índice de colheita na cultivar de aveia branca Barbarasul	XXXIII Reunião da Comissão Brasileira de Pesquisa de Aveia	MAROLLI, A. ; ROMITTI, M. V. ; MOMBACH, D. I. ; ARENHARDT, E. G. ; MAZURKIEVICZ, G. ; SBERSE, V. L. ; GEWEHR, E. ; OLIVEIRA, Antonio Costa de ; MAIA, Luciano Carlos ; LUCHE, H. S. ; HAWERROTH, M. C. ; Silva, José Antônio Gonzalez da		
trabalhoCompletoEmCongresso	José Antonio Gonzalez da Silva	2013		A densidade de semeadura em aveia branca sobre os caracteres de interesse industrial no sistema de produção soja/aveia	XXXIII Reunião da Comissão Brasileira de Pesquisa de Aveia	UBESSI, C. ; OLEGARIO, M. B. ; MULLER, M. ; GAVIRAGHI, J. ; GEWEHR, E. ; SBERSE, V. L. ; MAZURKIEVICZ, G. ; PINTO, F. B. ; ARENHARDT, E. G. ; GARCIA, D. C. ; Silva, José Antônio Gonzalez da		
trabalhoCompletoEmCongresso	José Antonio Gonzalez da Silva	2013		O aproveitamento do nitrogênio na expressão da taxa de biomassa e de grãos em aveia branca no sistema soja/aveia	XXXIII Reunião da Comissão Brasileira de Pesquisa de Aveia	ARENHARDT, E. G. ; MANTAI, R. D. ; COSTA, J. S. P. ; ROMITTI, M. V. ; MAROLLI, A. ; MOMBACH, D. I. ; SILVA, A. J. ; SARTORI, C. O. ; CARBONERA, R. ; KRUGER, C. A. M. B. ; Silva, José Antônio Gonzalez da		
trabalhoCompletoEmCongresso	José Antonio Gonzalez da Silva	2013		A máxima eficiência técnica na cultivar Brisasul pelo nitrogênio na expressão de caracteres ligados a eficiência fisiológica sob resíduo de alta relação C/N	XXXIII Reunião da Comissão Brasileira de Pesquisa de Aveia	MAROLLI, A. ; MANTAI, R. D. ; COSTA, J. S. P. ; ROMITTI, M. V. ; MOMBACH, D. I. ; GAVIRAGHI, J. ; UBESSI, C. ; WOHLENBERG, M. D. ; OLEGARIO, M. B. ; MULLER, M. ; Silva, José Antônio Gonzalez da		
trabalhoCompletoEmCongresso	José Antonio Gonzalez da Silva	2013		Análise do desempenho da produção de biomassa em genótipos de aveia forrageira em diferentes cortes	XXXIII Reunião da Comissão Brasileira de Pesquisa de Aveia	MOMBACH, D. I. ; MAROLLI, A. ; ROMITTI, M. V. ; GOI, L. R. K. ; TEIXEIRA, V. R. ; MAFALDA, I. U. ; ARENHARDT, E. G. ; PINTO, F. B. ; MAZURKIEVICZ, G. ; UBESSI, C. ; Silva, José Antônio Gonzalez da		
trabalhoCompletoEmCongresso	José Antonio Gonzalez da Silva	2013		Avaliação de biomassa e rendimento de grãos em ambiente de baixa relação C/N na cultivar de aveia branca Barbarasul	XXXIII Reunião da Comissão Brasileira de Pesquisa de Aveia	MAROLLI, A. ; MANTAI, R. D. ; COSTA, J. S. P. ; ROMITTI, M. V. ; MOMBACH, D. I. ; UBESSI, C. ; MULLER, M. ; GAVIRAGHI, J. ; GEWEHR, E. ; SBERSE, V. L. ; Silva, José Antônio Gonzalez da		
trabalhoCompletoEmCongresso	José Antonio Gonzalez da Silva	2013		Máxima eficiência técnica pelo nitrogênio na expressão de caracteres fisiológicos da cultivar de aveia branca Brisasul em reduzida liberação de N-residual	XXXIII Reunião da Comissão Brasileira de Pesquisa de Aveia	MOMBACH, D. I. ; MANTAI, R. D. ; COSTA, J. S. P. ; MAROLLI, A. ; ROMITTI, M. V. ; UBESSI, C. ; OLEGARIO, M. B. ; MULLER, M. ; PINTO, F. B. ; MAZURKIEVICZ, G. ; Silva, José Antônio Gonzalez da		
trabalhoCompletoEmCongresso	José Antonio Gonzalez da Silva	2013		Relação folha/colmo e percentual de folha nos genótipos de aveia direcionados a produção de forragem	XXXIII Reunião da Comissão Brasileira de Pesquisa de Aveia	MOMBACH, D. I. ; MAROLLI, A. ; ROMITTI, M. V. ; UBESSI, C. ; ARENHARDT, E. G. ; PINTO, F. B. ; MAZURKIEVICZ, G. ; GAVIRAGHI, J. ; SBERSE, V. L. ; GEWEHR, E. ; Silva, José Antônio Gonzalez da		
trabalhoCompletoEmCongresso	José Antonio Gonzalez da Silva	2013		A taxa de produção de biomassa pela densidade de semeadura em aveia branca no sistema milho/aveia	XXXIII Reunião da Comissão Brasileira de Pesquisa de Aveia	ARENHARDT, E. G. ; PINTO, F. B. ; MAZURKIEVICZ, G. ; SBERSE, V. L. ; GEWEHR, E. ; GAVIRAGHI, J. ; WOHLENBERG, M. D. ; MULLER, M. ; OLEGARIO, M. B. ; UBESSI, C. ; Silva, José Antônio Gonzalez da		
trabalhoCompletoEmCongresso	José Antonio Gonzalez da Silva	2013		O sistema de sucessão na interface N-fertilizante e residual para a cultura da aveia	XXXIII Reunião da Comissão Brasileira de Pesquisa de Aveia	MAZURKIEVICZ, G. ; MANTAI, R. D. ; COSTA, J. S. P. ; UBESSI, C. ; ROMITTI, M. V. ; MAROLLI, A. ; MOMBACH, D. I. ; GOI, L. R. K. ; TEIXEIRA, V. R. ; MAFALDA, I. U. ; Silva, José Antônio Gonzalez da		
trabalhoCompletoEmCongresso	José Antonio Gonzalez da Silva	2013		Componentes da panícula, nitrogênio e o sistema de produção como parâmetros da equação múltipla na previsão de safras da aveia	XXXIII Reunião da Comissão Brasileira de Pesquisa de Aveia	OLEGARIO, M. B. ; MANTAI, R. D. ; COSTA, J. S. P. ; ROMITTI, M. V. ; MAROLLI, A. ; GAVIRAGHI, J. ; WOHLENBERG, M. D. ; SILVA, A. J. ; SARTORI, C. O. ; GARCIA, D. C. ; Silva, José Antônio Gonzalez da		
trabalhoCompletoEmCongresso	José Antonio Gonzalez da Silva	2013		Equação linear múltipla para o rendimento de grãos pelos componentes da panícula e o nitrogênio nos sistemas de produção da aveia	XXXIII Reunião da Comissão Brasileira de Pesquisa de Aveia	OLEGARIO, M. B. ; MANTAI, R. D. ; COSTA, J. S. P. ; ROMITTI, M. V. ; MAROLLI, A. ; UBESSI, C. ; SBERSE, V. L. ; GEWEHR, E. ; GAVIRAGHI, J. ; WOHLENBERG, M. D. ; Silva, José Antônio Gonzalez da		
trabalhoCompletoEmCongresso	José Antonio Gonzalez da Silva	2013		A eficiência técnica pelo nitrogênio e a estimativa do rendimento de grãos de aveia no sistema soja/aveia	XXXIII Reunião da Comissão Brasileira de Pesquisa de Aveia	PINTO, F. B. ; MANTAI, R. D. ; COSTA, J. S. P. ; ROMITTI, M. V. ; MAROLLI, A. ; MOMBACH, D. I. ; WOHLENBERG, M. D. ; MULLER, M. ; OLEGARIO, M. B. ; UBESSI, C. ; Silva, José Antônio Gonzalez da		
trabalhoCompletoEmCongresso	José Antonio Gonzalez da Silva	2013		A eficiência técnica pelo nitrogênio e a estimativa do rendimento de grãos de aveia no sistema milho/aveia	XXXIII Reunião da Comissão Brasileira de Pesquisa de Aveia	PINTO, F. B. ; MANTAI, R. D. ; COSTA, J. S. P. ; ROMITTI, M. V. ; MAROLLI, A. ; MOMBACH, D. I. ; ARENHARDT, E. G. ; MAZURKIEVICZ, G. ; SBERSE, V. L. ; GEWEHR, E. ; Silva, José Antônio Gonzalez da		
trabalhoCompletoEmCongresso	José Antonio Gonzalez da Silva	2013		A contribuição relativa para a detecção da sensibilidade dos caracteres da panícula pelo nitrogênio da aveia produtora de grãos	XXXIII Reunião da Comissão Brasileira de Pesquisa de Aveia	MULLER, M. ; MANTAI, R. D. ; COSTA, J. S. P. ; ROMITTI, M. V. ; MAROLLI, A. ; MOMBACH, D. I. ; GEWEHR, E. ; GAVIRAGHI, J. ; WOHLENBERG, M. D. ; OLEGARIO, M. B. ; Silva, José Antônio Gonzalez da		
trabalhoCompletoEmCongresso	José Antonio Gonzalez da Silva	2013		A tecnologia de manejo pela densidade de semeadura nos parâmetros fisiológicos da aveia na cultivar URS-Taura por alteração do sistema de cultivo	XXXIII Reunião da Comissão Brasileira de Pesquisa de Aveia	MULLER, M. ; OLEGARIO, M. B. ; UBESSI, C. ; GOI, L. R. K. ; TEIXEIRA, V. R. ; MAFALDA, I. U. ; ARENHARDT, E. G. ; PINTO, F. B. ; MAZURKIEVICZ, G. ; SBERSE, V. L. ; Silva, José Antônio Gonzalez da		
trabalhoCompletoEmCongresso	José Antonio Gonzalez da Silva	2013		Buscando a eficiência econômica pelo aproveitamento do nitrogênio em aveia no sistema soja/aveia	XXXIII Reunião da Comissão Brasileira de Pesquisa de Aveia	MAZURKIEVICZ, G. ; MANTAI, R. D. ; COSTA, J. S. P. ; GAVIRAGHI, J. ; WOHLENBERG, M. D. ; MULLER, M. ; OLEGARIO, M. B. ; UBESSI, C. ; SILVA, A. J. ; SARTORI, C. O. ; Silva, José Antônio Gonzalez da		
trabalhoCompletoEmCongresso	José Antonio Gonzalez da Silva	2013		A correlação e trilha nos componentes do rendimento de grãos de aveia branca no sistema milho/aveia	XXXIII Reunião da Comissão Brasileira de Pesquisa de Aveia	OLEGARIO, M. B. ; MANTAI, R. D. ; COSTA, J. S. P. ; ROMITTI, M. V. ; MAROLLI, A. ; UBESSI, C. ; ARENHARDT, E. G. ; PINTO, F. B. ; MAZURKIEVICZ, G. ; SARTORI, C. O. ; Silva, José Antônio Gonzalez da		
trabalhoCompletoEmCongresso	José Antonio Gonzalez da Silva	2013		Buscando a eficiência econômica pelo aproveitamento do nitrogênio em aveia no sistema milho/aveia	XXXIII Reunião da Comissão Brasileira de Pesquisa de Aveia	MAZURKIEVICZ, G. ; MANTAI, R. D. ; COSTA, J. S. P. ; ARENHARDT, E. G. ; SBERSE, V. L. ; GEWEHR, E. ; GAVIRAGHI, J. ; WOHLENBERG, M. D. ; MULLER, M. ; OLEGARIO, M. B. ; Silva, José Antônio Gonzalez da		
trabalhoCompletoEmCongresso	José Antonio Gonzalez da Silva	2013		A correlação e trilha nos componentes do rendimento de grãos de aveia branca no sistema soja/aveia	XXXIII Reunião da Comissão Brasileira de Pesquisa de Aveia	MULLER, M. ; MANTAI, R. D. ; COSTA, J. S. P. ; ROMITTI, M. V. ; MAROLLI, A. ; MOMBACH, D. I. ; ARENHARDT, E. G. ; PINTO, F. B. ; MAZURKIEVICZ, G. ; GEWEHR, E. ; Silva, José Antônio Gonzalez da		
trabalhoCompletoEmCongresso	José Antonio Gonzalez da Silva	2013		Variável potencial via stepwise para uso num modelo de regressão múltipla buscando a previsão de safras nos sistemas de cultivo da aveia	XXXIII Reunião da Comissão Brasileira de Pesquisa de Aveia	SBERSE, V. L. ; MANTAI, R. D. ; COSTA, J. S. P. ; ARENHARDT, E. G. ; PINTO, F. B. ; GEWEHR, E. ; GAVIRAGHI, J. ; WOHLENBERG, M. D. ; MULLER, M. ; OLEGARIO, M. B. ; Silva, José Antônio Gonzalez da		
trabalhoCompletoEmCongresso	José Antonio Gonzalez da Silva	2013		O aproveitamento do nitrogênio sobre a taxa de produção de biomassa e grãos em aveia branca no sistema milho/aveia	XXXIII Reunião da Comissão Brasileira de Pesquisa de Aveia	PINTO, F. B. ; MANTAI, R. D. ; COSTA, J. S. P. ; ROMITTI, M. V. ; MAROLLI, A. ; MOMBACH, D. I. ; MAZURKIEVICZ, G. ; SBERSE, V. L. ; GEWEHR, E. ; GAVIRAGHI, J. ; Silva, José Antônio Gonzalez da		
trabalhoCompletoEmCongresso	José Antonio Gonzalez da Silva	2013		Equações buscando a densidade de semeadura ideal em aveia para a máxima eficiência no rendimento de grãos	XXXIII Reunião da Comissão Brasileira de Pesquisa de Aveia	SBERSE, V. L. ; UBESSI, C. ; GOI, L. R. K. ; TEIXEIRA, V. R. ; MAFALDA, I. U. ; SILVA, A. J. ; SARTORI, C. O. ; CARBONERA, R. ; KRUGER, C. A. M. B. ; GARCIA, D. C. ; Silva, José Antônio Gonzalez da		
trabalhoCompletoEmCongresso	José Antonio Gonzalez da Silva	2013		A tecnologia de manejo pela densidade de semeadura nos parâmetros fisiológicos da aveia na cultivar Brisasul por alteração do sistema de cultivo	XXXIII Reunião da Comissão Brasileira de Pesquisa de Aveia	SBERSE, V. L. ; ARENHARDT, E. G. ; PINTO, F. B. ; GEWEHR, E. ; GAVIRAGHI, J. ; WOHLENBERG, M. D. ; MULLER, M. ; OLEGARIO, M. B. ; UBESSI, C. ; SILVA, A. J. ; SILVA, José Antonio Gonzalez da		
trabalhoCompletoEmCongresso	José Antonio Gonzalez da Silva	2013		Avaliação da interação genótipo ambiente de cultivares elites de aveia branca para caracteres agronômicos	XXXIII Reunião da Comissão Brasileira de Pesquisa de Aveia	GROLI, E. L. ; NORNBERG, R. ; LUCHE, H. S. ; ALMEIDA, H. C. F. ; OLIVEIRA, V. ; OLIVO, M. ; SILVA, José Antonio Gonzalez da ; MAIA, Luciano Carlos ; OLIVEIRA, Antonio Costa de		
trabalhoCompletoEmCongresso	José Antonio Gonzalez da Silva	2013		Ensaio brasileiro de cultivares de aveia e os caracteres de interesse industrial pela presença e ausência de fungicida	XXXIII Reunião da Comissão Brasileira de Pesquisa de Aveia	WOHLENBERG, M. D. ; OLEGARIO, M. B. ; MULLER, M. ; GAVIRAGHI, J. ; GEWEHR, E. ; SBERSE, V. L. ; MAZURKIEVICZ, G. ; PINTO, F. B. ; ARENHARDT, E. G. ; SILVA, A. J. ; SARTORI, C. O. ; Silva, José Antônio Gonzalez da		
trabalhoCompletoEmCongresso	José Antonio Gonzalez da Silva	2013		Análise conjunta do ensaio regional e brasileiro de linhagens de aveia branca conduzido no ano de 2012	XXXIII Reunião da Comissão Brasileira de Pesquisa de Aveia	PACHECO, Marcelo Teixeira ; FEDERIZZI, L. C. ; LANGARO, N. C. ; OLIVEIRA, Antonio Costa de ; Silva, José Antônio Gonzalez da ; RIEDE, C. A. ; OLIVEIRA, E. ; OLIVEIRA, Paulo Henrique ; BARROS, V. L. P. ; FOSTIM, M. L. ; IURKIW JUNIOR, A.		
trabalhoCompletoEmCongresso	José Antonio Gonzalez da Silva	2013		Ensaio de linhagens de aveia branca conduzidos em Augusto Pestana RS, 2012	XXXIII Reunião da Comissão Brasileira de Pesquisa de Aveia	WOHLENBERG, M. D. ; UBESSI, C. ; MULLER, M. ; OLEGARIO, M. B. ; GAVIRAGHI, J. ; GEWEHR, E. ; SBERSE, V. L. ; MAZURKIEVICZ, G. ; PINTO, F. B. ; ARENHARDT, E. G. ; GOI, L. R. K. ; MAFALDA, I. U. ; Silva, José Antônio Gonzalez da		
trabalhoCompletoEmCongresso	José Antonio Gonzalez da Silva	2013		Análise conjunta dos resultados obtidos na rede de ensaios entre 2010 e 2012 para os genótipos avaliados no ensaio brasileiro de aveia branca no ano de 2012	XXXIII Reunião da Comissão Brasileira de Pesquisa de Aveia	PACHECO, Marcelo Teixeira ; FEDERIZZI, L. C. ; LANGARO, N. C. ; RIEDE, C. A. ; OLIVEIRA, Antonio Costa de ; ALMEIDA, J. L. ; Silva, José Antônio Gonzalez da ; OLIVEIRA, Paulo Henrique ; BARROS, V. L. P. ; OLIVEIRA, E. ; SILVA, A. C. ; GODOY, R.		
trabalhoCompletoEmCongresso	José Antonio Gonzalez da Silva	2013		Ensaio brasileiro de cultivares de aveia branca conduzido em Augusto Pestana RS, 2012	XXXIII Reunião da Comissão Brasileira de Pesquisa de Aveia	WOHLENBERG, M. D. ; MULLER, M. ; OLEGARIO, M. B. ; GAVIRAGHI, J. ; GEWEHR, E. ; SBERSE, V. L. ; MAZURKIEVICZ, G. ; PINTO, F. B. ; ARENHARDT, E. G. ; GOI, L. R. K. ; MAFALDA, I. U. ; KRUGER, C. A. M. B. ; Silva, José Antônio Gonzalez da		
trabalhoCompletoEmCongresso	José Antonio Gonzalez da Silva	2013		Dissimilaridade genética e desempenho de genótipos de aveia branca	XXXIII Reunião da Comissão Brasileira de Pesquisa de Aveia	NORNBERG, R. ; LUCHE, H. S. ; ZIMMER, C. ; SANTOS, R. L. ; POLESELLO, M. ; Silva, José Antônio Gonzalez da ; MAIA, Luciano Carlos ; OLIVEIRA, Antonio Costa de		
trabalhoCompletoEmCongresso	José Antonio Gonzalez da Silva	2013		Comportamento de populações de aveia preta (Avena strigosa Schreb) em diferentes doses do mutagênico EMS	XXXIII Reunião da Comissão Brasileira de Pesquisa de Aveia	TESSMANN, E. W. ; WOYNANN, L. G. ; SILVEIRA, Gustavo da ; DANIELOWSKI, R. ; PARACHU, E. A. M. ; Silva, José Antônio Gonzalez da ; MAIA, Luciano Carlos ; OLIVEIRA, Antonio Costa de		
trabalhoCompletoEmCongresso	José Antonio Gonzalez da Silva	2013		Variáveis canônicas em genótipos de aveia preta	XXXIII Reunião da Comissão Brasileira de Pesquisa de Aveia	KAVALCO, S. A. F. ; BARETA, D. ; GROLI, E. L. ; DANIELOWSKI, R. ; THUROW, L. B. ; NORNBERG, R. ; PARACHU, E. A. M. ; Silva, José Antônio Gonzalez da ; OLIVEIRA, Antonio Costa de		
trabalhoCompletoEmCongresso	José Antonio Gonzalez da Silva	2013		Análise de trilha usando valores fenotípicos para produção de massa seca em genótipos de aveia preta	XXXIII Reunião da Comissão Brasileira de Pesquisa de Aveia	BARETA, D. ; KAVALCO, S. A. F. ; ZIMMER, C. ; TESSMANN, E. W. ; BUSANELLO, C. ; NORNBERG, R. ; PARACHU, E. A. M. ; Silva, José Antônio Gonzalez da ; MAIA, Luciano Carlos ; OLIVEIRA, Antonio Costa de		
trabalhoCompletoEmCongresso	José Antonio Gonzalez da Silva	2013		Desempenho de cultivares brasileira de aveia branca lançadas entre 1981 e 2011	XXXIII Reunião da Comissão Brasileira de Pesquisa de Aveia	LUCHE, H. S. ; NORNBERG, R. ; WOYNANN, L. G. ; SANTOS, R. L. ; ARGE, L. W. P. ; KAVALCO, S. A. F. ; Silva, José Antônio Gonzalez da ; MAIA, Luciano Carlos ; OLIVEIRA, Antonio Costa de		
trabalhoCompletoEmCongresso	José Antonio Gonzalez da Silva	2013		Análise conjunta do ensaio brasileiro de cultivares de aveia branca, 2012	XXXIII Reunião da Comissão Brasileira de Pesquisa de Aveia	LANGARO, N. C. ; FEDERIZZI, L. C. ; PACHECO, Marcelo Teixeira ; OLIVEIRA, Antonio Costa de ; SILVA, A. C. ; RIEDE, C. A. ; ALMEIDA, J. L. ; OLIVEIRA, J. C. ; MOLIN, R. ; GARRAFA, M. ; SOUSA, C. A. ; Silva, José Antônio Gonzalez da ; BARROS, V. L. P. ; RAMOS JUNIOR, E. U. ; OLIVEIRA, Paulo Henrique		
trabalhoCompletoEmCongresso	José Antonio Gonzalez da Silva	2013		Ethyl-trinexapac e prohexadione-ca associado a adubação nitrogenada em aveia branca	XXXIII Reunião da Comissão Brasileira de Pesquisa de Aveia	SOUSA, C. A. ; TORMEM, M. E. ; SPONCHIADO, J. C. ; HAWERROTH, M. C. ; Silva, José Antônio Gonzalez da ; LANGARO, N. C. ; PACHECO, Marcelo Teixeira ; OLIVEIRA, Antonio Costa de		
resumoExpandidoEmCongresso	José Antonio Gonzalez da Silva	2013	Melhoramento genético na busca de eficiência no rendimento de grãos e biomassa em capim sudão	Salão do Conhecimento, 2013, Ijuí/RS. XXI Seminário de Iniciação Científica, XVIII Jornada de Pesquisa, XIV Jornada de Extensão, III Seminário de Inovação e Tecnologia e III Mostra de Iniciação Científica	ARENHARDT, E. G. ; Silva, José Antonio Gonzalez da		
resumoExpandidoEmCongresso	José Antonio Gonzalez da Silva	2013	Produção de forragem e grãos de linhagens de capim sudão em distintas regiões edafoclimáticas	Salão do Conhecimento da UNIJUÍ, 2013, Ijuí/RS. XXI Seminário de Iniciação Científica, XVIII Jornada de Pesquisa, XIV Jornada de Extensão, III Seminário de Inovação e Tecnologia e III Mostra de Iniciação Científica	ARENHARDT, E. G. ; Silva, José Antonio Gonzalez da		
resumoExpandidoEmCongresso	José Antonio Gonzalez da Silva	2013	A eficiência fisiológica no aproveitamento do nitrogênio em cultivares elite de aveia branca	Salão do Conhecimento da UNIJUÍ, 2013, Ijuí/RS. XXI Seminário de Iniciação Científica, XVIII Jornada de Pesquisa, XIV Jornada de Extensão, III Seminário de Inovação e Tecnologia e III Mostra de Iniciação Científica	UBESSI, C. ; PINTO, F. B. ; KRYSCZUN, D. K. ; GOI NETO, C. J. ; MOMBACH, D. I. ; Silva, José Antonio Gonzalez da		
resumoExpandidoEmCongresso	José Antonio Gonzalez da Silva	2013	Avaliação da taxa de produção de biomassa e rendimento de grãos a partir de diferentes densidades de semeadura em aveia	Salão do Conhecimento da UNIJUÍ, 2013, Ijuí/RS. XXI Seminário de Iniciação Científica, XVIII Jornada de Pesquisa, XIV Jornada de Extensão, III Seminário de Inovação e Tecnologia e III Mostra de Iniciação Científica	GOI NETO, C. J. ; KRYSCZUN, D. K. ; GOERGEN, P. C. H. ; MOMBACH, D. I. ; WOHLENBERG, M. D. ; Silva, José Antonio Gonzalez da		
resumoExpandidoEmCongresso	José Antonio Gonzalez da Silva	2013	A taxa de biomassa e produtividade de grãos em aveia branca no sistema soja/aveia com o aproveitamento do nitrogênio	Salão do Conhecimento da UNIJUÍ, 2013, Ijuí/RS. XXI Seminário de Iniciação Científica, XVIII Jornada de Pesquisa, XIV Jornada de Extensão, III Seminário de Inovação e Tecnologia e III Mostra de Iniciação Científica	KRYSCZUN, D. K. ; MAZURKIEVICZ, G. ; MAROLLI, A. ; UBESSI, C. ; ROMITTI, M. V. ; Silva, José Antonio Gonzalez da		
resumoExpandidoEmCongresso	José Antonio Gonzalez da Silva	2013	A expressão de parâmetros fisiológicos da aveia na estimativa da eficiência técnica de produção	Salão do Conhecimento da UNIJUÍ, 2013, Ijuí/RS. XXI Seminário de Iniciação Científica, XVIII Jornada de Pesquisa, XIV Jornada de Extensão, III Seminário de Inovação e Tecnologia e III Mostra de Iniciação Científica	PINTO, F. B. ; UBESSI, C. ; MOMBACH, D. I. ; BREZOLIN, A. P. ; SILVA, A. J. ; Silva, José Antonio Gonzalez da		
resumoExpandidoEmCongresso	José Antonio Gonzalez da Silva	2013	Parâmetros de adaptabilidade e estabilidade em trigo associado á epoca de aplicação de nitrogênio nos sistemas de cultivo	Salão do Conhecimento da UNIJUÍ, 2013, Ijuí/RS. XXI Seminário de Iniciação Científica, XVIII Jornada de Pesquisa, XIV Jornada de Extensão, III Seminário de Inovação e Tecnologia e III Mostra de Iniciação Científica	MAZURKIEVICZ, G. ; ARENHARDT, E. G. ; MULLER, M. ; KRYSCZUN, D. K. ; GOERGEN, P. C. H. ; Silva, José Antonio Gonzalez da		
resumoExpandidoEmCongresso	José Antonio Gonzalez da Silva	2013	O comportamento da produção de biomassa do trigo classe panificador sobre o escalonamento e doses de nitrogênio no sistema soja/trigo	Salão do Conhecimento da UNIJUÍ, 2013, Ijuí/RS. XXI Seminário de Iniciação Científica, XVIII Jornada de Pesquisa, XIV Jornada de Extensão, III Seminário de Inovação e Tecnologia e III Mostra de Iniciação Científica	Silva, José Antonio Gonzalez da; COSTA, J. S. P. ; UBESSI, C. ; PINTO, F. B. ; SBERSE, V. L. ; OLEGARIO, M. B.		
resumoExpandidoEmCongresso	José Antonio Gonzalez da Silva	2013	A taxa diária na produção de biomassa do trigo panificador sobre o escalonamento e doses de nitrogênio no sistema milho/trigo	Salão do Conhecimento da UNIJUÍ, 2013, Ijuí/RS. XXI Seminário de Iniciação Científica, XVIII Jornada de Pesquisa, XIV Jornada de Extensão, III Seminário de Inovação e Tecnologia e III Mostra de Iniciação Científica	Silva, José Antonio Gonzalez da; COSTA, J. S. P. ; MAZURKIEVICZ, G. ; MULLER, M. ; GOERGEN, P. C. H. ; KRYSCZUN, D. K.		
resumoExpandidoEmCongresso	José Antonio Gonzalez da Silva	2013	O modelo polinomial na compreensão do comportamento do trigo classe pão sobre o escalonamento e doses de nitrogênio nos sistemas de cultivo	Salão do Conhecimento da UNIJUÍ, 2013, Ijuí/RS. XXI Seminário de Iniciação Científica, XVIII Jornada de Pesquisa, XIV Jornada de Extensão, III Seminário de Inovação e Tecnologia e III Mostra de Iniciação Científica	Silva, José Antonio Gonzalez da; COSTA, J. S. P. ; BREZOLIN, A. P. ; ROMITTI, M. V. ; MAROLLI, A. ; GOI NETO, C. J.		
resumoExpandidoEmCongresso	José Antonio Gonzalez da Silva	2013	O potencial genético de linhagens de aveia branca buscando o lançamento de cultivares ajustadas para região noroeste do Rio Grande do Sul	Salão do Conhecimento da UNIJUÍ, 2013, Ijuí/RS. XXI Seminário de Iniciação Científica, XVIII Jornada de Pesquisa, XIV Jornada de Extensão, III Seminário de Inovação e Tecnologia e III Mostra de Iniciação Científica	WOHLENBERG, M. D. ; OLEGARIO, M. B. ; SBERSE, V. L. ; MAZURKIEVICZ, G. ; SILVA, A. J. ; Silva, José Antonio Gonzalez da		
resumoExpandidoEmCongresso	José Antonio Gonzalez da Silva	2013	Uma proposta de melhor ajuste de recomendação pela eficiência econômica no aproveitamento do nitrogênio	Salão do Conhecimento da UNIJUÍ, 2013, Ijuí/RS. XXI Seminário de Iniciação Científica, XVIII Jornada de Pesquisa, XIV Jornada de Extensão, III Seminário de Inovação e Tecnologia e III Mostra de Iniciação Científica	MULLER, M. ; OLEGARIO, M. B. ; SBERSE, V. L. ; PINTO, F. B. ; GOI NETO, C. J. ; SILVA, José Antonio Gonzalez da		
resumoExpandidoEmCongresso	José Antonio Gonzalez da Silva	2013	Modelagem matemática do crescimento bacteriano cru	Salão do Conhecimento da UNIJUÍ, 2013, Ijuí/RS. XXI Seminário de Iniciação Científica, XVIII Jornada de Pesquisa, XIV Jornada de Extensão, III Seminário de Inovação e Tecnologia e III Mostra de Iniciação Científica	ROSA, M. E. U. ; FRUHLING, S. W. ; Silva, José Antonio Gonzalez da ; MARTINS, L. R. V. ; MULLER, D. C. M.		
resumoExpandidoEmCongresso	José Antonio Gonzalez da Silva	2013	Uma proposta na densidade de semeadura no principal biotipo de aveia branca para cultivo no sul do Brasil	Salão do Conhecimento da UNIJUÍ, 2013, Ijuí/RS. XXI Seminário de Iniciação Científica, XVIII Jornada de Pesquisa, XIV Jornada de Extensão, III Seminário de Inovação e Tecnologia e III Mostra de Iniciação Científica	OLEGARIO, M. B. ; SBERSE, V. L. ; GOERGEN, P. C. H. ; SARTORI, C. O. ; SILVA, José Antonio Gonzalez da		
resumoExpandidoEmCongresso	José Antonio Gonzalez da Silva	2013	A taxa de biomassa e a produtividade de grãos em aveia pela densidade de semeadura no sistema milho/aveia	Salão do Conhecimento da UNIJUÍ, 2013, Ijuí/RS. XXI Seminário de Iniciação Científica, XVIII Jornada de Pesquisa, XIV Jornada de Extensão, III Seminário de Inovação e Tecnologia e III Mostra de Iniciação Científica	GOERGEN, P. C. H. ; MAZURKIEVICZ, G. ; MULLER, M. ; MAROLLI, A. ; ROMITTI, M. V. ; SILVA, José Antonio Gonzalez da		
resumoExpandidoEmCongresso	José Antonio Gonzalez da Silva	2013	As cultivares brasileiras de aveia e os caracteres de interesse industrial pela presença e ausência de fungicida	Salão do Conhecimento da UNIJUÍ, 2013, Pelotas/RS. XXI Seminário de Iniciação Científica, XVIII Jornada de Pesquisa, XIV Jornada de Extensão, III Seminário de Inovação e Tecnologia e III Mostra de Iniciação Científica	SBERSE, V. L. ; UBESSI, C. ; PINTO, F. B. ; OLEGARIO, M. B. ; KRUGER, C. A. M. B. ; SILVA, José Antonio Gonzalez da		
resumoExpandidoEmCongresso	José Antonio Gonzalez da Silva	2013	A produtividade de grãos e taxa de produção de biomassa pelo nitrogênio em aveia num sistema de alta relação C/N	Salão do Conhecimento da UNIJUÍ, 2013, Ijuí/RS. XXI Seminário de Iniciação Científica, XVIII Jornada de Pesquisa, XIV Jornada de Extensão, III Seminário de Inovação e Tecnologia e III Mostra de Iniciação Científica	BREZOLIN, A. P. ; MOMBACH, D. I. ; MAZURKIEVICZ, G. ; MULLER, M. ; WOHLENBERG, M. D. ; SILVA, José Antonio Gonzalez da		
resumoExpandidoEmCongresso	José Antonio Gonzalez da Silva	2013	Trinexapac-etyl na expressão do rendimento e massa de mil grãos e peso hectolitro na aveia produtora de grãos	Salão do Conhecimento da UNIJUÍ, 2013, Ijuí/RS. XXI Seminário de Iniciação Científica, XVIII Jornada de Pesquisa, XIV Jornada de Extensão, III Seminário de Inovação e Tecnologia e III Mostra de Iniciação Científica	MAROLLI, A. ; ROMITTI, M. V. ; MOMBACH, D. I. ; BREZOLIN, A. P. ; SBERSE, V. L. ; SILVA, José Antonio Gonzalez da		
resumoExpandidoEmCongresso	José Antonio Gonzalez da Silva	2013	O redutor de crescimento de nome comercial 'moddus' na expressão da qualidade industrial de aveia branca	Salão do Conhecimento da UNIJUÍ, 2013, Ijuí/RS. XXI Seminário de Iniciação Científica, XVIII Jornada de Pesquisa, XIV Jornada de Extensão, III Seminário de Inovação e Tecnologia e III Mostra de Iniciação Científica	MAROLLI, A. ; ROMITTI, M. V. ; BREZOLIN, A. P. ; OLEGARIO, M. B. ; MAZURKIEVICZ, G. ; SILVA, José Antonio Gonzalez da		
resumoExpandidoEmCongresso	José Antonio Gonzalez da Silva	2013	A simulação do desenvolvimento da aveia branca a partir do fotoperíodo e temperatura	Salão do Conhecimento da UNIJUÍ, 2013, Ijuí/RS. XXI Seminário de Iniciação Científica, XVIII Jornada de Pesquisa, XIV Jornada de Extensão, III Seminário de Inovação e Tecnologia e III Mostra de Iniciação Científica	MOMBACH, D. I. ; MANTAI, R. D. ; COSTA, J. S. P. ; BREZOLIN, A. P. ; MULLER, D. C. M. ; SILVA, José Antonio Gonzalez da		
resumoExpandidoEmCongresso	José Antonio Gonzalez da Silva	2013	A eficiência técnica na expressão de caracteres fisiológicos da aveia branca no aproveitamento do nitrogênio sob reduzida liberação de N-residual	Salão do Conhecimento da UNIJUÍ, 2013, Ijuí/RS. XXI Seminário de Iniciação Científica, XVIII Jornada de Pesquisa, XIV Jornada de Extensão, III Seminário de Inovação e Tecnologia e III Mostra de Iniciação Científica	MOMBACH, D. I. ; MANTAI, R. D. ; MAROLLI, A. ; ROMITTI, M. V. ; MULLER, D. C. M. ; SILVA, José Antonio Gonzalez da		
resumoExpandidoEmCongresso	José Antonio Gonzalez da Silva	2013	Regressão polinomial na indicação da densidade ideal sobre os caracteres de produção em aveia	Salão do Conhecimento da UNIJUÍ, 2013, Ijuí/RS. XXI Seminário de Iniciação Científica, XVIII Jornada de Pesquisa, XIV Jornada de Extensão, III Seminário de Inovação e Tecnologia e III Mostra de Iniciação Científica	ROMITTI, M. V. ; MAROLLI, A. ; GOERGEN, P. C. H. ; KRYSCZUN, D. K. ; GOI NETO, C. J. ; SILVA, José Antonio Gonzalez da		
resumoExpandidoEmCongresso	José Antonio Gonzalez da Silva	2013	A densidade de semeadura de aveia branca sobre os componentes ligados a qualidade industrial	Salão do Conhecimento da UNIJUÍ, 2013, Ijuí/RS. XXI Seminário de Iniciação Científica, XVIII Jornada de Pesquisa, XIV Jornada de Extensão, III Seminário de Inovação e Tecnologia e III Mostra de Iniciação Científica	ROMITTI, M. V. ; MAROLLI, A. ; MOMBACH, D. I. ; BREZOLIN, A. P. ; MULLER, M. ; SILVA, José Antonio Gonzalez da		
resumoExpandidoEmCongresso	José Antonio Gonzalez da Silva	2013	Variabilidade genética de caracteres forrageiros em paspalum	Salão do Conhecimento da UNIJUÍ, 2013, Ijuí/RS. XXI Seminário de Iniciação Científica, XVIII Jornada de Pesquisa, XIV Jornada de Extensão, III Seminário de Inovação e Tecnologia e III Mostra de Iniciação Científica	PEREIRA, E. A. ; MOTTA, E. A. M. ; BARBOSA, M. R. ; ZUNEDA, M. P. ; SILVA, José Antonio Gonzalez da ; DALLAGNOL, M.		
resumoExpandidoEmCongresso	José Antonio Gonzalez da Silva	2013	Contribuição relativa de caracteres forrageiros e agrupamento de acessos do gênero Paspalum avaliados em diferentes ambientes	Salão do Conhecimento da UNIJUÍ, 2013, Ijuí/RS. XXI Seminário de Iniciação Científica, XVIII Jornada de Pesquisa, XIV Jornada de Extensão, III Seminário de Inovação e Tecnologia e III Mostra de Iniciação Científica	PEREIRA, E. A. ; MOTTA, E. A. M. ; BARBOSA, M. R. ; GEWEHR, E. ; SILVA, José Antonio Gonzalez da ; DALLAGNOL, M.		
resumoExpandidoEmCongresso	José Antonio Gonzalez da Silva	2013	Épocas de semeadura da canola e seus efeitos sobre os caracteres morfológicos e a produtividade de grãos	Congresso Brasileiro de Agrometeorologia, 2013, Bélem/BA. XVIII Congresso Brasileiro de Agrometeorologia e VII Reunião Latino Americana de Agrometeorologia	KRUGER, C. A. M. B. ; GARCIA, E. ; VENDRUSCULO, J. A. ; SILVA, A. J. ; SILVA, José Antonio Gonzalez da ; DALMAGO, G. A.		
artigoEmPeriodico	Daniel Curvello de Mendonça Müller	2013		Perfuração intestinal como complicação de ováriosalpingohisterectomia via NOTES transluminal pura em cadela - relato de caso	Jornal Brasileiro de Cirurgia Veterinária	BASSO, P. C. ; SILVA, M.A.M ; MÜLLER, D. C. M. ; LUKARSEWSKI, R. ; SERAFINI, G. M. ; BRUN, M. V.	Qualis nao identificado	Jornal Brasileiro de Cirurgia Veterinária
artigoEmPeriodico	Daniel Curvello de Mendonça Müller	2013	http://dx.doi.org/10.1590/s0102-09352013000200001	Fração total de células mononucleares intra-articular em cães submetidos à reconstrução do ligamento cruzado	Arquivo Brasileiro de Medicina Veterinária e Zootecnia	Müller, Daniel Curvello de Mendonça; PIPPI, N. L. ; BASSO, P. C. ; TEIXEIRA, L. V. ; SPRADA, A. G. ; GRACA, D. L. ; LOPES, S. T. A.	A2	
artigoEmPeriodico	Daniel Curvello de Mendonça Müller	2013		Ruptura do ligamento cruzado cranial de cães apresenta correlação com índice de massa corporal elevado	Jornal Brasileiro de Cirurgia Veterinária - MEDVEP	MÜLLER, D. C. M.; AMARAL, B.P. ; BASSO, P. C.	Qualis nao identificado	Jornal Brasileiro de Cirurgia Veterinária - MEDVEP
artigoEmPeriodico	Daniel Curvello de Mendonça Müller	2013		Terapia anti-inflamatória em codornas (Coturnix coturnix japonica) com meloxicam calculado por extrapolação alométrica	MEDVEP. Revista Científica de Medicina Veterinária. Pequenos Animais e Animais de Estimação	SCHOSSLER, J. E. W. ; MÜLLER, D. C. M. ; SERAFINI, G. M.	B4	
artigoEmPeriodico	Daniel Curvello de Mendonça Müller	2013		Cloreto de sódio 0,9%, adicionado ou não de dexametasona, intrapleural na prevenção de aderências pulmonares após toracotomia intercostal em cães	Ciência Rural (UFSM. Impresso)	RODRIGUES, R. ; RAISER, A. G. ; SALBEGO, F. Z. ; MÜLLER, DANIEL CURVELLO DE MENDONÇA ; SANTOS JUNIOR, E. B. ; FESTUGATO, R. ; ROSA, M. B. ; FREITAS, G. C. ; CARREGARO, A. B.	A2	
artigoEmPeriodico	Daniel Curvello de Mendonça Müller	2013	http://dx.doi.org/10.1590/S0103-84782013001200025	Análise biomecânica ex vivo de diferentes técnicas de osteossíntese ilíaca	Ciência Rural (UFSM. Impresso)	MÜLLER, D. C. M.; AMARAL, B.P. ; SPIER, J.D. ; BASSO, P. C. ; SERAFINI, G. M. ; SCHOSSLER, J. E. W.	A2	
artigoEmPeriodico	Daniel Curvello de Mendonça Müller	2013		Adenocarcinoma apócrino misto em face e palato mole de um cão	Jornal Brasileiro de Cirurgia Veterinária	MÜLLER, D. C. M.; KRUGER, R. M. ; AMARAL, B.P. ; RAKOSKI, A. S. ; FRITZEN, H. S. ; BASSO, P. C.	Qualis nao identificado	Jornal Brasileiro de Cirurgia Veterinária
artigoEmPeriodico	Daniel Curvello de Mendonça Müller	2013		Correção de ruptura bilateral do ligamento cruzado com enxerto pediculado de fáscia lata em cão	Jornal Brasileiro de Cirurgia Veterinária	SERAFINI, G. M. ; LIBARDONI, R. N. ; GARCIA, E. F. V. ; SCHMITT, B. ; MÜLLER, D. C. M. ; SCHOSSLER, J. E. W.	Qualis nao identificado	Jornal Brasileiro de Cirurgia Veterinária
artigoEmPeriodico	Daniel Curvello de Mendonça Müller	2013		Atendimento emergencial do paciente politraumatizado ? revisão de literatura	Jornal Brasileiro de Cirurgia Veterinária	MÜLLER, D. C. M.; ROHDE, L. M. S. ; BASSO, P. C.	Qualis nao identificado	Jornal Brasileiro de Cirurgia Veterinária
artigoEmPeriodico	Daniel Curvello de Mendonça Müller	2013		Implante ósseo conservado em glicerina 98% para estabilização de fratura múltipla de fêmur de cão	Jornal Brasileiro de Cirurgia Veterinária	RAMBORGER, D. P. ; AMARAL, B.P. ; MÜLLER, D. C. M.	Qualis nao identificado	Jornal Brasileiro de Cirurgia Veterinária
artigoEmPeriodico	Daniel Curvello de Mendonça Müller	2013		Pancreatite aguda e crônica: um desafio diagnóstico em pequenos animais	MEDVEP. Revista Científica de Medicina Veterinária. Pequenos Animais e Animais de Estimação	AMARAL, B.P. ; BASSO, P. C. ; MÜLLER, D. C. M.	B4	
artigoEmPeriodico	Daniel Curvello de Mendonça Müller	2013		Corpo estranho gástrico em felino	Revista Científica Eletrônica de Medicina Veterinária	SERAFINI, G. G. ; MÜLLER, D. C. M. ; DIBI, A. P. ; PINHEIRO, Maicon ; PERES, C. M. ; BARBOSA, A. L. T.	B5	
resumoExpandidoEmCongresso	Daniel Curvello de Mendonça Müller	2013	Celulite Juvenil em Cão - Relato de Caso	II Congresso Medvep de Especialidades Veterinárias, 2013, Bento Gonçalves. CD dos ANAIS do II Congresso Medvep de Especialidades Veterinárias	BASSO, P. C. ; MÜLLER, D. C. M. ; AMARAL, B.P.		
resumoExpandidoEmCongresso	Daniel Curvello de Mendonça Müller	2013	Perfil eletroforético das proteínas de fase aguda em cadelas submetidas a ovariohisterectomia convencional, Notes Híbrida e Notes Total	II Congresso Medvep de Especialidades Veterinárias, 2013, Bento Gonçalves. CD dos ANAIS do II Congresso Medvep de Especialidades Veterinárias	BASSO, P. C. ; MÜLLER, D. C. M. ; AMARAL, B.P.		
resumoExpandidoEmCongresso	Daniel Curvello de Mendonça Müller	2013	Comparação hemodinâmica da ovariossalpingohisterectomia por NOTES híbrida e a técnica convencional em cadelas	II Congresso Medvep de Especialidades Veterinárias, 2013, Bento Gonçalves. CD dos ANAIS do II Congresso Medvep de Especialidades Veterinárias	BASSO, P. C. ; MÜLLER, D. C. M. ; BRUN, M. V.		
resumoExpandidoEmCongresso	Daniel Curvello de Mendonça Müller	2013	Carcinoma apócrino misto em face e palato mole de canino	II Congresso Medvep de Especialidades Veterinárias, 2013. CD dos ANAIS do II Congresso Medvep de Especialidades Veterinárias	MÜLLER, D. C. M.; AMARAL, B.P. ; RAKOSKI, A. S.		
resumoExpandidoEmCongresso	Daniel Curvello de Mendonça Müller	2013	Uso de azatioprina e prednisona no tratamento de pênfigo eritrematoso em cão	II Congresso Medvep de Especialidades Veterinárias, 2013, Bento Gonçalves. CD dos ANAIS do II Congresso Medvep de Especialidades Veterinárias	BASSO, P. C. ; MÜLLER, D. C. M. ; AMARAL, B.P.		
resumoExpandidoEmCongresso	Daniel Curvello de Mendonça Müller	2013	A relevância da modelagem matemática e sua aplicação na Medicina Veterinária	Salão do Conhecimento UNIJUI 2013, 2013, Ijuí. ANAIS do Salão do Conhecimento UNIJUI 2013. Ijui	ZORZELLA, M. D. ; WILLERS, S. C. A. ; MÜLLER, D. C. M.		
resumoExpandidoEmCongresso	Daniel Curvello de Mendonça Müller	2013	Analgesia preemptiva com cloridrato de tramadol em ovariohisterectomia de cadelas	Salão do Conhecimento UNIJUI 2013, 2013, Ijuí. ANAIS do Salão do Conhecimento UNIJUI 2013. Ijui	RODRIGUES, C. M. ; CRUZ, P. L. T. ; RAKOSKI, A. S. ; AMARAL, B.P. ; LUKARSEWSKI, R. ; MÜLLER, D. C. M.		
resumoExpandidoEmCongresso	Daniel Curvello de Mendonça Müller	2013	Atresia anal associada com fístula retovaginal em um cão	Salão do Conhecimento UNIJUI 2013, 2013, Ijuí. ANAIS do Salão do Conhecimento UNIJUI 2013. Ijui	MANJABOSCO, C. B. ; SPIER, J.D. ; MÜLLER, D. C. M.		
resumoExpandidoEmCongresso	Daniel Curvello de Mendonça Müller	2013	Biópsia pulmonar incisional por toracoscopia paraxifóide transdiafragmatica com dois portais em cães	Salão do Conhecimento UNIJUI 2013, 2013, Ijuí. ANAIS do Salão do Conhecimento UNIJUI 2013. Ijui	MÜLLER, D. C. M.; RAISER, A. G. ; BRUN, M. V. ; BASSO, P. C. ; AMARAL, B.P.		
resumoExpandidoEmCongresso	Daniel Curvello de Mendonça Müller	2013	Intervenção cirúrgica em politraumatismo pélvico de cadela prenhe ? relato de caso	Salão do Conhecimento UNIJUI 2013, 2013, Ijuí. ANAIS do Salão do Conhecimento UNIJUI 2013. Ijui	MÜLLER, D. C. M.; ROHDE, L. M. S. ; BASSO, P. C. ; FREITAS, G. C. ; BECK, C.		
resumoExpandidoEmCongresso	Daniel Curvello de Mendonça Müller	2013	Redução de luxação coxofemoral com técnica de pino transacetabular ? relato de caso	Salão do Conhecimento UNIJUI 2013, 2013, Ijuí. ANAIS do Salão do Conhecimento UNIJUI 2013. Ijui	BATISTA, M. ; RODRIGUES, C. M. ; MÜLLER, D. C. M.		
resumoExpandidoEmCongresso	Daniel Curvello de Mendonça Müller	2013	Mastectomia segmentada para o tratamento paliativo de neoplasia mamária em cadela	Salão do Conhecimento UNIJUI 2013, 2013, Ijuí. ANAIS do Salão do Conhecimento UNIJUI 2013. Ijui	SOMMER, J. ; MÜLLER, D. C. M. ; ZORZELLA, M. D.		
resumoExpandidoEmCongresso	Daniel Curvello de Mendonça Müller	2013	Leishmaniose em um canino ? relato de caso	Salão do Conhecimento UNIJUI 2013, 2013, Ijuí. ANAIS do Salão do Conhecimento UNIJUI 2013. Ijui	RAKOSKI, A. S. ; FRAZAO, C. C. ; KOHLRAUSCH, P. R. ; AMARAL, B.P. ; BASSO, P. C. ; MÜLLER, D. C. M.		
resumoExpandidoEmCongresso	Daniel Curvello de Mendonça Müller	2013	Malha de polipropileno na reconstrução de hérnia perineal de cão	Salão do Conhecimento UNIJUI 2013, 2013, Ijuí. ANAIS do Salão do Conhecimento UNIJUI 2013. Ijui	CRUZ, P. L. T. ; BATISTA, M. ; SCHENKEL, M. ; RODRIGUES, C. M. ; MÜLLER, D. C. M.		
resumoExpandidoEmCongresso	Daniel Curvello de Mendonça Müller	2013	Modelagem matemática do crescimento bacteriano no leite cru	Salão do Conhecimento UNIJUI 2013, 2013, Ijuí. ANAIS do Salão do Conhecimento UNIJUI 2013. Ijui	ROSA, M. E. U. ; FRUHLING, S. W. ; SILVA, J. A. G. ; MARTINS, L. R. V. ; MÜLLER, D. C. M.		
resumoExpandidoEmCongresso	Daniel Curvello de Mendonça Müller	2013	Termometria de pinos de steinmann, conectados por metilmetacrilato	Salão do Conhecimento UNIJUI 2013, 2013, Ijuí. ANAIS do Salão do Conhecimento UNIJUI 2013. Ijui	ROHDE, L. M. S. ; KRUGER, R. M. ; MÜLLER, D. C. M.		
resumoExpandidoEmCongresso	Daniel Curvello de Mendonça Müller	2013	Tratamento de feridas cutâneas com a utilização de oxigenioterapia	Salão do Conhecimento UNIJUI 2013, 2013, Ijuí. ANAIS do Salão do Conhecimento UNIJUI 2013. Ijui	AMARAL, B.P. ; MÜLLER, D. C. M. ; RAKOSKI, A. S. ; PASINI, J. S. ; BASSO, P. C. ; FRITZEN, H. S.		
resumoExpandidoEmCongresso	Daniel Curvello de Mendonça Müller	2013	Traumatismo bucofacial em cão e estabilização cirúrgica com fragmento ósseo conservado ? relato de caso	Salão do Conhecimento UNIJUI 2013, 2013, Ijuí. ANAIS do Salão do Conhecimento UNIJUI 2013. Ijui	MÜLLER, D. C. M.; ROHDE, L. M. S. ; AMARAL, B.P. ; RAKOSKI, A. S. ; BASSO, P. C. ; FREITAS, G. C.		
resumoExpandidoEmCongresso	Daniel Curvello de Mendonça Müller	2013	Uso de alecrim-do-campo no tratamento de feridas cirúrgicas	Salão do Conhecimento UNIJUI 2013, 2013, Ijuí. ANAIS do Salão do Conhecimento UNIJUI 2013. Ijui	PASINI, J. S. ; RAKOSKI, A. S. ; AMARAL, B.P. ; ALBARELLO, J. R. ; FRITZEN, H. S. ; MÜLLER, D. C. M.		
trabalhoCompletoEmCongresso	Antonio Carlos Valdiero	2013		Fabrication of a Prototype for Teaching Study of Sources Solar Energy - Engineering with Integration of Secondary Education	XLI CONGRESSO BRASILEIRO DE EDUCAÇÃO EM ENGENHARIA	RASIA, L. A. ; VALDIERO, A. C. ; JAHNEL, E. L. ; MEOTTI, J. M. ; RADONS, G. ; OSINSKI, G. ; ZANELLA, V. R.		
trabalhoCompletoEmCongresso	Antonio Carlos Valdiero	2013	http://dx.doi.org/10.5540/03.2013.001.01.0044	Controle de seguimento de trajetória de um atuador pneumático especial	DINCON 2013 - Conferência Brasileira de Dinâmica	RICHTER, ROZIMERLI R. M. ; ZAMBERLAN, CAMILA V. ; VALDIERO, ANTONIO C. ; RASIA, LUIZ A.		
trabalhoCompletoEmCongresso	Antonio Carlos Valdiero	2013		Friction dynamics mathematical modeling in special pneumatic cylinder	22nd International Congress of Mechanical Engineering	RICHTER, R. R. M. ; ZAMBERLAN, C. V. ; VALDIERO, A. C. ; RASIA, L. A.		
trabalhoCompletoEmCongresso	Antonio Carlos Valdiero	2013		Caharacteristic Parameters Identification of MEMS Resonators using Gray Box Modeling	22nd International Congress of Mechanical Engineering	MOREIRA, C. J. M. ; REIMBOLD, M. M. P. ; MACHADO, M. V. ; VALDIERO, A. C.		
artigoEmPeriodico	Airam Teresa Zago Romcy Sausen	2013	http://dx.doi.org/10.1007/s40313-013-0103-5	Evaluation of Model ARX For Elastic Masses MEMS Using the Indexes RMSE, AIC, and BIC	Journal of Control, Automation and Electrical Systems	BEDENDO, ANDRE ; REIMBOLD, MANUEL ; SAUSEN, AIRAM	Qualis nao identificado	Journal of Control, Automation and Electrical Systems
artigoEmPeriodico	Airam Teresa Zago Romcy Sausen	2013	http://dx.doi.org/10.5540/tema.2013.014.03.0463	Método da Procura em Rede Melhorado: Uma Proposta para a Estimação dos Parâmetros do Modelo de Rakhmatov e Vrudhula	TEMA. Tendências em Matemática Aplicada e Computacional	SILVA, B. F. ; SAUSEN, A. R. Z. ; SAUSEN, P. S. ; Reimbold, Manuel	B2	
trabalhoCompletoEmCongresso	Airam Teresa Zago Romcy Sausen	2013		Development of an Urban Electric Vehicle as Multidisciplinary Work in Electrical Engineering	Brazilian Power Electronics Conference 2013 - COBEP	BONATTO, L. ; KINAS, J. R. ; CAMPOS, Mauricio de ; SAUSEN, P. S. ; Manuel Reimbold ; SAUSEN, Airam Teresa Zago Romcy		
trabalhoCompletoEmCongresso	Airam Teresa Zago Romcy Sausen	2013		Protótipo Robô Hexápode para Inspeção em Tubulações de Ar Condicionado	XI - SBAI Simpósio Brasileiro de Automação Inteligente	REIMBOLD, M. M. P.; CAMPOS, M. ; SAUSEN, A. ; KINAS, J. R. ; NETO, D. de M.		
trabalhoCompletoEmCongresso	Airam Teresa Zago Romcy Sausen	2013	http://dx.doi.org/10.5540/03.2013.001.01.0100	Modelagem Matemática da Predição do Tempo de Vida de uma Bateria Utilizando a Estrutura de Modelo Autorregressivo da Teoria da Identificação de Sistemas	DINCON 2013 Conferência Brasileira de Dinâmica	MACHADO, MARLON VINÍCIUS ; MOREIRA, CÍCERO J. M. ; SAUSEN, AIRAM T. Z. R. ; SAUSEN, PAULO S. ; CAMPOS, Maurício de		
trabalhoCompletoEmCongresso	Airam Teresa Zago Romcy Sausen	2013		Identificação de Modelo ARX sob Critério PACF para Desempenho Comportamental de Estruturas	DINCON ? Conferência Brasileira de Dinâmica	MOREIRA, C. J. M. ; MACHADO, M. V. ; REIMBOLD, M. M. P. ; SAUSEN, AIRAM		
resumoExpandidoEmCongresso	Airam Teresa Zago Romcy Sausen	2013	Desenvolvimento de Sistemas de Automação e Controle para Sistemas Elétricos - Automação de Subestações Subterrâneas	Salão do Conhecimento - Unijuí 2013, 2013, Ijuí -RS. Anais do Salão do Conhecimento Unijuí 2013. Ijui: Editora Unijuí	CAMPOS, Maurício de ; SAUSEN, P. S. ; SAUSEN, A. ; Manuel Reimbold ; Julio Cesar Oliveira Bolacell ; ENDERLE, T. P.		
resumoExpandidoEmCongresso	Airam Teresa Zago Romcy Sausen	2013	Módulo de Sensores Inteligentes Aplicados na Automação de Subestações de Energia Elétrica Subterrâneas	Salão do Conhecimento - Unijuí 2013, 2013, Ijuí -RS. Anais do Salão do Conhecimento Unijuí 2013. Ijui: Editora Unijuí	TRENNEPOHL, F. A. ; CAMPOS, M. ; SAUSEN, P. S. ; SAUSEN, A. T. Z. R.		
resumoExpandidoEmCongresso	Airam Teresa Zago Romcy Sausen	2013	Aplicação de Modelo Autorregressivo na Modelagem do Tempo de Vida de Baterias	Salão do Conhecimento - Unijuí 2013, 2013, Ijuí -RS. Anais do Salão do Conhecimento Unijuí 2013. Ijui: Editora Unijuí	MACHADO, M. V. ; MOREIRA, C. ; SAUSEN, A. T. Z. R. ; SAUSEN, P. S.		
resumoExpandidoEmCongresso	Airam Teresa Zago Romcy Sausen	2013	Novas Tendências em Modelos Matemáticos na Predição do Tempo de Vida de Baterias Utilizadas em Dispositivos Móveis	Salão do Conhecimento - Unijuí 2013, 2013, Ijuí -RS. Anais do Salão do Conhecimento Unijuí 2013. Ijui: Editora Unijuí	DUARTE, K. P. ; SAUSEN, A. ; SAUSEN, P. S.		
resumoExpandidoEmCongresso	Airam Teresa Zago Romcy Sausen	2013	Coleta de Dados Experimentais do Tempo de Vida de Baterias Utilizadas em Dispositivos Móveis e Análise Estatística	Salão do Conhecimento, 2013, Ijuí. Anais do Salão do Conhecimento	CEZIMBRA, A. B. ; SAUSEN, A. T. Z. R. ; BEERBAUM, A. V.		
resumoExpandidoEmCongresso	Airam Teresa Zago Romcy Sausen	2013	Comunicação IRDA Aplicada a um Medidor Eletrônico de Energia Trifásico	Salão do Conhecimento - Unijuí 2013, 2013, Ijuí -RS. Anais do Salão do Conhecimento Unijuí 2013. Ijui: Editora Unijuí	ATTUATI, G. ; KARNIKOWSKI, D. D. C. ; CAMPOS, M. de ; SAUSEN, P. S. ; SAUSEN, A.		
resumoExpandidoEmCongresso	Airam Teresa Zago Romcy Sausen	2013	Aplicação de Identificação de Sistemas na Predição do Tempo de Vida de Baterias que Alimentam Dispositivos Móveis	Salão do Conhecimento, 2013, Ijuí. Anais do Salão do Conhecimento	BEERBAUM, A. V. ; SAUSEN, A. T. Z. R. ; CEZIMBRA, A. B.		
artigoEmPeriodico	Rafael Corchuelo	2013	http://dx.doi.org/10.1109/TKDE.2012.135	A Survey on Region Extractors from Web Documents	IEEE Transactions on Knowledge and Data Engineering (Print)	SLEIMAN, HASSAN A. ; CORCHUELO, RAFAEL	A2	
artigoEmPeriodico	Rafael Corchuelo	2013	http://dx.doi.org/10.1016/j.knosys.2012.10.009	TEX: An efficient and effective unsupervised Web information extractor	Knowledge-Based Systems	SLEIMAN, HASSAN A. ; CORCHUELO, RAFAEL	B1	
artigoEmPeriodico	Rafael Corchuelo	2013	http://dx.doi.org/10.1016/j.jss.2013.01.037	MostoDE: A tool to exchange data amongst semantic-web ontologies	The Journal of Systems and Software	RIVERO, CARLOS R. ; HERNÁNDEZ, INMA ; RUIZ, DAVID ; CORCHUELO, RAFAEL	A2	
resumoExpandidoEmCongresso	Sandro Sawicki	2013	Desenvolvimento de uma interface Gráfica Iterativa para o Posicionamento de Antenas Wireless	Salão do Conhecimento, 2013, Ijui. Salão do Conhecimento	FREYTAG, G. ; MARTINS, R. ; SAWICKI, S.		
resumoExpandidoEmCongresso	Sandro Sawicki	2013	Algorítmo Genético Aplicado ao Problema das N Rainhas	Salão do Conhecimento, 2013, Ijui. Salão do Conhecimento	DORNELLES, E. F. ; RICHTER, H. A. ; BERLEZI, R. ; WEBER, J. G. ; MARTINS, R. ; SAWICKI, S.		
resumoExpandidoEmCongresso	Sandro Sawicki	2013	Programação Genética Aplicada a Resolução do Problema Presa-Predador	Salão do Conhecimento, 2013, Ijui. Salão do Conhecimento	FRISKE, M. ; PANKE, T. R. S. ; SILVA, M. R. C. ; MARTINS, R. ; WEBER, J. G. ; SAWICKI, S.		
