8056032824953311
0317437103367834
2772423620743814
1210919727653975
1637392646549001
9331436776102509
1043780332502091
3761418169454490
2038805993153668
6575904950687568
9217754427341680
3957046121364560
4246000555132285
6010517489234073
2640445720803283
8266098226831348
7220411418339421
9829770299844295
1562901974105550
2840176439889517
3558021134457211
8498913365820145
0730842074191192
7945515832956270
4399449818488690
5624561449368834
4937747811864737
3216128766599047
1375290481822767
2328018259380771
4522581444077162
4193936925916614
7549953910402781
9979732565759430
9675860221566171
6570178582933460
1900121899255970
3441488230835922
7138838358891152
7810285225304777
1688381217398630
8530655524777277
0202840339575079
9532346446558536
6686182136883811
6986354142869876
6811204440948346
4896988704388778
3965328361563422
0500034174785796
9804923403746874
3813623501579515
8141798995779347
0894690311392249
9476407358926075
7608076474310803
4830086437127351
0676101131499422
0459162904145828
8207954538307988
5024819236987840
4236174186479569
8792749813872106
6630360102080766
3113457033505431
1030689569102844
0386934238893097
0150242647446368
2162028196748271
0909284292846498
6528718059938788
8445174777254241
2267630380784909
1114037512202812
9954238293341790
0606137746805144
4889413058276292
3092037701397964
1646640713196688
4176832922554657
5880948400525330
7590790556493001
7509959270303999
3175468619733100
5895392734727397
9179857172095325
3232777097388073
7994386131751196
8704971530642044
2747919680001598
7909759511116502
7596835543262001
5237525900832560
1254455789444204
0531849131229950
4820678026031281
0047128862307301
5515216429938578
6854775426624240
5503453150967810
3287768324994761
7492853195439690
8717193491495437
6006285201320027
0827495526048435
1292951925539464
6828501879172350
0538539832805562
9887789366520035
5035571348715037
9205282923078496
7899515118468659
7533729699758819
4008951865597306
7806205647233919
4215971444001756
6414738466336890
6272554271895126
3856979779391522
1351748125964309
4866065665837329
7712251478900249
4905536920855801
4694673066981791
6425044612146340
1588953947262270
5733910297965363
2390690281230643
5695637451827565
0765261301478183
4128426087240628
9955559983458222
6822961758645331
2780503231514467
0731145112870448
1898055620333919
4077740709764864
7266995448306223
4218896753382242
5872327943756110
4270610856009666
2201580020088062
0535992706423133
1608673584881629
0347014704851781
4951931552005515
4256319041323029
6129950115822256
2920005922426876
6156509933307243
2052542895572783
6644721827442957
0165317862356463
8420771612707965
9582440460870409
4061046484302161
0925464898161487
8034236297446600
6274012876257261
8275939437273764
7820390258431684
1121440156201071
5464365539060185
0932502202770687
5370547552572834
2879240108726907
8965282450665242
7963727038641249
3539564256173485
6300451912947935
4827254078335909
2176873831720074
7837762056376984
0620227044332159
5455619127503762
7652151522272485
3661799396744570
2145668168587564
0107976161469463
7713731591881162
9421626090082461
9296701195596801
2490233702308461
8085880003164254
4000776561201580
6513046926936437
5013216470306279
4920024724994011
7405442018675427
8050433813858734
7811868203731759
6104429791974852
8618151183586924
0011794846196046
6419334215014979
5386392232267026
0326405840017341
2320311223275171
2520052840092243
2673826633240026
5820376810739630
1535371956277197
9538405812117662
5142426481528206
6895494761695834
1068554491963326
3445804492404953
8488760386226790
2318177531681999
0373331085707465
2257906426860160
7324746974187472
3246181760050700
2566375872711558
1616204547689304
8077591135604655
1624773268668794
9987413105917334
4198814149144165
3068108086175133
4060823591120557
9371388220230956
3783623294395651
1539584880795958
1914965078179670
7730160645235694
3432888745867708
7237819869174569
6262673963010890
7355039510385563
7325616838190292
5912884322994930
8987255813061182
4940507980201276
7996693398472701
9709487805726743
8782039401544878
3043536104564941
1758254967187398
9258079035090407
3142225155853707
9919773182316062
9233219653775589
0161925591909696
0113739501880851
2240177672119276
6023019204006612
6930707952588054
5020258274308387
4946313851783901
0530148314528097
3708442273107400
9426650405097319
7530484997584678
2784703187800324
9293110312400359
5607722263806268
3884952350675061
3195210233978887
7284089296377200
0422296562784580
6799067928413168
2415474108624956
2955796151289221
3055684343119028
2294602229519458
1423676413208650
4632609286866341
4529524660522934
6829166075411185
4710295079878737
6103638507870970
1028148264494777
3265707177582297
6233343865930357
3417211259305359
