artigoEmPeriodico	2014	http://dx.doi.org/10.1103/physrevd.89.052002	Probing the radio emission from air showers with polarization measurements	Physical Review. D, Particles, Fields, Gravitation, and Cosmology	AAB, A	A1	
artigoEmPeriodico	2014	http://dx.doi.org/10.1016/j.atmosres.2014.05.021	Origin of atmospheric aerosols at the Pierre Auger Observatory using studies of air mass trajectories in South America	Atmospheric Research (Print)	AAB, A	A1	
artigoEmPeriodico	2014	http://dx.doi.org/10.1103/physrevd.90.122005	Abreu, P	Physical Review. D, Particles, Fields, Gravitation, and Cosmology	AAB, A	A1	
artigoEmPeriodico	2014	http://dx.doi.org/10.1088/0004-637x/794/2/172	SEARCHES FOR LARGE-SCALE ANISOTROPY IN THE ARRIVAL DIRECTIONS OF COSMIC RAYS DETECTED ABOVE ENERGY OF 10 <sup>19</sup> eV AT THE PIERRE AUGER OBSERVATORY AND THE TELESCOPE ARRAY	Astrophysical Journal (Online)	AAB, A	Qualis nao identificado	Astrophysical Journal (Online)
artigoEmPeriodico	2014	http://dx.doi.org/10.1103/physrevd.90.012012	Muons in air showers at the Pierre Auger Observatory: Measurement of atmospheric production depth	Physical Review. D, Particles, Fields, Gravitation, and Cosmology	AAB, A	A1	
artigoEmPeriodico	2014	http://dx.doi.org/10.1088/2041-8205/789/2/l34	A TARGETED SEARCH FOR POINT SOURCES OF EeV NEUTRONS	The Astrophysical Journal. Letters	AAB, A	A1	THE ASTROPHYSICAL JOURNAL
artigoEmPeriodico	2014	http://dx.doi.org/10.1088/0004-637x/789/2/160	A SEARCH FOR POINT SOURCES OF EeV PHOTONS	THE ASTROPHYSICAL JOURNAL	AAB, A	A1	
artigoEmPeriodico	2014	http://dx.doi.org/10.1103/physrevd.90.122006	Depth of maximum of air-shower profiles at the Pierre Auger Observatory. II. Composition implications	Physical Review. D, Particles, Fields, Gravitation, and Cosmology	AAB, A	A1	
artigoEmPeriodico	2014		Detecção Automática de Pontos Cefalométricos: Uma Revisão Crítica e Sistemática	Journal of Health Informatics	ANGELO, M. F.; BERTONI, F. C.	B2	
artigoEmPeriodico	2014	http://dx.doi.org/10.15552/2236-0158/abenge.v33n2p31-43	Aplicação e Avaliação do Método PBL em Um Componente Curricular Integrado de Programação de Computadores	Revista de Ensino de Engenharia	ANGELO, M.F. ; LOULA, A.C. ; BERTONI, F.C. ; SANTOS, J.A.M.	B2	
artigoEmPeriodico	2014		Santos Reis no distrito de Bonfim de Feira, Bahia: origem, tradição e transformação cultural	Interfaces:Revista de Extensão da UFMG	BARBOSA, L. M. ; Bastos, C.A.M.F ; MELO, L. F. ; BASTOS, G. ; PAIXÃO ; Oliveira, Agda da Luz	Qualis nao identificado	Interfaces:Revista de Extensão da UFMG
artigoEmPeriodico	2014	http://dx.doi.org/10.1590/0037-8682-0165-2014	Description of microsporidia in simulids: molecular and morphological characterization of microsporidia in the larvae of Simulium pertinax Kollar (Diptera: Simuliidae)	Revista da Sociedade Brasileira de Medicina Tropical (Impresso)	CARVALHO, ISABEL MARIA VICENTE GUEDES DE ; Queiroz, Artur Trancoso Lopo de ; MORAES, ROSIANE BRITO DE ; GIL, HELIO BENITES ; ALVES, RAFAEL ; VIVIANI, ANDRÉA DE BARROS PINTO ; BECNEL, JAMES JOHN ; ARAUJO-COUTINHO, CARLOS JOSÉ PEREIRA DA CUNHA DE	B1	
artigoEmPeriodico	2014	http://dx.doi.org/10.1002/jmv.24015	Protease inhibitor resistance mutations in untreated Brazilian patients infected with HCV: Novel insights about targeted genotyping approaches	Journal of Medical Virology (Print)	DE CARVALHO, ISABEL M.V.G. ; ALVES, RAFAEL ; DE SOUZA, POLYANA A. VASCONCELOS-MEDEIROS ; DA SILVA, EDVALDO F. ; MAZO, DANIEL ; CARRILHO, FLAIR J. ; QUEIROZ, ARTUR T.L. ; PESSOA, MÁRIO G.	A2	
artigoEmPeriodico	2014		VISTA Variables in the Vía Láctea (VVV): Halfway Status and Results	The Messenger	Hempel, M	Qualis nao identificado	The Messenger
artigoEmPeriodico	2014	http://dx.doi.org/10.1007/s40314-014-0147-6	Processing optimized for symmetry in the problem of evasive maneuvers	Matemática Aplicada e Computacional (Cessou em 1997. Cont. ISSN 1807-0302 Computational & Applied Mathematics)	JESUS, A. D. C.; de Sousa	B1	Computational & Applied Mathematics
artigoEmPeriodico	2014	http://dx.doi.org/10.1155/2014/382396	Modeling a Virtual World for the Educational Game Calangos	International Journal of Computer Games Technology	LOULA, A.C.; CASTRO, L.N. ; APOLINARIO JR., A. L. ; ROCHA, P. ; CARNEIRO, M. C. L. ; REIS, V. P. G. S. ; MACHADO, R. F. ; SEPULVEDA, C. ; EL-HANI, C.N.	Qualis nao identificado	International Journal of Computer Games Technology
artigoEmPeriodico	2014		Aplicação do Jogo Eletrônico Calangos no Ensino do Conceito de Nicho Ecológico	Revista de Ensino de Biologia da Associação Brasileira de Ensino de Biologia (SBEnBio)	MACHADO, R. F. ; EL-HANI, C.N. ; LOULA, ANGELO ; CARNEIRO, M. C. L. ; REIS, V. P. G. S. ; SEPULVEDA, C.	B2	
artigoEmPeriodico	2014	http://dx.doi.org/10.1051/eas/1567036	Constraints on thin and thick disc formation from new analysis of 2MASS and SDSS surveys	EAS Publications Series	ROBIN, A.C. ; REYLÉ, C. ; AMÔRES, E.B. ; MARTINS, A.M.M.	Qualis nao identificado	EAS Publications Series
trabalhoCompletoEmCongresso	2014		Gesture Recognition using shape characteristics	Workshop of Works in Progress (WIP) - SIBGRAPI 2014 (XXVII Conference on Graphics	BASTOS, I. L. O. ; ANGELO, M. F. ; LOULA, A.		
trabalhoCompletoEmCongresso	2014		Classificação de gestos da Libras utilizando redes neurais	XIV Escola Regional de Computação Bahia	BASTOS, I. L. O. ; ANGELO, M. F.		
trabalhoCompletoEmCongresso	2014		Reconhecimento de pele em imagens digitais utilizando redes neurais artificiais	X Workshop de Visão Computacional - WVC 2014	BASTOS, I. L. O. ; ANGELO, M. F.		
trabalhoCompletoEmCongresso	2014		Sistema de Realidade Aumentada para Visualização de Tatuagens	WPOS: Workshop de Trabalhos de Pós-Graduação	CALMON, J. H. ; GOES, C. ; LOULA, ANGELO		
trabalhoCompletoEmCongresso	2014		Augmented Tattoo: a proposal of tattoo visualization in augmented reality	X Workshop de Visão Computacional	CALMON, J. H. ; QUEIROZ, J ; GOES, C. ; LOULA, A.C.		
trabalhoCompletoEmCongresso	2014		Sfohart: Um Sistema de Recomendação Multicritério para Adoção de Software Livre	WSL2014 - XV Workshop de Software Livre	FERREIRA, L. S. ; BITTENCOURT, R. A. ; CHAVEZ, C. F. G.		
trabalhoCompletoEmCongresso	2014		Ampliando o Perfil do Usuário para um Sistema de Recomendação de Nomes Próprios	XI Encontro Nacional de Inteligência Artificial e Computacional (ENIAC-BRACIS)	GLAUBER, R. ; LOULA, ANGELO		
trabalhoCompletoEmCongresso	2014		Aplicação do Jogo Eletrônico Calangos no Ensino do Conceito de Nicho Ecológico	V Encontro Nacional de Ensino de Biologia (ENEBIO)	MACHADO, R. F. ; EL-HANI, C.N. ; LOULA, ANGELO C. ; CARNEIRO, M. C. L. ; REIS, V. P. G. S. ; SEPULVEDA, C.		
trabalhoCompletoEmCongresso	2014		Processamento Digital de Imagens e Reconhecimento de Padrões no Controle de Pragas e Doenças da Citricultura: Diferenciação do Psilídeo em Armadilhas Adesivas Amarelas	XIV Escola Regional de Computação Bahia-Alagos-Seregipe - ERBASE 2014	MELO, J. L. S. ; RAGNI, M.		
trabalhoCompletoEmCongresso	2014		The VVV Survey: New Results (Part II)	Formation and Evolution of the Galactic Bulge	Minniti, D. ; AMÔRES, E. B. ; VVV colaboration		
trabalhoCompletoEmCongresso	2014		The VVV Survey: New Results (Part I)	Formation and Evolution of the Galactic Bulge	Minniti, D. ; AMÔRES, E.B. ; VVV colaboration		
trabalhoCompletoEmCongresso	2014		Adequações no jogo eletrônico educativo Calangos para aplicação na escola	WTICGBASE: Workshop de Trabalhos de Iniciação Científica e de Graduação	OLIVEIRA, E. C. ; LOULA, ANGELO		
trabalhoCompletoEmCongresso	2014		Symbol Interpretation in Neural Networks: an investigation on representations in communication	CogSci 2014	Oliveira, Emerson S. de ; LOULA, A.		
trabalhoCompletoEmCongresso	2014		Segmentação e Classiﬁcação de Embarcações em Eclusas	XIV Escola Regional de Computação Bahia	PIMENTEL, F.A.M. ; ANGELO, M. F.		
trabalhoCompletoEmCongresso	2014		Segmentação e Classificação de Embarcações em Eclusas	Workshop of Works in Progress (WIP) - SIBGRAPI 2014 (XXVII Conference on Graphics	PIMENTEL, F.A.M. ; ANGELO, M. F. ; FRIAS, D.		
trabalhoCompletoEmCongresso	2014		Aplicação da lógica nebulosa para mineração de opiniões	WPOS: Workshop de Trabalhos de Pós-Graduação	PIRES, M.G. ; LOULA, ANGELO ; SILVA, M. C. A.		
trabalhoCompletoEmCongresso	2014		Effects of Magnetic Field Gradients on Biological Systems	Theoretical Chemistry Conference in Africa	RAGNI, M.; POSATI, T. ; PERSICHETTI, E.		
trabalhoCompletoEmCongresso	2014		Criação de um Banco de Imagens Cefalométricas On-line	XXIV Congresso Brasileiro de Engenharia Biomédica	SANTANA, B.B. ; OLIVEIRA, F. L. S. ; BASTOS, I. L. O. ; SOUZA, L. B. S. ; ANGELO, M. F.		
trabalhoCompletoEmCongresso	2014		Detecção Automática de Centros de Ossificação em Imagens de Radiografias Carpais Digitalizadas	XXIV Congresso Brasileiro de Engenharia Biomédica	SANTANA, T. B. ; ANGELO, M. F.		
trabalhoCompletoEmCongresso	2014		Projeto e Prototipação de uma Bateria de Chumbo Ácido com Controle e Balanceamento de Carga Integrados	XIV Escola Regional de Computação Bahia-Alagos-Seregipe - ERBASE 2014	SILVA, F. O. ; RAGNI, M.		
trabalhoCompletoEmCongresso	2014		Geotecnologias aplicadas ao estudo de incêndios na vegetação: uma revisão	XVI Simposio Internacional Selper 2014	SILVA, T. B. ; RAMOS, F. M. ; CHAVES, J. M. ; ANGELO, M. F. ; FRANCA-ROCHA, W. J. S.		
trabalhoCompletoEmCongresso	2014		Use of Active Contour for Segmentation of nodules in mammography images	XXIV Congresso Brasileiro de Engenharia Biomédica	SOUZA, L. B. S. ; ANGELO, M. F.		
trabalhoCompletoEmCongresso	2014		Do Rapid Releases Affect Bug Reopening? A Case Study of Firefox	SBES 2014 - XXVIII Simpósio Brasileiro de Engenharia de Software	SOUZA, R. R. G. ; BITTENCOURT, R. A. ; CHAVEZ, C. F. G.		
resumoExpandidoEmCongresso	2014	VISUALIZAÇÃO ESPACIAL DAS INFORMAÇÕES GEOAMBIENTAIS DO MUNICÍPIO DE FEIRA DE SANTANA, BA	Seminário de Iniciação Científica da Universidade Estadual de Feira de Santana, 2014, Feira de Santana. XVIII Seminário de Iniciação Científica da Universidade Estadual de Feira de Santana	Araújo, S. S. ; SOUZA, G. B.		
resumoExpandidoEmCongresso	2014	MOBILIDADE DO CAMPO - ESTUDO DAS ESTRADAS VICINAIS DO DISTRITO DE BONFIM DE FEIRA ? FEIRA DE SANTANA (BA)	XVIII SEMIC, 2014. XVIII Seminário de Iniciação Científica da Universidade Estadual de Feira de Santana - XIX SEMIC	CONCEICAO, M. O. A. ; SOUZA, G. B.		
resumoExpandidoEmCongresso	2014	MAPEAMENTO GEOTÉCNICO PARA CARACTERIZAÇÃO GERAL DO MEIO FÍSICO, DISTRITO DE MARIA QUITÉRIA - FEIRA DE SANTANA (BA)	XVII SEMIC, 2014. XVII Seminário de Iniciação Científica da Universidade Estadual de Feira de Santana	Moreira, S. S. ; SOUZA, G. B.		
