
PB0:2016,96;
PB1:2016,1;
PB2:*itens sem ano,1;2016,11;
PB3:*itens sem ano,17;2016,1;
PB4:2016,16;
PB5:2016,7;
PB6:2016,47;
PB7:2016,1;
PB8:2016,35;
PT3:*itens sem ano,4;
PT4:2016,2;
PT5:2016,1;
OA0:2013,2;2015,4;2016,4;2017,2;
OA1:2009,1;2011,1;2012,3;2013,11;2014,11;2015,15;2016,11;2017,7;
OA2:2014,2;2015,6;2016,27;2017,14;
OA4:2012,1;2014,1;2015,1;2016,3;2017,19;
OA5:2011,1;2014,2;2015,5;2016,11;2017,16;
OA6:2015,4;2016,8;2017,9;
OC0:2016,1;
OC1:2016,12;
OC2:2016,12;
OC4:2016,31;
OC5:2016,17;
OC6:2016,7;
Pm:2016,6;
Pj:2002,1;2004,1;2006,5;2007,1;2008,3;2009,6;2010,8;2011,9;2012,10;2013,17;2014,22;2015,13;2016,22;
PB:*itens sem ano,18;2016,215;
PT:*itens sem ano,4;2016,3;
OA:2009,1;2011,2;2012,4;2013,13;2014,16;2015,35;2016,64;2017,67;
OC:2016,80;
Ep:2016,23;
Eo:2016,10;