strict digraph grafo3 {
	graph [bb="0,0,2810.5,145",
		id=grafo3,
		overlap=False
	];
	node [fontsize=8,
		label="\N",
		shape=rectangle,
		style=filled
	];
	0	 [URL="http://lattes.cnpq.br/9922863822347014",
		color="#17272B",
		fontcolor="#FFFFFF",
		height=0.23611,
		label="Nandamudi Lankalapalli Vijaykumar [0]",
		pos="73.5,136.5",
		width=2.0417];
	1	 [URL="http://lattes.cnpq.br/4693848330845067",
		color="#17272B",
		fontcolor="#FFFFFF",
		height=0.23611,
		label="Margarete Oliveira Domingues [1]",
		pos="229.5,136.5",
		width=1.7778];
	10	 [URL="http://lattes.cnpq.br/0793627832164040",
		color="#17272B",
		fontcolor="#FFFFFF",
		height=0.23611,
		label="Elbert E. Nehrer Macau [3]",
		pos="229.5,72.5",
		width=1.4444];
	1 -> 10	 [arrowhead=normal,
		arrowsize=0.75,
		fontsize=8,
		label=1.0,
		lp="219,104.5",
		penwidth=3.5,
		pos="e,223.22,81.153 222.54,127.74 217,120.6 210.63,109.63 213.5,99.5 214.66,95.398 216.67,91.307 218.88,87.625"];
	10 -> 1	 [arrowhead=normal,
		arrowsize=0.75,
		fontsize=8,
		label=0.33,
		lp="237,104.5",
		penwidth=1.49,
		pos="e,229.5,127.9 229.5,81.165 229.5,90.864 229.5,107.8 229.5,120.19"];
	2	 [URL="http://lattes.cnpq.br/8867164774240536",
		color="#17272B",
		fontcolor="#FFFFFF",
		height=0.23611,
		label="Marcos Gonçalves Quiles [1]",
		pos="160.5,8.5",
		width=1.5278];
	10 -> 2	 [arrowhead=normal,
		arrowsize=0.75,
		fontsize=8,
		label=0.33,
		lp="180,40.5",
		penwidth=1.49,
		pos="e,161.28,17.287 201.37,63.898 191.1,59.893 180.14,53.993 172.5,45.5 167.37,39.796 164.43,31.833 162.74,24.846"];
	13	 [URL="http://lattes.cnpq.br/5240243263075069",
		color="#17272B",
		fontcolor="#FFFFFF",
		height=0.23611,
		label="Joaquim J. Barroso de Castro [1]",
		pos="294.5,8.5",
		width=1.6944];
	10 -> 13	 [arrowhead=normal,
		arrowsize=0.75,
		fontsize=8,
		label=0.33,
		lp="262,40.5",
		penwidth=1.49,
		pos="e,279.83,17.184 233.56,63.974 237.99,56.219 245.65,44.082 254.5,35.5 260,30.164 266.75,25.289 273.13,21.238"];
	2 -> 10	 [arrowhead=normal,
		arrowsize=0.75,
		fontsize=8,
		label=1.0,
		lp="205,40.5",
		penwidth=3.5,
		pos="e,221.04,63.898 169.03,17.165 180.55,27.517 201.24,46.11 215.17,58.626"];
	13 -> 10	 [arrowhead=normal,
		arrowsize=0.75,
		fontsize=8,
		label=1.0,
		lp="284,40.5",
		penwidth=3.5,
		pos="e,244.17,63.816 290.44,17.026 286.01,24.781 278.35,36.918 269.5,45.5 264,50.836 257.25,55.711 250.87,59.762"];
	3	 [URL="http://lattes.cnpq.br/7195702087655314",
		color="#17272B",
		fontcolor="#FFFFFF",
		height=0.23611,
		label="Luiz A. Nogueira Lorena [0]",
		pos="366.5,136.5",
		width=1.5139];
	4	 [URL="http://lattes.cnpq.br/9147853693310634",
		color="#17272B",
		fontcolor="#FFFFFF",
		height=0.23611,
		label="Leonardo B. Lima Santos [0]",
		pos="494.5,136.5",
		width=1.5278];
	5	 [URL="http://lattes.cnpq.br/5123287769635741",
		color="#17272B",
		fontcolor="#FFFFFF",
		height=0.23611,
		label="Leila M. Garcia Fonseca [0]",
		pos="621.5,136.5",
		width=1.4861];
	6	 [URL="http://lattes.cnpq.br/6778709983077103",
		color="#17272B",
		fontcolor="#FFFFFF",
		height=0.23611,
		label="Lamartine N. Frutuoso Guimarães [0]",
		pos="762.5,136.5",
		width=1.9167];
	7	 [URL="http://lattes.cnpq.br/8068157900374950",
		color="#17272B",
		fontcolor="#FFFFFF",
		height=0.23611,
		label="Ezzat Selim Chalhoub [0]",
		pos="899.5,136.5",
		width=1.375];
	8	 [URL="http://lattes.cnpq.br/4111659600080696",
		color="#17272B",
		fontcolor="#FFFFFF",
		height=0.23611,
		label="Luciano Vieira Dutra [0]",
		pos="1015.5,136.5",
		width=1.3333];
	9	 [URL="http://lattes.cnpq.br/6187040703676041",
		color="#17272B",
		fontcolor="#FFFFFF",
		height=0.23611,
		label="Lúbia Vinhas [7]",
		pos="1117.5,136.5",
		width=0.98611];
	11	 [URL="http://lattes.cnpq.br/1014575950191035",
		color="#17272B",
		fontcolor="#FFFFFF",
		height=0.23611,
		label="Karine Reis Ferreira [7]",
		pos="1117.5,72.5",
		width=1.2917];
	9 -> 11	 [arrowhead=normal,
		arrowsize=0.75,
		fontsize=8,
		label=0.64,
		lp="1107,104.5",
		penwidth=2.42,
		pos="e,1109.7,81.199 1110.4,127.98 1106.4,123.11 1101.7,116.42 1099.5,109.5 1097.1,101.8 1100.5,93.716 1105,87.167"];
	16	 [URL="http://lattes.cnpq.br/0333390666972274",
		color="#17272B",
		fontcolor="#FFFFFF",
		height=0.23611,
		label="Gilberto Camara Neto [4]",
		pos="1048.5,8.5",
		width=1.375];
	9 -> 16	 [arrowhead=normal,
		arrowsize=0.75,
		fontsize=8,
		label=0.29,
		lp="1007,72.5",
		penwidth=1.37,
		pos="e,1036.8,17.167 1081.9,128.11 1059.2,122.97 1032.4,115.92 1022.5,109.5 1009,100.74 1004.9,96.662 999.5,81.5 991.15,58.172 1013.6,\
35.207 1030.8,21.699"];
	20	 [URL="http://lattes.cnpq.br/0654596992211296",
		color="#17272B",
		fontcolor="#FFFFFF",
		height=0.23611,
		label="Antonio M. Vieira Monteiro [1]",
		pos="1187.5,8.5",
		width=1.6528];
	9 -> 20	 [arrowhead=normal,
		arrowsize=0.75,
		fontsize=8,
		label=0.07,
		lp="1187,72.5",
		penwidth=0.71,
		pos="e,1187.4,17.191 1128.1,128 1140.7,118.58 1161.2,101.24 1172.5,81.5 1182.7,63.734 1186,39.984 1187,24.711"];
	11 -> 9	 [arrowhead=normal,
		arrowsize=0.75,
		fontsize=8,
		label=0.64,
		lp="1125,104.5",
		penwidth=2.42,
		pos="e,1117.5,127.9 1117.5,81.165 1117.5,90.864 1117.5,107.8 1117.5,120.19"];
	11 -> 16	 [arrowhead=normal,
		arrowsize=0.75,
		fontsize=8,
		label=0.29,
		lp="1078,40.5",
		penwidth=1.37,
		pos="e,1051.8,17.177 1098.6,63.836 1089.4,59.436 1078.6,53.24 1070.5,45.5 1064.2,39.473 1059,31.273 1055.3,24.221"];
	11 -> 20	 [arrowhead=normal,
		arrowsize=0.75,
		fontsize=8,
		label=0.07,
		lp="1150,40.5",
		penwidth=0.71,
		pos="e,1170.5,17.067 1121.5,63.879 1125.8,56.046 1133.4,43.847 1142.5,35.5 1148.7,29.818 1156.3,24.833 1163.5,20.789"];
	16 -> 9	 [arrowhead=normal,
		arrowsize=0.75,
		fontsize=8,
		label=0.5,
		lp="1056,72.5",
		penwidth=2.0,
		pos="e,1101.7,127.94 1046.7,17.144 1044,30.863 1040,60.212 1050.5,81.5 1059.9,100.42 1079.3,114.91 1094.9,124.09"];
	16 -> 11	 [arrowhead=normal,
		arrowsize=0.75,
		fontsize=8,
		label=0.5,
		lp="1101,40.5",
		penwidth=2.0,
		pos="e,1111.6,63.867 1060.7,17.035 1068.2,21.905 1077.8,28.602 1085.5,35.5 1093.1,42.319 1100.8,50.855 1106.7,57.903"];
	20 -> 9	 [arrowhead=normal,
		arrowsize=0.75,
		fontsize=8,
		label=0.5,
		lp="1208,72.5",
		penwidth=2.0,
		pos="e,1140.9,127.98 1191.8,17.428 1194.3,22.445 1197.2,29.159 1198.5,35.5 1202.6,55.536 1206.6,62.749 1198.5,81.5 1189.3,102.67 1166.9,\
116.62 1147.9,125.03"];
	20 -> 11	 [arrowhead=normal,
		arrowsize=0.75,
		fontsize=8,
		label=0.5,
		lp="1172,40.5",
		penwidth=2.0,
		pos="e,1131.6,63.78 1182.1,17.244 1176.5,24.955 1167.2,36.856 1157.5,45.5 1151.7,50.67 1144.7,55.549 1138.3,59.653"];
	12	 [URL="http://lattes.cnpq.br/1840336983035010",
		color="#17272B",
		fontcolor="#FFFFFF",
		height=0.23611,
		label="José Carlos Becceneri [1]",
		pos="1344.5,136.5",
		width=1.3611];
	28	 [URL="http://lattes.cnpq.br/8594179234801599",
		color="#17272B",
		fontcolor="#FFFFFF",
		height=0.23611,
		label="Sandra Aparecida Sandri [2]",
		pos="1344.5,72.5",
		width=1.5];
	12 -> 28	 [arrowhead=normal,
		arrowsize=0.75,
		fontsize=8,
		label=1.0,
		lp="1334,104.5",
		penwidth=3.5,
		pos="e,1337.5,81.264 1338.2,127.85 1334.6,122.93 1330.4,116.23 1328.5,109.5 1326.4,102.06 1329.3,94.165 1333.1,87.672"];
	28 -> 12	 [arrowhead=normal,
		arrowsize=0.75,
		fontsize=8,
		label=0.5,
		lp="1350,104.5",
		penwidth=2.0,
		pos="e,1344.5,127.9 1344.5,81.165 1344.5,90.864 1344.5,107.8 1344.5,120.19"];
	27	 [URL="http://lattes.cnpq.br/3997386421385499",
		color="#17272B",
		fontcolor="#FFFFFF",
		height=0.23611,
		label="Sidnei J. Siqueira Sant'Anna [1]",
		pos="1335.5,8.5",
		width=1.6528];
	28 -> 27	 [arrowhead=normal,
		arrowsize=0.75,
		fontsize=8,
		label=0.5,
		lp="1329,40.5",
		penwidth=2.0,
		pos="e,1329.9,17.252 1335.9,63.752 1331.2,59.003 1326,52.503 1323.5,45.5 1321,38.535 1323,30.765 1326.1,24.232"];
	27 -> 28	 [arrowhead=normal,
		arrowsize=0.75,
		fontsize=8,
		label=1.0,
		lp="1346,40.5",
		penwidth=3.5,
		pos="e,1343.4,63.898 1336.6,17.165 1338,26.864 1340.5,43.797 1342.3,56.189"];
	14	 [URL="http://lattes.cnpq.br/6187221670775160",
		color="#17272B",
		fontcolor="#FFFFFF",
		height=0.23611,
		label="Horacio Hideki Yanasse [0]",
		pos="1464.5,136.5",
		width=1.4722];
	15	 [URL="http://lattes.cnpq.br/5142426481528206",
		color="#17272B",
		fontcolor="#FFFFFF",
		height=0.23611,
		label="Haroldo F. de Campos Velho [1]",
		pos="1596.5,136.5",
		width=1.6944];
	25	 [URL="http://lattes.cnpq.br/1446664587151293",
		color="#17272B",
		fontcolor="#FFFFFF",
		height=0.23611,
		label="Stephan Stephany [1]",
		pos="1596.5,72.5",
		width=1.1806];
	15 -> 25	 [arrowhead=normal,
		arrowsize=0.75,
		fontsize=8,
		label=1.0,
		lp="1586,104.5",
		penwidth=3.5,
		pos="e,1589.5,81.264 1590.2,127.85 1586.6,122.93 1582.4,116.23 1580.5,109.5 1578.4,102.06 1581.3,94.165 1585.1,87.672"];
	25 -> 15	 [arrowhead=normal,
		arrowsize=0.75,
		fontsize=8,
		label=1.0,
		lp="1602,104.5",
		penwidth=3.5,
		pos="e,1596.5,127.9 1596.5,81.165 1596.5,90.864 1596.5,107.8 1596.5,120.19"];
	17	 [URL="http://lattes.cnpq.br/6535649723011349",
		color="#17272B",
		fontcolor="#FFFFFF",
		height=0.23611,
		label="Manoel F. Ramos Pinto [0]",
		pos="1727.5,136.5",
		width=1.4444];
	18	 [URL="http://lattes.cnpq.br/1774662996337284",
		color="#17272B",
		fontcolor="#FFFFFF",
		height=0.23611,
		label="Luís E. Martins Guerra [0]",
		pos="1848.5,136.5",
		width=1.4167];
	19	 [URL="http://lattes.cnpq.br/2549014594120288",
		color="#17272B",
		fontcolor="#FFFFFF",
		height=0.23611,
		label="Corina da Costa Freitas [0]",
		pos="1969.5,136.5",
		width=1.4306];
	21	 [URL="http://lattes.cnpq.br/5039690360728170",
		color="#17272B",
		fontcolor="#FFFFFF",
		height=0.23611,
		label="Valdivino A. de Santiago Júnior [0]",
		pos="2104.5,136.5",
		width=1.8194];
	22	 [URL="http://lattes.cnpq.br/9947781822423028",
		color="#17272B",
		fontcolor="#FFFFFF",
		height=0.23611,
		label="Rogerio Deienno [0]",
		pos="2229.5,136.5",
		width=1.1528];
	23	 [URL="http://lattes.cnpq.br/1161682301970625",
		color="#17272B",
		fontcolor="#FFFFFF",
		height=0.23611,
		label="Rita de C. Meneses Rodrigues [0]",
		pos="2351.5,136.5",
		width=1.7361];
	24	 [URL="http://lattes.cnpq.br/2840176439889517",
		color="#17272B",
		fontcolor="#FFFFFF",
		height=0.23611,
		label="Reinaldo Roberto Rosa [0]",
		pos="2483.5,136.5",
		width=1.4167];
	26	 [URL="http://lattes.cnpq.br/3368137994024629",
		color="#17272B",
		fontcolor="#FFFFFF",
		height=0.23611,
		label="Solon Venâncio de Carvalho [0]",
		pos="2612.5,136.5",
		width=1.6667];
	29	 [URL="http://lattes.cnpq.br/0096913881679975",
		color="#17272B",
		fontcolor="#FFFFFF",
		height=0.23611,
		label="Rafael D. Coelho dos Santos [0]",
		pos="2750.5,136.5",
		width=1.6667];
}
