artigoEmPeriodico	2016	http://dx.doi.org/10.3390/land5020018	Typologies and Spatialization of Agricultural Production Systems in Rondônia, Brazil: Linking Land Use, Socioeconomics and Territorial Configuration	Land	ALMEIDA, CLÁUDIO ; MOURÃO, MOISÉS ; DESSAY, NADINE ; LACQUES, ANNE-ELISABETH ; MONTEIRO, ANTÔNIO ; DURIEUX, LAURENT ; VENTURIERI, ADRIANO ; SEYLER, FRÉDÉRIQUE	Qualis nao identificado	Land
artigoEmPeriodico	2016	http://dx.doi.org/10.1007/s11192-016-1908-3	An analysis of bibliometric indicators to JCR according to Benford?s law	Scientometrics (Print)	ALVES, ALEXANDRE DONIZETI ; YANASSE, H. H. ; SOMA, N. Y	A2	
artigoEmPeriodico	2016		Multi-objective calibration of IBIS model by genetic algorithm with parametric sensitivity analysis	Ciência e Natura	Araújo, A. S. ; Campos Velho, H. F. ; L. Minjiao	B2	
artigoEmPeriodico	2016		MINERAÇÃO DE TRAJETÓRIAS DE MUDANÇA DE COBERTURA DA TERRA EM ESTUDOS DE DEGRADAÇÃO FLORESTAL	RBC. Revista Brasileira de Cartografia (Online)	AZEREDO, M. ; MONTEIRO, Antonio Miguel Vieira ; Escada, M. I. S. ; FERREIRA, Karine Reis ; VINHAS, L. ; PINHEIRO, T. F.	B1	
artigoEmPeriodico	2016		An observatory to gather and disseminate information on the health-related effects of environmental and climate change	Revista Panamericana de Salud Pública	Barcellos, Christovam ; ROUX, E. ; CECCATO, P. ; GOSSELIN, P. ; Monteiro, Antonio Miguel ; MATOS, V. ; XAVIER, D. R.	Qualis nao identificado	Revista Panamericana de Salud Pública
artigoEmPeriodico	2016	http://dx.doi.org/10.5194/isprs-archives-XLI-B8-845-2016	USING LANDSAT 8 IMAGE TIME SERIES FOR CROP MAPPING IN A REGION OF CERRADO, BRAZIL	ISPRS - International Archives of the Photogrammetry, Remote Sensing and Spatial Information Sciences	BENDINI, H. ; SANCHES, I. D. ; KÖRTING, T. S. ; FONSECA, L. M. G. ; LUIZ, A. J. B. ; FORMAGGIO, A. R.	A1	Information Sciences
artigoEmPeriodico	2016	http://dx.doi.org/10.1016/j.neucom.2015.10.111	An object-based visual selection framework	Neurocomputing (Amsterdam)	BENICASA, Alcides Xavier ; Quiles, Marcos G. ; SILVA, THIAGO C. ; ZHAO, Liang ; ROMERO, ROSELI A.F.	A2	
artigoEmPeriodico	2016	http://dx.doi.org/10.1016/j.envsoft.2016.04.016	SimiVal, a multi-criteria map comparison tool for land-change model projections	Environmental Modelling & Software	BRADLEY, ANDREW V. ; ROSA, ISABEL M.D. ; PONTIUS, ROBERT G. ; AHMED, SADIA E. ; ARAÚJO, MIGUEL B. ; BROWN, DANIEL G. ; BRANDÃO, AMINTAS ; Câmara, Gilberto ; CARNERIO, TIAGO G.S. ; HARTLEY, ANDREW J. ; SMITH, MATTHEW J. ; EWERS, ROBERT M.	A1	
artigoEmPeriodico	2016	http://dx.doi.org/10.5194/isprsarchives-XLI-B7-883-2016	IMPROVEMENT EVALUATION ON CERAMIC ROOF EXTRACTION USING WORLDVIEW-2 IMAGERY AND GEOGRAPHIC DATA MINING APPROACH	ISPRS - International Archives of the Photogrammetry, Remote Sensing and Spatial Information Sciences	BRUM-BASTOS, V. S. ; RIBEIRO, B. M. G. ; PINHO, C. M. D. ; KORTING, T. S. ; FONSECA, L. M. G.	A1	Information Sciences
artigoEmPeriodico	2016	http://dx.doi.org/10.6062/jcis.2016.07.03.0114	Improving galaxy morphology with machine learning	JOURNAL OF COMPUTATIONAL INTERDISCIPLINARY SCIENCES	CARVALHO, R. ; ROSA, R. ; BARCHI, P. ; SAUTTER, R. ; DA COSTA, F.	B3	
artigoEmPeriodico	2016	http://dx.doi.org/10.4018/IJDST.2016100105	An Open Source Approach for Watershed's Delimitation to Support Flood Monitoring	International Journal of Distributed Systems and Technologies	CARVALHO, TIAGO ; Santos, Leonardo B. L. ; LUZ, EDUARDO F. P. ; ISHIBASHI, ROGÉRIO ; JORGE, AURELIENNE A. S. ; LONDE, LUCIANA R.	Qualis nao identificado	International Journal of Distributed Systems and Technologies
artigoEmPeriodico	2016	http://dx.doi.org/10.1590/2179-10742016v15i4658	Experimental Study of Transmission and Reflection Characteristics of a Gradient Array of Metamaterial Split-Ring Resonators	Journal of Microwaves, Optoelectronics and Electromagnetic Applications	CASTRO, PEDRO J. ; Barroso, Joaquim J. ; LEITE NETO, JOAQUIM P. ; TOMAZ, A. ; HASAR, UGUR C.	Qualis nao identificado	Journal of Microwaves, Optoelectronics and Electromagnetic Applications
artigoEmPeriodico	2016	http://dx.doi.org/10.1016/j.cor.2015.10.009	Hybrid method with CS and BRKGA applied to the minimization of tool switches problem	Computers & Operations Research	CHAVES, A.A. ; LORENA, L.A.N. ; SENNE, E.L.F. ; RESENDE, M.G.C.	A1	
artigoEmPeriodico	2016	http://dx.doi.org/10.5935/1984-2295.20160037	Heterogeneity of roughness in complex terrains and implications for wind power	Revista Brasileira de Geografia Física	CORDEIRO, THIAGO LOBÃO ; ASSIREU, ARCILAN TREVENZOLI ; VIJAYKUMAR, NANDAMUDI LANKALAPALLI ; FREITAS, RAMON MORAES DE ; ROSA, REINALDO ROBERTO	B2	
artigoEmPeriodico	2016	http://dx.doi.org/10.6062/jcis.2016.07.01.0102	Routing metrics in wireless mesh networks: a Monte Carlo simulation approach	Journal of Computational Interdisciplinary Sciences	DA SILVA, M. ; RODRIGUES, A. C. ; VIJAYKUMAR, N. ; SENE, E. ; NETO, G.	B3	
artigoEmPeriodico	2016	http://dx.doi.org/10.1007/s40808-016-0145-3	An operational dynamical neuro-forecasting model for hydrological disasters	Modeling Earth Systems and Environment	DE LIMA, GLAUSTON R. T. ; Santos, Leonardo B. L. ; DE CARVALHO, TIAGO J. ; CARVALHO, ADENILSON R. ; CORTIVO, FÁBIO D. ; SCOFIELD, GRAZIELA B. ; NEGRI, ROGÉRIO G.	Qualis nao identificado	Modeling Earth Systems and Environment
artigoEmPeriodico	2016	http://dx.doi.org/10.1109/TPS.2016.2558320	Numerical Simulation of the Geometric Factor of a Cylindrical Electrostatic Analyzer to Monitor Electron Precipitation in the South Atlantic Magnetic Anomaly	IEEE Transactions on Plasma Science	DE MELO, PEDRO DOUSSEAU G. ; TAN, ING HWIE ; Barroso, Joaquim J. ; DALLAQUA, RENATO S.	B1	
artigoEmPeriodico	2016	http://dx.doi.org/10.1016/j.icarus.2016.02.043	Is the Grand Tack model compatible with the orbital distribution of main belt asteroids?	Icarus (New York, N.Y. 1962)	DEIENNO, ROGERIO; GOMES, RODNEY S. ; WALSH, KEVIN J. ; MORBIDELLI, ALESSANDRO ; NESVORNÝ, DAVID	Qualis nao identificado	Icarus (New York, N.Y. 1962)
artigoEmPeriodico	2016	http://dx.doi.org/10.1007/s10569-016-9699-7	Satellite de-orbiting via controlled solar radiation pressure	Celestial Mechanics & Dynamical Astronomy	DEIENNO, ROGERIO; SANCHEZ, DIOGO MERGUIZO ; DE ALMEIDA PRADO, ANTONIO FERNANDO BERTACHINI ; SMIRNOV, GEORGI	B1	
artigoEmPeriodico	2016	http://dx.doi.org/10.1137/15m1026043	Comparison of Adaptive Multiresolution and Adaptive Mesh Refinement Applied to Simulations of the Compressible Euler Equations	SIAM JOURNAL ON SCIENTIFIC COMPUTING	DEITERDING, RALF ; DOMINGUES, MARGARETE OLIVEIRA ; Gomes, Sônia M. ; Schneider, Kai	Qualis nao identificado	SIAM JOURNAL ON SCIENTIFIC COMPUTING
artigoEmPeriodico	2016	http://dx.doi.org/10.1590/1806-9126-RBEF-2016-0019	Explorando a transformada wavelet contínua	Revista Brasileira de Ensino de Física (Online)	DOMINGUES, MARGARETE OLIVEIRA; MENDES, ODIM ; KAIBARA, M. K. ; MENCONI, V. E. ; BERNARDES, E.	A2	
artigoEmPeriodico	2016		Estimativa e distribuição espacial de população urbana com imagens de satélite de luzes noturnas: um estudo para a região metropolitana de São Paulo, Brasil, com o sensor Visible/InfraredImaging Radiometer Suite (VIIRS).	Geografia (Rio Claro. Impresso)	DORIA, V. E. M. ; AMARAL, Silvana ; Monteiro, Antonio M.V.	B1	
artigoEmPeriodico	2016	http://dx.doi.org/10.1016/j.fss.2015.04.004	Tunable equivalence fuzzy associative memories	Fuzzy Sets and Systems	ESMI, ESTEVÃO ; SUSSNER, PETER ; Sandri, Sandra	A1	
artigoEmPeriodico	2016	http://dx.doi.org/10.1590/s1806-11173812098	A brief study of instabilities in the context of space magnetohydrodynamic simulations	Revista Brasileira de Ensino de Física (Online)	EVANGELHISTA, E. F. D. ; Oliveira Domingues, Margarete ; MENDES, O. ; MIRANDA, O. D.	A2	
artigoEmPeriodico	2016		Temporal GIS and Spatiotemporal Data Sources	RBC. Revista Brasileira de Cartografia (Online)	FERREIRA, K. R.; OLIVEIRA, A. G. ; MONTEIRO, A. M. ; ALMEIDA, D. B. F. C.	B1	
artigoEmPeriodico	2016	http://dx.doi.org/10.1140/epjst/e2016-60010-6	Phase synchronization based on a Dual-Tree Complex Wavelet Transform	The European Physical Journal. Special Topics	FERREIRA, MARIA TEODORA ; DOMINGUES, MARGARETE OLIVEIRA ; Macau, Elbert E.N.	B1	
artigoEmPeriodico	2016	http://dx.doi.org/10.1016/j.asr.2016.03.039	Spectral fluctuation analysis of ionospheric inhomogeneities over Brazilian territory. Part I: Equatorial F-region plasma bubbles	ADVANCES IN SPACE RESEARCH	FORNARI, G. ; Rosa, R.R. ; DE MENESES, F.C. ; MURALIKRISHNA, P.	B1	
artigoEmPeriodico	2016	http://dx.doi.org/10.1111/gean.12082	A Constructive Genetic Algorithm for Discrete Dispersion on Point Feature Cartographic Label Placement Problems	Geographical Analysis	GOMES, SÓSTENES PEREIRA ; Lorena, Luiz Antonio Nogueira ; RIBEIRO, Glaydston Mattos	Qualis nao identificado	Geographical Analysis
artigoEmPeriodico	2016	http://dx.doi.org/10.1063/1.4967850	On synchronization in power-grids modelled as networks of second-order Kuramoto oscillators	Chaos (Woodbury, N.Y.)	Grzybowski, J. M. V. ; MACAU, E. E. N. ; Yoneyama, T.	A2	
artigoEmPeriodico	2016	http://dx.doi.org/10.6062/jcis.2015.06.02.0097	An expert supernova spectral classification using artificial neural networks	Journal of Computational Interdisciplinary Sciences	GUIMARÃES, L.; ROSA, R. ; MÓDOLO, M.	B3	
artigoEmPeriodico	2016	http://dx.doi.org/10.1109/TAP.2016.2583484	Boundary Effects on the Determination of Electromagnetic Properties of Bianisotropic Metamaterials From Scattering Parameters	IEEE Transactions on Antennas and Propagation (Print)	HASAR, UGUR CEM ; BARROSO, JOAQUIM JOSE ; BUTE, MUSA ; MURATOGLU, ABDURRAHIM ; ERTUGRUL, MEHMET	A2	
artigoEmPeriodico	2016		Previsão climática de precipitação para a região Sul por rede neural autoconfigurada	Ciência e Natura	J. A. Anochi ; Campos Velho, H. F.	B2	
artigoEmPeriodico	2016	http://dx.doi.org/10.2322/tastj.14.pb_225	DEMOCRITOS Demonstrators for Realization of Nuclear Electric Propulsion of the European Roadmaps MEGAHIT	TRANSACTIONS OF THE JAPAN SOCIETY FOR AERONAUTICAL AND SPACE SCIENCES, AEROSPACE TECHNOLOGY JAPAN	Jansen, Frank ; Bauer, Waldemar ; MASSON, FREDERIC ; Ruault, Jean-Marc ; WORM, JEAN-CLAUDE ; Detsis, Emmanouil ; Lassoudiere, Francois ; Granjon, Richard ; Gaia, Enrico ; Tosi, Maria Cristina ; Ferraris, Simona ; KOROTEEV, Anatoly S. ; SEMENKIN, ALEXANDER V. ; Solodukhin, Alexander ; Tinsley, Tim ; Hodgson, Zara ; Koppel, Christoph ; GUIMARAES, LAMARTINE NOGUEIRA FRUTUOSO	Qualis nao identificado	TRANSACTIONS OF THE JAPAN SOCIETY FOR AERONAUTICAL AND SPACE SCIENCES, AEROSPACE TECHNOLOGY JAPAN
artigoEmPeriodico	2016	http://dx.doi.org/10.1016/j.asr.2016.01.018	Latitudinal and longitudinal behavior of the geomagnetic field during a disturbed period: A case study using wavelet techniques	Advances in Space Research	KLAUSNER, V. ; DOMINGUES, MARGARETE OLIVEIRA ; MENDES, O. ; PAPA, ANDRES R. R. ; OJEDA, A. G.	B1	
artigoEmPeriodico	2016	http://dx.doi.org/10.5194/angeo-34-451-2016	An alternative way to identify local geomagnetically quiet days: a case study using wavelet analysis	Annales Geophysicae	KLAUSNER, VIRGINIA ; PAPA, ANDRÉS REINALDO RODRIGUEZ ; CÂNDIDO, CLÁUDIA MARIA NICOLE ; DOMINGUES, MARGARETE OLIVEIRA ; MENDES, ODIM	Qualis nao identificado	Annales Geophysicae
artigoEmPeriodico	2016	http://dx.doi.org/10.1007/s10750-016-2796-5	Development and evaluation of species distribution models for five endangered elasmobranchs in southwestern Atlantic	Hydrobiologia (The Hague. Print)	KLIPPEL, SANDRO ; AMARAL, SILVANA ; Vinhas, Lúbia	A2	
artigoEmPeriodico	2016		Trends in Geoinformatics	RBC. Revista Brasileira de Cartografia (Online)	KORTING, T. S. ; FERREIRA, Karine Reis ; VINHAS, L. ; MONTEIRO, Antonio Miguel Vieira ; QUEIROZ, Gilberto Ribeiro de	B1	
artigoEmPeriodico	2016	http://dx.doi.org/10.1007/s13538-016-0464-x	On the Use of Space-Environmental Satellite Data for Global Magnetohydrodynamic Simulations	Brazilian Journal of Physics (Impresso)	LORENZO, MAIBYS SIERRA ; DOMINGUES, MARGARETE OLIVEIRA ; MECÍAS, ANGELA LEÓN ; MENCONI, VARLEI EVERTON ; MENDES, ODIM	B1	
artigoEmPeriodico	2016	http://dx.doi.org/10.1137/15M1049786	Persistence of Network Synchronization under Nonidentical Coupling Functions	SIAM Journal on Applied Dynamical Systems	MAIA, DANIEL M. N. ; MACAU, ELBERT E. N. ; Pereira, Tiago	Qualis nao identificado	SIAM Journal on Applied Dynamical Systems
artigoEmPeriodico	2016	http://dx.doi.org/10.1016/j.cor.2016.01.002	An Adaptive Large Neighborhood Search for the Discrete and Continuous Berth Allocation Problem	Computers & Operations Research	MAURI, Geraldo Regis ; RIBEIRO, Glaydston Mattos ; Lorena, Luiz Antonio Nogueira ; LAPORTE, GILBERT	A1	
artigoEmPeriodico	2016	http://dx.doi.org/10.1109/JSTARS.2016.2517118	A Time-Weighted Dynamic Time Warping Method for Land-Use and Land-Cover Mapping	IEEE J-STARS	MAUS, VICTOR ; Camara, Gilberto ; CARTAXO, RICARDO ; Sanchez, Alber ; RAMOS, FERNANDO M. ; DE QUEIROZ, GILBERTO R.	Qualis nao identificado	IEEE J-STARS
artigoEmPeriodico	2016	http://dx.doi.org/10.1080/01431161.2016.1165883	Examining region-based methods for land cover classification using stochastic distances	International Journal of Remote Sensing (Print)	NEGRI, R. G. ; DUTRA, L. V. ; SANT'ANNA, S. J. S. ; Lu, D.	A2	
artigoEmPeriodico	2016	http://dx.doi.org/10.1080/2150704x.2016.1154218	Comparing support vector machine contextual approaches for urban area classification	Remote Sensing Letters	NEGRI, R. G. ; DUTRA, L. V. ; SANT?ANNA, S. J. S.	B2	
artigoEmPeriodico	2016		COMBINING TIME SERIES FEATURES AND DATA MINING TO DETECT LAND COVER PATTERNS: A CASE STUDY IN NORTHERN MATO GROSSO STATE, BRAZIL	RBC. Revista Brasileira de Cartografia (Online)	Neves, A. K. ; Bendini, H.N. ; Korting. T.S. ; FONSECA, L. M. G.	B1	
artigoEmPeriodico	2016	http://dx.doi.org/10.1051/proc/201653003	Adaptive wavelet simulation of weakly compressible flow in a channel with a suddenly expanded section	ESAIM: Proceedings and Surveys	Okamoto N. ; DOMINGUES, MARGARETE OLIVEIRA ; YOSHIMATSU, K. ; Schneider, Kai	Qualis nao identificado	ESAIM: Proceedings and Surveys
artigoEmPeriodico	2016	http://dx.doi.org/10.1038/srep25570	Dynamical detection of network communities	Scientific Reports	Quiles, Marcos G. ; MACAU, ELBERT E. N. ; RUBIDO, NICOLÁS	Qualis nao identificado	Scientific Reports
artigoEmPeriodico	2016		Acoplamento BRAMS-WW3 para previsão de ondas oceânicas	Ciência e Natura	R. S. R. Ruiz ; R. P. C. Maita ; Campos Velho, H. F. ; Freitas, S. R. ; Innocentini, Valdir	B2	
artigoEmPeriodico	2016	http://dx.doi.org/10.1109/TPS.2016.2593606	Influence of Input Pulse Shape on RF Generation in Nonlinear Transmission Lines	IEEE Transactions on Plasma Science	RANGEL, ELIZETE G. LOPES ; Barroso, Joaquim J. ; ROSSI, JOSE O. ; YAMASAKI, FERNANDA S. ; SILVA NETO, LAURO P. ; SCHAMILOGLU, EDL	B1	
artigoEmPeriodico	2016	http://dx.doi.org/10.1016/j.cie.2016.03.005	Berth Allocation in an Ore Terminal with Demurrage, Despatch and Maintenance	Computers & Industrial Engineering	RIBEIRO, Glaydston Mattos ; MAURI, Geraldo Regis ; DE CASTRO BELUCO, SAULO ; Nogueira Lorena, Luiz Antonio ; LAPORTE, GILBERT	A2	
artigoEmPeriodico	2016	http://dx.doi.org/10.1016/j.cag.2016.01.001	Helmholtz-Hodge decomposition and the analysis of 2D vector field ensembles	COMPUTERS & GRAPHICS-UK	RIBEIRO, PAULA CECCON ; de Campos Velho, Haroldo Fraga ; LOPES, HÉLIO	B1	
artigoEmPeriodico	2016	http://dx.doi.org/10.1007/s40314-015-0287-3	Exploring the Moon gravity to escape from the Earth-Moon system	Computational & Applied Mathematics	SANTANA, S. H. S. ; de Melo, C. F. ; MACAU, E. E. N. ; Winter, O. C.	B1	
artigoEmPeriodico	2016		Time Performance Formal Evaluation of Complex Systems	Lecture Notes in Computer Science	Santiago Júnior, Valdivino Alexandre de; TAHAR, S.	B1	
artigoEmPeriodico	2016	http://dx.doi.org/10.6062/jcis.2015.06.03.0101	A comparison of Haar-like, LBP and HOG approaches to concrete and asphalt runway detection in high resolution imagery	Journal of Computational Interdisciplinary Sciences	SHIGUEMORI, E. ; CRUZ, J. ; GUIMARÃES, L.	B3	
artigoEmPeriodico	2016	http://dx.doi.org/10.1002/cpe.3959	Portability with efficiency of the advection of BRAMS between multi-core and many-core architectures	Concurrency and Computation	SILVA JUNIOR, MANOEL BAPTISTA ; PANETTA, Jairo ; Stephany, Stephan	A2	
artigoEmPeriodico	2016	http://dx.doi.org/10.1109/tps.2016.2628324	High-Power RF Generation From Nonlinear Transmission Lines With Barium Titanate Ceramic Capacitors	IEEE Transactions on Plasma Science	SILVA NETO, LAURO P. ; ROSSI, JOSE O. ; Barroso, Joaquim J. ; SCHAMILOGLU, EDL	B1	
artigoEmPeriodico	2016	http://dx.doi.org/10.1371/journal.pone.0146220	Social Network Analysis and Mining to Monitor and Identify Problems with Large-Scale Information and Communication Technology Interventions	Plos One	SILVA, ALEKSANDRA DO SOCORRO DA ; BRITO, SILVANA ROSSY DE ; VIJAYKUMAR, NANDAMUDI LANKALAPALLI ; ROCHA, CLÁUDIO ALEX JORGE DA ; MONTEIRO, MAURÍLIO DE ABREU ; COSTA, João Crisóstomo Weyl Albuquerque ; FRANCÊS, CARLOS RENATO LISBOA	A1	
artigoEmPeriodico	2016	http://dx.doi.org/10.1504/IJHPSA.2016.081751	Image matching applied to autonomous navigation of unmanned aerial vehicles	International Journal of High Performance Systems Architecture	SILVA, C.A.O. ; GOLTZ, G.A.M. ; Shiguemori, E.H. ; CASTRO, C.L. DE ; VELHO, H.F. DE C. ; BRAGA, A.P. DE	B2	International Journal of High Performance Systems Architecture (Print)
artigoEmPeriodico	2016		Utilização de Redes Neurais Artificiais em alertas hidrológicos: estudo de caso na bacia do rio Claro em Caraguatatuba-SP	ANUÁRIO DO INSTITUTO DE GEOCIÊNCIAS (UFRJ. IMPRESSO)	SILVA, M. R. ; Santos, L. B. L. ; SCOFIELD, G. B. ; CORTIVO, F. D.	B2	
artigoEmPeriodico	2016		Improvements of the divide and segment method for parallel image segmentation	RBC. Revista Brasileira de Cartografia (Online)	Soares, A.R. ; Korting. T.S. ; Fonseca, Leila M.G.	B1	
artigoEmPeriodico	2016		Rompimento de barragens em Mariana (MG): o processo de comunicação de risco de acordo com dados da mídia	COMMUNICARE (SÃO PAULO)	SORIANO, E. ; HOFFMANN, W. A. M. ; LONDE, LUCIANA R. ; Santos, L. B. L. ; SOMOZA, R. L. C. D.	B2	
artigoEmPeriodico	2016	http://dx.doi.org/10.1590/1809-4422ASOC150120R1V1912016	Water crisis in São Paulo evaluated under the disaster?s point of view	AMBIENTE E SOCIEDADE (CAMPINAS)	SORIANO, E. ; LONDE, L. R. ; GREGORIO, L. T. ; COUTINHO, M. ; SANTOS, L. B. L.	A2	
artigoEmPeriodico	2016	http://dx.doi.org/10.1007/s40314-016-0318-8	New developments on reconstruction of high resolution chlorophyll-a vertical profiles	Matemática Aplicada e Computacional (Cessou em 1997. Cont. ISSN 1807-0302 Computational & Applied Mathematics)	SOUTO, Roberto Pinto ; DIAS, Pedro Leite da Silva ; de CAMPOS VELHO, Haroldo Fraga ; STEPHANY, S. ; KAMPEL, Milton	B1	
artigoEmPeriodico	2016	http://dx.doi.org/10.1016/j.procs.2016.05.375	GPU Optimization for Data Analysis of Mario Schenberg Spherical Detector	Procedia Computer Science	VASCONCELLOS, EDUARDO C. ; CLUA, ESTEBAN W.G. ; Rosa, Reinaldo R. ; GAZOLLA, JOÃO G.F.M. ; FERREIRA, NUNO CÉSAR DA R. ; CARLQUIST, VICTOR ; COSTA, CARLOS F. DA SILVA	C	
artigoEmPeriodico	2016	http://dx.doi.org/10.1109/tps.2016.2556320	Simulation Studies of Distributed Nonlinear Gyromagnetic Lines Based on LC Lumped Model	IEEE Transactions on Plasma Science	YAMASAKI, FERNANDA S. ; SCHAMILOGLU, EDL ; ROSSI, JOSE O. ; Barroso, Joaquim J.	B1	
artigoEmPeriodico	2016	http://dx.doi.org/10.1007/s00382-015-2768-x	Do the recent severe droughts in the Amazonia have the same period of length?	Climate Dynamics	ZOU, YONG ; MACAU, ELBERT E. N. ; SAMPAIO, GILVAN ; RAMOS, ANTÔNIO M. T. ; Kurths, Jürgen	A1	
trabalhoCompletoEmCongresso	2016		O fluxo da pecuária de corte no Pantanal Sul: uma análise do trânsito de bovinos investigando a interferência da dinâmica hidro meteorológica da região e o evento extremo ?cheia de 2011	Simpósio de Geotecnologias no Pantanal	ARAUJO, A. G. J. ; SILVA, L. T. ; Santos, L.B.L. ; SILVA, B. M. M. ; OLIVEIRA, G. S. ; PARRAGA, G. O. O. ; Monteiro, A. M. V. ; LEMES, M. C. R. ; PRADO, M. L. ; RODRIGUEZ, D. A.		
trabalhoCompletoEmCongresso	2016	http://dx.doi.org/10.1007/978-3-642-23687-7_15	E. L. ; SANCHEZ, A. ; MAUS, V. W. ; CÂMARA, Gilberto . Big data streaming for remote sensing time series analytics using MapReduce	XVII Brazilian Symposium on Geoinformatics (GeoInfo 2016)	ASSIS, L. F. ; QUEIROZ, G. R. ; FERREIRA, K. R. ; VINHAS, L. ; LLAPA, E. ; SANCHEZ, A. ; MAUS, V. W. ; CÂMARA, G.		
trabalhoCompletoEmCongresso	2016	http://dx.doi.org/10.1145/2993288.2993289	A Controlled Experiment for Combinatorial Testing	the 1st Brazilian Symposium	Balera, Juliana Marino ; de Santiago Júnior, Valdivino Alexandre		
trabalhoCompletoEmCongresso	2016		Análise comparativa das técnicas de geração fotônica de sinais arbitrários para aplicação em radar	XVIII SIGE (Simpósio de Aplicações Operacionais em Áreas de Defesa)	BARONI, R. F. ; Barroso, Joaquim J. ; OLIVEIRA, José Edimar Barbosa de ; COUTINHO, O. L.		
trabalhoCompletoEmCongresso	2016		Comparação das Características de Propagação de Linhas de Transmissão nas Configurações LC e CL	XVIII SIGE (Simpósio de Aplicações Operacionais em Áreas de Defesa)	BARROSO, JOAQUIM J.; GRECO, A. F. G. ; OLIVEIRA, J. E. B. ; COUTINHO, O. L.		
trabalhoCompletoEmCongresso	2016		Synchronization of phase oscillators with coupling mediated by a diffusing substance	doi://10.20906/CPS/NSC2016-0073	BATISTA, C. ; VIANA, R. L. ; BATISTA, A. ; MACAU, ELBERT E. N.		
trabalhoCompletoEmCongresso	2016	http://dx.doi.org/10.1109/ICARCV.2016.7838775	An image matching system for autonomous UAV navigation based on neural network	2016 14th International Conference on Control	BRAGA, JOSE R. G. ; VELHO, HAROLDO F. C. ; CONTE, GIANPAOLO ; DOHERTY, PATRICK ; SHIGUEMORI, ELCIO H.		
trabalhoCompletoEmCongresso	2016	http://dx.doi.org/10.1145/3006386.3006393	Big earth observation data analytics	the 5th ACM SIGSPATIAL International Workshop	Camara, Gilberto ; ASSIS, LUIZ FERNANDO ; RIBEIRO, GILBERTO ; FERREIRA, KARINE REIS ; LLAPA, EDUARDO ; VINHAS, LUBIA		
trabalhoCompletoEmCongresso	2016	http://dx.doi.org/10.1117/12.2223968	Identifying compromised systems through correlation of suspicious traffic from malware behavioral analysis	SPIE Defense + Security	CAMILO, ANA E. F. ; GREGIO, ANDRE ; Santos, Rafael D. C.		
trabalhoCompletoEmCongresso	2016		A GEOGRAPHICALLY-AWARE COMPLEX NETWORK APPROACH FOR FOOT-AND-MOUTH DISEASE PHYLODYNAMICS	6th International Conference on Nonlinear Science and Complexity	Carvalho, L. M. F. ; Santos, L.B.L. ; BURKE, P. E. P. ; QUILES, M. ; SILVEIRA, W. C.		
trabalhoCompletoEmCongresso	2016		Medida da permissividade e permeabilidade de materiais por uma técnica de reflexão/transmissão	MOMAG-2016 (12º CBMag - Congresso Brasileiro de Eletromagnetismo e 17º SBMO - Simpósio Brasileiro de Micro-ondas e Optoeletrônica	CASTRO, PEDRO J. ; BARROSO, JOAQUIM J. ; AMARAL JUNIOR, M. T. ; BALDAN, M. R.		
trabalhoCompletoEmCongresso	2016		Estudo experimental para determinação da permissividade e permeabilidade de materiais com suporte de um método de cálculo	60º Congresso Brasileiro de Cerâmica	CASTRO, PEDRO J. ; Barroso, Joaquim J. ; AMARAL JUNIOR, M. T. ; BALDAN, M. R.		
trabalhoCompletoEmCongresso	2016		Moisture Data Assimilation to the Global FSU Atmospheric Model	4th Conference of Computational Interdisciplinary Science (CCIS 2016)	Cintra, R.S.C. ; Campos Velho, H. F. ; S. Cocke		
trabalhoCompletoEmCongresso	2016		Tracking the model: Data assimilation by artificial neural network	International Joint Conference on Neural Networks (IJCNN)	Cintra, R.S.C. ; Campos Velho, H. F. ; S. Cocke		
trabalhoCompletoEmCongresso	2016		Multilayer Perceptron on data assimilation applied to FSU global model	3rd International Symposium on Uncertainty Quantification and Stochastic Modeling	Cintra, R.S.C. ; Campos Velho, H. F. ; S. Cocke		
trabalhoCompletoEmCongresso	2016		Using dynamic geospatial ontologies to support information extraction from big Earth observation data sets	Ninth International Conference on Geographic Information Science (GIScience 2016)	CÂMARA, G.; MACIEL, A. M. ; MAUS, VICTOR ; VINHAS, L. ; SANCHEZ, A.		
trabalhoCompletoEmCongresso	2016		Aplicação da metaheurística BRKGA com heurística de busca local para o problema de agrupamento com restrições	XLVIII - Simpósio Brasileiro de Pesquisa Operacional	de Oliveira, Rudinei Martins ; CHAVES, ANTONIO A. ; LORENA, L. A. N.		
trabalhoCompletoEmCongresso	2016	http://dx.doi.org/10.5540/03.2016.004.01.0096	T-RR Filter: Ferramenta computacional gráfica no uso do filtro adaptativo para análise da variabilidade da frequência card aca	DINCON 2015 #45; Conferência Brasileira de Dinâmica	DOS SANTOS, LAURITA ; PILLAT, VALDIR ; DE GODOY, MOACIR ; BARBOSA, CLAUDIO DE LIMA ; BARROSO, JOAQUIM ; MACAU, ELBERT		
trabalhoCompletoEmCongresso	2016		Simulating the interaction of a comet with the solar wind using a magnetohydrodynamic model	XXX VI Congresso Nacional de Matemática Aplicada e Computacional (CNMAC)	EVANGELHISTA, E. F. D. ; DOMINGUES, MARGARETE OLIVEIRA ; MENDES, O. ; MIRANDA, O. D.		
trabalhoCompletoEmCongresso	2016		Ionosphere model experiment using ensemble techniques	4th Conference of Computational Interdisciplinary Science (CCIS 2016)	F. E. Puntel ; A. Petry ; Campos Velho, H. F. ; J. R. Souza		
trabalhoCompletoEmCongresso	2016	http://dx.doi.org/10.1145/2961111.2962630	Using Forward Snowballing to update Systematic Reviews in Software Engineering	the 10th ACM/IEEE International Symposium	FELIZARDO, KATIA ROMERO ; MENDES, EMILIA ; KALINOWSKI, MARCOS ; SOUZA, ÉRICA FERREIRA ; VIJAYKUMAR, NANDAMUDI L.		
trabalhoCompletoEmCongresso	2016	http://dx.doi.org/10.5540/03.2016.004.01.0047	Detecting phase synchronization in chaotic non-coherent Rössler systems using Discrete Complex Wavelet Approach (DCWA): preliminaries results	DINCON 2015 Conferência Brasileira de Dinâmica	FERREIRA, MARIA TEODORA ; DOMINGUES, MARGARETE ; Macau, Elbert		
trabalhoCompletoEmCongresso	2016		Investigação sobre sincronização com homogeneidade entre vizinhos por meio da Transformada Wavelet Complexa Dual-Tree: resultados preliminares	XXX VI Congresso Nacional de Matemática Aplicada e Computacional (CNMAC)	FERREIRA, MARIA TEODORA ; FREITAS, CELSO B. N. ; DOMINGUES, MARGARETE OLIVEIRA ; MACAU, ELBERT E. N.		
trabalhoCompletoEmCongresso	2016		Reactive model for convergence of active agents to moving formations	6th International Conference on Nonlinear Science and Complexity	FREITAS, V. ; MACAU, E E N		
trabalhoCompletoEmCongresso	2016	http://dx.doi.org/10.5540/03.2016.004.01.0089	Uso de redes complexas para caracterização dinâmica de sistemas não-lineares	DINCON 2015 - Conferência Brasileira de Dinâmica	FREITAS, VANDER DE SOUZA ; Macau, Elbert		
trabalhoCompletoEmCongresso	2016		Detecting Atlantic forest patches applying GEOBIA and Data Mining techniques	GEOBIA 2016 : Solutions and Synergies	Girolamo Neto ; PESSOA, A. ; Korting. T.S. ; Fonseca, Leila M.G.		
trabalhoCompletoEmCongresso	2016		Kelvin-Helmnholtz instability simulation in the context of adaptive multiresolution analysis	XXX VI Congresso Nacional de Matemática Aplicada e Computacional (CNMAC)	GOMES, ANNA KARINA FONTES ; DOMINGUES, MARGARETE OLIVEIRA ; MENDES, O.		
trabalhoCompletoEmCongresso	2016		Exploiting client logs to support the construction of adaptive e-commerce applications	IEEE International Conference on e-Business Engineering (ICEBE	GUARINO DE VASCONCELOS, LEANDRO ; BALDOCHI, LAERCIO A. ; SANTOS, R. D. C.		
trabalhoCompletoEmCongresso	2016		Severe precipitation evaluation in Belo Horizonte - Brazil: Data mining approach	4th Conference of Computational Interdisciplinary Science (CCIS 2016)	H. M. Ruivo ; Campos Velho, H. F. ; Freitas, S. R.		
trabalhoCompletoEmCongresso	2016	http://dx.doi.org/10.1117/12.2224237	Mining the SDSS Skyserver SQL queries log	SPIE Defense + Security	HIROTA, VITOR M. ; Santos, Rafael ; RADDICK, JORDAN ; THAKAR, ANI		
trabalhoCompletoEmCongresso	2016		Analysis of Rotorcraft Dynamics by Bred Vector	4th Conference of Computational Interdisciplinary Science (CCIS 2016)	I. Y. Sumida ; Campos Velho, H. F. ; T. R. Ritto		
trabalhoCompletoEmCongresso	2016		Climate precipitation prediction using optimal neural network architecture in Southeast Region of Brazil	4th Conference of Computational Interdisciplinary Science (CCIS 2016)	J. A. Anochi ; Campos Velho, H. F. ; R. Hernandez T.		
trabalhoCompletoEmCongresso	2016		Use of Artificial Neural Networks for Automatic Categorical Change Detection in Satellite Imagery	4th Conference of Computational Interdisciplinary Science (CCIS 2016)	J. R. G. Braga ; G. Conte ; P. Doherty ; Campos Velho, H. F. ; E. H. Shiguemori		
trabalhoCompletoEmCongresso	2016	http://dx.doi.org/10.1007/978-3-642-23687-7_15	How to effectively obtain metadata from remote sensing big data	GEOBIA 2016 : Solutions and Synergies	Korting. T.S. ; NAMIKAWA, LAERCIO ; Fonseca, Leila M.G. ; FELGUEIRAS, C. A.		
trabalhoCompletoEmCongresso	2016		Analysis of the Breeding Technique applied to the CPTEC-AGCM Model	4th Conference of Computational Interdisciplinary Science (CCIS 2016)	L. F. S. Romero ; Campos Velho, H. F. ; Sandri, S. A.		
trabalhoCompletoEmCongresso	2016		Dynamical Characterization Of Nonlinear Systems Through Complex Networks	6th International Conference on Nonlinear Science and Complexity	LACERDA, J. ; FREITAS, V. ; MACAU, E E N		
trabalhoCompletoEmCongresso	2016		Determinação experimental da permissividade e da permeabilidade para uma rede de anéis ressonantes num guia de onda na banda X	MOMAG-2016 (12º CBMag - Congresso Brasileiro de Eletromagnetismo e 17º SBMO - Simpósio Brasileiro de Micro-ondas e Optoeletrônica	LEITE NETO, JOAQUIM P. ; BARROSO, JOAQUIM J. ; CASTRO, PEDRO J. ; TOMAZ, ANTONIO		
trabalhoCompletoEmCongresso	2016		Análise tempoescala de séries temporais com lacunas de geofísica espacial: estudo de caso	XXX VI Congresso Nacional de Matemática Aplicada e Computacional (CNMAC)	MAGRINI, L. A. ; DOMINGUES, MARGARETE OLIVEIRA ; MENDES, O.		
trabalhoCompletoEmCongresso	2016		Modelos de Programação Não-Linear Aplicados em Problemas de Otimização da Capacidade de Enlaces em Redes Sem Fio em Malh	XLVIII Simpoósio Brasileiro de Pesquisa Operacional	Marlon da Silva ; Edson Luiz França Senne ; VIJAYKUMAR, N. L.		
trabalhoCompletoEmCongresso	2016		A comparative study of algorithms for generating switch cover test sets	XV Simpósio Brasileiro de Qualidade de Software	Matheus Monteiro Mariano ; Souza, E.F. ; André Takeshi Endo ; VIJAYKUMAR, NANDAMUDI LANKALAPALLI		
trabalhoCompletoEmCongresso	2016		Active Consensus-Based Semi-Supervised Growing Neural Gas	The 23rd International Conference on Neural Information Processing (ICONIP)	MAXIMO, V. ; NASCIMENTO, M. C. V. ; BREVE, F. A. ; QUILES, M. G.		
trabalhoCompletoEmCongresso	2016	http://dx.doi.org/10.1117/12.2224250	Challenges in mapping behaviours to activities using logs from a citizen science project	SPIE Defense + Security	MORAIS, ALESSANDRA M. M. ; GUARINO DE VASCONCELOS, LEANDRO ; Santos, Rafael D. C.		
trabalhoCompletoEmCongresso	2016		A Web Portal Framework for Remote Execution of High Performance Applications in Astronomy	4th Conference of Computational Interdisciplinary Science (CCIS 2016)	O. M. Madalosso ; CHARÃO, Andrea Schwertner ; Campos Velho, H. F. ; R. S. R. Ruiz		
trabalhoCompletoEmCongresso	2016		Multicore and Many-core Architectures in a Parallel O(N log N) Friends-of-Friends Algorithm for Astronomical Object Classification	4th Conference of Computational Interdisciplinary Science (CCIS 2016)	O. M. Madalosso ; CHARÃO, Andrea Schwertner ; Campos Velho, H. F. ; R. S. R. Ruiz ; J. V. F. Lima		
trabalhoCompletoEmCongresso	2016		Community detection using coupled Kuramoto oscillators with conditional repulsion	6th International Conference on Nonlinear Science and Complexity	OLIVEIRA, J. E. ; MAIA, M. D. ; MACAU, E E N ; QUILES, M. G.		
trabalhoCompletoEmCongresso	2016		Sentiment and Behavior Analysis of one Controversial American Individual on Twitter	The 23rd International Conference on Neural Information Processing (ICONIP)	OLIVEIRA, J. E. M. ; MOSHE, F. ; SERON, W. ; SANTOS, R. D. C. ; QUILES, M. G.		
trabalhoCompletoEmCongresso	2016		Rotation-Based Multi-Particle Collision Algorithm with Hooke Jeeves	Congresso Nacional de Matemática Aplicada e Computacional	R. Hernandez T. ; Campos Velho, H. F.		
trabalhoCompletoEmCongresso	2016		Vibration-based Damage Identification using the Multi-Particle Collision Algorithm with Hooke-Jeeves coupled with NASTRAN	4th Conference of Computational Interdisciplinary Science (CCIS 2016)	R. Hernandez T. ; Campos Velho, H. F. ; Chiwiacosky, L. D.		
trabalhoCompletoEmCongresso	2016		Rotation-based sampling Multi-Particle Collision Algorithm with Hooke-Jeeves for Vibration-based Damage Identification	5th International Conference on Engineering Optimization	R. Hernandez T. ; Campos Velho, H. F. ; Chiwiacosky, L. D.		
trabalhoCompletoEmCongresso	2016	http://dx.doi.org/10.5540/03.2016.004.01.0091	Uso de transformada wavelet discreta ortogonal e gráfico de recorrência para caracterização de sistemas dinâmicos não-lineares	DINCON 2015 #45; Conferência Brasileira de Dinâmica	REIS, BARBARA DA FONSECA ; Macau, Elbert ; QUILES, MARCOS GONÇALVES ; DOMINGUES, MARGARETE OLIVEIRA		
trabalhoCompletoEmCongresso	2016	http://dx.doi.org/10.1007/978-0-8176-4897-8_31	Aplicação em Banco de Dados Espaciais Para o Rastreio de Células Convectivas	XVII Brazilian Symposium on GeoInformatics (GEOINFO 2016)	RODRIGUES, Marcos Lima ; STEPHANY, S. ; VINHAS, Lúbia ; FERREIRA, Karine Reis ; QUEIROZ, Gilberto Ribeiro ; GARCIA, João Victor Cal ; ANGELIS, Carlos Frederico		
trabalhoCompletoEmCongresso	2016		Analysis of RF Generation Using NLTLs Driven by Pump Input Pulses of Different Shapes	2016 Euro-Asian Pulsed Power Conference 21st Conference on High-Power Particle Beams	ROSSI, J. O. ; Rangel, E G L ; BARROSO, J. J. ; YAMASAKI, F. S. ; SIVA NETO, L. P. ; SCHAMILOGLU, EDL		
trabalhoCompletoEmCongresso	2016		High-Voltage Soliton Generation with Nonlinear Lumped Varactor Diode Lines	XVIII SIGE (Simpósio de Aplicações Operacionais em Áreas de Defesa)	ROSSI, J. O. ; SILVA NETO, LAURO P. ; YAMASAKI, F. S. ; BARROSO, JOAQUIM JOSE ; Rangel, E G L ; SCHAMILOGLU, EDL		
trabalhoCompletoEmCongresso	2016		Self-configured neural network for data assimilation using FPGA for ocean circulation	4th Conference of Computational Interdisciplinary Science (CCIS 2016)	SAMBATTI, Sabrina Bérgoch Monteiro ; Campos Velho, H. F. ; Furtado, Helaine Cristina Morais ; CHARÃO, Andrea Schwertner		
trabalhoCompletoEmCongresso	2016		Alternative Paths to Reach Asteroids	6th International Conference on Nonlinear Science and Complexity	SANTANA, S. H. S. ; Melo, C. F. ; MACAU, E.E.N. ; Winter, O. C.		
trabalhoCompletoEmCongresso	2016		Spatiotemporal Data Representation in R	XVII Brazilian Symposium on Geoinformatics (GeoInfo 2016)	SANTOS, L. A. ; FERREIRA, Karine Reis ; QUEIROZ, Gilberto Ribeiro de ; VINHAS, L.		
trabalhoCompletoEmCongresso	2016		PANORAMA CONCEITUAL DE RISCOS NO SETOR DE TRANSPORTES BRASILEIRO FRENTE A DESASTRES NATURAIS - ANÁLISE DE DOCUMENTOS OFICIAIS	III Congresso da Sociedade de Análise de Risco Latino Americana	Santos, L.B.L.; LONDE, L. R. ; SANTOS, S. R. S. ; JUREMA, M. C. B. ; CROOPE, S. V.		
trabalhoCompletoEmCongresso	2016	http://dx.doi.org/10.7436/2014.tica.01	COMPLEX NETWORK INTO GEOGRAPHICAL INFORMATION SYSTEMS	6th International Conference on Nonlinear Science and Complexity	SILVA, B. M. M. ; VALERIO, L. ; JUREMA, M. C. B. ; Santos, L.B.L.		
trabalhoCompletoEmCongresso	2016		PostGIS-T: towards a spatiotemporal PostgreSQL database extension	XVII Brazilian Symposium on Geoinformatics (GeoInfo 2016)	SIMOES, R. E. O. ; QUEIROZ, Gilberto Ribeiro de ; FERREIRA, Karine Reis ; Vinhas, Lubia ; CÂMARA, Gilberto		
trabalhoCompletoEmCongresso	2016		RF Formation Using Transmission Lines Built with Ceramic PZT Capacitors of Weak Nonlinearity and a Fast Ns Rise Time Pulse Generator	2016 Euro-Asian Pulsed Power Conference 21st Conference on High-Power Particle Beams	SIVA NETO, L. P. ; ROSSI, J. O. ; BARROSO, J. J. ; SCHAMILOGLU, EDL		
trabalhoCompletoEmCongresso	2016		RF Soliton Generation in NLTLs Using Negative Input Pulse of Fast Rise Times Provided by the Discharge of a Storage Capacitor	2016 Euro-Asian Pulsed Power Conference 21st Conference on High-Power Particle Beams	SIVA NETO, L. P. ; ROSSI, J. O. ; BARROSO, J. J. ; SCHAMILOGLU, EDL		
trabalhoCompletoEmCongresso	2016		First experiments using the Image Foresting Transform (IFT) algorithm for segmentation of remote sensing imagery	GEOBIA 2016 : Solutions and Synergies	Soares, A.R. ; Korting. T.S. ; Fonseca, Leila M.G.		
trabalhoCompletoEmCongresso	2016		Rompimento de barragens em Mariana (MG): o processo de comunicação de risco de acordo com dados da mídia	III Congresso da Sociedade de Análise de Risco Latino Americana	SORIANO, E. ; HOFFMANN, W. A. M. ; LONDE, L. R. ; Santos, L.B.L. ; SOMOZA, R. L. C. D.		
trabalhoCompletoEmCongresso	2016		Performance optimization of the LTSn Method	4th Conference of Computational Interdisciplinary Science (CCIS 2016)	Souto, R.P. ; Campos Velho, H. F. ; Stephnay, S.		
trabalhoCompletoEmCongresso	2016		Propriedades de radiação de uma antena corneta na banda X interposta a uma estrutura periódica de fios metálicos paralelos	MOMAG-2016 (12º CBMag - Congresso Brasileiro de Eletromagnetismo e 17º SBMO - Simpósio Brasileiro de Micro-ondas e Optoeletrônica	TOMAZ, A. ; BARROSO, JOAQUIM J.		
trabalhoCompletoEmCongresso	2016	http://dx.doi.org/10.1007/978-3-319-06323-2_19	WOWA image filters	IV Congresso Brasileiro de Sistemas Fuzzy (CBSF16)	TORRES, L. ; BECCENERI, J. C. ; FREITAS, C. ; SANTANNA, S. ; SANDRI, S		
trabalhoCompletoEmCongresso	2016		Web Services for Big Earth Observation Data	XVII Brazilian Symposium on Geoinformatics (GeoInfo 2016)	VINHAS, L.; QUEIROZ, G. R. ; FERREIRA, Karine Reis ; CÂMARA, Gilberto		
trabalhoCompletoEmCongresso	2016		Analysis of a Gyromagnetic Nonlinear Transmission Line Based on Experimental Results	2016 Euro-Asian Pulsed Power Conference 21 st Conference on High-Power Particle Beams	YAMASAKI, F. S. ; ROSSI, J. O. ; BARROSO, J. J. ; SCHAMILOGLU, EDL		
trabalhoCompletoEmCongresso	2016		Simulação de linhas não lineares giromagnéticas	MOMAG-2016 (12º CBMag - Congresso Brasileiro de Eletromagnetismo e 17º SBMO - Simpósio Brasileiro de Micro-ondas e Optoeletrônica	YAMASAKI, F. S. ; ROSSI, J. O. ; BARROSO, JOAQUIM J. ; SCHAMILOGLU, E.		
resumoExpandidoEmCongresso	2016	Using dynamic geospatial ontologies to support information extraction from big Earth observation data set	INTERNATIONAL CONFERENCE ON GEOGRAPHIC INFORMATION SCIENCE - GISCIENCE, 2016, Montreal, Canada. Proceedings	CÂMARA, Gilberto ; MACIEL, A. M. ; MAUS, V. W. ; VINHAS, L. ; SANCHEZ, A.		
resumoExpandidoEmCongresso	2016	Real-Time meteorological data for improved epidemiological models: an approach for dengue fever in Brazilian municipalities	Conference on Mathematical Modeling and Control of Communicable Diseases, 2016, Rio de Janeiro. Conference on Mathematical Modeling and Control of Communicable Diseases	DE LIMA, GLAUSTON R. T. ; Santos, L. B. L. ; Medeiros, L. C. C. ; LONDE, LUCIANA R. ; CARVALHO, TIAGO ; HISI, A.		
resumoExpandidoEmCongresso	2016	Aplicação em banco de dados espaciais para o rastreio de células convectivas	Simpósio Brasileiro de Geoinformática, 2016, Campos do Jordão, SP. Anais do 17o Simpósio Brasileiro de Geoinformática. São José dos Campos, SP: MCTIC/INPE	RODRIGUES, M. L. ; STEPHANY, S. ; VINHAS, L. ; FERREIRA, Karine Reis ; QUEIROZ, Gilberto Ribeiro de ; GARCIA, J. V. C. ; ANGELIS, C. F.		
