strict digraph grafo3 {
	graph [bb="0,0,972.5,465",
		id=grafo3,
		overlap=False
	];
	node [fontsize=8,
		label="\N",
		shape=rectangle,
		style=filled
	];
	0	 [URL="http://lattes.cnpq.br/1149445153608393",
		color="#17272B",
		fontcolor="#FFFFFF",
		height=0.23611,
		label="Marcirio Silveira Chaves [0]",
		pos="54,456.5",
		width=1.5];
	1	 [URL="http://lattes.cnpq.br/4754764003480925",
		color="#17272B",
		fontcolor="#FFFFFF",
		height=0.23611,
		label="Luc Quoniam [2]",
		pos="162,456.5",
		width=1];
	9	 [URL="http://lattes.cnpq.br/3138898469532698",
		color="#17272B",
		fontcolor="#FFFFFF",
		height=0.23611,
		label="Wonder Alexandre Luz Alves [8]",
		pos="162,392.5",
		width=1.7222];
	1 -> 9	 [arrowhead=normal,
		arrowsize=0.75,
		fontsize=8,
		label=1.0,
		lp="151.5,424.5",
		penwidth=3.5,
		pos="e,155.04,401.26 155.72,447.85 152.1,442.93 147.91,436.23 146,429.5 143.89,422.06 146.77,414.16 150.64,407.67"];
	9 -> 1	 [arrowhead=normal,
		arrowsize=0.75,
		fontsize=8,
		label=0.25,
		lp="169.5,424.5",
		penwidth=1.25,
		pos="e,162,447.9 162,401.16 162,410.86 162,427.8 162,440.19"];
	10	 [URL="http://lattes.cnpq.br/2542529753132844",
		color="#17272B",
		fontcolor="#FFFFFF",
		height=0.23611,
		label="Sidnei Alves de Araújo [7]",
		pos="162,264.5",
		width=1.4306];
	9 -> 10	 [arrowhead=normal,
		arrowsize=0.75,
		fontsize=8,
		label=0.5,
		lp="93.5,328.5",
		penwidth=2.0,
		pos="e,142.44,273.16 143.45,383.98 125.55,375.61 99.529,360.19 88,337.5 74.638,311.21 109.02,288.97 135.29,276.44"];
	12	 [URL="http://lattes.cnpq.br/9938713955885093",
		color="#17272B",
		fontcolor="#FFFFFF",
		height=0.23611,
		label="Pedro H. Triguis Schimit [4]",
		pos="162,328.5",
		width=1.5];
	9 -> 12	 [arrowhead=normal,
		arrowsize=0.75,
		fontsize=8,
		label=0.25,
		lp="151.5,360.5",
		penwidth=1.25,
		pos="e,154.18,337.2 154.94,383.98 150.88,379.11 146.16,372.42 144,365.5 141.59,357.8 145.02,349.72 149.51,343.17"];
	10 -> 9	 [arrowhead=normal,
		arrowsize=0.75,
		fontsize=8,
		label=0.57,
		lp="234.5,328.5",
		penwidth=2.21,
		pos="e,176.74,383.91 177.92,273.19 200.46,285.23 237.63,310.04 225,337.5 216.44,356.11 197.95,370.71 183.2,380.01"];
	10 -> 12	 [arrowhead=normal,
		arrowsize=0.75,
		fontsize=8,
		label=0.29,
		lp="169.5,296.5",
		penwidth=1.37,
		pos="e,162,319.9 162,273.16 162,282.86 162,299.8 162,312.19"];
	8	 [URL="http://lattes.cnpq.br/3678668865183045",
		color="#17272B",
		fontcolor="#FFFFFF",
		height=0.23611,
		label="Alessandro Melo de Ana [2]",
		pos="162,200.5",
		width=1.5];
	10 -> 8	 [arrowhead=normal,
		arrowsize=0.75,
		fontsize=8,
		label=0.14,
		lp="150.5,232.5",
		penwidth=0.92,
		pos="e,154.17,209.4 153.75,255.84 147.18,248.77 139.62,237.85 143,227.5 144.39,223.25 146.76,219.11 149.37,215.44"];
	12 -> 9	 [arrowhead=normal,
		arrowsize=0.75,
		fontsize=8,
		label=0.5,
		lp="167.5,360.5",
		penwidth=2.0,
		pos="e,162,383.9 162,337.16 162,346.86 162,363.8 162,376.19"];
	12 -> 10	 [arrowhead=normal,
		arrowsize=0.75,
		fontsize=8,
		label=0.5,
		lp="152.5,296.5",
		penwidth=2.0,
		pos="e,155.67,273.02 156.1,319.79 152.71,314.85 148.78,308.14 147,301.5 144.99,294.01 147.79,286.01 151.49,279.46"];
	8 -> 10	 [arrowhead=normal,
		arrowsize=0.75,
		fontsize=8,
		label=0.5,
		lp="167.5,232.5",
		penwidth=2.0,
		pos="e,162,255.9 162,209.16 162,218.86 162,235.8 162,248.19"];
	6	 [URL="http://lattes.cnpq.br/2147386441758156",
		color="#17272B",
		fontcolor="#FFFFFF",
		height=0.23611,
		label="Cleber Gustavo Dias [5]",
		pos="162,136.5",
		width=1.3056];
	8 -> 6	 [arrowhead=normal,
		arrowsize=0.75,
		fontsize=8,
		label=0.5,
		lp="152.5,168.5",
		penwidth=2.0,
		pos="e,155.67,145.02 156.1,191.79 152.71,186.85 148.78,180.14 147,173.5 144.99,166.01 147.79,158.01 151.49,151.46"];
	2	 [URL="http://lattes.cnpq.br/0646085361798175",
		color="#17272B",
		fontcolor="#FFFFFF",
		height=0.23611,
		label="Ivanir Costa [2]",
		pos="107,72.5",
		width=0.93056];
	2 -> 6	 [arrowhead=normal,
		arrowsize=0.75,
		fontsize=8,
		label=0.5,
		lp="142.5,104.5",
		penwidth=2.0,
		pos="e,155.26,127.9 113.8,81.165 122.9,91.424 139.18,109.78 150.28,122.29"];
	7	 [URL="http://lattes.cnpq.br/3569470521730110",
		color="#17272B",
		fontcolor="#FFFFFF",
		height=0.23611,
		label="Andre F. Henriques Librantz [4]",
		pos="161,8.5",
		width=1.6667];
	2 -> 7	 [arrowhead=normal,
		arrowsize=0.75,
		fontsize=8,
		label=0.5,
		lp="118.5,40.5",
		penwidth=2.0,
		pos="e,137.38,17.168 106.42,63.883 106.22,56.052 107.04,43.856 113,35.5 117.46,29.251 123.9,24.354 130.63,20.578"];
	6 -> 8	 [arrowhead=normal,
		arrowsize=0.75,
		fontsize=8,
		label=0.2,
		lp="167.5,168.5",
		penwidth=1.1,
		pos="e,162,191.9 162,145.16 162,154.86 162,171.8 162,184.19"];
	6 -> 2	 [arrowhead=normal,
		arrowsize=0.75,
		fontsize=8,
		label=0.2,
		lp="121.5,104.5",
		penwidth=1.1,
		pos="e,107.19,81.138 140.62,127.84 131.81,123.67 122.22,117.68 116,109.5 111.46,103.53 109.18,95.545 108.06,88.611"];
	6 -> 7	 [arrowhead=normal,
		arrowsize=0.75,
		fontsize=8,
		label=0.6,
		lp="166.5,72.5",
		penwidth=2.3,
		pos="e,161.06,17.125 161.94,128 161.78,107.82 161.34,52.112 161.12,24.883"];
	7 -> 2	 [arrowhead=normal,
		arrowsize=0.75,
		fontsize=8,
		label=0.25,
		lp="144.5,40.5",
		penwidth=1.25,
		pos="e,113.62,63.898 154.32,17.165 145.47,27.33 129.7,45.442 118.81,57.944"];
	7 -> 6	 [arrowhead=normal,
		arrowsize=0.75,
		fontsize=8,
		label=0.75,
		lp="188.5,72.5",
		penwidth=2.75,
		pos="e,167.04,127.65 166.43,17.294 169.56,22.26 173.23,28.969 175,35.5 183.61,67.242 183.13,77.631 175,109.5 174.02,113.33 172.43,117.26 \
170.68,120.85"];
	3	 [URL="http://lattes.cnpq.br/6722335489800535",
		color="#17272B",
		fontcolor="#FFFFFF",
		height=0.23611,
		label="Henrique M. Rodrigues de Freitas [0]",
		pos="285,456.5",
		width=1.9028];
	4	 [URL="http://lattes.cnpq.br/3024335982373707",
		color="#17272B",
		fontcolor="#FFFFFF",
		height=0.23611,
		label="Fábio Henrique Gil Pereira [0]",
		pos="429,456.5",
		width=1.5972];
	5	 [URL="http://lattes.cnpq.br/3981753537745216",
		color="#17272B",
		fontcolor="#FFFFFF",
		height=0.23611,
		label="Dirceu da Silva Daieira [0]",
		pos="556,456.5",
		width=1.4306];
	11	 [URL="http://lattes.cnpq.br/8750334661789610",
		color="#17272B",
		fontcolor="#FFFFFF",
		height=0.23611,
		label="Renato José Sassi [0]",
		pos="668,456.5",
		width=1.1806];
	13	 [URL="http://lattes.cnpq.br/8169041532397235",
		color="#17272B",
		fontcolor="#FFFFFF",
		height=0.23611,
		label="Marcos V. Pimentel Cardoso [0]",
		pos="789,456.5",
		width=1.6806];
	14	 [URL="http://lattes.cnpq.br/4932899223077405",
		color="#17272B",
		fontcolor="#FFFFFF",
		height=0.23611,
		label="Marcos Antonio Gaspar [0]",
		pos="920,456.5",
		width=1.4583];
}
