artigoEmPeriodico	Virginia Parente	2015	http://dx.doi.org/10.1016/j.rser.2015.04.109	Diversifying the Brazilian electricity mix: Income level, the endowment effect, and governance capacity	Renewable & Sustainable Energy Reviews	KILEBER, SOLANGE ; Parente, Virginia	A1	
artigoEmPeriodico	Virginia Parente	2015		Troca operacional de gás natural nos gasodutos: um paralelo com a transmissão de energia elétrica no Brasil	Revista Petroquímica, Petróleo, Gas & Química	CASSARO, P. M. ; COSTA, H. K. M. ; SANTOS, M. M. ; SANTOS, E. M. ; PARENTE, V.	B3	
artigoEmPeriodico	Suani Teixeira Coelho	2015	http://dx.doi.org/10.1016/j.jclepro.2015.04.036	Life-cycle assessment of soybean-based biodiesel in Europe: comparing grain, oil and biodiesel import from Brazil	Journal of Cleaner Production	CASTANHEIRA, ÉRICA GERALDES ; GRISOLI, RENATA ; COELHO, SUANI ; ANDERI DA SILVA, GIL ; FREIRE, FAUSTO	A1	
artigoEmPeriodico	Suani Teixeira Coelho	2015	http://dx.doi.org/10.1016/j.renene.2015.06.006	Is natural gas a backup fuel against shortages of biogas or a threat to the Swedish vision of pursuing a vehicle fleet independent of fossil fuels?	Renewable Energy	SANCHES-PEREIRA, ALESSANDRO ; LÖNNQVIST, TOMAS ; GÓMEZ, MARIA FERNANDA ; COELHO, SUANI TEIXEIRA ; TUDESCHINI, LUÍS GUSTAVO	A1	
trabalhoCompletoEmCongresso	Suani Teixeira Coelho	2015		Biomass Residues as Electricity Generation Source in Low HDI Regions of Brazil	XI Latin-American Congress On Electricity Generation And Transmission - CLAGTEE 2015	COELHO, SUANI TEIXEIRA; SANCHES-PEREIRA, ALESSANDRO ; TUDESCHINI, LUÍS GUSTAVO ; ESCOBAR, J. F. ; POVEDA, M. M. ; COLUNA, N. ; ROVERE, E. L. L. ; TRINDADE, A. B. ; PEREIRA, O. L. S.		
trabalhoCompletoEmCongresso	Suani Teixeira Coelho	2015		Evolução da capacidade instalada proveniente de recursos eólicos: previsto x realizado	X Congresso sobre Geraçao Distribuida e Energia no Meio Rural - X Agrener	Cassaro, P M ; perecin, Danilo ; PARENTE, V. ; COELHO, SUANI		
trabalhoCompletoEmCongresso	Suani Teixeira Coelho	2015		Impactos ambientais do processamento da vinhaça	X Congresso de Geraçao Distribuida e Energia no Meio Rural	POVEDA, M. M. ; COELHO, SUANI		
trabalhoCompletoEmCongresso	Suani Teixeira Coelho	2015		Produção e uso de biodiesel no Brasil: analise de barreiras e politicas	X Congresso de Geração Distribuida e Energia no Meio Rural	GARCILASSO, V. P. ; DE OLIVEIRA, FERNANDO C. ; COELHO, SUANI		
artigoEmPeriodico	Sonia Seger Pereira Mercedes	2015	http://dx.doi.org/10.1016/j.rser.2014.08.053	A comparative assessment of Brazilian electric motors performance with minimum efficiency standards	Renewable & Sustainable Energy Reviews	Sauer, Ildo L. ; TATIZAWA, HÉDIO ; SALOTTI, FRANCISCO A.M. ; MERCEDES, SONIA S.	A1	
artigoEmPeriodico	Sonia Seger Pereira Mercedes	2015		Uma revisão histórica do planejamento do setor elétrico brasileiro	Revista USP	MERCEDES, SONIA SEGER; Rico, Julieta A. Puerto ; POZZO, L. Y.	A2	
artigoEmPeriodico	Hédio Tatizawa	2015	http://dx.doi.org/10.1016/j.rser.2014.08.053	A comparative assessment of Brazilian electric motors performance with minimum efficiency standards	Renewable & Sustainable Energy Reviews	Sauer, Ildo L. ; TATIZAWA, HÉDIO ; SALOTTI, FRANCISCO A.M. ; MERCEDES, SONIA S.	A1	
trabalhoCompletoEmCongresso	Hédio Tatizawa	2015		Estudo de caso da detecção de descargas parciais em campo, em um reator de 66,7 MVA ? 460kV utilizando-se antena	XVI Encuentro Regional Iberoamericano de Cigré	TATIZAWA, H.; BACEGA, Wilson R ; BACEGA, F. ; BOTTARO, M. ; CASTRO, A.F.		
artigoEmPeriodico	Fernando Selles Ribeiro	2015		Atendimento de comunidades isoladas com geradores fotovoltaicos	Eletricidade Moderna	RIBEIRO, T. B. S. ; RIBEIRO, F. S. ; RIBEIRO, R. M. S.	B4	
trabalhoCompletoEmCongresso	Fernando Selles Ribeiro	2015		ELETRIFICAÇÃO RURAL E ACESSO À ENERGIA ELÉTRICA: UMA QUESTÃO AMBIENTAL, DE POLÍTICA ECONÔMICA E DE DIREITOS HUMANOS	5º ELAEE - Encontro Latino Americano de Economia de Energia	CAMARGO, E. J. S. ; RIBEIRO, F. S.		
trabalhoCompletoEmCongresso	Fernando Selles Ribeiro	2015		PROGRAMA LUZ PARA TODOS: AVANÇOS E RETROCESSOS ? UM NOVO ESTOQUE DE EXCLUÍDOS	X AGRENER GD 2015 Congresso sobre Geração Distribuída e Energia no Meio Rural	CAMARGO, E. J. S. ; RIBEIRO, F. S.		
artigoEmPeriodico	Edmilson Moutinho dos Santos	2015		Roncador production highlights Libra opportunity offshore Brazil	Oil & Gas Journal	SILVA, R. I. ; COSTA, H. K. M. ; SANTOS, M. M. ; MOUTINHO DOS SANTOS, E.	B1	
artigoEmPeriodico	Edmilson Moutinho dos Santos	2015		Engenharia de Projetos e e aumento da participacao do Contrudo Local	Revista Petroquímica, Petróleo, Gas & Química	LUCAS, L. J. R. ; COSTA, H. K. M. ; MOUTINHO DOS SANTOS, E.	B3	
artigoEmPeriodico	Edmilson Moutinho dos Santos	2015		Troca operacional de gás natural nos gasodutos: um paralelo com a transmissão de energia elétrica no Brasil	Revista Petroquímica, Petróleo, Gas & Química	CASSARO, P. M. ; COSTA, H. K. M. ; SANTOS, M. M. ; MOUTINHO DOS SANTOS, E. ; PARENTE, V.	B3	
artigoEmPeriodico	Edmilson Moutinho dos Santos	2015	http://dx.doi.org/10.5419/bjpg2015-0005	TECHNICAL PROCEDURES FOR USING SYNTHETIC NATURAL GAS AS AN ALTERNATIVE TO NATURAL GAS IN DIFFERENT SUPPLY CONDITIONS FOR INDUSTRIAL CUSTOMERS	Brazilian Journal of Petroleum and Gas	COSTA, F. C. ; MOUTINHO DOS SANTOS, E. ; FAGÁ, M. T. W. ; COSTA, H. K. M.	Qualis nao identificado	Brazilian Journal of Petroleum and Gas
trabalhoCompletoEmCongresso	Edmilson Moutinho dos Santos	2015		A Qualitative Comparative Analysis (QCA) in bus fuel shifting: Cities that adopted Compressed Natural Gas (CNG)	5th Latin American Energy Economics Meeting	BRITO, T. L. F. ; MOUTINHO DOS SANTOS, E. ; GALBIERI, R. ; COSTA, H. K. M.		
trabalhoCompletoEmCongresso	Edmilson Moutinho dos Santos	2015		Shale prospects in Argentina: potential and barriers to the development of unconventional	5th Latin American Energy Economics Meeting	BERKENWALD, M. ; COSTA, H. K. M. ; MOUTINHO DOS SANTOS, E.		
trabalhoCompletoEmCongresso	Edmilson Moutinho dos Santos	2015		Shale gas: Exploration perspectives in Brazil	5th Latin American Energy Economics Meeting	SANTOS, V. E. S. ; ROCHA, H. V. ; MOUTINHO DOS SANTOS, E.		
trabalhoCompletoEmCongresso	Edmilson Moutinho dos Santos	2015		Technological challenges and regulation for unconventional gas exploration in Brazil	5th Latin American Energy Economics Meeting	SANTOS, V. E. S. ; COSTA, H. K. M. ; MOUTINHO DOS SANTOS, E.		
trabalhoCompletoEmCongresso	Edmilson Moutinho dos Santos	2015		Estimativas de emissões veiculares oriundas de um corredor azul no estado de São Paulo	10 Congresso de Geração Distribuída e Energia no Meio Rural - AGRENER	BRITO, T. L. F. ; GALBIERI, Rodrigo ; COSTA, H. K. M. ; MOUETTE, D. ; MOUTINHO DOS SANTOS, E.		
trabalhoCompletoEmCongresso	Edmilson Moutinho dos Santos	2015		Inovações em energia e eficiência no meio rural	10º Congresso sobre Geração Distribuída e Energia no Meio Rural - AGRENER	CROSO, T. ; COSTA, H. K. M. ; MOUTINHO DOS SANTOS, E. ; BURANI, G. F.		
trabalhoCompletoEmCongresso	Edmilson Moutinho dos Santos	2015		Alternativas Energética para secagem de grãos	10º Congresso sobre Geração Distribuída e Energia no Meio Rural - X AGRENER GD	MIURA, F. ; SANTOS, M. M. ; COSTA, H. K. M. ; MOUTINHO DOS SANTOS, E.		
trabalhoCompletoEmCongresso	Edmilson Moutinho dos Santos	2015		Biogás produzido a partir de vinhaça: estudo técnico e normativo	10º Congresso sobre Geração Distribuída e Energia no Meio Rural - X AGRENER GD	SANTOS, M. M. ; COSTA, H. K. M. ; MOUTINHO DOS SANTOS, E. ; MIURA, F.		
trabalhoCompletoEmCongresso	Edmilson Moutinho dos Santos	2015		O impulso à oferta de gás natural através da expansão da malha ferroviária em território brasileiro	XVI Congresso Brasileiro de Energia - CBE	LIAW, C. ; MOUTINHO DOS SANTOS, E. ; COSTA, H. K. M. ; SANTOS, M. M.		
trabalhoCompletoEmCongresso	Edmilson Moutinho dos Santos	2015		Simulação de um corredor azul entre as cidades de Campinas e São Paulo: Estimativas de emissões veiculares	XVI CBE - Congresso Brasileiro de Energia	BRITO, T. L. F. ; GALBIERI, R. ; COSTA, H. K. M. ; MOUTINHO DOS SANTOS, E. ; MOUETTE, D.		
trabalhoCompletoEmCongresso	Edmilson Moutinho dos Santos	2015		Gás LP e o desenvolvimento rural	10º Congresso sobre Geração Distribuída e Energia no Meio Rural - X AGRENER GD	CROSO, T. ; COSTA, H. K. M. ; MOUTINHO DOS SANTOS, E. ; BURANI, G. F.		
artigoEmPeriodico	Colombo Celso Gaeta Tassinari	2015	http://dx.doi.org/10.1016/j.precamres.2014.12.018	Diachronic collision, slab break-off and long-term high thermal flux in the Brasiliano-Pan-African orogeny: Implications for the geodynamic evolution of the Mantiqueira Province	Precambrian Research	Bento dos Santos, Telmo M. ; Tassinari, Colombo C.G. ; Fonseca, Paulo E.	A1	
artigoEmPeriodico	Colombo Celso Gaeta Tassinari	2015	http://dx.doi.org/10.2113/econgeo.110.3.809	Neoarchean and Paleoproterozoic Iron Oxide-Copper-Gold Events at the Sossego Deposit, Carajas Province, Brazil: Re-Os and U-Pb Geochronological Evidence	Economic Geology and the Bulletin of the Society of Economic Geologists	MORETO, C. P. N. ; MONTEIRO, L. V. S. ; XAVIER, R. P. ; CREASER, R. A. ; DUFRANE, S. A. ; TASSINARI, C. C. G. ; SATO, K. ; KEMP, A. I. S. ; AMARAL, W. S.	A2	
artigoEmPeriodico	Colombo Celso Gaeta Tassinari	2015	http://dx.doi.org/10.1016/j.jsames.2015.04.005	Geology, structure and age of the Nahuel Niyeu Formation in the Aguada Cecilio area, North Patagonian Massif, Argentina	Journal of South American Earth Sciences	GRECO, GERSON A. ; GONZÁLEZ, PABLO D. ; GONZÁLEZ, SANTIAGO N. ; SATO, ANA M. ; BASEI, MIGUEL A.S. ; Tassinari, Colombo C.G. ; SATO, KEI ; VARELA, RICARDO ; LLAMBÍAS, EDUARDO J.	A1	
artigoEmPeriodico	Colombo Celso Gaeta Tassinari	2015	http://dx.doi.org/10.1016/j.precamres.2015.05.026	Geochemistry and age of mafic rocks from the Votuverava Group, southern Ribeira Belt, Brazil: evidence for 1490 Ma oceanic back-arc magmatism	Precambrian Research	CAMPANHA, G.A.C. ; FALEIROS, F.M. ; BASEI, M.A.S. ; TASSINARI, C.C.G. ; NUTMAN, A.P. ; VASCONCELOS, P.M.	A1	
artigoEmPeriodico	Colombo Celso Gaeta Tassinari	2015	http://dx.doi.org/10.1016/j.jsames.2015.07.015	Provenance and sedimentary environments of the Proterozoic São Roque Group, SE-Brazil: Contributions from petrography, geochemistry and Sm-Nd isotopic systematics of metasedimentary rocks	Journal of South American Earth Sciences	HENRIQUE-PINTO, R. ; JANASI, V.A. ; TASSINARI, C.C.G. ; CARVALHO, B.B. ; CIOFFI, C.R. ; STRÍKIS, N.M.	A1	
artigoEmPeriodico	Colombo Celso Gaeta Tassinari	2015	http://dx.doi.org/10.1515/geo-2015-0015	U-Pb zircon SHRIMP data from the Cana Brava layered complex: new constraints for the mafic-ultramafic intrusions of Northern Goiás, Brazil	Open Geosciences	GIOVANARDI, T. ; GIRARDI, V. A. V. ; CORREIA, C. T. ; SINIGOI, S. ; TASSINARI, C. C. G. ; MAZZUCCHELLI, M.	Qualis nao identificado	Open Geosciences
artigoEmPeriodico	Colombo Celso Gaeta Tassinari	2015	http://dx.doi.org/10.18285/geonomos.v23i2.707	ANÁLISE ESTRATIGRÁFICA DE BACIAS RIFTE PALEO-MESOPROTEROZOICAS DOS CRÁTONS AMAZÔNICO E SÃO FRANCISCO, BRASIL	Geonomos	UHLEIN, ALEXANDRE ; PAIM, PAULO SERGIO GOMES ; Tassinari, Colombo Celso Gaeta ; PEDREIRA (IN MEMORIAN), AUGUSTO JOSÉ	B2	
artigoEmPeriodico	Colombo Celso Gaeta Tassinari	2015	http://dx.doi.org/10.1016/j.oregeorev.2014.12.013	Geochronology and thermochronology of gold mineralization in the Turmalina deposit, NE of the Quadrilátero Ferrífero Region, Brazil	ORE GEOLOGY REVIEWS	Tassinari, Colombo C.G.; MATEUS, ANTONIO M. ; VELÁSQUEZ, MARTA E. ; MUNHÁ, JOSÉ M.U. ; LOBATO, LYDIA M. ; BELLO, ROSA M. ; CHIQUINI, ANA PAULA ; CAMPOS, WILLIAM F.	A2	
resumoExpandidoEmCongresso	Colombo Celso Gaeta Tassinari	2015	Conciliating U-Pb SHRIMP zircon dating with zircon saturation and Ti-in-zircon thermometry in the Maiorga and Endreiros granites (Ossa-Morena Zone, Portugal)	X Congresso Ibérico de Geoquímica,, 2015, Lisboa Portugal. Volume de Resumos Expandidos	A. Mateus ; MATA, J. ; Tassinari, Colombo C.G. ; RODRIGUES, P. ; Ribeiro, A.A. ; ROMAO, J. ; MOREIRA, N.		
artigoEmPeriodico	Alexandre Piantini	2015	http://dx.doi.org/10.1016/j.epsr.2014.07.027	The influence of seasonal soil moisture on the behavior of soil resistivity and power distribution grounding systems	Electric Power Systems Research (Print)	COELHO, VILSON LUIZ ; Piantini, Alexandre ; ALMAGUER, HUGO A.D. ; COELHO, RAFAEL A. ; BOAVENTURA, WALLACE DO C. ; PAULINO, JOSÉ OSVALDO S.	A2	
artigoEmPeriodico	Alexandre Piantini	2015	http://dx.doi.org/10.1016/j.epsr.2014.08.018	Special Issue -The Lightning Flash and Lightning Protection- (XII SIPDA 2013)	Electric Power Systems Research (Print)	HEIDLER, FRIDOLIN ; Piantini, Alexandre ; RUBINSTEIN, MARCOS	A2	
artigoEmPeriodico	Alexandre Piantini	2015	http://dx.doi.org/10.1109/TEMC.2014.2382115	FDTD Computation of Lightning-Induced Voltages on Multiconductor Lines With Surge Arresters and Pole Transformers	IEEE Transactions on Electromagnetic Compatibility	THANG, TRAN HUU ; BABA, YOSHIHIRO ; RAKOV, VLADIMIR A. ; Piantini, Alexandre	B1	IEEE Transactions on Electromagnetic Compatibility (Print)
artigoEmPeriodico	Alexandre Piantini	2015	http://dx.doi.org/10.1109/TEMC.2015.2457951	Lightning-Induced Voltages in the Presence of Nearby Buildings: FDTD Simulation Versus Small-Scale Experiment	IEEE Transactions on Electromagnetic Compatibility (Print)	THANG, TRAN HUU ; BABA, YOSHIHIRO ; Piantini, Alexandre ; RAKOV, VLADIMIR A.	B1	
trabalhoCompletoEmCongresso	Alexandre Piantini	2015		FDTD Simulations of Lightning-Induced Voltages on Complex Multi-Conductor Lines	Asia-Pacific International Conference on Lightning (APL 2015)	THANG, TRAN HUU ; BABA, YOSHIHIRO ; Rakov, V. A. ; PIANTINI, A.		
trabalhoCompletoEmCongresso	Alexandre Piantini	2015		FDTD Computations of Lightning-Induced Voltages in the Presence of Nearby Buildings	2015 Asia-Pacific International Symposium on Electromagnetic Compatibility (APEMC)	THANG, TRAN HUU ; BABA, YOSHIHIRO ; Rakov, V. A. ; PIANTINI, A.		
trabalhoCompletoEmCongresso	Alexandre Piantini	2015		Soil resistivity behavior under high current density values using the Energy Balance Method	2015 Internartional Symposium on Lightning Protection (XIII SIPDA)	COELHO, V. L. ; Venturini, L. F. ; PIANTINI, A. ; Hugo A. D. Almaguer ; COELHO, R. A. ; BOAVENTURA, W. C. ; PAULINO, JOSÉ OSVALDO S. ; NOSAKI, P. L.		
trabalhoCompletoEmCongresso	Alexandre Piantini	2015		An integrated monitoring and data analysis system to evaluate the effects of lightning activity on distribution networks	2015 International Symposium on Lightning Protection (XIII SIPDA)	LAZZARETTI, A. E. ; SANTOS, S. L. F. ; TOLEDO, L. F. R. B. ; RAVAGLIO, M. A. ; PIANTINI, A. ; HEILMANN, A. ; PINTO, C. L. S. ; OGASAWARA, R. H.		
trabalhoCompletoEmCongresso	Alexandre Piantini	2015		A proposal for the prediction of the volt-time curves of MV insulators based on the Disruptive Effect Model	2015 International Symposium on Lightning Protection	SHIGIHARA, Miltom ; PIANTINI, A. ; RAMOS, M. C. E. S. ; BRAZ, CELSO P. ; MAZZETTI, C. ; ANCAJIMA, A.		
trabalhoCompletoEmCongresso	Alexandre Piantini	2015		Índices operacionais de referência para aplicação da tecnologia Cabos Para-raios Energizados	Congresso Técnico Científico da Engenharia e da Agronomia (CONTECC 2015)	RAMOS, José Ezequiel ; PIANTINI, A. ; PIRES, V. A. ; D´AJUZ, A. ; BORGES, P. R. O.		
trabalhoCompletoEmCongresso	Alexandre Piantini	2015		ANÁLISE DO DESEMPENHO DA LINHA DE TRANSMISSÃO 230 kV DO SISTEMA DE TRANSMISSÃO DE RONDÔNIA OPERANDO COM CABOS PARA-RAIOS ISOLADOS E ENERGIZADOS EM MÉDIA TENSÃO	XXIII SNPTEE SEMINÁRIO NACIONAL DE PRODUÇÃO E TRANSMISSÃO DE ENERGIA ELÉTRICA (XXIII SNPTEE)	RAMOS, José Ezequiel ; PIANTINI, A. ; D´AJUZ, A. ; PIRES, V. A. ; BORGES, P. R. O.		
trabalhoCompletoEmCongresso	Alexandre Piantini	2015		Estudo da Viabilidade do Uso da Base dos Postes de Concreto como Topologia de Aterramento para Redes Aéreas de Distribuição	VIII Congresso de Inovação Tecnológica em Energia Elétrica (CITENEL 2015)	Almaguer, H. A. D. ; COELHO, R. A. ; COELHO, V. L. ; PIANTINI, A. ; NOSAKI, P. L.		
artigoEmPeriodico	Celio Bermann	2015	http://dx.doi.org/10.1590/S0103-40142015000200004	Crise hídrica e energia: conflitos no uso múltiplo das águas	Estudos Avançados (Online)	GALVÃO, JUCILENE ; BERMANN, CÉLIO	Qualis nao identificado	Estudos Avançados (Online)
artigoEmPeriodico	Celio Bermann	2015		Energia/Energy	Brasil em Números (Edição em Inglês. Impresso)	BERMANN, C	Qualis nao identificado	Brasil em Números (Edição em Inglês. Impresso)
trabalhoCompletoEmCongresso	Celio Bermann	2015		A inserção do automóvel elétrico para a redução da dependência energética do petróleo no setor dos transportes	10º Congresso sobre Geração Distribuída e Energia no Meio Rural - AGRENER GD 2015	MACHADO, F. F. ; BERMANN, C. ; COSTA, H. K. M. ; SANTOS, M. M. ; SANTOS, E. M.		
trabalhoCompletoEmCongresso	Celio Bermann	2015		A gestão energética descentralizada em âmbito municipal no Brasil	10º Congresso sobre Geração Distribuída e Energia no Meio Rural - AGRENER GD 2015	COLLACO, F. M. A. ; BERMANN, C.		
trabalhoCompletoEmCongresso	Celio Bermann	2015		Aproveitamento energético do hidrato de metano	10º Congresso sobre Geração Distribuída e Energia no Meio Rural - AGRENER GD 2015	GANDARA, R. ; BERMANN, C.		
trabalhoCompletoEmCongresso	Celio Bermann	2015		A governança e sua importância para o processo de integração energética regional	7o. Encontro Nacional da Associação Nacional de Pós Graduação e Pesquisa em Ambiente e Sociedade - 7o. ANPPAS	GALVAO, J. ; SILVA, L. ; BERMANN, C.		
trabalhoCompletoEmCongresso	Celio Bermann	2015		As políticas de inclusão do veículo elétrico no setor de transportes brasileiro e as consequências ambientais	7o. Encontro Nacional da Associação Nacional de Pós Graduação e Pesquisa em Ambiente e Sociedade - 7o. ANPPAS	MACHADO, F. F. ; BERMANN, C.		
trabalhoCompletoEmCongresso	Arnaldo Gakiya Kanashiro	2015		Capacitação sobre sistema para iluminação e sinalização viária na Cidade Universitária Armando de Salles Oliveira	1o Congresso de Graduação da Universidade de São Paulo	BURINI JUNIOR, E. C. ; JESUS, M. O. ; PINTO, Rinaldo Caldeira ; SANTOS, E. R. ; KANASHIRO, Arnaldo Gakiya		
trabalhoCompletoEmCongresso	Arnaldo Gakiya Kanashiro	2015		Tecnologia SSL (WLEDI) em Campi da Universidade de São Paulo	LATIN AMERICAN CONGRESS ON ELECTRICITY GENERATION AND TRANSMISSION - CLAGTEE	BURINI JUNIOR, E. C. ; JESUS, M. O. ; KANASHIRO, Arnaldo Gakiya		
trabalhoCompletoEmCongresso	Arnaldo Gakiya Kanashiro	2015		Tecnologias para o Sistema de Iluminação Viária	CONGRESSO SOBRE GERAÇÃO DISTRIBUÍDA E ENERGIA NO MEIO RURAL	BURINI JUNIOR, E. C. ; KANASHIRO, Arnaldo Gakiya ; MELERO, J. C. M.		
trabalhoCompletoEmCongresso	Arnaldo Gakiya Kanashiro	2015		Um Experimento com Aerogerador de Imãs Permanentes Destinado a Aerogerador de Pequeno Porte	CONGRESSO SOBRE GERAÇÃO DISTRIBUÍDA E ENERGIA NO MEIO RURAL	CRUZ, D. D. ; KANASHIRO, Arnaldo Gakiya		
artigoEmPeriodico	Hirdan Katarina de Medeiros Costa	2015		Roncador production highlights Libra opportunity offshore Brazil	OIL & GAS JOURNAL	SILVA, R. I. ; COSTA, H. K. M. ; SANTOS, M. M. ; MOUTINHO DOS SANTOS, E.	B1	
artigoEmPeriodico	Hirdan Katarina de Medeiros Costa	2015		Engenharia de Projetos e e aumento da participacao do Contrudo Local	Revista Petroquímica, Petróleo, Gas & Química	LUCAS, L. J. R. ; COSTA, H. K. M. ; MOUTINHO DOS SANTOS, E.	B3	
artigoEmPeriodico	Hirdan Katarina de Medeiros Costa	2015		Troca operacional de gás natural nos gasodutos: um paralelo com a transmissão de energia elétrica no Brasil	Revista Petroquímica, Petróleo, Gas & Química	CASSARO, P. M. ; COSTA, H. K. M. ; SANTOS, M. M. ; MOUTINHO DOS SANTOS, E. ; PARENTE, V.	B3	
artigoEmPeriodico	Hirdan Katarina de Medeiros Costa	2015	http://dx.doi.org/10.5419/bjpg2015-0005	TECHNICAL PROCEDURES FOR USING SYNTHETIC NATURAL GAS AS AN ALTERNATIVE TO NATURAL GAS IN DIFFERENT SUPPLY CONDITIONS FOR INDUSTRIAL CUSTOMERS	Brazilian Journal of Petroleum and Gas	COSTA, F. C. ; MOUTINHO DOS SANTOS, E. ; FAGÁ, M. T. W. ; COSTA, H. K. M.	Qualis nao identificado	Brazilian Journal of Petroleum and Gas
trabalhoCompletoEmCongresso	Hirdan Katarina de Medeiros Costa	2015		Perspectivas del shale en Argentina: potencial y barreras para el desarrollo de no convencionales	5th Latin American Energy Economics Meeting	BERKENWALD, M. ; COSTA, Hirdan Katarina de Medeiros ; SANTOS, E. M.		
trabalhoCompletoEmCongresso	Hirdan Katarina de Medeiros Costa	2015		Applying the Institutional Economics to Understand the Transactions-Cost Economics Theory in Oil Exploration Agreements: a Brazilian case study	5th Latin American Energy Economics Meeting	COSTA, H. K. M.; SANTOS, E. M. ; ARAUJO, R. R.		
trabalhoCompletoEmCongresso	Hirdan Katarina de Medeiros Costa	2015		A Qualitative Comparative Analisys (QCA) in Bus Fuel Shifting: Cities that Adopted Compressed Natural Gas (CNG)	5th Latin American Energy Economics Meeting	BRITO, T. L. F. ; SANTOS, EDMILSON MOUTINHO DOS ; GALBIERI, R. ; COSTA, Hirdan Katarina de Medeiros		
trabalhoCompletoEmCongresso	Hirdan Katarina de Medeiros Costa	2015		A Technological challenges and regulation for unconventional gas exploration in Brazil	5th Latin American Energy Economics Meeting	SANTOS, V. E. S. ; COSTA, Hirdan Katarina de Medeiros ; SANTOS, E. M.		
trabalhoCompletoEmCongresso	Hirdan Katarina de Medeiros Costa	2015		Estimativas de emissões veiculares oriundas de um corredor azul no estado de São Paulo	10 Congresso de Geração Distribuída e Energia no Meio Rural - AGRENER	BRITO, T. L. F. ; GALBIERI, Rodrigo ; COSTA, H. K. M. ; MOUETTE, D. ; MOUTINHO DOS SANTOS, E.		
trabalhoCompletoEmCongresso	Hirdan Katarina de Medeiros Costa	2015		Desenvolvimento sustentável, meio ambiente e a indústria do petróleo: proposta para campos marginais e maduros	10º Congresso sobre Geração Distribuída e Energia no Meio Rural ? X AGRENER GD 2015	BATISTA, P. B. M. ; COSTA, H. K. M. ; SILVA, E. ; SANTOS, E. M.		
trabalhoCompletoEmCongresso	Hirdan Katarina de Medeiros Costa	2015		Redução da alíquota da CIDE: o dilema dos preços da gasolina e do etanol	10º Congresso sobre Geração Distribuída e Energia no Meio Rural ? X AGRENER GD 2015	FAZZI, L. R. ; COSTA, H. K. M. ; BARBOSA, L. G. N. ; SANTOS, M. M. ; SANTOS, E. M.		
trabalhoCompletoEmCongresso	Hirdan Katarina de Medeiros Costa	2015		O Impacto da tributação sobre os combustíveis leves	10º Congresso sobre Geração Distribuída e Energia no Meio Rural ? X AGRENER GD 2015,	BARBOSA, L. G. N. ; COSTA, H. K. M. ; CESCA, I. G. ; MOREIRA, J. R. ; SANTOS, E. M.		
trabalhoCompletoEmCongresso	Hirdan Katarina de Medeiros Costa	2015		A inserção do automóvel elétrico para a redução da dependência energética do petróleo no setor dos transportes	10º Congresso sobre Geração Distribuída e Energia no Meio Rural ? X AGRENER GD 2015	MACHADO, F. F. ; BERMANN, C. ; COSTA, H. K. M. ; SANTOS, M. M. ; SANTOS, E. M.		
trabalhoCompletoEmCongresso	Hirdan Katarina de Medeiros Costa	2015		Alternativas Energética para secagem de grãos	10º Congresso sobre Geração Distribuída e Energia no Meio Rural ? X AGRENER GD 2015	MIURA, F. ; SANTOS, M. M. ; COSTA, H. K. M. ; MOUTINHO DOS SANTOS, E.		
trabalhoCompletoEmCongresso	Hirdan Katarina de Medeiros Costa	2015		Inovaçoes em energia e eficiência no meio rural	10º Congresso sobre Geração Distribuída e Energia no Meio Rural ? X AGRENER GD 2015	CROSO, T. ; COSTA, H. K. M. ; MOUTINHO DOS SANTOS, E. ; BURANI, G. F.		
trabalhoCompletoEmCongresso	Hirdan Katarina de Medeiros Costa	2015		Biogás produzido a partir de vinhaça: estudo técnico e normativo	10º Congresso sobre Geração Distribuída e Energia no Meio Rural - X AGRENER GD	SANTOS, M. M. ; COSTA, H. K. M. ; MOUTINHO DOS SANTOS, E. ; MIURA, F.		
trabalhoCompletoEmCongresso	Hirdan Katarina de Medeiros Costa	2015		Gás LP e o desenvolvimento rural	10º Congresso sobre Geração Distribuída e Energia no Meio Rural ? X AGRENER GD 2015	CROSO, T. ; COSTA, H. K. M. ; MOUTINHO DOS SANTOS, E. ; BURANI, G. F.		
trabalhoCompletoEmCongresso	Hirdan Katarina de Medeiros Costa	2015		O impacto do preço do petróleo e gás na tarifa de energia elétrica	10º Congresso sobre Geração Distribuída e Energia no Meio Rural ? X AGRENER GD 2015	AMARAL, T. B. ; COSTA, H. K. M. ; SANTOS, M. M. ; SANTOS, E. M.		
trabalhoCompletoEmCongresso	Hirdan Katarina de Medeiros Costa	2015		Projeções de oferta de gás natural e o quadro de infraestrutura	8ª edição do Congresso Brasileiro de PD em Petróleo e Gás - PDPETRO.	ASSIS, L. M. ; COSTA, H. K. M. ; MOUTINHO DOS SANTOS, E.		
trabalhoCompletoEmCongresso	Hirdan Katarina de Medeiros Costa	2015		Desafios da indústria nacional associados à eletrotermia	XVI CBE CONGRESSO BRASILEIRO DE ENERGIA	MIURA, F. ; SANTOS, M. M. ; COSTA, H. K. M. ; MOUTINHO DOS SANTOS, E.		
trabalhoCompletoEmCongresso	Hirdan Katarina de Medeiros Costa	2015		Simulação de um corredor azul entre as cidades de Campinas e São P aulo: estimativas de emissões veiculares	XVI CBE - Congresso Brasileiro de Energia	BRITO, T. L. F. ; GALBIERI, R. ; COSTA, H. K. M. ; MOUTINHO DOS SANTOS, E. ; MOUETTE, D.		
trabalhoCompletoEmCongresso	Hirdan Katarina de Medeiros Costa	2015		O impulso à oferta de gás natural através da expansão da malha ferroviária em território brasileiro	XVI Congresso Brasileiro de Energia - CBE	LIAW, C. ; MOUTINHO DOS SANTOS, E. ; COSTA, H. K. M. ; SANTOS, M. M.		
trabalhoCompletoEmCongresso	Hirdan Katarina de Medeiros Costa	2015		Avaliação da substituição do óleo combustível por gás natural nas usinas térmicas do sistema elétrico brasileiro	XVI CBE CONGRESSO BRASILEIRO DE ENERGIA	J. SILVA, L. ; MEIRA JUNIOR, R. ; COSTA, H. K. M. ; MOUTINHO DOS SANTOS, E. ; SANTOS, M. M. ; PARENTE, V.		
trabalhoCompletoEmCongresso	Hirdan Katarina de Medeiros Costa	2015		BREVE ANÁLISE DO MERCADO BRASILEIRO DE COMBUSTÍVEIS LEVES E SUA INFLUÊNCIA NA BALANÇA DE PAGAMENTOS DO BRASIL	8ª edição do Congresso Brasileiro de PD em Petróleo e Gás - PDPETRO.	BARBOSA, L. G. N. ; COSTA, HIRDAN KATARINA DE MEDEIROS ; MOREIRA, J. R. ; CESCA, I. G. ; MOUTINHO DOS SANTOS, E.		
trabalhoCompletoEmCongresso	Hirdan Katarina de Medeiros Costa	2015		PROJEÇÕES DE OFERTA DE GÁS NATURAL BRASILEIRO E QUADRO DE INFRAESTRUTURA	8ª edição do Congresso Brasileiro de PD em Petróleo e Gás - PDPETRO.	ASSIS, L. M. ; COSTA, HIRDAN KATARINA DE MEDEIROS ; MOUTINHO DOS SANTOS, E.		
trabalhoCompletoEmCongresso	Hirdan Katarina de Medeiros Costa	2015		Analysis of Bordering Counties in Sao Paulo State and Oil Exploration from the Perspective of Integral Sustainability'	5th International Workshop Advances in Cleaner Production	COSTA, Hirdan Katarina de Medeiros; BARBOSA, L. G. N. ; SIMOES, A. F. ; MOUTINHO DOS SANTOS, E.		
trabalhoCompletoEmCongresso	Hirdan Katarina de Medeiros Costa	2015		Breve análise do mercado brasileiro de combustíveis leves e sua influência na balança de pagamentos do Brasil	8ª edição do Congresso Brasileiro de PD em Petróleo e Gás - PDPETRO.	BARBOSA, L. G. N. ; COSTA, H. K. M. ; MOREIRA, J. R. ; CESCA, I. G. ; MOUTINHO DOS SANTOS, E.		
artigoEmPeriodico	Ildo Luis Sauer	2015	http://dx.doi.org/10.1016/j.rser.2014.08.053	A comparative assessment of Brazilian electric motors performance with minimum efficiency standards	Renewable & Sustainable Energy Reviews	Sauer, Ildo L. ; TATIZAWA, HÉDIO ; SALOTTI, FRANCISCO A.M. ; MERCEDES, SONIA S.	A1	
artigoEmPeriodico	Ildo Luis Sauer	2015	http://dx.doi.org/10.1016/j.rser.2015.01.028	A review of Brazilian biodiesel experiences	Renewable & Sustainable Energy Reviews	RICO, J.A.P. ; SAUER, I.L.	A1	
artigoEmPeriodico	Ildo Luis Sauer	2015		Motivações políticas e econômicas da integração energética na América do Sul: o caso de Itaipu	História e Cultura	OXILIA, Victorio ; SAUER, I. L. ; RODRIGUES, L. A.	Qualis nao identificado	História e Cultura
artigoEmPeriodico	Ildo Luis Sauer	2015	http://dx.doi.org/10.1016/j.rser.2015.06.038	Bolivia and Paraguay: A beacon for sustainable electric mobility?	Renewable & Sustainable Energy Reviews	Sauer, Ildo L.; ESCOBAR, JAVIER F. ; DA SILVA, MAURO F.P. ; MEZA, CARLOS G. ; CENTURION, CARLOS ; GOLDEMBERG, JOSÉ	A1	
artigoEmPeriodico	Ildo Luis Sauer	2015		Apresentação - Energia elétrica: crise, diagnóstico e saídas	Revista USP	SAUER, I. L	A2	
artigoEmPeriodico	Ildo Luis Sauer	2015		A gênese e a permanência da crise do setor elétrico no Brasil	Revista USP	SAUER, I. L	A2	
artigoEmPeriodico	Ildo Luis Sauer	2015	http://dx.doi.org/10.1016/j.enpol.2015.09.036	Exploratory assessment of the economic gains of a pre-salt oil field in Brazil	Energy Policy	ARAUJO RODRIGUES, LARISSA ; LUÍS SAUER, ILDO	A1	
trabalhoCompletoEmCongresso	Ildo Luis Sauer	2015		Increasing share of wind power and its complementarity with hydropower in the Brazilian interconnected electricity system	2015 World Environmental Water Resources Congress (EWRI)	CHADE, J. F. ; ZAMBON, R. C. ; SAUER, I. L. ; YEH, W. W.		
artigoEmPeriodico	Patricia Helena Lara dos Santos Matai	2015		Concentração Micelar Crítica e Concentração Crítica de Coalescência de Reagentes de Flotação	Holos (Natal. Online)	BRAGA, A. S. ; SOUZA-PINTO, T. C. ; Matai, P. H. L. S. ; LEAL FILHO, L. S.	B2	
artigoEmPeriodico	Sergio Almeida Pacca	2015	http://dx.doi.org/10.1016/j.ecolind.2015.01.027	Estimating the human appropriation of land in Brazil by means of an Input-Output Economic Model and Ecological Footprint analysis	Ecological Indicators	SALVO, GABRIELE ; SIMAS, MOANA S. ; PACCA, SERGIO A. ; GUILHOTO, JOAQUIM J.M. ; TOMAS, ACACIO R.G. ; ABRAMOVAY, RICARDO	A1	
trabalhoCompletoEmCongresso	Sergio Almeida Pacca	2015		Estudo da viabilidade energética e ambiental do sistema de biogasificação para resíduos orgânicos domiciliares: O caso da cidade de São Paulo	Congresso Brasileiro de Energia	SANTOS, K. N. ; PACCA, S.		
artigoEmPeriodico	Roberto Zilles	2015	http://dx.doi.org/10.1016/j.jenvman.2015.03.050	Microbial colonization affects the efficiency of photovoltaic panels in a tropical environment	Journal of Environmental Management	SHIRAKAWA, MARCIA A. ; Zilles, Roberto ; MOCELIN, ANDRE ; GAYLARDE, CHRISTINE C. ; GORBUSHINA, ANNA ; HEIDRICH, GABRIELE ; GIUDICE, MAURO C. ; DEL NEGRO, GILDA M.B. ; JOHN, VANDERLEY M.	A1	
artigoEmPeriodico	Roberto Zilles	2015		Proteção de módulos fotovoltaicos contra descargas atmosféricas	Eletricidade Moderna	SUETA, H. E. ; MOCELIN, André ; ZILLES, R. ; KODAIRA, C. Y.	B4	
artigoEmPeriodico	Roberto Zilles	2015		Proteção de centrais fotovoltaicas contra descargas atmosféricas diretas	Eletricidade Moderna	SUETA, H. E. ; MOCELIN, André ; ZILLES, R.	B4	
artigoEmPeriodico	Roberto Zilles	2015		Análise técnico-econômica de SPDAs em sistemas fotovoltaicos	Eletricidade Moderna	SUETA, H. E. ; MOCELIN, André ; ZILLES, R.	B4	
artigoEmPeriodico	Murilo Tadeu Werneck Fagá	2015	http://dx.doi.org/10.5419/bjpg2015-0005	Technical Procedures for using syntetic natural gas as an alternative to to natural gas in different suply conditions for industrial customers	Brazilian Journal of Petroleum and Gas	COSTA, F. C. ; SANTOS, Edmilson Moutinho dos ; FAGÁ, M. T. W. ; COSTA, H. K.	Qualis nao identificado	Brazilian Journal of Petroleum and Gas
artigoEmPeriodico	Jose Roberto Simoes Moreira	2015		Climatização Solar em Hipermercados	Climatização & Refrigeração	SILVA, F. D. J. ; José R. Simões-Moreira	Qualis nao identificado	Climatização & Refrigeração
artigoEmPeriodico	Jose Roberto Simoes Moreira	2015	http://dx.doi.org/10.1007/s40430-014-0173-8	Hydrodynamic considerations on the performance of chilled water thermal storage tanks in the discharge cycle	Journal of the Brazilian Society of Mechanical Sciences and Engineering	MILARÉ, M. M. ; ROCHA, M. S. ; Simões-Moreira, J. R.	B1	Journal of the Brazilian Society of Mechanical Sciences and Engineering (Impresso)
artigoEmPeriodico	Jose Roberto Simoes Moreira	2015	http://dx.doi.org/10.1016/j.ijrefrig.2015.07.022	Horizontal tube bundle falling film distiller for ammonia-water mixtures	International Journal of Refrigeration	ZAVALETA-AGUILAR, E.W. ; Simões-Moreira, J.R.	B1	
trabalhoCompletoEmCongresso	Jose Roberto Simoes Moreira	2015		Experimental Study of Water Falling Film Evaporation in Subcooling and Saturated Liquid on Horizontal Tubes	9th International Conference on Boiling and Condensation Heat Transfer	Narváez-Romo, B. ; Zavaleta-Aguilar, E. W. ; Simões-Moreira, J. R.		
trabalhoCompletoEmCongresso	Jose Roberto Simoes Moreira	2015		Modelling of Ammonia/Water Mixture in Inclined Plated Absorber and Generator	9th International Conference on Boiling and Condensation Heat Transfer	LEITE, B. M. ; Simões-Moreira, J.R.		
trabalhoCompletoEmCongresso	Jose Roberto Simoes Moreira	2015		Experimental Study of Falling Film Over tube Bundle Destiller in Ammonia-Water Liquid Mixtures	ICR - the 24th International Congress of Refrigeration	Narváez-Romo, B. ; Zavaleta-Aguilar, E. W. ; Simões-Moreira, J R		
trabalhoCompletoEmCongresso	Jose Roberto Simoes Moreira	2015		Estudo da Rota Termoquímica para Produção de Gás Hidrogênio em Redox de Óxido de Ferro	10o AGRENER - Congresso sobre Geração Distribuída e Energia no Meio Rural	GOTO, T. G. ; Simões-Moreira, J R		
trabalhoCompletoEmCongresso	Jose Roberto Simoes Moreira	2015		Recuperação do Calor Rejeitado em Condensadores de Refrigeradores de Pequeno Porte para Aquecimento de Água	10o AGRENER - Congresso sobre Geração Distribuída e Energia no Meio Rural	Zuzarte, L. A. C. ; Simões-Moreira, J R		
trabalhoCompletoEmCongresso	Jose Roberto Simoes Moreira	2015		Sistema de Armazenamento de Energia Mecânica em Reservatórios de Água Pressurizados	10o AGRENER - Congresso sobre Geração Distribuída e Energia no Meio Rural	SOUZA, E. J. C. ; Simões-Moreira, J R		
trabalhoCompletoEmCongresso	Jose Roberto Simoes Moreira	2015		Produção Combinada de Energia Eletromecânica, Água Quente e Gelada por Ciclo de Absorção de Amônia-Água Usando as Tecnologias de Microturbina e de Motor de Combustão Interna Movidos a Gás Natural - Trigeração	Cogeração Trigeração	Simões-Moreira, J R		
artigoEmPeriodico	José Goldemberg	2015	http://dx.doi.org/10.1007/s12399-014-0481-1	Die Herausforderungen des Klimawandels bewältigen. Ein kurzfristig umsetzbares Aktionsprogramm zum Übergang in eine klimaverträgliche WeltwirtschaftTackling the Challenge of Climate Change: A Near-term Actionable Mitigation Agenda	Zeitschrift für Außen- und Sicherheitspolitik	WATSON, ROBERT ; NAKICENOVIC, NEBOJSA ; MESSNER, DIRK ; ROSENTHAL, ERIKA ; Goldemberg, José ; SRIVASTAVA, LEENA ; JIANG, KEJUN	Qualis nao identificado	Zeitschrift für Außen- und Sicherheitspolitik
artigoEmPeriodico	José Goldemberg	2015	http://dx.doi.org/10.1088/1748-9326/10/7/071002	Oil palm deserves government attention in Brazil	Environmental Research Letters	MOREIRA, JOSÉ R ; Goldemberg, José	A2	
artigoEmPeriodico	José Goldemberg	2015		Em busca da excelência	Revista USP	Goldemberg, José	A2	
artigoEmPeriodico	José Goldemberg	2015		O estado atual do setor elétrico brasileiro	Revista USP	Goldemberg, J	A2	
artigoEmPeriodico	José Goldemberg	2015	http://dx.doi.org/10.1016/j.rser.2015.06.038	Bolivia and Paraguay: A beacon for sustainable electric mobility?	Renewable & Sustainable Energy Reviews	SAUER, ILDO L. ; ESCOBAR, JAVIER F. ; DA SILVA, MAURO F.P. ; MEZA, CARLOS G. ; CENTURION, CARLOS ; Goldemberg, José	A1	
artigoEmPeriodico	José Goldemberg	2015	http://dx.doi.org/10.11606/issn.2316-9060.v14i0p33-43	Energia e Sustentabilidade	Revista Cultura e Extensão USP	Goldemberg, José	Qualis nao identificado	Revista Cultura e Extensão USP
artigoEmPeriodico	José Goldemberg	2015	http://dx.doi.org/10.12924/cis2015.03010018	A Review of 'The Politics of Sustainability: Philosophical Perspectives'	Challenges in Sustainability	Goldemberg, José	Qualis nao identificado	Challenges in Sustainability
