strict graph grafo1 {
	graph [bb="0,0,1946.5,71",
		id=grafo1,
		overlap=False
	];
	node [fontsize=8,
		label="\N",
		shape=rectangle,
		style=filled
	];
	0	 [URL="http://lattes.cnpq.br/9404945858555096",
		color="#17272B",
		fontcolor="#FFFFFF",
		height=0.23611,
		label="Gerd Bruno da Rocha [0]",
		pos="49,62.5",
		width=1.3611];
	1	 [URL="http://lattes.cnpq.br/6295539300088848",
		color="#17272B",
		fontcolor="#FFFFFF",
		height=0.23611,
		label="José M. Aroztegui Massera [0]",
		pos="174,62.5",
		width=1.5972];
	2	 [URL="http://lattes.cnpq.br/9514001738151737",
		color="#17272B",
		fontcolor="#FFFFFF",
		height=0.23611,
		label="Andréa Vanessa Rocha [0]",
		pos="301,62.5",
		width=1.4167];
	3	 [URL="http://lattes.cnpq.br/9817303059261114",
		color="#17272B",
		fontcolor="#FFFFFF",
		height=0.23611,
		label="Alexandre de Bustamante Simas [0]",
		pos="436,62.5",
		width=1.8333];
	4	 [URL="http://lattes.cnpq.br/6614550860293610",
		color="#17272B",
		fontcolor="#FFFFFF",
		height=0.23611,
		label="Guido L. de Souza Filho [0]",
		pos="574,62.5",
		width=1.4861];
	5	 [URL="http://lattes.cnpq.br/8597052075790062",
		color="#17272B",
		fontcolor="#FFFFFF",
		height=0.23611,
		label="Antônio J. Boness dos Santos [2]",
		pos="707,62.5",
		width=1.7083];
	11	 [URL="http://lattes.cnpq.br/5739340737701994",
		color="#17272B",
		fontcolor="#FFFFFF",
		height=0.23611,
		label="Ana P. Pintado Wyse [2]",
		pos="707,8.5",
		width=1.3333];
	5 -- 11	 [pos="707,53.827 707,43.996 707,27.051 707,17.204"];
	6	 [URL="http://lattes.cnpq.br/4736488524972465",
		color="#17272B",
		fontcolor="#FFFFFF",
		height=0.23611,
		label="Moisés Dantas dos Santos [0]",
		pos="843,62.5",
		width=1.5556];
	7	 [URL="http://lattes.cnpq.br/5266867099516480",
		color="#17272B",
		fontcolor="#FFFFFF",
		height=0.23611,
		label="Zaqueu Ernesto da Silva [0]",
		pos="970,62.5",
		width=1.4722];
	8	 [URL="http://lattes.cnpq.br/0796077542730627",
		color="#17272B",
		fontcolor="#FFFFFF",
		height=0.23611,
		label="Jairo Rocha de Faria [0]",
		pos="1088,62.5",
		width=1.3056];
	9	 [URL="http://lattes.cnpq.br/8395680021547657",
		color="#17272B",
		fontcolor="#FFFFFF",
		height=0.23611,
		label="Hugo L. D. de Souza Cavalcante [0]",
		pos="1220,62.5",
		width=1.8472];
	10	 [URL="http://lattes.cnpq.br/4602196835460192",
		color="#17272B",
		fontcolor="#FFFFFF",
		height=0.23611,
		label="Waldir Leite Roque [0]",
		pos="1350,62.5",
		width=1.2639];
	12	 [URL="http://lattes.cnpq.br/8275273010766169",
		color="#17272B",
		fontcolor="#FFFFFF",
		height=0.23611,
		label="Kely D. Villacorta Villacorta [0]",
		pos="1474,62.5",
		width=1.6806];
	13	 [URL="http://lattes.cnpq.br/6476569938591123",
		color="#17272B",
		fontcolor="#FFFFFF",
		height=0.23611,
		label="Felipe A. Garcia Moreno [0]",
		pos="1607,62.5",
		width=1.5];
	14	 [URL="http://lattes.cnpq.br/8118978612486649",
		color="#17272B",
		fontcolor="#FFFFFF",
		height=0.23611,
		label="Jose M. A. de Matos Gurgel [0]",
		pos="1738,62.5",
		width=1.6389];
	15	 [URL="http://lattes.cnpq.br/0479784808667103",
		color="#17272B",
		fontcolor="#FFFFFF",
		height=0.23611,
		label="Roberto Quirino do Nascimento [0]",
		pos="1881,62.5",
		width=1.8194];
}
