strict graph grafo2 {
	graph [bb="0,0,4885,465",
		id=grafo2,
		overlap=False
	];
	node [fontsize=8,
		label="\N",
		shape=rectangle,
		style=filled
	];
	0	 [URL="http://lattes.cnpq.br/2275828437667452",
		color="#17272B",
		fontcolor="#FFFFFF",
		height=0.23611,
		label="Nicolino Trompieri Filho [0]",
		pos="254,456.5",
		width=1.5139];
	1	 [URL="http://lattes.cnpq.br/6577452599388165",
		color="#17272B",
		fontcolor="#FFFFFF",
		height=0.23611,
		label="Gerardo Cristino Filho [19]",
		pos="379,456.5",
		width=1.4583];
	7	 [URL="http://lattes.cnpq.br/3193698890688967",
		color="#17272B",
		fontcolor="#FFFFFF",
		height=0.23611,
		label="Karuza M. Alves Pereira [10]",
		pos="276,392.5",
		width=1.5417];
	1 -- 7	 [fontsize=8,
		label=3.0,
		lp="340.5,424.5",
		pos="365.88,447.81 357.12,442.66 345.35,435.71 335,429.5 318.95,419.86 300.55,408.6 288.63,401.28"];
	19	 [URL="http://lattes.cnpq.br/1918056067943429",
		color="#17272B",
		fontcolor="#FFFFFF",
		height=0.23611,
		label="Rodrigo M. Silva da Cunha [10]",
		pos="816,328.5",
		width=1.6667];
	1 -- 19	 [fontsize=8,
		label=1.0,
		lp="793.5,392.5",
		pos="431.47,454.16 525.52,451.39 715.49,444.07 742,429.5 780.99,408.07 805.15,356.38 813.1,337"];
	21	 [URL="http://lattes.cnpq.br/6087042073634790",
		color="#17272B",
		fontcolor="#FFFFFF",
		height=0.23611,
		label="Francisco P. Nogueira Arcanjo [1]",
		pos="1040,392.5",
		width=1.7639];
	1 -- 21	 [fontsize=8,
		label=1.0,
		lp="900.5,424.5",
		pos="431.32,454.21 514.35,451.76 681.31,445.2 822,429.5 885.48,422.42 958.6,409.32 1002,401.03"];
	34	 [URL="http://lattes.cnpq.br/1478333245297251",
		color="#17272B",
		fontcolor="#FFFFFF",
		height=0.23611,
		label="Lissiana M. Vasconcelos Aguiar [13]",
		pos="398,264.5",
		width=1.8889];
	1 -- 34	 [fontsize=8,
		label=8.0,
		lp="394.5,360.5",
		pos="379.77,447.82 382.84,417.13 394.19,303.55 397.24,273.07"];
	41	 [URL="http://lattes.cnpq.br/6899498686139516",
		color="#17272B",
		fontcolor="#FFFFFF",
		height=0.23611,
		label="Vicente de P. Teixeira Pinto [12]",
		pos="136,200.5",
		width=1.6944];
	1 -- 41	 [fontsize=8,
		label=7.0,
		lp="89.5,328.5",
		pos="331.6,447.96 248.21,434.36 84,405.99 84,393.5 84,393.5 84,393.5 84,263.5 84,239.2 107.75,219.43 123.15,209.16"];
	57	 [URL="http://lattes.cnpq.br/1810849698154444",
		color="#17272B",
		fontcolor="#FFFFFF",
		height=0.23611,
		label="Antonio A. Rodrigues e Silva [6]",
		pos="258,136.5",
		width=1.7083];
	1 -- 57	 [fontsize=8,
		label=1.0,
		lp="305.5,296.5",
		pos="374.89,447.69 355.86,411.42 276.84,260.3 270,237.5 260,204.17 258.3,162.23 258.03,145.21"];
	62	 [URL="http://lattes.cnpq.br/0614961188016863",
		color="#17272B",
		fontcolor="#FFFFFF",
		height=0.23611,
		label="Mirna Marques Bezerra [36]",
		pos="348,72.5",
		width=1.5];
	1 -- 62	 [fontsize=8,
		label=13.0,
		lp="735.5,264.5",
		pos="431.63,451.51 529.12,443.41 728,423.23 728,393.5 728,393.5 728,393.5 728,231.5 728,211.82 723.78,204.5 709,191.5 658.88,147.4 462.17,\
99.233 382.14,81.028"];
	65	 [URL="http://lattes.cnpq.br/3839272083508826",
		color="#17272B",
		fontcolor="#FFFFFF",
		height=0.23611,
		label="Norma M. Barros Benevides [25]",
		pos="150,8.5",
		width=1.7222];
	1 -- 65	 [fontsize=8,
		label=4.0,
		lp="5.5,232.5",
		pos="326.57,448.73 323.33,448.31 320.12,447.9 317,447.5 246.12,438.4 0,464.96 0,393.5 0,393.5 0,393.5 0,71.5 0,31.346 46.477,16.684 87.69,\
11.576"];
	7 -- 19	 [fontsize=8,
		label=2.0,
		lp="584.5,360.5",
		pos="331.25,385.16 433.26,373.44 650.37,348.52 755.91,336.4"];
	7 -- 34	 [fontsize=8,
		label=1.0,
		lp="364.5,328.5",
		pos="290.08,383.8 298.1,379.07 308.1,372.57 316,365.5 349.62,335.4 381,290.92 392.93,273.2"];
	7 -- 41	 [fontsize=8,
		label=3.0,
		lp="172.5,296.5",
		pos="243.81,383.99 232.36,380.03 220.06,374.14 211,365.5 162.26,319.07 142.49,234.95 137.4,209.2"];
	7 -- 57	 [fontsize=8,
		label=3.0,
		lp="230.5,264.5",
		pos="263.65,383.96 248.56,373.68 225,353.75 225,329.5 225,329.5 225,329.5 225,199.5 225,177.8 240.95,156.3 250.68,145.21"];
	7 -- 62	 [fontsize=8,
		label=9.0,
		lp="320.5,232.5",
		pos="277.86,383.88 283.95,358.92 303.77,277.29 319,209.5 329.96,160.74 342.16,101.91 346.42,81.181"];
	7 -- 65	 [fontsize=8,
		label=6.0,
		lp="51.5,200.5",
		pos="244.06,383.93 229.45,379.71 212.26,373.63 198,365.5 159.14,343.33 46,278.24 46,233.5 46,233.5 46,233.5 46,71.5 46,40.81 79.827,24.96 \
108.9,17.005"];
	19 -- 34	 [fontsize=8,
		label=1.0,
		lp="638.5,296.5",
		pos="765.16,319.96 684.77,308.04 529.19,284.96 448.81,273.04"];
	19 -- 62	 [fontsize=8,
		label=2.0,
		lp="769.5,200.5",
		pos="810.65,319.94 807.15,314.84 802.58,307.9 799,301.5 774.81,258.19 745.06,127.34 704,99.5 676.64,80.946 439.9,84.723 407,81.5 405.46,\
81.349 403.89,81.188 402.31,81.019"];
	19 -- 65	 [fontsize=8,
		label=4.0,
		lp="818.5,168.5",
		pos="815.39,319.87 814.52,308.18 813,285.11 813,265.5 813,265.5 813,265.5 813,71.5 813,11.493 376.89,8.0394 212.08,8.8768"];
	56	 [URL="http://lattes.cnpq.br/7013269523847698",
		color="#17272B",
		fontcolor="#FFFFFF",
		height=0.23611,
		label="José R. Viana Silva [13]",
		pos="888,264.5",
		width=1.3056];
	19 -- 56	 [fontsize=8,
		label=1.0,
		lp="862.5,296.5",
		pos="824.83,319.9 838.65,308 865.24,285.1 879.1,273.16"];
	36	 [URL="http://lattes.cnpq.br/4999713109630711",
		color="#17272B",
		fontcolor="#FFFFFF",
		height=0.23611,
		label="Kyria Santiago do Nascimento [56]",
		pos="1103,264.5",
		width=1.8056];
	19 -- 36	 [fontsize=8,
		label=3.0,
		lp="1056.5,296.5",
		pos="876.17,320.92 932.49,314.6 1010,305.46 1024,301.5 1048.2,294.64 1074.5,281.41 1089.8,273.04"];
	37	 [URL="http://lattes.cnpq.br/7732407650135099",
		color="#17272B",
		fontcolor="#FFFFFF",
		height=0.23611,
		label="Celso Shiniti Nagano [37]",
		pos="953,200.5",
		width=1.3889];
	19 -- 37	 [fontsize=8,
		label=3.0,
		lp="958.5,264.5",
		pos="862.21,319.95 890.34,312.86 924.49,299.27 944,273.5 958.6,254.22 956.36,223.36 954.33,209.13"];
	42	 [URL="http://lattes.cnpq.br/5029704662813380",
		color="#17272B",
		fontcolor="#FFFFFF",
		height=0.23611,
		label="Benildo Sousa Cavada [58]",
		pos="1095,136.5",
		width=1.4444];
	19 -- 42	 [fontsize=8,
		label=2.0,
		lp="1014.5,232.5",
		pos="872.52,319.99 891.99,316.08 913.52,310.22 932,301.5 950.33,292.85 953.2,287.35 968,273.5 988,254.79 990.43,247.63 1009,227.5 1037.4,\
196.69 1072.2,160.89 1087.3,145.36"];
	34 -- 41	 [fontsize=8,
		label=2.0,
		lp="288.5,232.5",
		pos="366.14,255.96 315.81,244.05 218.49,221.02 168.05,209.08"];
	34 -- 57	 [fontsize=8,
		label=1.0,
		lp="309.5,200.5",
		pos="366.44,255.97 353.92,251.92 339.93,245.97 329,237.5 297.23,212.88 300.42,196.17 277,163.5 272.57,157.32 267.49,150.37 263.69,145.21"];
	34 -- 62	 [fontsize=8,
		label=5.0,
		lp="388.5,168.5",
		pos="397.08,255.77 394.07,231.89 383.48,157.44 362,99.5 359.65,93.155 356,86.44 353.02,81.425"];
	34 -- 65	 [fontsize=8,
		label=4.0,
		lp="438.5,136.5",
		pos="401.74,255.89 415.34,226.99 458.92,122.75 411,63.5 386.48,33.19 281.17,19.386 212.04,13.49"];
	54	 [URL="http://lattes.cnpq.br/8758840770361071",
		color="#17272B",
		fontcolor="#FFFFFF",
		height=0.23611,
		label="Lea Carvalho Rodrigues [3]",
		pos="505,200.5",
		width=1.4722];
	34 -- 54	 [fontsize=8,
		label=2.0,
		lp="463.5,232.5",
		pos="411.12,255.9 431.66,244 471.17,221.1 491.77,209.16"];
	41 -- 57	 [fontsize=8,
		label=2.0,
		lp="205.5,168.5",
		pos="148.57,191.98 161.34,184.45 181.79,172.68 200,163.5 213.2,156.84 228.48,150.03 240.03,145.05"];
	41 -- 62	 [fontsize=8,
		label=10.0,
		lp="179.5,136.5",
		pos="137.67,191.96 141.3,177.33 151.31,145.02 172,127.5 206.28,98.488 255.94,85.055 293.78,78.841"];
	41 -- 65	 [fontsize=8,
		label=5.0,
		lp="149.5,104.5",
		pos="136.57,191.82 138.83,161.13 147.2,47.554 149.44,17.071"];
	57 -- 62	 [fontsize=8,
		label=5.0,
		lp="314.5,104.5",
		pos="269.04,127.9 286.31,116 319.55,93.102 336.87,81.165"];
	57 -- 65	 [fontsize=8,
		label=2.0,
		lp="217.5,72.5",
		pos="251.57,128 232.4,105.64 175.83,39.637 156.54,17.125"];
	62 -- 65	 [fontsize=8,
		label=21.0,
		lp="268.5,40.5",
		pos="323.72,63.898 285.62,51.966 212.2,28.978 174.17,17.068"];
	60	 [URL="http://lattes.cnpq.br/4451863190439405",
		color="#17272B",
		fontcolor="#FFFFFF",
		height=0.23611,
		label="Ricardo Pires dos Santos [5]",
		pos="1220,72.5",
		width=1.5];
	56 -- 60	 [fontsize=8,
		label=1.0,
		lp="933.5,168.5",
		pos="886.52,255.67 884.32,241.66 881.63,211.87 894,191.5 913.91,158.72 935.36,167.16 967,145.5 995.31,126.12 997.22,112.44 1029,99.5 \
1072.9,81.637 1126.6,75.577 1165.9,73.73"];
	36 -- 37	 [fontsize=8,
		label=33.0,
		lp="1051.5,232.5",
		pos="1086,255.9 1064.2,246.12 1028.3,230.07 1022,227.5 1006,220.94 987.7,214.07 973.96,209.04"];
	36 -- 42	 [fontsize=8,
		label=46.0,
		lp="1107.5,200.5",
		pos="1102.5,256 1101.1,233.64 1096.9,167.64 1095.5,145.12"];
	36 -- 60	 [fontsize=8,
		label=1.0,
		lp="1170.5,168.5",
		pos="1107.7,255.82 1126.6,225.13 1196.6,111.55 1215.3,81.071"];
	61	 [URL="http://lattes.cnpq.br/8248342079629374",
		color="#17272B",
		fontcolor="#FFFFFF",
		height=0.23611,
		label="Bruno A. Matias da Rocha [22]",
		pos="977,72.5",
		width=1.625];
	36 -- 61	 [fontsize=8,
		label=14.0,
		lp="1005.5,168.5",
		pos="1093.8,255.79 1068.6,234.48 999.6,176.2 998,173.5 979.83,142.82 977.25,98.669 976.98,81.115"];
	37 -- 42	 [fontsize=8,
		label=28.0,
		lp="1046.5,168.5",
		pos="972.14,191.99 984.91,186.92 1002,179.99 1017,173.5 1038.8,164.07 1063.6,152.46 1079.3,145.03"];
	37 -- 61	 [fontsize=8,
		label=12.0,
		lp="955.5,136.5",
		pos="950.92,191.79 947.65,178.47 942.27,150.35 948,127.5 952.51,109.54 964.28,91.048 971.37,81.044"];
	42 -- 60	 [fontsize=8,
		label=4.0,
		lp="1155.5,104.5",
		pos="1105.1,127.87 1115.9,120.04 1133.5,107.83 1150,99.5 1164.6,92.137 1181.8,85.724 1195.5,81.109"];
	42 -- 61	 [fontsize=8,
		label=21.0,
		lp="1051.5,104.5",
		pos="1080.5,127.9 1057.9,116 1014.3,93.102 991.59,81.165"];
	2	 [URL="http://lattes.cnpq.br/4215337018359713",
		color="#17272B",
		fontcolor="#FFFFFF",
		height=0.23611,
		label="Edson H. Teixeira Junior [0]",
		pos="820,456.5",
		width=1.5];
	3	 [URL="http://lattes.cnpq.br/6367176618425888",
		color="#17272B",
		fontcolor="#FFFFFF",
		height=0.23611,
		label="Armenio Aguiar dos Santos [2]",
		pos="1266,456.5",
		width=1.625];
	39	 [URL="http://lattes.cnpq.br/6177966440557388",
		color="#17272B",
		fontcolor="#FFFFFF",
		height=0.23611,
		label="Jose R. Vasconcelos da Graca [2]",
		pos="1266,392.5",
		width=1.7222];
	3 -- 39	 [fontsize=8,
		label=2.0,
		lp="1271.5,424.5",
		pos="1266,447.9 1266,436 1266,413.1 1266,401.16"];
	4	 [URL="http://lattes.cnpq.br/2023603210832390",
		color="#17272B",
		fontcolor="#FFFFFF",
		height=0.23611,
		label="Walter Araujo Zin [0]",
		pos="1462,456.5",
		width=1.2083];
	5	 [URL="http://lattes.cnpq.br/1068691320807960",
		color="#17272B",
		fontcolor="#FFFFFF",
		height=0.23611,
		label="Igor I. Castro da Silva [5]",
		pos="1776,264.5",
		width=1.375];
	32	 [URL="http://lattes.cnpq.br/5537817532828798",
		color="#17272B",
		fontcolor="#FFFFFF",
		height=0.23611,
		label="Maristela I. Osawa Vasconcelos [41]",
		pos="1698,200.5",
		width=1.875];
	5 -- 32	 [fontsize=8,
		label=5.0,
		lp="1747.5,232.5",
		pos="1766.4,255.9 1751.5,244 1722.7,221.1 1707.6,209.16"];
	69	 [URL="http://lattes.cnpq.br/9251743262592177",
		color="#17272B",
		fontcolor="#FFFFFF",
		height=0.23611,
		label="Maria S. de Araujo Dias [39]",
		pos="1802,136.5",
		width=1.5278];
	32 -- 69	 [fontsize=8,
		label=19.0,
		lp="1764.5,168.5",
		pos="1710.8,191.9 1730.7,180 1769.1,157.1 1789.1,145.16"];
	6	 [URL="http://lattes.cnpq.br/9516354961432684",
		color="#17272B",
		fontcolor="#FFFFFF",
		height=0.23611,
		label="Márcia V. Alves Saraiva [13]",
		pos="903,392.5",
		width=1.5417];
	6 -- 19	 [fontsize=8,
		label=1.0,
		lp="870.5,360.5",
		pos="892.33,383.9 875.63,372 843.51,349.1 826.76,337.16"];
	6 -- 56	 [fontsize=8,
		label=13.0,
		lp="904.5,328.5",
		pos="902.11,384 899.45,361.64 891.59,295.64 888.91,273.12"];
	6 -- 60	 [fontsize=8,
		label=1.0,
		lp="1406.5,232.5",
		pos="958.5,384.56 961.38,384.2 964.22,383.85 967,383.5 1015.2,377.49 1401,378.09 1401,329.5 1401,329.5 1401,329.5 1401,135.5 1401,112.24 \
1383.8,110.02 1363,99.5 1335.7,85.639 1302.1,79.079 1274.3,76.011"];
	8	 [URL="http://lattes.cnpq.br/0430275226558223",
		color="#17272B",
		fontcolor="#FFFFFF",
		height=0.23611,
		label="Leonardo Damasceno de Sá [0]",
		pos="1812,456.5",
		width=1.625];
	9	 [URL="http://lattes.cnpq.br/5941161934316711",
		color="#17272B",
		fontcolor="#FFFFFF",
		height=0.23611,
		label="Maria Elias Soares [0]",
		pos="1934,456.5",
		width=1.2222];
	10	 [URL="http://lattes.cnpq.br/8957236315615454",
		color="#17272B",
		fontcolor="#FFFFFF",
		height=0.23611,
		label="Maria do S. Rodrigues de Sousa [0]",
		pos="2069,456.5",
		width=1.8194];
	11	 [URL="http://lattes.cnpq.br/3993754230332852",
		color="#17272B",
		fontcolor="#FFFFFF",
		height=0.23611,
		label="Andre Jalles Monteiro [0]",
		pos="2206,456.5",
		width=1.375];
	12	 [URL="http://lattes.cnpq.br/8799551213988584",
		color="#17272B",
		fontcolor="#FFFFFF",
		height=0.23611,
		label="Vicente Lima Crisóstomo [0]",
		pos="2331,456.5",
		width=1.5278];
	13	 [URL="http://lattes.cnpq.br/2149928021922564",
		color="#17272B",
		fontcolor="#FFFFFF",
		height=0.23611,
		label="Alberto Sampaio Lima [7]",
		pos="2456,456.5",
		width=1.4028];
	14	 [URL="http://lattes.cnpq.br/0506346607081493",
		color="#17272B",
		fontcolor="#FFFFFF",
		height=0.23611,
		label="Wagner Bandeira Andriola [7]",
		pos="2456,392.5",
		width=1.5833];
	13 -- 14	 [fontsize=8,
		label=7.0,
		lp="2461.5,424.5",
		pos="2456,447.9 2456,436 2456,413.1 2456,401.16"];
	15	 [URL="http://lattes.cnpq.br/0145509726999114",
		color="#17272B",
		fontcolor="#FFFFFF",
		height=0.23611,
		label="Maxweel Veras Rodrigues [9]",
		pos="2633,456.5",
		width=1.5694];
	16	 [URL="http://lattes.cnpq.br/1962466876884560",
		color="#17272B",
		fontcolor="#FFFFFF",
		height=0.23611,
		label="Sueli M. de Araújo Cavalcante [4]",
		pos="2595,392.5",
		width=1.7639];
	15 -- 16	 [fontsize=8,
		label=3.0,
		lp="2622.5,424.5",
		pos="2628.3,447.9 2621,436 2607,413.1 2599.7,401.16"];
	66	 [URL="http://lattes.cnpq.br/5234277371908895",
		color="#17272B",
		fontcolor="#FFFFFF",
		height=0.23611,
		label="Joao W. Carneiro Alexandre [9]",
		pos="2646,328.5",
		width=1.6528];
	15 -- 66	 [fontsize=8,
		label=8.0,
		lp="2674.5,392.5",
		pos="2639.9,447.79 2648.2,437.89 2661.7,419.81 2667,401.5 2673.8,377.98 2659.3,350.18 2651.1,337.06"];
	16 -- 66	 [fontsize=8,
		label=3.0,
		lp="2629.5,360.5",
		pos="2601.3,383.9 2611,372 2629.9,349.1 2639.7,337.16"];
	17	 [URL="http://lattes.cnpq.br/4257594561432768",
		color="#17272B",
		fontcolor="#FFFFFF",
		height=0.23611,
		label="Eloisa Maia Vidal [1]",
		pos="2764,456.5",
		width=1.1944];
	20	 [URL="http://lattes.cnpq.br/3883239297819453",
		color="#17272B",
		fontcolor="#FFFFFF",
		height=0.23611,
		label="Andre Haguette [1]",
		pos="2764,392.5",
		width=1.0972];
	17 -- 20	 [fontsize=8,
		label=1.0,
		lp="2769.5,424.5",
		pos="2764,447.9 2764,436 2764,413.1 2764,401.16"];
	18	 [URL="http://lattes.cnpq.br/8992341585329383",
		color="#17272B",
		fontcolor="#FFFFFF",
		height=0.23611,
		label="Virginia Bentes Pinto [0]",
		pos="2874,456.5",
		width=1.3472];
	22	 [URL="http://lattes.cnpq.br/7385143792598274",
		color="#17272B",
		fontcolor="#FFFFFF",
		height=0.23611,
		label="Maria A. Monteiro da Silva [13]",
		pos="1660,456.5",
		width=1.6667];
	22 -- 32	 [fontsize=8,
		label=3.0,
		lp="1452.5,328.5",
		pos="1599.8,449.79 1536.8,442.1 1447,425.51 1447,393.5 1447,393.5 1447,393.5 1447,295.5 1447,274.77 1454.3,267.75 1471,255.5 1498.6,235.31 \
1588.4,218.27 1646.5,209.01"];
	22 -- 69	 [fontsize=8,
		label=6.0,
		lp="2248.5,296.5",
		pos="1720.2,449.49 1869.2,434.56 2243,396.76 2243,393.5 2243,393.5 2243,393.5 2243,199.5 2243,160.99 1975.8,144.87 1857.4,139.61"];
	28	 [URL="http://lattes.cnpq.br/9270913804724785",
		color="#17272B",
		fontcolor="#FFFFFF",
		height=0.23611,
		label="Cibelly A. S. Lima Freitas [37]",
		pos="1660,392.5",
		width=1.6111];
	22 -- 28	 [fontsize=8,
		label=4.0,
		lp="1665.5,424.5",
		pos="1660,447.9 1660,436 1660,413.1 1660,401.16"];
	30	 [URL="http://lattes.cnpq.br/8155612498783539",
		color="#17272B",
		fontcolor="#FFFFFF",
		height=0.23611,
		label="Izabelle M. Napoleão Albuquerque [32]",
		pos="1843,328.5",
		width=2.0139];
	22 -- 30	 [fontsize=8,
		label=2.0,
		lp="1916.5,392.5",
		pos="1709.8,447.97 1778,437.13 1893.7,416.77 1906,401.5 1925.5,377.3 1882.9,350.04 1858.5,337.1"];
	31	 [URL="http://lattes.cnpq.br/9795597292263465",
		color="#17272B",
		fontcolor="#FFFFFF",
		height=0.23611,
		label="Eliany Nazaré Oliveira [14]",
		pos="1579,264.5",
		width=1.4722];
	22 -- 31	 [fontsize=8,
		label=1.0,
		lp="1504.5,360.5",
		pos="1627.7,447.94 1589.2,437.02 1526.7,412.73 1499,365.5 1477,327.91 1535.6,289.26 1564.2,273.21"];
	28 -- 32	 [fontsize=8,
		label=6.0,
		lp="1674.5,296.5",
		pos="1660,383.72 1660.4,359.69 1663.2,284.86 1684,227.5 1686.3,221.14 1690,214.42 1692.9,209.41"];
	28 -- 69	 [fontsize=8,
		label=10.0,
		lp="1509.5,264.5",
		pos="1635.4,383.91 1583.3,366.38 1468.7,319.58 1502,255.5 1547.7,167.58 1673.6,144.83 1747,139.16"];
	28 -- 30	 [fontsize=8,
		label=17.0,
		lp="1770.5,360.5",
		pos="1682.4,383.9 1717.7,371.97 1785.5,348.98 1820.7,337.07"];
	28 -- 31	 [fontsize=8,
		label=5.0,
		lp="1630.5,328.5",
		pos="1655.2,384 1640.8,361.64 1598.4,295.64 1583.9,273.12"];
	67	 [URL="http://lattes.cnpq.br/1161853804012604",
		color="#17272B",
		fontcolor="#FFFFFF",
		height=0.23611,
		label="Roberta C. Muniz Lira [2]",
		pos="2164,328.5",
		width=1.4028];
	28 -- 67	 [fontsize=8,
		label=1.0,
		lp="1948.5,360.5",
		pos="1718.3,384.33 1817.9,372.07 2019.3,347.3 2113.4,335.73"];
	30 -- 32	 [fontsize=8,
		label=10.0,
		lp="1850.5,264.5",
		pos="1844.4,319.84 1846.5,305.56 1848.8,274.63 1834,255.5 1813.9,229.58 1779.6,216.07 1750.4,209.05"];
	30 -- 69	 [fontsize=8,
		label=1.0,
		lp="1862.5,232.5",
		pos="1849.5,319.86 1853.3,314.95 1857.7,308.25 1860,301.5 1866.5,282.11 1866.8,275.4 1862,255.5 1851.2,210.35 1820.1,162.98 1807.4,145.01"];
	30 -- 31	 [fontsize=8,
		label=3.0,
		lp="1762.5,296.5",
		pos="1819.4,319.9 1794.6,312.08 1754.3,299.89 1719,291.5 1688.2,284.19 1653.2,277.69 1625.9,273.02"];
	68	 [URL="http://lattes.cnpq.br/0926082188345417",
		color="#17272B",
		fontcolor="#FFFFFF",
		height=0.23611,
		label="Ivana C. de H. Cunha Barreto [6]",
		pos="1995,264.5",
		width=1.7083];
	30 -- 68	 [fontsize=8,
		label=1.0,
		lp="1946.5,296.5",
		pos="1867.2,319.99 1882.3,315.13 1901.9,308.43 1919,301.5 1940.8,292.65 1965.2,280.69 1980.4,273.04"];
	31 -- 32	 [fontsize=8,
		label=3.0,
		lp="1640.5,232.5",
		pos="1589.8,255.72 1600.8,247.98 1618.6,236.06 1635,227.5 1648.6,220.38 1664.7,213.78 1677.1,209.02"];
	31 -- 69	 [fontsize=8,
		label=6.0,
		lp="1615.5,200.5",
		pos="1580.1,255.94 1582.6,241.27 1590.1,208.89 1610,191.5 1647.9,158.31 1704.7,145.4 1746.8,140.45"];
	23	 [URL="http://lattes.cnpq.br/4138758876612437",
		color="#17272B",
		fontcolor="#FFFFFF",
		height=0.23611,
		label="Luiz O. Monteiro de Andrade [5]",
		pos="1995,328.5",
		width=1.7083];
	23 -- 68	 [fontsize=8,
		label=5.0,
		lp="2000.5,296.5",
		pos="1995,319.9 1995,308 1995,285.1 1995,273.16"];
	24	 [URL="http://lattes.cnpq.br/2222107613838755",
		color="#17272B",
		fontcolor="#FFFFFF",
		height=0.23611,
		label="Percy A. Galimbertti Catanio [0]",
		pos="3002,456.5",
		width=1.6944];
	25	 [URL="http://lattes.cnpq.br/3817419583415614",
		color="#17272B",
		fontcolor="#FFFFFF",
		height=0.23611,
		label="Geison Vasconcelos Lira [5]",
		pos="1843,392.5",
		width=1.5];
	25 -- 32	 [fontsize=8,
		label=1.0,
		lp="1709.5,296.5",
		pos="1819.6,383.94 1787.2,372.09 1729.9,345.83 1704,301.5 1686.4,271.3 1692.7,226.88 1696.3,209.18"];
	25 -- 69	 [fontsize=8,
		label=3.0,
		lp="2080.5,264.5",
		pos="1885.9,383.99 1947.2,372.82 2053.9,351.63 2065,337.5 2087.5,308.85 2084.8,286.09 2065,255.5 2019.2,184.71 1919.7,155.99 1857.1,144.62"];
	25 -- 30	 [fontsize=8,
		label=2.0,
		lp="1848.5,360.5",
		pos="1843,383.9 1843,372 1843,349.1 1843,337.16"];
	26	 [URL="http://lattes.cnpq.br/8444547145601106",
		color="#17272B",
		fontcolor="#FFFFFF",
		height=0.23611,
		label="Camilla A. Lopes Vieira [3]",
		pos="2328,392.5",
		width=1.4722];
	26 -- 67	 [fontsize=8,
		label=1.0,
		lp="2261.5,360.5",
		pos="2307.9,383.9 2276.3,371.97 2215.5,348.98 2184,337.07"];
	27	 [URL="http://lattes.cnpq.br/7174269574652869",
		color="#17272B",
		fontcolor="#FFFFFF",
		height=0.23611,
		label="Luis A. Rodrigues Furtado [1]",
		pos="2328,328.5",
		width=1.5833];
	26 -- 27	 [fontsize=8,
		label=1.0,
		lp="2333.5,360.5",
		pos="2328,383.9 2328,372 2328,349.1 2328,337.16"];
	29	 [URL="http://lattes.cnpq.br/1065956470701739",
		color="#17272B",
		fontcolor="#FFFFFF",
		height=0.23611,
		label="Deborah Christina Antunes [1]",
		pos="2461,328.5",
		width=1.5972];
	26 -- 29	 [fontsize=8,
		label=1.0,
		lp="2408.5,360.5",
		pos="2344.3,383.9 2369.8,372 2419,349.1 2444.6,337.16"];
	33	 [URL="http://lattes.cnpq.br/4989617783837981",
		color="#17272B",
		fontcolor="#FFFFFF",
		height=0.23611,
		label="Ana L. Figueiredo Porto [12]",
		pos="1227,328.5",
		width=1.5278];
	33 -- 36	 [fontsize=8,
		label=1.0,
		lp="1176.5,296.5",
		pos="1210.2,319.99 1199,314.91 1184.1,307.98 1171,301.5 1152,292.06 1130.4,280.46 1116.7,273.02"];
	33 -- 42	 [fontsize=8,
		label=2.0,
		lp="1223.5,232.5",
		pos="1227.2,319.72 1227.4,293.73 1224.6,208.93 1180,163.5 1171.1,154.47 1159.2,148.56 1147.1,144.7"];
	33 -- 60	 [fontsize=8,
		label=1.0,
		lp="1367.5,200.5",
		pos="1282.3,323.55 1319.6,317.51 1362,302.51 1362,265.5 1362,265.5 1362,265.5 1362,135.5 1362,95.553 1314.2,81.089 1274.1,75.984"];
	35	 [URL="http://lattes.cnpq.br/2834403735297272",
		color="#17272B",
		fontcolor="#FFFFFF",
		height=0.23611,
		label="José L. de Lima Filho [11]",
		pos="1275,200.5",
		width=1.4167];
	33 -- 35	 [fontsize=8,
		label=11.0,
		lp="1262.5,264.5",
		pos="1229.9,320 1238.4,297.64 1263.5,231.64 1272.1,209.12"];
	35 -- 42	 [fontsize=8,
		label=1.0,
		lp="1236.5,168.5",
		pos="1263.5,191.81 1250.9,183.69 1229.8,171.03 1210,163.5 1188.3,155.23 1163.2,149.18 1142,145.01"];
	35 -- 60	 [fontsize=8,
		label=1.0,
		lp="1257.5,136.5",
		pos="1271.7,192 1262,169.64 1233.2,103.64 1223.3,81.125"];
	38	 [URL="http://lattes.cnpq.br/4856342729161082",
		color="#17272B",
		fontcolor="#FFFFFF",
		height=0.23611,
		label="Paulo V. Alves Carneiro [0]",
		pos="3134,456.5",
		width=1.4722];
	40	 [URL="http://lattes.cnpq.br/3982243706104818",
		color="#17272B",
		fontcolor="#FFFFFF",
		height=0.23611,
		label="Marcelo de Miranda Melo [0]",
		pos="3261,456.5",
		width=1.5556];
	43	 [URL="http://lattes.cnpq.br/6672867433887720",
		color="#17272B",
		fontcolor="#FFFFFF",
		height=0.23611,
		label="Christian D. Monteiro de Oliveira [0]",
		pos="3403,456.5",
		width=1.8889];
	44	 [URL="http://lattes.cnpq.br/9262063602399799",
		color="#17272B",
		fontcolor="#FFFFFF",
		height=0.23611,
		label="Maria D. de Brito Mota [0]",
		pos="3541,456.5",
		width=1.4444];
	45	 [URL="http://lattes.cnpq.br/7986697292459304",
		color="#17272B",
		fontcolor="#FFFFFF",
		height=0.23611,
		label="Fernando J. Pires de Sousa [1]",
		pos="3668,456.5",
		width=1.5833];
	46	 [URL="http://lattes.cnpq.br/6222392839472168",
		color="#17272B",
		fontcolor="#FFFFFF",
		height=0.23611,
		label="Carlos A. Leite Moreira [1]",
		pos="3668,392.5",
		width=1.4583];
	45 -- 46	 [fontsize=8,
		label=1.0,
		lp="3673.5,424.5",
		pos="3668,447.9 3668,436 3668,413.1 3668,401.16"];
	47	 [URL="http://lattes.cnpq.br/5941867047206757",
		color="#17272B",
		fontcolor="#FFFFFF",
		height=0.23611,
		label="Alba M. Pinho de Carvalho [1]",
		pos="3801,456.5",
		width=1.6111];
	50	 [URL="http://lattes.cnpq.br/6362352492858096",
		color="#17272B",
		fontcolor="#FFFFFF",
		height=0.23611,
		label="Rejane Batista Vasconcelos [1]",
		pos="3801,392.5",
		width=1.625];
	47 -- 50	 [fontsize=8,
		label=1.0,
		lp="3806.5,424.5",
		pos="3801,447.9 3801,436 3801,413.1 3801,401.16"];
	48	 [URL="http://lattes.cnpq.br/4445388887592052",
		color="#17272B",
		fontcolor="#FFFFFF",
		height=0.23611,
		label="Elza M. Franco Braga [0]",
		pos="3926,456.5",
		width=1.3611];
	49	 [URL="http://lattes.cnpq.br/6074006170274002",
		color="#17272B",
		fontcolor="#FFFFFF",
		height=0.23611,
		label="Francisca S. de Sousa Monte [1]",
		pos="4053,456.5",
		width=1.6667];
	55	 [URL="http://lattes.cnpq.br/3048795266534895",
		color="#17272B",
		fontcolor="#FFFFFF",
		height=0.23611,
		label="Luiz A. Maciel de Paula [2]",
		pos="4122,392.5",
		width=1.4722];
	49 -- 55	 [fontsize=8,
		label=1.0,
		lp="4096.5,424.5",
		pos="4061.5,447.9 4074.7,436 4100.2,413.1 4113.5,401.16"];
	51	 [URL="http://lattes.cnpq.br/7306722117822350",
		color="#17272B",
		fontcolor="#FFFFFF",
		height=0.23611,
		label="Alcides Fernando Gussi [2]",
		pos="588,264.5",
		width=1.4583];
	51 -- 54	 [fontsize=8,
		label=1.0,
		lp="557.5,232.5",
		pos="577.82,255.9 561.89,244 531.24,221.1 515.26,209.16"];
	52	 [URL="http://lattes.cnpq.br/2352567866641388",
		color="#17272B",
		fontcolor="#FFFFFF",
		height=0.23611,
		label="Elione M. Nogueira Diogenes [1]",
		pos="638,200.5",
		width=1.7222];
	51 -- 52	 [fontsize=8,
		label=1.0,
		lp="621.5,232.5",
		pos="594.13,255.9 603.73,244 622.19,221.1 631.82,209.16"];
	53	 [URL="http://lattes.cnpq.br/9529052562255476",
		color="#17272B",
		fontcolor="#FFFFFF",
		height=0.23611,
		label="Gema G. S. Leite Esmeraldo [1]",
		pos="4191,456.5",
		width=1.6667];
	53 -- 55	 [fontsize=8,
		label=1.0,
		lp="4165.5,424.5",
		pos="4182.5,447.9 4169.3,436 4143.8,413.1 4130.5,401.16"];
	58	 [URL="http://lattes.cnpq.br/3660059315904005",
		color="#17272B",
		fontcolor="#FFFFFF",
		height=0.23611,
		label="Carla T. Vasconcelos de Melo [0]",
		pos="4332,456.5",
		width=1.7361];
	59	 [URL="http://lattes.cnpq.br/0156118338258425",
		color="#17272B",
		fontcolor="#FFFFFF",
		height=0.23611,
		label="André L. Coelho da Silva [0]",
		pos="4468,456.5",
		width=1.5278];
	63	 [URL="http://lattes.cnpq.br/6492671109544154",
		color="#17272B",
		fontcolor="#FFFFFF",
		height=0.23611,
		label="Eduardo Girao Santiago [0]",
		pos="4594,456.5",
		width=1.4583];
	64	 [URL="http://lattes.cnpq.br/7275712282541003",
		color="#17272B",
		fontcolor="#FFFFFF",
		height=0.23611,
		label="José A. Farias Filho [0]",
		pos="4711,456.5",
		width=1.2778];
	70	 [URL="http://lattes.cnpq.br/5589121427880123",
		color="#17272B",
		fontcolor="#FFFFFF",
		height=0.23611,
		label="Paulo Roberto dos Santos [0]",
		pos="4830,456.5",
		width=1.5278];
}
