
PB0:2013,200;2014,196;2015,171;2016,177;
PB1:2013,22;2014,20;2015,23;2016,8;
PB2:2013,41;2014,67;2015,60;2016,54;
PB3:*itens sem ano,36;2013,18;2014,21;2015,21;2016,5;
PB4:2013,82;2014,63;2015,67;2016,36;
PB5:2013,43;2014,29;2015,42;2016,30;
PB6:2013,178;2014,188;2015,170;2016,83;
PB7:2013,4;2014,6;2015,4;2016,8;
PB8:2013,269;2014,303;2015,240;2016,227;
PB9:2013,22;2014,16;2015,16;2016,10;
PT2:2015,1;
PT3:2013,1;
PT4:2013,60;2014,64;2015,59;2016,44;
PT5:*itens sem ano,7;2013,40;2014,43;2015,26;2016,24;
PA0:2013,3;2014,3;
OA0:2014,2;2015,4;2016,4;2017,4;
OA1:2009,2;2011,2;2012,4;2013,17;2014,34;2015,31;2016,27;2017,13;
OA2:2002,1;2004,1;2009,3;2012,8;2013,13;2014,15;2015,29;2016,63;2017,30;
OA4:2014,3;2015,2;2016,3;2017,16;
OA5:2002,1;2003,2;2013,1;2014,10;2015,12;2016,34;2017,14;
OA6:2002,1;2014,1;2016,5;2017,19;
OC0:2013,6;2014,4;2015,8;2016,3;
OC1:2013,25;2014,32;2015,29;2016,30;
OC2:2013,115;2014,104;2015,94;2016,77;
OC3:2013,17;2014,13;2015,61;2016,5;
OC4:2013,86;2014,107;2015,59;2016,55;
OC5:2013,56;2014,54;2015,46;2016,27;
OC6:2013,24;2014,21;2015,34;2016,19;
Pm:2013,24;2014,44;2015,33;2016,24;
Pj:1990,1;1993,1;2002,2;2004,2;2005,1;2006,3;2007,7;2008,13;2009,12;2010,22;2011,32;2012,51;2013,53;2014,44;2015,39;2016,35;
PB:*itens sem ano,36;2013,879;2014,909;2015,814;2016,638;
PT:*itens sem ano,7;2013,101;2014,107;2015,86;2016,68;
PA:2013,3;2014,3;
OA:2002,3;2003,2;2004,1;2009,5;2011,2;2012,12;2013,31;2014,65;2015,78;2016,136;2017,96;
OC:2013,329;2014,335;2015,331;2016,216;
Ep:2013,213;2014,164;2015,157;2016,127;
Eo:2013,38;2014,26;2015,25;2016,23;