
PB0:2015,176;
PB1:2015,45;
PB2:2015,89;
PB3:*itens sem ano,17;2015,9;
PB4:2015,223;
PB5:2015,3;
PB6:2015,7;
PB7:2015,7;
PB8:*itens sem ano,4;2015,40;
PB9:*itens sem ano,1;2015,29;
PT3:*itens sem ano,2;
PT4:2015,17;
PT5:*itens sem ano,1;2015,24;
OA0:2015,1;2016,3;2017,1;
OA1:2010,1;2011,3;2012,7;2013,20;2014,28;2015,36;2016,35;2017,24;
OA2:2012,3;2014,4;2015,14;2016,34;2017,16;
OA4:2014,1;2015,1;2016,5;2017,2;
OA5:2011,1;2014,1;2015,1;
OA6:2016,1;2017,3;
OC0:2015,4;
OC1:2015,22;
OC2:2015,41;
OC3:2015,20;
OC4:2015,15;
OC5:2015,7;
OC6:2015,3;
Pm:2015,9;
Pj:1996,1;2000,1;2001,1;2002,1;2004,1;2005,1;2008,3;2009,4;2010,4;2011,7;2012,17;2013,27;2014,20;2015,23;
PB:*itens sem ano,22;2015,628;
PT:*itens sem ano,3;2015,41;
OA:2010,1;2011,4;2012,10;2013,20;2014,34;2015,53;2016,78;2017,46;
OC:2015,112;
Ep:2015,60;
Eo:*itens sem ano,2;2015,32;