trabalhoCompletoEmCongresso	Paulo Fernando Ferreira Rosa	2016	http://dx.doi.org/10.1109/LARS-SBR.2016.49	Integration of People Detection and Simultaneous Localization and Mapping Systems for an Autonomous Robotic Platform	2016 XIII Latin American Robotics Symposium and IV Brazilian Robotics Symposium (LARS/SBR)	ANGONESE, ALBERTO TORRES ; ROSA, PAULO FERNANDO FERREIRA		
trabalhoCompletoEmCongresso	Paulo Fernando Ferreira Rosa	2016		PEOPLE DETECTION SYSTEM FOR AN AUTONOMOUS ROBOTIC PLATFORM INTEGRATED WITH SIMULTANEOUS LOCALIZATION AND MAPPING	XXI CONGRESSO BRASILEIRO DE AUTOMÁTICA	Angonese, T. A. ; ROSA, PAULO F. F.		
trabalhoCompletoEmCongresso	Paulo Fernando Ferreira Rosa	2016		Redução de dimensionalidade de dados para detecção de fechamento de loop através de método espectral: implementação experimental	XXI CONGRESSO BRASILEIRO DE AUTOMÁTICA	Moreira, L. A. S. ; JUSTEL, C. M. ; ROSA, PAULO F. F.		
trabalhoCompletoEmCongresso	Paulo Fernando Ferreira Rosa	2016		Sistema de VANTs para Monitoramento Persistente de Ambientes Dinâmicos: Um Simulador de Trajetórias	XXI CONGRESSO BRASILEIRO DE AUTOMÁTICA	SILVA, L. C. B. ; GIOVANINI, B. S. ; ROSA, PAULO F. F.		
trabalhoCompletoEmCongresso	Paulo Fernando Ferreira Rosa	2016		Construção de um Framework de Planejamento e Controle de Trajetória em Tempo Real de Múltiplos Robôs Terrestres	III Workshop on MSc Dissertation and PhD Thesis Contest in Robotics (WTDR)	ROSA, J. F. ; ROSA, PAULO F. F.		
resumoExpandidoEmCongresso	Paulo César Pellanda	2016	Built Environment Lifecycle Management by Using Large-Scale BIM: a Brazilian Army Case Study	BIM International Conference - BIC-2016, 2016, São Paulo e Lisboa. Proceedings of the 4th BIM International Conference. Lisboa: BIM Management Institute	Alexandre Fitzner do Nascimento ; Giuseppe Miceli Junior ; PELLANDA, Paulo César		
artigoEmPeriodico	Maria Thereza Miranda Rocco Giraldi	2016	http://dx.doi.org/10.1109/TIM.2016.2571378	Curvature and Vibration Sensing Based on Core Diameter Mismatch Structures	IEEE Transactions on Instrumentation and Measurement	FERNANDES, C. S. ; GIRALDI, M. T. M. R. ; SOUSA, M. J. ; COSTA, J. C. W. A. ; Gouveia, Carlos ; JORGE, P. A. S. ; FRANCO, M. A. R.	B1	
trabalhoCompletoEmCongresso	Maria Thereza Miranda Rocco Giraldi	2016		Modelagem de um enlace FSO em um meio turbulento e com desalinhamento	MOMAG 2016	CORREA, J. G. P. S. ; BESSONI, R. S. C. ; CARNEIRO, V. G. A. ; GIRALDI, M. T. M. R.		
trabalhoCompletoEmCongresso	Maria Esther Soares Marques	2016		VirtualT-bar penetrometer tests using Discrete Element Method	ICS´5 International conference on Geothecnical and Geophysical Characterization	Carvalho, L. S. ; OLIVEIRA, José Renato Moreira da Silva de ; Vasconcellos, C. A. B. ; Marques, M. E. S.		
artigoEmPeriodico	Luiz Felipe Coutinho Ferreira da Silva	2016		Observação do Impacto do Uso de Área Projetada a partir do Indice de Reserva Legal, no Maciço da Tijuca/RJJ	RBC. Revista Brasileira de Cartografia (Online)	LAETA, T. ; FERREIRA, L.F. ; FERNANDES, M.C.	B1	
artigoEmPeriodico	Luiz Felipe Coutinho Ferreira da Silva	2016		Identificação de Áreas Suscetíveis ao Processo de Movimento de Massa aem a Visita de Campo e Obtida por Análise Multicritério	Caderno de Estudos Geoambientais	LOBATO, R. B. ; FERREIRA DA SILVA, L. F. C. ; VOLOTAO, C. F. S.	Qualis nao identificado	Caderno de Estudos Geoambientais
artigoEmPeriodico	Luiz Antonio Vieira Carneiro	2016		Estudo de placas de concreto com fibras de aço e de poliolefina submetidas a impacto balístico	REVISTA MILITAR DE CIÊNCIA E TECNOLOGIA	GASPAR, D. H. ; CARNEIRO, L. A. V. ; Teixeira, A. M. A. J.	B5	
trabalhoCompletoEmCongresso	Luiz Antonio Vieira Carneiro	2016		Casos de Fissuração em Blocos de Concreto Armado sobre Estacas	Congresso Brasileiro de Patologia das Construções	THOMAZ, E. C. S. ; CARNEIRO, L. A. V.		
trabalhoCompletoEmCongresso	Luiz Antonio Vieira Carneiro	2016		Efeito de Altas Temperaturas na Resistência à Flexão de Concreto Convencional	Congresso Brasileiro de Patologia das Construções	PAIVA, A. A. S. ; VASCONCELLOS, C. A. B. ; CARNEIRO, L. A. V.		
trabalhoCompletoEmCongresso	Luiz Antonio Vieira Carneiro	2016		Considerações sobre o Dimensionamento de Blocos sobre Estacas com o Uso do Método das Bielas e Tirantes	IX Congresso Brasileiro de Pontes e Estruturas	THOMAZ, E. C. S. ; CARNEIRO, L. A. V.		
trabalhoCompletoEmCongresso	Luiz Antonio Vieira Carneiro	2016		Estudos sobre Reforço de Vigas-Parede de Concreto Armado com Materiais Compósitos de Resina e Fibras de Carbono	IX Congresso Brasileiro de Pontes e Estruturas	AVILA, F. G. ; Teixeira, A. M. A. J. ; CARNEIRO, L. A. V.		
trabalhoCompletoEmCongresso	Luiz Antonio Vieira Carneiro	2016		Efeito do Resfriamento Brusco na Resistência de Concreto Convencional sob Elevadas Temperaturas	II Encontro Luso-Brasileiro de Degradação de Estruturas de Betão	PAIVA, A. A. S. ; VASCONCELLOS, C. A. B. ; CARNEIRO, L. A. V.		
trabalhoCompletoEmCongresso	Luiz Antonio Vieira Carneiro	2016		Avaliação das Propriedades de Concreto de Alta Resistência com Agregados Miúdos de Borracha de Pneus Inservíveis Triturados	58. Congresso Brasileiro do Concreto	CARNEIRO, L. A. V.; GUIMARÃES, A. C. R. ; SILVA, B. A. E. ; SANTANA, C. S. A.		
trabalhoCompletoEmCongresso	Luiz Antonio Vieira Carneiro	2016		Tendência de Composições sobre Concretos Projetados	58. Congresso Brasileiro do Concreto	SANTANA, C. S. A. ; Teixeira, A. M. A. J. ; CARNEIRO, L. A. V.		
trabalhoCompletoEmCongresso	Luiz Antonio Vieira Carneiro	2016		Avaliação do Efeito Tamanho na Resistência à Compressão e nos Parâmetros não Destrutivos de Colunas Curtas de Concreto Simples	58. Congresso Brasileiro do Concreto	RABELO, L. A. ; CARNEIRO, L. A. V.		
trabalhoCompletoEmCongresso	Luiz Antonio Vieira Carneiro	2016		Dimensionamento de Vigas-Parede de Concreto Armado Reforçadas ao Cisalhamento com Compósitos de Resina e Fibras	58. Congresso Brasileiro do Concreto	AVILA, F. G. ; Teixeira, A. M. A. J. ; CARNEIRO, L. A. V.		
artigoEmPeriodico	José Antonio Apolinário Junior	2016	http://dx.doi.org/10.1049/iet-rsn.2016.0015	Consistent DOA Estimation of Heavily Noisy Gunshot Signals Using a Microphone Array	IET Radar Sonar and Navigation	BORZINO, ANGELO ; APOLINARIO JR., JOSE ; DE CAMPOS, MARCELLO	Qualis nao identificado	IET Radar Sonar and Navigation
trabalhoCompletoEmCongresso	José Antonio Apolinário Junior	2016		Detection of ENF discontinuitiesusing PLL for audio authenticity	7th IEEE Latin American Symposium on Circuits and Systems (LASCAS)	FUENTES-LUJAMBIO, M. ; ZINEMANAS-FRIET, P. I. ; CANCELA-ARESQUETA, P. A. ; APOLINARIO JR., J. A.		
trabalhoCompletoEmCongresso	José Antonio Apolinário Junior	2016		Avaliação de algoritmos de localização de alvos baseados apenas em medidas de marcação	Simpósio Brasileiro de Telecomunicações e Processamento de Sinais (SBrT)	SANTOS, E. C. ; APOLINÁRIO JR., J.A. ; DOS SANTOS, J. C. A.		
trabalhoCompletoEmCongresso	José Antonio Apolinário Junior	2016		Investigating the potential of UAV for gunshot DoA estimation and shooter localization	Simpósio Brasileiro de Telecomunicações e Processamento de Sinais (SBrT)	Fernandes, R. P. ; BORZINO, A. M. C. R. ; RAMOS, A. L. L. ; APOLINÁRIO JR., J.A.		
trabalhoCompletoEmCongresso	José Antonio Apolinário Junior	2016		An L1-normLlinearly Constrinaed Affine Projection Algorithm	IEEE Sensor Array and Multichannel Signal Processing Workshop (SAM)	Andrade Jr., J. F. ; Apolinário Jr., J. A. ; DE CAMPOS, MARCELLO		
trabalhoCompletoEmCongresso	José Antonio Apolinário Junior	2016		AN OVERVIEW AND FUTURE PERSPECTIVES ON DATA TRANSMISSION STRATEGIES FOR UNMANED AERIAL VEHICLES	SDPS Conference	SHAO, ZHILI ; RAMOS, A. L. L. ; APOLINÁRIO JR., J.A.		
artigoEmPeriodico	Itamar Borges Junior	2016	http://dx.doi.org/10.1016/j.supflu.2016.04.004	Molecular dynamics simulations of momentum and thermal diffusion properties of near-critical argon along isobars	The Journal of Supercritical Fluids	NICHELE, JAKLER ; BORGES, ITAMAR ; DE OLIVEIRA, ALAN B. ; DE B. ALVES, LEONARDO S.	A1	
artigoEmPeriodico	Itamar Borges Junior	2016	http://dx.doi.org/10.1021/acs.jpcc.6b07689	Insight into the Excited State Electronic and Structural Properties of the Organic Photovoltaic Donor Polymer Poly(thieno[3,4- <i>b</i> ]thiophene benzodithiophene) by Means of <i>ab Initio</i> and Density Functional Theory	Journal of Physical Chemistry. C	BORGES, ITAMAR; Uhl, Elmar ; MODESTO-COSTA, LUCAS ; Aquino, Adélia J. A. ; Lischka, Hans	A1	
artigoEmPeriodico	Ernesto Leite Pinto	2016	http://dx.doi.org/10.5028/jatm.v8i2.588	Performance Comparison of the IMMPDAF Algorithm Using Real and Simulated Radar Measurements	JOURNAL OF AEROSPACE TECHNOLOGY AND MANAGEMENT (ONLINE)	DE SOUZA, MARCELO LUCENA ; GUIMARÃES, ALBERTO GASPAR ; PINTO, ERNESTO LEITE	B3	
artigoEmPeriodico	Maurício Henrique Costa Dias	2016	http://dx.doi.org/10.1007/s00034-016-0242-6	An Evolutionary Method for Synthesizing Low-Sensitivity Lossless Matching Networks	Circuits, Systems, and Signal Processing	SA, L. B. ; DIAS, M. H. C. ; MESQUITA FILHO, A. C.	Qualis nao identificado	Circuits, Systems, and Signal Processing
trabalhoCompletoEmCongresso	Maurício Henrique Costa Dias	2016		Considerações sobre a Escolha de Antenas para Rádio Definido por Software Tático Terrestre	XXXIV Simpósio Brasileiro de Telecomunicações e Processamento de Sinais (SBrT 2016)	PEREIRA, F. E. S. ; GOMES, G. A. F. ; DIAS, M. H. C.		
artigoEmPeriodico	Carla Liberal Pagliari	2016	http://dx.doi.org/10.1007/s11045-016-0417-0	Recurrent pattern matching based stereo image coding using linear predictors	Multidimensional Systems and Signal Processing (Online)	LUCAS, LUÍS F. R. ; RODRIGUES, NUNO M. M. ; PAGLIARI, Carla L. ; DA SILVA, EDUARDO A. B. ; DE FARIA, SÉRGIO M. M.	B1	Multidimensional Systems and Signal Processing
artigoEmPeriodico	Carla Liberal Pagliari	2016	http://dx.doi.org/10.1109/TIP.2016.2582422	Image Coding Using Generalized Predictors Based on Sparsity and Geometric Transformations	IEEE Transactions on Image Processing	LUCAS, LUIS F. R. ; RODRIGUES, NUNO M. M. ; DA SILVA, EDUARDO A. B. ; PAGLIARI, Carla L. ; DE FARIA, SERGIO M. M.	A2	
trabalhoCompletoEmCongresso	Carla Liberal Pagliari	2016	http://dx.doi.org/10.1016/B978-0-12-396502-8.00002-4	LIGHT FIELD HEVC-BASED IMAGE CODING USING LOCALLY LINEAR EMBEDDING AND SELF-SIMILARITY COMPENSATED PREDICTION	2ICME 2016 Grand Challenge: Light-Field Image Compression ICME 2016 Grand Challenge: Light-Field Image Compression ICME 2016 Grand Challenge: Light-Field Image Compression	CONTI, C. ; Lucas, Luís ; SOARES, L. D. ; NUNES, P. ; SILVA, E. A. B. ; PAGLIARI, C. L.		
trabalhoCompletoEmCongresso	Antonio Eduardo Carrilho da Cunha	2016		ATTITUDE CONTROL OF A NANO QUADROTOR	CONGRESSO BRASILEIRO DE AUTOMÁTICA	LOBO E SILVA, L. O. G. ; CARRILHO DA CUNHA, A. E.		
artigoEmPeriodico	Alberto Mota Simões	2016	http://dx.doi.org/10.1049/iet-cta.2016.0570	Structured robust controller design via non-smooth mixed Mu synthesis	IET Control Theory & Applications (Online)	DE MENEZES, EDUARDO ; DE AGUIAR, RAQUEL ; SIMÕES, ALBERTO ; Apkarian, Pierre	B5	
artigoEmPeriodico	Rosângela Fernandes Coelho	2016	http://dx.doi.org/10.1109/LSP.2015.2495102	Speech Enhancement with Nonstationary Acoustic Noise Detection in Time Domain	IEEE Signal Processing Letters	TAVARES, R. ; COELHO, R., Rosângela Coelho	A2	
trabalhoCompletoEmCongresso	Rosângela Fernandes Coelho	2016	http://dx.doi.org/10.1201/b19385-8	Empirical Signal Decomposition for Acoustic Noise Detection	IEEE 9th Sensor Array and Multichannel Signal Processing Workshop	ZÃO, L. ; COELHO, R., Rosângela Coelho		
trabalhoCompletoEmCongresso	Rosângela Fernandes Coelho	2016		Decomposição Tempo-Frequência Adaptativa de Sinais Acústicos com Variações Emocionais	XXXIV Simpósio Brasileiro de Telecomunicações e Processamento de Sinais	VIEIRA, V. J. D. ; COELHO, R., Rosângela Coelho ; ASSIS, F. M.		
trabalhoCompletoEmCongresso	Rosângela Fernandes Coelho	2016		Verificação Acústica de Emoções Baseada no Modelo Estocástico alfa-GMM-UBM	XXXIV Simpósio Brasileiro de Telecomunicações e Processamento de Sinais	ZUCATELLI, G. ; COELHO, R., Rosângela Coelho		
trabalhoCompletoEmCongresso	Rosângela Fernandes Coelho	2016		Método Combinado de Multitreinamento e Realce de Sinais em Presença de Interferências Acústicas	XXXIV Simpósio Brasileiro de Telecomunicações e Processamento de Sinais	ZAO, L. ; COELHO, R., Rosângela Coelho		
artigoEmPeriodico	Ronaldo Moreira Salles	2016	http://dx.doi.org/10.1109/tla.2016.7786311	A Model for Management of Virtual Networks in OpenFlow Environment	Revista IEEE América Latina	NASCIMENTO ARAUJO, TARCISIO ; MOREIRA SALLES, RONALDO	B1	
trabalhoCompletoEmCongresso	Ronaldo Moreira Salles	2016		Uso de SDN no Balanceamento de Carga em Redes com Suporte a Múltiplos Caminhos	XXXIV Simpósio Brasileiro de Telecomunicações e Processamento de Sinais	OLIVEIRA, N. Q. ; SALLES, R. M.		
trabalhoCompletoEmCongresso	Ronaldo Moreira Salles	2016		Minimização de Potência para Redes Ad-hoc de uso Militar	XXXIV Simpósio Brasileiro de Telecomunicações e Processamento de Sinais	Vasconcelos, M. ; SALLES, R. M.		
