trabalhoCompletoEmCongresso	Geraldo Luis Bezerra Ramalho	2013		Diretrizes, Estratégias e Confiabilidade Utilizadas no Gerenciamento de Alarmes	VIII Congresso Norte Nordeste de Pesquisa e Inovação	MOREIRA, A. P. ; RAMALHO, G. L. B. ; BARBOSA, D. A. ; BORGES NETO, M. R. ; PINHEIRO NETO, J. S.		
trabalhoCompletoEmCongresso	Geraldo Luis Bezerra Ramalho	2013		Elevação Artificial: Panorama e Perspectiva para a Utilização de Completação Inteligente	VIII Congresso Norte Nordeste de Pesquisa e Inovação	BARBOSA, D. A. ; MOREIRA, A. P. ; Ramalho, Geraldo L. B. ; BORGES NETO, M. R. ; PINHEIRO NETO, J. S.		
trabalhoCompletoEmCongresso	Geraldo Luis Bezerra Ramalho	2013		Deteção de falhas em máquinas rotativas através de características do sinal de vibração e rede SOFM	XI Simpósio Brasileiro de Automação Inteligente	RAMALHO, G. L. B.; REBOUCAS FILHO, P. P. ; SCHMIDLIN Jr, C. R. ; DIAS, S. V.		
artigoEmPeriodico	Marcos Erick Rodrigues da Silva	2013	http://dx.doi.org/10.1007/s12010-013-0159-5	Reductive Decolourisation of Sulphonated Mono and Diazo Dyes in One- and Two-Stage Anaerobic Systems	Applied Biochemistry and Biotechnology	SILVA, MARCOS ERICK RODRIGUES; FIRMINO, PAULO IGOR MILEN ; SANTOS, ANDRÉ BEZERRA	A1	
trabalhoCompletoEmCongresso	Marcos Erick Rodrigues da Silva	2013		Avaliação do efluente final das estações de tratamento de esgotos de Sobral-CE em relação ao atendimento à legislação ambiental	Congresso Norte Nordeste de Pesquisa e Inovação (VIII CONNEPI)	RODRIGUES, C. G. ; CAVALCANTE, R. R. M. ; ARAUJO, G. M. ; SILVA, M. E. R. ; HORTEGAL FILHA, M. S. R.		
trabalhoCompletoEmCongresso	Marcos Erick Rodrigues da Silva	2013		APLICAÇÃO DO PLANEJAMENTO EXPERIMENTAL NA OTIMIZAÇÃO DO PROCESSO FENTON NA REMOÇÃO DOS CORANTES RB5 E RB19	Congresso Norte Nordeste de Pesquisa e Inovação (VIII CONNEPI)	LIMA, Z. C. O. ; GOMES, F. B. M. ; RODRIGUES, G. S. ; OLIVEIRA, R. L. ; ARAUJO, G. M. ; SILVA, M. E. R.		
trabalhoCompletoEmCongresso	Joao Carlos da Costa Assuncao	2013		INVESTIGAÇÃO DE BIOCATALISADORES NATURAIS PARA OBTENÇÃO DE MOLÉCULAS DE INTERESSE COMERCIAL	VIII Congresso Norte Nordeste de Pesquisa e Inovação	SAMPAIO, V. H. G. ; OLIVEIRA, M. C. F. ; MATTOS, M. C. ; ASSUNCAO, J. C. C.		
trabalhoCompletoEmCongresso	Joao Carlos da Costa Assuncao	2013		RESÍDUOS VEGETAIS COMO BIOCATALISADORES NA REDUÇÃO DA ACETOFENONA	VIII Congresso Norte Nordeste de Pesquisa e Inovação	ARAUJO, C. R. A. ; OLIVEIRA, M. C. F. ; MATTOS, M. C. ; ASSUNCAO, J. C. C.		
trabalhoCompletoEmCongresso	Joao Carlos da Costa Assuncao	2013		TRIAGEM FITOQUÍMICA DE EXTRATOS ETANÓLICOS DE Ruta graveolens L (ARRUDA) E Alpinia zerumbet (COLÔNIA)	VIII Congresso Norte Nordeste de Pesquisa e Inovação	COSTA JUNIOR, M. T. B. ; ASSUNCAO, J. C. C.		
trabalhoCompletoEmCongresso	Rodrigo Freitas Guimarães	2013		AVALIAÇÃO DO COMPORTAMENTO CORROSIVO DE LIGAS EXPERIMENTAIS DE AÇO INOXIDÁVEL FERRÍTICO COM DIFERENTES TEORES DE CROMO E ALTO TEOR DE MOLIBDÊNIO APÓS SOLDAGEM AUTÓGENA	COTEQ - CONFERÊNCIA SOBRE TECNOLOGIA DE EQUIPAMENTOS	BARROSO, A. P. R. N. ; SANTOS, L. S. ; PARENTE, M. M. V. ; GUIMARÃES, Rodrigo Freitas		
trabalhoCompletoEmCongresso	Rodrigo Freitas Guimarães	2013		ANÁLISE DO COMPORTAMENTO CORROSIVO NA SOLDA DISSIMILAR DE UMA LIGA INOXIDÁVEL FERRÍTICA COM ALTO TEOR DE MOLIBDÊNIO ATRAVÉS DA ADIÇÃO DE SUPERLIGA DE NÍQUEL	VIII CONGRESSO NORTE NORDESTE DE PESQUISA E INOVAÇÃO	SANTOS, L. S. ; PINHEIRO, V. M. ; PARENTE, M. M. V. ; GUIMARÃES, Rodrigo Freitas		
trabalhoCompletoEmCongresso	Rodrigo Freitas Guimarães	2013		ESTUDO DO COMPORTAMENTO CORROSIVO DE UMA LIGA EXPERIMENTAL FERRÍTICA COM ALTO TEOR DE MOLIBDÊNIO ATRAVÉS DA ADIÇÃO DE SUPERLIGA DE NÍQUEL	VIII CONGRESSO NORTE NORDESTE DE PESQUISA E INOVAÇÃO	SANTOS, L. S. ; PINHEIRO, V. M. ; PARENTE, M. M. V. ; GUIMARÃES, Rodrigo Freitas ; CRUZ F. H. X.		
resumoExpandidoEmCongresso	Rodrigo Freitas Guimarães	2013	ESTUDO DO COMPORTAMENTO CORROSIVO NA SOLDA DISSIMILAR DE UMA LIGA EXPERIMENTAL COM ALTO TEOR DE MOLIBDÊNIO ATRAVÉS DA ADIÇÃO DE NÍQUEL	XI ENCONTRO DE INICIAÇÃO CIÊNTÍFICA E TECNOLÓGICA, 2013, IGUATU. XI ENCONTRO DE INICIAÇÃO CIÊNTÍFICA E TECNOLÓGICA	SANTOS, L. S. ; GUIMARÃES, Rodrigo Freitas		
artigoEmPeriodico	Francisco Eduardo Arruda Rodrigues	2013	http://dx.doi.org/10.1007/s10600-013-0539-7	Chemical composition and antioxidant activity of Indigofera suffruticosa	Chemistry of Natural Compounds	Arriaga, Angela M. C. ; LEMOS, TELMA L. G. ; Santiago, Gilvandete M. P. ; ANDRADE-NETO, MANOEL ; BRAGA, MILENA A. ; ALMEIDA, MACIA C. S. ; GOMES, TATHILENE B. M. ; RODRIGUES, FRANCISCO E. A. ; VASCONCELOS, JACKSON NUNES ; ALVES, PERICLES B.	B2	
resumoExpandidoEmCongresso	Francisco Eduardo Arruda Rodrigues	2013	PROPOSTA DE ENSINO DE QUÍMICA EXPERIMENTAL NO ENSINO MÉDIO DA ESCOLA MESTRE JÚLIO SARMENTO ATRAVÉS DE MATERIAIS DE BAIXO CUSTO	III Congresso Internacional da Educação Brasileira, 2013, Porto Seguro. CIDEB	JESUS, I. E. ; RODRIGUES, F. E. A. ; LIMA, M. C. M. ; BEZERRA MOTA GOMES ARRUDA, TATHILENE		
resumoExpandidoEmCongresso	Francisco Eduardo Arruda Rodrigues	2013	Kit experimental para aula prática de físico-química	VIII Congresso Norte Nordeste de Pesquisa e Inovação, 2013, Salvador. VIII Congresso Norte Nordeste de Pesquisa e Inovação	RODRIGUES, F. E. A.; CHAGAS, D. R. ; JESUS, I. E. ; LIMA, M. C. M.		
trabalhoCompletoEmCongresso	Auzuir Ripardo de Alexandria	2013		Possibilidades da Robótica Educacional como ferramenta de aprendizagem	Congresso Norte-Nordeste de Pesquisa e Inovação	SILVA, A. D. L. ; TEIXEIRA, E. S. ; ALEXANDRIA, A. R.		
trabalhoCompletoEmCongresso	Marcelo Monteiro Valente Parente	2013		AVALIAÇÃO DO COMPORTAMENTO CORROSIVO DE LIGAS EXPERIMENTAIS DE AÇO INOXIDÁVEL FERRÍTICO COM DIFERENTES TEORES DE CROMO E ALTO TEOR DE MOLIBDÊNIO APÓS SOLDAGEM AUTÓGENA	COTEQ - CONFERÊNCIA SOBRE TECNOLOGIA DE EQUIPAMENTOS	BARROSO, A. P. R. N. ; SANTOS, L. S. ; GUIMARAES, R. F. ; Araújo, W. S. ; PARENTE, M. M. V.		
artigoEmPeriodico	Pedro Pedrosa Rebouças Filho	2013	http://dx.doi.org/10.4236/jbise.2013.611138	3D segmentation and visualization of lung and its structures using CT images of the thorax	Journal of Biomedical Science and Engineering	REBOUÇAS FILHO, PEDRO P.; CORTEZ, PAULO CESAR ; DE ALBUQUERQUE, VICTOR HUGO C.	Qualis nao identificado	Journal of Biomedical Science and Engineering
artigoEmPeriodico	Pedro Pedrosa Rebouças Filho	2013	http://dx.doi.org/10.4322/rbeb.2013.041	Modelo de Contorno Ativo Crisp Adaptativo 2D aplicado na segmentação dos pulmões em imagens de TC do tórax de voluntários sadios e pacientes com enfisema pulmonar	Revista Brasileira de Engenharia Biomédica (Impresso)	Rebouças, Pedro Pedrosa; Cortez, Paulo César ; FÉLIX, JOHN HEBERT DA SILVA ; CAVALCANTE, TARIQUE DA SILVEIRA ; HOLANDA, MARCELO ALCANTARA	B1	
trabalhoCompletoEmCongresso	Pedro Pedrosa Rebouças Filho	2013		DETEÇÃO DE FALHAS ATRAVÉS DE CARACTERÍSTICAS DO SINAL DE VIBRAÇÃO E REDE SOFM	XI Simpósio Brasileiro de Automação Inteligente	RAMALHO, G. B. ; REBOUÇAS FILHO, P. P. ; SCHIMIDLIN, C. R. ; DIAS, S. V.		
trabalhoCompletoEmCongresso	Pedro Pedrosa Rebouças Filho	2013		TÉCNICAS DE PDI E INTELIGÊNCIA ARTIFICIAL APLICADAS AO RECONHECIMENTO DE PLACAS DE CARRO NOS PADRÕES BRASILEIROS	XI Simpósio Brasileiro de Automação Inteligente	Cavalcanti Neto, E. ; REBOUÇAS FILHO, P. P.		
trabalhoCompletoEmCongresso	Pedro Pedrosa Rebouças Filho	2013		Segmentação, reconstrução e visualização 3D dos pulmões utilizando Crescimento de Regiões 3D aplicado em imagens de Tomografia Computadorizada do tórax	XI Simpósio Brasileiro de Automação Inteligente	REBOUÇAS FILHO, P. P.; CORTEZ, P. C. ; Ribeiro, A. B. N. ; CAVALCANTE, T. S. ; FELIX, J. H. S. ; HOLANDA, M. A.		
trabalhoCompletoEmCongresso	Pedro Pedrosa Rebouças Filho	2013		DESENVOLVIMENTO DE UM SISTEMA EMBARCADO PARA CONSTRUÇÃO DE MAPAS DE AMBIENTE UTILIZANDO SENSOR ULTRASSÔNICO E ACIONAMENTO POR TELEMETRIA	CONNEPI 2013 - Congresso Norte Nordeste de Pesquisa e Inovação 2013	ALMEIDA, J. S. ; VIEIRA, E. S. ; BARBOSA, R. A. S. ; REBOUÇAS FILHO, P. P.		
trabalhoCompletoEmCongresso	Pedro Pedrosa Rebouças Filho	2013		Reconhecimento Óptico de Caracteres em Formato de Números e de Símbolos Aritméticos Escritos em Quadro Branco	Universo Estácio	BARBOSA JUNIOR, L. C. ; BARROS, A. C. S. ; REBOUÇAS FILHO, P. P. ; PAULA, M. O. S.		
trabalhoCompletoEmCongresso	Pedro Pedrosa Rebouças Filho	2013		Sistema de Percepção de Risco e Reconhecimento de Comportamentos de Motoristas	Universo Estácio	BARROS, A. C. S. ; REBOUÇAS FILHO, P. P. ; PAULA, M. O. S. ; BARROS, M. S. P.		
trabalhoCompletoEmCongresso	Pedro Pedrosa Rebouças Filho	2013		DESENVOLVIMENTO DE UM ROBÔ MÓVEL SEMIAUTÔNOMO ACIONADO E MONITORADO POR TELEMETRIA	CONNEPI 2013 - Congresso Norte Nordeste de Pesquisa e Inovação 2013	BARBOSA, R. A. S. ; ALMEIDA, J. S. ; REBOUÇAS FILHO, P. P.		
resumoExpandidoEmCongresso	Pedro Pedrosa Rebouças Filho	2013	DESENVOLVIMENTO DE SISTEMAS DE NAVEGAÇÃO PARA ROBÔ MÓVEL UTILIZANDO DISPOSITIVOS MÓVEIS e reconhecimento de gestos	XI Encontro de Iniciação Científica e Tecnológica, 2013, Iguatu. XI ENCONTRO DE INICIAÇÃO CIENTÍFICA (ENICIT)	Cavalcanti Neto, E. ; ALMEIDA, J. S. ; BARBOSA, R. A. S. ; REBOUÇAS FILHO, P. P.		
resumoExpandidoEmCongresso	Pedro Pedrosa Rebouças Filho	2013	DESENVOLVIMENTO DE UM ROBÔ MÓVEL SEMIAUTÔNOMO ACIONADO E MONITORADO POR TELEMETRIA	XI ENCONTRO DE INICIAÇÃO CIENTÍFICA (ENICIT), 2013, Iguatu-CE. XI ENCONTRO DE INICIAÇÃO CIENTÍFICA (ENICIT)	BARBOSA, R. A. S. ; ALMEIDA, J. S. ; REBOUÇAS FILHO, P. P.		
artigoEmPeriodico	Pedro Henrique Augusto Medeiros	2013	http://dx.doi.org/10.7158/w12-023.2013.17.1	Impact of dense reservoir networks on water resources in semiarid environments	Australian Journal of Water Resources	Araújo, J.C. ; Medeiros, P.H.A.	Qualis nao identificado	Australian Journal of Water Resources
trabalhoCompletoEmCongresso	Pedro Henrique Augusto Medeiros	2013		Comparison of approaches for water surface area segmentation using high resolution TerraSAR-X data for reservoir monitoring in a large semi-arid catchment in Northeast Brazil	SPIE Remote Sensing 2013	Kleine, I. ; Rogaß, C. ; Medeiros, P.H.A. ; Erpen, N.M. ; Francke, T. ; Bronstert, A. ; Förster, S.		
resumoExpandidoEmCongresso	Pedro Henrique Augusto Medeiros	2013	Impactos da densa rede de açudes no semiárido brasileiro	I Simpósio Brasileiro de Recursos Naturais do Semiárido, 2013, Iguatu. Anais do I Simpósio Brasileiro de Recursos Naturais do Semiárido	Araújo, J.C. ; Medeiros, P.H.A. ; Mamede, G.L.		
resumoExpandidoEmCongresso	Pedro Henrique Augusto Medeiros	2013	Susceptibilidade à erosão e vulnerabilidade da Caatinga aos processos erosivos na Estação Ecológica de Aiuaba - CE	I Simpósio Brasileiro de Recursos Naturais do Semiárido, 2013, Iguatu. Anais do I Simpósio Brasileiro de Recursos Naturais do Semiárido	Ávila, G.G. ; Medeiros, P.H.A.		
resumoExpandidoEmCongresso	Pedro Henrique Augusto Medeiros	2013	Validação do modelo MUSLE e do fator C em uma microbacia no semiárido submetida a queima e cultivo de pastagem	XLII Congresso Brasileiro de Engenharia Agrícola, 2013, Fortaleza. Anais do XLII Congresso Brasileiro de Engenharia Agrícola	Santos, J.C.N. ; Andrade, E.M. ; Medeiros, P.H.A. ; Araújo Neto, J. ; Palácio, H.A.Q.		
resumoExpandidoEmCongresso	Pedro Henrique Augusto Medeiros	2013	Efeito da vegetação de Caatinga sobre os fluxos de água e sedimentos em diferentes escalas espaciais	XI Encontro de Iniciação Científica e Tecnológica do IFCE, 2013, Iguatu. Anais do XI Encontro de Iniciação Científica e Tecnológica do IFCE	Teixeira, L.M.N. ; Medeiros, P.H.A.		
resumoExpandidoEmCongresso	Pedro Henrique Augusto Medeiros	2013	Levantamento de dados e caracterização de pequenos açudes no semiárido cearense	XI Encontro de Iniciação Científica e Tecnológica do IFCE, 2013, Iguatu. Anais do XI Encontro de Iniciação Científica e Tecnológica do IFCE	Braga, F.R.F. ; Lopes, A.A. ; Rodrigues, P. ; Medeiros, P.H.A.		
artigoEmPeriodico	Franklin Aragão Gondim	2013		Enhanced salt tolerance in maize plants induced by H2O2 leaf spraying is associated with improved gas exchange rather than with non-enzymatic antioxidant system	theoretycal and experimental plant physiology	Gondim, Franklin Aragão; rafael de souza miranda ; GOMES FILHO, Enéas ; PRISCO, José Tarquinio	Qualis nao identificado	theoretycal and experimental plant physiology
artigoEmPeriodico	Claudio Marques de Sá Medeiros	2013	http://dx.doi.org/10.1007/s00521-011-0748-6	A Novel Weight Pruning Method for MLP Classifiers Based on the MAXCORE Principle	Neural Computing & Applications (Print)	MEDEIROS, C. M. S.; BARRETO, G. A.	A2	
trabalhoCompletoEmCongresso	Claudio Marques de Sá Medeiros	2013	http://dx.doi.org/10.1109/COBEP.2013.6785201	Didactic kit for pratical testing of the basic switched mode power supply topologies	2013 Brazilian Power Electronics Conference (COBEP 2013)	VIANA, ISABELLI P. ; LIMA, WELTON S. ; AQUINO, CAIO A. ; JOHANNESSON, JOAO G. R. ; MEDEIROS, CLAUDIO M. S.		
trabalhoCompletoEmCongresso	Claudio Marques de Sá Medeiros	2013		Stator Winding Interturns Short Circuit Fault Detection in a Three Phase Induction Motor Driven by Frequency Converter Using Neural Networks	Energy Efficiency in Motor Driven Systems 2013 Conference	OLIVEIRA, A. G. ; MEDEIROS, C. M. S. ; Pontes, R. S. T.		
trabalhoCompletoEmCongresso	Claudio Marques de Sá Medeiros	2013	http://dx.doi.org/10.1109/brics-cci-cbic.2013.82	Neural Network Used to Stator Winding Interturn Short-Circuit Fault Detection in an Induction Motor Driven by Frequency Converter	2013 BRICS Congress on Computational Intelligence 11th Brazilian Congress on Computational Intelligence (BRICSCCI CBIC)	OLIVEIRA, ATILA GIRAO DE ; PONTES, RICARDO SILVA THE ; MEDEIROS, CLAUDIO MARQUES DE SA		
trabalhoCompletoEmCongresso	Claudio Marques de Sá Medeiros	2013		Redes Neurais utilizadas na Detecção de Falhas de curto-circuito entre espiras de um motor de indução trifásico	XI Simpósio Basileiro de Automação Inteligente e XI Conferência Brasileira de Dinâmica	OLIVEIRA, A. G. ; BESSA, R. ; Pontes, R. S. T. ; MEDEIROS, C. M. S.		
