ID_Lattes|MATRICULA|NOME|CH|mail|LP_1|PROGRAMA_1|CATEG_1|Periodo_Inicio_1|Periodo_Fim_1|Resp_prog|Resp_LP1
K4770984U6|99999|SELMA REGINA ARANHA RIBEIRO|40|UEPG@UEPG.br|CA|CA|P|2013|2016||
K4760504H0|99999|ROSANE FALATE|40|UEPG@UEPG.br|CA|CA|P|2013|2016||
K4326406T3|99999|PETRAQ PAPAJORGJI|40|UEPG@UEPG.br|CA|CA|P|2013|2016||
K4791983U7|99999|MARIA SALETE MARCON GOMES VAZ|40|UEPG@UEPG.br|CA|CA|P|2013|2016||
K4767395D4|99999|MARCELO GIOVANETTI CANTERI|40|UEPG@UEPG.br|CA|CA|P|2013|2016||
K4782860Z5|99999|RICARDO ANTONIO AYUB|40|UEPG@UEPG.br|CA|CA|P|2013|2016||
K4704988T6|99999|RAFAEL MAZER ETTO|40|UEPG@UEPG.br|CA|CA|P|2013|2016||
K4703018J8|99999|JOSE CARLOS FERREIRA DA ROCHA|40|UEPG@UEPG.br|CA|CA|P|2013|2016||
K4705808H0|99999|IVO MARIO MATHIAS|40|UEPG@UEPG.br|CA|CA|P|2013|2016||
K4796865P7|99999|EDUARDO FÁVERO CAIRES|40|UEPG@UEPG.br|CA|CA|P|2013|2016||
K4767325H4|99999|LUCIANO JOSE SENGER|40|UEPG@UEPG.br|CA|CA|P|2013|2016||
K4770715H0|99999|SIMONE NASSER MATOS|40|UEPG@UEPG.br|CA|CA|P|2013|2016||
K4769678Y0|99999|SERGIO LUIZ STEVAN JUNIOR|40|UEPG@UEPG.br|CA|CA|P|2013|2016||
K4708079Y6|99999|ARION DE CAMPOS JUNIOR|40|UEPG@UEPG.br|CA|CA|P|2013|2016||
K4700189D8|99999|ALCEU DE SOUZA BRITTO JUNIOR|40|UEPG@UEPG.br|CA|CA|P|2013|2016||
K4705808J5|99999|ALAINE MARGARETE GUIMARAES|40|UEPG@UEPG.br|CA|CA|P|2013|2016||
