2526528084082660
6126227866554006
5145660731844020
4208182183908248
2677193880642405
9044832488728469
3484559298674312
5627280493617718
7340081273816424
9624642322598710
8225280305561588
1802668440782138
8515936927903335
8555938548955913
0184097315948425
3753396875290650
6401622195719726
0008785408235675
1203357643381228
1091943838920616
2600028670260478
3699315472815625
0794170311040612
1991487635239768
6627014131017403
9378277300360931
1827829018668226
3500378598131809
6170151743824191
6741995694783822
1422344360088076
8799789625446617
7805175643211598
9499853431096097
5142105194557320
6032273849847285
2733625675496474
4245783904433288
2847901878340953
5766523603464801
5942854912353448
0833506257506062
1402763797221751
3531438717974837
4596163075908920
5623307231624204
1111360838843470
2041759788433449
3433073122990837
9513338508452376
4356157497752531
7628771206086042
3206119749462994
8270745882266634
1487184052521972
6926501999438658
7960921685798643
1174329248740303
4044806953310324
4047734305944217
1959593757995698
8976612631694154
5680492224529507
7418724825594141
2619438438944805
5189824871610431
3638659317775453
5011799712435927
8688783103064480
1398969380379092
0683605106396582
1398733763837178
2050632960242405
1652650180306511
8415637976182863
2755740550497444
0494751833227700
3674511692669753
7697794806460975
5463076295727564
0002803326787406
0299766434729314
1321463550383615
1322145791000702
4940357484416573
5190074256754373
2293659295741000
4368278144274574
0539134068708725
0791911049871382
8126060490795360
7897882277241709
0907001903528428
5644132494347187
2697220528113479
7384646889971994
8398704568012847
0112250534000487
8978150374616586
1639090194152343
9119692675488711
9736022522247474
5163275687077918
9852476120941871
3634406581405128
7177608200276449
2492963262176030
1529546331243541
9488561214326241
8838805961120078
0215478139550541
2741458816539568
0766735065718186
1846614285668988
5672578306671515
0262254836413031
2025959706947795
8080697890419252
3470235800622848
8892020194157938
0022858682525760
0052824466519592
8245654738276311
4697610292983660
5775091545458540
2466908951038836
6134133834289438
7273414344972795
3775696878060147
4909761891473754
2446506545665930
5844402584589598
2515751599589872
1404632471755241
6882442499141754
6148546666142551
6817204233903341
1067410443144841
7860824256178992
9135697164089163
6939819939303008
5565216743065412
7784197682091397
9317817017901110
4573503891768688
8456926218627789
4186875882129272
3521350764584469
1798434167940865
7428560072021675
5795421452758374
9226217407880831
6114592585348591
1896476549860669
7139666952163615
8855876327166587
2198356786465761
8880794065599664
7892247821251194
6747210702910392
5684206147354858
2320266673190614
7053190584769729
0513054381998196
5342547359165212
8733988559597721
6650527222516832
6509776045177264
6027598828196375
9634135132862159
5033662603886271
2198160413175929
0846508761438062
8022297490892415
3300067187001570
3425772998319216
9926552163622572
7076978352521394
6888892134532265
8982459573083797
4255272730149625
4759006674013596
5904935830618045
2301228789810942
5454168673866452
1657515907701213
7355315368234452
1660070580824436
5819024526114329
2662775834462406
2561038036258256
2772680929789725
8821536792042504
9877541906262149
9151590034650501
4479735010981813
4055541539548031
1644931272174401
6355212232870859
0654616161232492
6815619905005834
2279354170843465
0649912135067700
0301569503177054
0704248561279452
5222182427171497
8863234872460861
4444544784091697
0985484253315463
1228086943386679
9674155409799689
0504118112809709
0794510049080533
1944839179408780
0982856785258366
6566668318845305
7112745645895347
3524635289702824
2152475967461496
6779373793157592
0050402182466103
3991335284097878
8459515148567677
7747487425929025
6304377549101792
3177120438709107
6531101566543295
8633069185353316
3682402342405212
0825110101507054
5788242951837731
4027798659427044
8291123108448027
4794107935753176
7650036245245768
9862344168483523
4237009403698630
3610835454113660
7334416029938485
7982796939759440
8930335778301812
2918358912146465
6284915323138588
8293999476048705
9170893104155674
7696000869833399
7161963144100182
1424808046858622
3206145669430720
7497654219237163
2665030032263086
7247467260430387
3569271948805982
3945852495663322
6862058141328518
9833768521859653
3236053635645331
9277691783282108
4270104989591360
7991082362671212
5900335081944483
5749826588453772
5692825410779014
7875812727036898
9290548756209369
2942670551794546
4654274038915572
6158036609486608
7380841046850738
9255856779100547
6086190357278633
8431672735528634
8849420514868939
2587393949674134
2546799455900003
3563809681641435
7277318969645668
0933520670880119
7597699448868183
7170520991009259
7738876719285596
0473342349140026
0297236913997913
