strict graph grafo1 {
	graph [bb="0,0,5049,179",
		id=grafo1,
		overlap=False
	];
	node [fontsize=8,
		label="\N",
		shape=rectangle,
		style=filled
	];
	0	 [URL="http://lattes.cnpq.br/9490655465706879",
		color="#17272B",
		fontcolor="#FFFFFF",
		height=0.23611,
		label="Fábio de Oliveira Borges [0]",
		pos="54,170.5",
		width=1.5];
	1	 [URL="http://lattes.cnpq.br/6418711808050575",
		color="#17272B",
		fontcolor="#FFFFFF",
		height=0.23611,
		label="Fabio A. Machado Porto [0]",
		pos="180,170.5",
		width=1.4861];
	2	 [URL="http://lattes.cnpq.br/2440193189134197",
		color="#17272B",
		fontcolor="#FFFFFF",
		height=0.23611,
		label="Elson Magalhães Toledo [0]",
		pos="305,170.5",
		width=1.4861];
	3	 [URL="http://lattes.cnpq.br/7874406956798705",
		color="#17272B",
		fontcolor="#FFFFFF",
		height=0.23611,
		label="Emanuel Carlos de Souza [0]",
		pos="432,170.5",
		width=1.5278];
	4	 [URL="http://lattes.cnpq.br/7170508510503648",
		color="#17272B",
		fontcolor="#FFFFFF",
		height=0.23611,
		label="Carla O. Ferreira de Barros [2]",
		pos="563,170.5",
		width=1.5972];
	10	 [URL="http://lattes.cnpq.br/8989199088323836",
		color="#17272B",
		fontcolor="#FFFFFF",
		height=0.23611,
		label="Ana T. Ribeiro de Vasconcelos [4]",
		pos="517,116.5",
		width=1.7778];
	4 -- 10	 [pos="556.21,161.83 547.52,152 532.53,135.05 523.82,125.2"];
	47	 [URL="http://lattes.cnpq.br/1435339422167961",
		color="#17272B",
		fontcolor="#FFFFFF",
		height=0.23611,
		label="Kary A. d. C. Ocaña Gautherot [3]",
		pos="524,8.5",
		width=1.7639];
	4 -- 47	 [pos="569.65,161.71 576.29,153.38 586.05,139.47 590,125.5 598.7,94.704 605.1,81.714 590,53.5 580.51,35.773 560.38,23.955 544.83,17.071"];
	10 -- 47	 [pos="499.7,107.88 478.17,97.215 445.66,76.557 458,53.5 467.49,35.773 487.62,23.955 503.17,17.071"];
	45	 [URL="http://lattes.cnpq.br/9851093795076823",
		color="#17272B",
		fontcolor="#FFFFFF",
		height=0.23611,
		label="Luiz M. R. Gadelha Júnior [2]",
		pos="524,62.5",
		width=1.5833];
	10 -- 45	 [pos="518.03,107.83 519.36,97.996 521.64,81.051 522.96,71.204"];
	45 -- 47	 [pos="524,53.827 524,43.996 524,27.051 524,17.204"];
	5	 [URL="http://lattes.cnpq.br/7315592936477868",
		color="#17272B",
		fontcolor="#FFFFFF",
		height=0.23611,
		label="Abimael F. Dourado Loula [0]",
		pos="696,170.5",
		width=1.5833];
	6	 [URL="http://lattes.cnpq.br/2317714197108593",
		color="#17272B",
		fontcolor="#FFFFFF",
		height=0.23611,
		label="Sandra M. Cardoso Malta [0]",
		pos="826,170.5",
		width=1.5278];
	7	 [URL="http://lattes.cnpq.br/4448540530244733",
		color="#17272B",
		fontcolor="#FFFFFF",
		height=0.23611,
		label="Bruno Richard Schulze [0]",
		pos="950,170.5",
		width=1.4167];
	8	 [URL="http://lattes.cnpq.br/8102993969523532",
		color="#17272B",
		fontcolor="#FFFFFF",
		height=0.23611,
		label="Antonio André Novotny [1]",
		pos="1072,170.5",
		width=1.4722];
	13	 [URL="http://lattes.cnpq.br/7489426320194892",
		color="#17272B",
		fontcolor="#FFFFFF",
		height=0.23611,
		label="Jaime E. Munoz Rivera [1]",
		pos="1072,116.5",
		width=1.4306];
	8 -- 13	 [pos="1072,161.83 1072,152 1072,135.05 1072,125.2"];
	9	 [URL="http://lattes.cnpq.br/0868909503278328",
		color="#17272B",
		fontcolor="#FFFFFF",
		height=0.23611,
		label="André da M. Salles Barreto [0]",
		pos="1201,170.5",
		width=1.6111];
	11	 [URL="http://lattes.cnpq.br/2029610058780121",
		color="#17272B",
		fontcolor="#FFFFFF",
		height=0.23611,
		label="Alexandre Loureiro Madureira [0]",
		pos="1340,170.5",
		width=1.75];
	12	 [URL="http://lattes.cnpq.br/3423133876430218",
		color="#17272B",
		fontcolor="#FFFFFF",
		height=0.23611,
		label="João N. Correia Guerreiro [1]",
		pos="1477,170.5",
		width=1.5417];
	16	 [URL="http://lattes.cnpq.br/0375745110240885",
		color="#17272B",
		fontcolor="#FFFFFF",
		height=0.23611,
		label="Helio J. Corrêa Barbosa [2]",
		pos="1477,116.5",
		width=1.4583];
	12 -- 16	 [pos="1477,161.83 1477,152 1477,135.05 1477,125.2"];
	18	 [URL="http://lattes.cnpq.br/8344194525615133",
		color="#17272B",
		fontcolor="#FFFFFF",
		height=0.23611,
		label="Laurent Emmanuel Dardenne [1]",
		pos="1477,62.5",
		width=1.6944];
	16 -- 18	 [pos="1477,107.83 1477,97.996 1477,81.051 1477,71.204"];
	14	 [URL="http://lattes.cnpq.br/3336105307698769",
		color="#17272B",
		fontcolor="#FFFFFF",
		height=0.23611,
		label="Jiang Zhu [0]",
		pos="1581,170.5",
		width=0.83333];
	15	 [URL="http://lattes.cnpq.br/4054756781423727",
		color="#17272B",
		fontcolor="#FFFFFF",
		height=0.23611,
		label="Jauvane Cavalcante de Oliveira [0]",
		pos="1694,170.5",
		width=1.7917];
	17	 [URL="http://lattes.cnpq.br/4855123625274479",
		color="#17272B",
		fontcolor="#FFFFFF",
		height=0.23611,
		label="Gustavo A. Perla Menzala [0]",
		pos="1833,170.5",
		width=1.5556];
	19	 [URL="http://lattes.cnpq.br/4891962642648106",
		color="#17272B",
		fontcolor="#FFFFFF",
		height=0.23611,
		label="Paulo A. Andrade Esquef [0]",
		pos="1962,170.5",
		width=1.5278];
	20	 [URL="http://lattes.cnpq.br/9950879952262717",
		color="#17272B",
		fontcolor="#FFFFFF",
		height=0.23611,
		label="Gilson Antonio Giraldi [0]",
		pos="2086,170.5",
		width=1.4167];
	21	 [URL="http://lattes.cnpq.br/2332051647489024",
		color="#17272B",
		fontcolor="#FFFFFF",
		height=0.23611,
		label="Jack Baczynski [0]",
		pos="2194,170.5",
		width=1.0694];
	22	 [URL="http://lattes.cnpq.br/2770691272825932",
		color="#17272B",
		fontcolor="#FFFFFF",
		height=0.23611,
		label="Gilberto Oliveira Corrêa [0]",
		pos="2304,170.5",
		width=1.4722];
	23	 [URL="http://lattes.cnpq.br/0635728154206559",
		color="#17272B",
		fontcolor="#FFFFFF",
		height=0.23611,
		label="Frederic G. Christian Valentin [0]",
		pos="2438,170.5",
		width=1.7361];
	24	 [URL="http://lattes.cnpq.br/4587299173539062",
		color="#17272B",
		fontcolor="#FFFFFF",
		height=0.23611,
		label="Renato Simões Silva [0]",
		pos="2566,170.5",
		width=1.3056];
	25	 [URL="http://lattes.cnpq.br/2605062132611045",
		color="#17272B",
		fontcolor="#FFFFFF",
		height=0.23611,
		label="Renato Portugal [0]",
		pos="2671,170.5",
		width=1.1111];
	26	 [URL="http://lattes.cnpq.br/0472856771871140",
		color="#17272B",
		fontcolor="#FFFFFF",
		height=0.23611,
		label="Artur Ziviani [1]",
		pos="2764,170.5",
		width=0.97222];
	34	 [URL="http://lattes.cnpq.br/8326803963394077",
		color="#17272B",
		fontcolor="#FFFFFF",
		height=0.23611,
		label="Antônio T. Azevedo Gomes [1]",
		pos="2764,116.5",
		width=1.6389];
	26 -- 34	 [pos="2764,161.83 2764,152 2764,135.05 2764,125.2"];
	27	 [URL="http://lattes.cnpq.br/5169726739148918",
		color="#17272B",
		fontcolor="#FFFFFF",
		height=0.23611,
		label="Paulo C. Marques Vieira [0]",
		pos="2871,170.5",
		width=1.4861];
	28	 [URL="http://lattes.cnpq.br/1471432563506193",
		color="#17272B",
		fontcolor="#FFFFFF",
		height=0.23611,
		label="Roberto Pinto Souto [0]",
		pos="2989,170.5",
		width=1.2917];
	29	 [URL="http://lattes.cnpq.br/6688041530466410",
		color="#17272B",
		fontcolor="#FFFFFF",
		height=0.23611,
		label="Regina C. Cerqueira de Almeida [0]",
		pos="3120,170.5",
		width=1.8333];
	30	 [URL="http://lattes.cnpq.br/9273702863744424",
		color="#17272B",
		fontcolor="#FFFFFF",
		height=0.23611,
		label="Pedro L. da Silva Dias [0]",
		pos="3254,170.5",
		width=1.3889];
	31	 [URL="http://lattes.cnpq.br/3313361232260092",
		color="#17272B",
		fontcolor="#FFFFFF",
		height=0.23611,
		label="Michel I. da Silveira Costa [0]",
		pos="3379,170.5",
		width=1.5833];
	32	 [URL="http://lattes.cnpq.br/7692378777904673",
		color="#17272B",
		fontcolor="#FFFFFF",
		height=0.23611,
		label="Maurício Vieira Kritz [0]",
		pos="3503,170.5",
		width=1.3611];
	33	 [URL="http://lattes.cnpq.br/9237713158265249",
		color="#17272B",
		fontcolor="#FFFFFF",
		height=0.23611,
		label="Augusto C. N. Rodrigues Galeão [0]",
		pos="3637,170.5",
		width=1.8611];
	35	 [URL="http://lattes.cnpq.br/2207239537360072",
		color="#17272B",
		fontcolor="#FFFFFF",
		height=0.23611,
		label="Pablo Javier Blanco [0]",
		pos="3768,170.5",
		width=1.2778];
	36	 [URL="http://lattes.cnpq.br/2825302557451331",
		color="#17272B",
		fontcolor="#FFFFFF",
		height=0.23611,
		label="Eduardo L. Mendes Garcia [1]",
		pos="3889,170.5",
		width=1.5833];
	41	 [URL="http://lattes.cnpq.br/1392335366884977",
		color="#17272B",
		fontcolor="#FFFFFF",
		height=0.23611,
		label="Marcio Arab Murad [1]",
		pos="3889,116.5",
		width=1.2778];
	36 -- 41	 [pos="3889,161.83 3889,152 3889,135.05 3889,125.2"];
	37	 [URL="http://lattes.cnpq.br/5523810187385217",
		color="#17272B",
		fontcolor="#FFFFFF",
		height=0.23611,
		label="Fábio Custodio de Lima [0]",
		pos="4017,170.5",
		width=1.4583];
	38	 [URL="http://lattes.cnpq.br/0717161560405537",
		color="#17272B",
		fontcolor="#FFFFFF",
		height=0.23611,
		label="Marisa Fabiana Nicolás [0]",
		pos="4140,170.5",
		width=1.4444];
	39	 [URL="http://lattes.cnpq.br/1391205251405727",
		color="#17272B",
		fontcolor="#FFFFFF",
		height=0.23611,
		label="Marcos Garcia Todorov [2]",
		pos="4263,170.5",
		width=1.4583];
	43	 [URL="http://lattes.cnpq.br/9037349417947599",
		color="#17272B",
		fontcolor="#FFFFFF",
		height=0.23611,
		label="Marcelo Dutra Fragoso [2]",
		pos="4263,116.5",
		width=1.4167];
	39 -- 43	 [pos="4263,161.83 4263,152 4263,135.05 4263,125.2"];
	40	 [URL="http://lattes.cnpq.br/8203775174455802",
		color="#17272B",
		fontcolor="#FFFFFF",
		height=0.23611,
		label="Márcio Rentes Borges [0]",
		pos="4383,170.5",
		width=1.375];
	42	 [URL="http://lattes.cnpq.br/6124706286821773",
		color="#17272B",
		fontcolor="#FFFFFF",
		height=0.23611,
		label="Marcelo Trindade dos Santos [0]",
		pos="4512,170.5",
		width=1.6944];
	44	 [URL="http://lattes.cnpq.br/5337477770035604",
		color="#17272B",
		fontcolor="#FFFFFF",
		height=0.23611,
		label="Marc A. M. Thorsten Sammeth [0]",
		pos="4655,170.5",
		width=1.7778];
	46	 [URL="http://lattes.cnpq.br/1906825541995385",
		color="#17272B",
		fontcolor="#FFFFFF",
		height=0.23611,
		label="Luciane Prioli Ciapina [0]",
		pos="4787,170.5",
		width=1.3889];
	48	 [URL="http://lattes.cnpq.br/8764848120200293",
		color="#17272B",
		fontcolor="#FFFFFF",
		height=0.23611,
		label="Josias José da Silva [0]",
		pos="4901,170.5",
		width=1.2639];
	49	 [URL="http://lattes.cnpq.br/7200733421420566",
		color="#17272B",
		fontcolor="#FFFFFF",
		height=0.23611,
		label="José Karam Filho [0]",
		pos="5007,170.5",
		width=1.1667];
}
