artigoEmPeriodico	Sergio Roclaw Basbaum	2015	http://dx.doi.org/10.1386/tear.13.1-2.125_1	Technoaesthesis: The morning after the deluge (of technical images) - thoughts on perception, art and technology in our moistmedia times	Technoetic Arts	BASBAUM, SÉRGIO ROCLAW	B2	
artigoEmPeriodico	Sergio Roclaw Basbaum	2015		Reflexões sobre o monismo de triplo aspecto	Kínesis (Marília)	BASBAUM, Sergio	Qualis nao identificado	Kínesis (Marília)
artigoEmPeriodico	Sergio Roclaw Basbaum	2015		Relações entre paletas sonoras e padrões estéticos na constituição de identidade sonora em jogos digitais	Revista Sapere	MENEGUETTE, L. C. ; RODRIGUES, F. A. ; BASBAUM, Sergio	Qualis nao identificado	Revista Sapere
trabalhoCompletoEmCongresso	Sergio Roclaw Basbaum	2015		From Digital Harmony to Chromophonia: contributions to visual music development	Understanding Visual Music Symposium	BASBAUM, SÉRGIO ROCLAW		
trabalhoCompletoEmCongresso	Pollyana Ferrari Teixeira	2015		App #KdNoel: processo criativo no design de experiência e apresentação de uma proposta de ferramenta pedagógica	VI Simpósio Hipertexto e Tecnologias na Educação e II Colóquio de Educação com Tecnologias	VIANA, E. M. ; VILLEGAS, G. M. L. G. C. ; OLIVEIRA, A. P. ; FERRARI, Pollyana ; SILVA, S. F.		
artigoEmPeriodico	Maria Lucia Santaella Braga	2015		Uma imagem é uma imagem é uma imagem é uma imagem	Triade	Santaella, Lucia	Qualis nao identificado	Triade
artigoEmPeriodico	Maria Lucia Santaella Braga	2015	http://dx.doi.org/10.11606/issn.1982-8160.v9i1p167-185	The baffling concept of technical mediation in Bruno Latour	Matrizes (USP. Impresso)	Santaella, Lucia; CARDOSO, TARCISIO	B2	
artigoEmPeriodico	Maria Lucia Santaella Braga	2015		The fluid coevolution of humans and technologies	Technoetic Arts: A Journal of Speculative Research	Santaella, Lucia	Qualis nao identificado	Technoetic Arts: A Journal of Speculative Research
artigoEmPeriodico	Maria Lucia Santaella Braga	2015		A paixão da escritura	Revista Linguagem	Santaella, Lucia	Qualis nao identificado	Revista Linguagem
artigoEmPeriodico	Maria Lucia Santaella Braga	2015		A grande aceleração	In Texto (UFRGS. Online)	Santaella, Lucia	B1	
artigoEmPeriodico	Maria Lucia Santaella Braga	2015		Adeus às fronteiras entre natureza e cultura	Revista Observatório Itaú Cultural	Santaella, Lucia	B4	
artigoEmPeriodico	Marcus Vinicius Fainer Bastos	2015		Audiovisual ao vivo: feedbacks entre os cinemas experimentais, as artes do vídeo e o audiovisual contemporâneo	Revista Eco-Pós (Online)	BASTOS, Marcus	B2	
artigoEmPeriodico	Luís Carlos Petry	2015	http://dx.doi.org/10.11606/issn.1984-5057.v7i1p85-108	Perspectivas ontológicas dos games no século XXI	Signos do Consumo	PETRY, LUÍS CARLOS	B3	
artigoEmPeriodico	Italo Santiago Vega	2015		Adaptive Specifications and Emotions: Model of Narrative Generation for Interactive Learning Environments	Revista IEEE América Latina	VEGA, I. S	B1	
trabalhoCompletoEmCongresso	Italo Santiago Vega	2015		Elaboração de especificações adaptativas: uma abordagem biomimética	IX Workshop de Tecnologia Adaptativa	VEGA, I. S.; CAMARGO, E. P. ; MARCONDES, F. S.		
artigoEmPeriodico	Hermes Renato Hildebrand	2015		(C) Desenhar, modelar e design de nível como processos ontológicos na produção de jogos digitais	GamePad	PETRY, L. C. ; HILDEBRAND, Hermes Renato	C	
artigoEmPeriodico	Hermes Renato Hildebrand	2015		(C) Jogo e arte no campo da educação estética: um jogo modificado no desafio do processo de ensino e aprendizagem	GamePad	PETRY, L. C. ; HILDEBRAND, Hermes Renato ; GOMES, S. T.	C	
artigoEmPeriodico	Hermes Renato Hildebrand	2015		(B2) Considerações acerca do conceito de projeto de produtos interativos na contemporaneidade. Processo de criação e desenvolvimento do aplicativo Crewee	Infodesign (SBDI. Online)	HILDEBRAND, Hermes Renato; SILVA-GIL, A. G.	B2	
trabalhoCompletoEmCongresso	Hermes Renato Hildebrand	2015		ZL Vórtice: O processo criativo no contexto artístico contemporâneo (24o. ANPAP)	24o. Associação Nacional dos Pesquisadores em Artes Plásticas - ANPAP	HILDEBRAND, Hermes Renato; ARAUJO, D. P.		
trabalhoCompletoEmCongresso	Hermes Renato Hildebrand	2015		Arte e ativismo e ação direta na luta popular (Encontro Internacional Participação e Democracia)	II Encontro Internacional Participação	LOPES, C. B. M. ; HILDEBRAND, Hermes Renato		
trabalhoCompletoEmCongresso	Hermes Renato Hildebrand	2015		Considerations on Contemporary Concepts of Interactive Product Design: Creation and Development of Crewee Application	10th International Conference on Design Principles and Practices and the Design Principles and Practices knowledge community	SILVA-GIL, A. G. ; HILDEBRAND, Hermes Renato ; LOURENCO, A. J. M. L.		
artigoEmPeriodico	Daniel Couto Gatti	2015	http://dx.doi.org/10.15552/2236-0158/abenge.v34n1p51-60	Interdisciplinaridade como Consequência de Trabalhos Conjuntos entre Nível Técnico e Superior	Revista de Ensino de Engenharia	PICHI JÚNIOR, W. ; GATTI, D.C. ; SILVA, M.L.P.	B2	
trabalhoCompletoEmCongresso	Daniel Couto Gatti	2015		Uma Avaliacão da Protecão de Dados Sensíveis através do Navegador Web	SIMPÓSIO BRASILEIRO EM SEGURANÇA DA INFORMAÇÃO E DE SISTEMAS COMPUTACIONAIS (SBSeg)	SILVA, CARLO M. R. ; GARCIA, V. C. ; ASSAD, RODRIGO E. ; COSTA DA SILVA, JOSE LUTIANO ; QUEIROZ, R. J. G. B. ; RODRIGUES, RICARDO. B. ; NASCIMENTO, L. M. ; BRITO, K. S. ; GATTI, D. C.		
trabalhoCompletoEmCongresso	Daniel Couto Gatti	2015		T3: A Control Environment for Analyze of Sensitive Data Breaches over the Web Browser	. 15th IEEE International Conference on Computer and Information Technology (CIT)	SILVA, CARLO M. R. ; COSTA DA SILVA, JOSE LUTIANO ; RODRIGUES, RICARDO. B. ; GATTI, D. C. ; BRITO, K. S. ; NASCIMENTO, L. M. ; MIRANDA, P. C. B. ; ASSAD, RODRIGO E. ; QUEIROZ, R. J. G. B.		
artigoEmPeriodico	Ana Maria Di Grado Hessel	2015		Educação digital na contemporaneidade (Apresentação - Dossiê) - organização	Revista EDaPECI: Educação a Distância e Práticas Educativas Comunicacionais e Interculturais	BRUNO, Adriana Rocha ; HESSEL, Ana Maria Di Grado	Qualis nao identificado	Revista EDaPECI: Educação a Distância e Práticas Educativas Comunicacionais e Interculturais
trabalhoCompletoEmCongresso	Ana Maria Di Grado Hessel	2015		School Management in the Complex Thinking Perspective	12th INTERNATIONAL CONFERENCE ON INNOVATION AND MANAGEMENT	HESSEL, Ana Maria Di Grado; FAZENDA, I ; GUEVARA, A. J. H.		
trabalhoCompletoEmCongresso	Ana Maria Di Grado Hessel	2015		Aprendizagem multimidia: concepções do designer educacional	IV Seminário Web Currículo e XII Encontro de Pesquisadores em Currículo	ARAUJO, P. R. ; HESSEL, Ana Maria Di Grado		
artigoEmPeriodico	Winfried Maximilian Noth	2015		La topographie de la sémiosphère de Youri Lotman	Slavica Occitania	Winfried Nöth	Qualis nao identificado	Slavica Occitania
artigoEmPeriodico	Winfried Maximilian Noth	2015		Cinco perguntas sobre Peirce	Tríade: comunicação, cultura e mídia	Winfried Nöth	Qualis nao identificado	Tríade: comunicação, cultura e mídia
artigoEmPeriodico	Winfried Maximilian Noth	2015		Czas ucieleśniony jako przestrzeńw powieściach graficznych. Studia nad zastosowaniem semiotyki Peirce?a	Studia kulturoznawcze	Winfried Nöth	Qualis nao identificado	Studia kulturoznawcze
artigoEmPeriodico	Winfried Maximilian Noth	2015	http://dx.doi.org/10.1515/sem-2015-0058	Peircean visual semiotics: Potentials to be explored	Semiotica (Berlin)	Nöth, Winfried; JUNGK, ISABEL	B1	
artigoEmPeriodico	Winfried Maximilian Noth	2015		Levi R. Bryant's Universe Perfused with Machines	Language and Semiotic Studies	Winfried Nöth	Qualis nao identificado	Language and Semiotic Studies
artigoEmPeriodico	Winfried Maximilian Noth	2015		Resenha de Joao Queiroz e Lafayette Moraes (Orgs.) A Lógica de Diagramas de Charles Sanders Peirce	Cognitio: Revista de Filosofia	Winfried Nöth; CESTARI, G.	Qualis nao identificado	Cognitio: Revista de Filosofia
artigoEmPeriodico	Winfried Maximilian Noth	2015		Tradução comentada de ?Máquinas Lógicas? de Charles S. Peirce	TECCOGS: Revista Digital de Tecnologias Cognitivas	Winfried Nöth; CESTARI, G. ; GAZONI, R. M.	B3	
artigoEmPeriodico	Winfried Maximilian Noth	2015		Leitura semiótica dos ícones de aplicativos do iOS	TECCOGS: Revista Digital de Tecnologias Cognitivas	Winfried Nöth; OLIVEIRA, A. P.	B3	
artigoEmPeriodico	Demi Getschko	2015		The Origin and Evolution of Multistakeholder Models	IEEE Internet Computing	GETSCHKO, D.; ALMEIDA, V. ; AFONSO, C.	Qualis nao identificado	IEEE Internet Computing
