strict digraph grafo3 {
	graph [bb="0,0,1610.5,145",
		id=grafo3,
		overlap=False
	];
	node [fontsize=8,
		label="\N",
		shape=rectangle,
		style=filled
	];
	0	 [URL="http://lattes.cnpq.br/2699196515879292",
		color="#17272B",
		fontcolor="#FFFFFF",
		height=0.23611,
		label="Carla K. Nakao Cavaliero [0]",
		pos="55.5,136.5",
		width=1.5417];
	1	 [URL="http://lattes.cnpq.br/1348339517901277",
		color="#17272B",
		fontcolor="#FFFFFF",
		height=0.23611,
		label="Arnaldo C. da Silva Walter [2]",
		pos="186.5,136.5",
		width=1.5972];
	9	 [URL="http://lattes.cnpq.br/4630203406071626",
		color="#17272B",
		fontcolor="#FFFFFF",
		height=0.23611,
		label="Michelle C. Araujo Picoli [3]",
		pos="127.5,72.5",
		width=1.5278];
	1 -> 9	 [arrowhead=normal,
		arrowsize=0.75,
		fontsize=8,
		label=0.5,
		lp="137,104.5",
		penwidth=2.0,
		pos="e,126.33,81.143 157.24,128 147.57,124.06 137.7,118.18 131.5,109.5 127.34,103.67 126.09,95.901 125.98,89.072"];
	11	 [URL="http://lattes.cnpq.br/3608337314955861",
		color="#17272B",
		fontcolor="#FFFFFF",
		height=0.23611,
		label="Joaquim E. Abel Seabra [1]",
		pos="253.5,72.5",
		width=1.4583];
	1 -> 11	 [arrowhead=normal,
		arrowsize=0.75,
		fontsize=8,
		label=0.5,
		lp="224,104.5",
		penwidth=2.0,
		pos="e,242.01,81.141 192.46,127.92 198.6,120.34 208.63,108.54 218.5,99.5 223.8,94.649 229.97,89.823 235.65,85.669"];
	9 -> 1	 [arrowhead=normal,
		arrowsize=0.75,
		fontsize=8,
		label=0.33,
		lp="168,104.5",
		penwidth=1.49,
		pos="e,179.27,127.9 134.79,81.165 144.56,91.424 162.02,109.78 173.93,122.29"];
	14	 [URL="http://lattes.cnpq.br/7984956973544220",
		color="#17272B",
		fontcolor="#FFFFFF",
		height=0.23611,
		label="Fabio Vale Scarpare [2]",
		pos="127.5,8.5",
		width=1.2917];
	9 -> 14	 [arrowhead=normal,
		arrowsize=0.75,
		fontsize=8,
		label=0.67,
		lp="117,40.5",
		penwidth=2.51,
		pos="e,119.68,17.199 120.44,63.978 116.38,59.114 111.66,52.417 109.5,45.5 107.09,37.796 110.52,29.716 115.01,23.167"];
	11 -> 1	 [arrowhead=normal,
		arrowsize=0.75,
		fontsize=8,
		label=1.0,
		lp="243,104.5",
		penwidth=3.5,
		pos="e,202.77,127.86 249.73,81.094 245.57,88.906 238.29,101.09 229.5,109.5 223.64,115.11 216.36,120.07 209.47,124.12"];
	14 -> 9	 [arrowhead=normal,
		arrowsize=0.75,
		fontsize=8,
		label=1.0,
		lp="133,40.5",
		penwidth=3.5,
		pos="e,127.5,63.898 127.5,17.165 127.5,26.864 127.5,43.797 127.5,56.189"];
	2	 [URL="http://lattes.cnpq.br/8444233927942764",
		color="#17272B",
		fontcolor="#FFFFFF",
		height=0.23611,
		label="Andre Tosi Furtado [0]",
		pos="307.5,136.5",
		width=1.2639];
	3	 [URL="http://lattes.cnpq.br/0925321719024140",
		color="#17272B",
		fontcolor="#FFFFFF",
		height=0.23611,
		label="Conrado Augustus de Melo [0]",
		pos="429.5,136.5",
		width=1.6111];
	4	 [URL="http://lattes.cnpq.br/8200282913635713",
		color="#17272B",
		fontcolor="#FFFFFF",
		height=0.23611,
		label="Carlos E. Keutenedjian Mady [0]",
		pos="567.5,136.5",
		width=1.7083];
	5	 [URL="http://lattes.cnpq.br/9615242685505657",
		color="#17272B",
		fontcolor="#FFFFFF",
		height=0.23611,
		label="Sergio Valdir Bajay [0]",
		pos="693.5,136.5",
		width=1.2778];
	6	 [URL="http://lattes.cnpq.br/6535849579850035",
		color="#17272B",
		fontcolor="#FFFFFF",
		height=0.23611,
		label="Waldyr L. Ribeiro Gallo [0]",
		pos="810.5,136.5",
		width=1.4722];
	7	 [URL="http://lattes.cnpq.br/4762940910820774",
		color="#17272B",
		fontcolor="#FFFFFF",
		height=0.23611,
		label="Sonia R. da Cal Seixas [0]",
		pos="932.5,136.5",
		width=1.4028];
	8	 [URL="http://lattes.cnpq.br/9257679689413129",
		color="#17272B",
		fontcolor="#FFFFFF",
		height=0.23611,
		label="Paulo de Barros Correia [0]",
		pos="1053.5,136.5",
		width=1.4583];
	10	 [URL="http://lattes.cnpq.br/0826147739353493",
		color="#17272B",
		fontcolor="#FFFFFF",
		height=0.23611,
		label="Marcelo da Cunha Pereira [0]",
		pos="1180.5,136.5",
		width=1.5556];
	12	 [URL="http://lattes.cnpq.br/1913450752136533",
		color="#17272B",
		fontcolor="#FFFFFF",
		height=0.23611,
		label="Ieda Geriberto Hidalgo [0]",
		pos="1305.5,136.5",
		width=1.4167];
	13	 [URL="http://lattes.cnpq.br/8452695309949645",
		color="#17272B",
		fontcolor="#FFFFFF",
		height=0.23611,
		label="Gilberto De Martino Jannuzzi [0]",
		pos="1436.5,136.5",
		width=1.7222];
	15	 [URL="http://lattes.cnpq.br/7253800571271613",
		color="#17272B",
		fontcolor="#FFFFFF",
		height=0.23611,
		label="Ennio Peres da Silva [0]",
		pos="1563.5,136.5",
		width=1.3056];
}
