strict graph grafo1 {
	graph [bb="0,0,1610.5,125",
		id=grafo1,
		overlap=False
	];
	node [fontsize=8,
		label="\N",
		shape=rectangle,
		style=filled
	];
	0	 [URL="http://lattes.cnpq.br/2699196515879292",
		color="#17272B",
		fontcolor="#FFFFFF",
		height=0.23611,
		label="Carla K. Nakao Cavaliero [0]",
		pos="55.5,116.5",
		width=1.5417];
	1	 [URL="http://lattes.cnpq.br/1348339517901277",
		color="#17272B",
		fontcolor="#FFFFFF",
		height=0.23611,
		label="Arnaldo C. da Silva Walter [2]",
		pos="186.5,116.5",
		width=1.5972];
	9	 [URL="http://lattes.cnpq.br/4630203406071626",
		color="#17272B",
		fontcolor="#FFFFFF",
		height=0.23611,
		label="Michelle C. Araujo Picoli [3]",
		pos="123.5,62.5",
		width=1.5278];
	1 -- 9	 [pos="177.2,107.83 165.29,97.996 144.76,81.051 132.83,71.204"];
	11	 [URL="http://lattes.cnpq.br/3608337314955861",
		color="#17272B",
		fontcolor="#FFFFFF",
		height=0.23611,
		label="Joaquim E. Abel Seabra [1]",
		pos="249.5,62.5",
		width=1.4583];
	1 -- 11	 [pos="195.8,107.83 207.71,97.996 228.24,81.051 240.17,71.204"];
	14	 [URL="http://lattes.cnpq.br/7984956973544220",
		color="#17272B",
		fontcolor="#FFFFFF",
		height=0.23611,
		label="Fabio Vale Scarpare [2]",
		pos="123.5,8.5",
		width=1.2917];
	9 -- 14	 [pos="123.5,53.827 123.5,43.996 123.5,27.051 123.5,17.204"];
	2	 [URL="http://lattes.cnpq.br/8444233927942764",
		color="#17272B",
		fontcolor="#FFFFFF",
		height=0.23611,
		label="Andre Tosi Furtado [0]",
		pos="307.5,116.5",
		width=1.2639];
	3	 [URL="http://lattes.cnpq.br/0925321719024140",
		color="#17272B",
		fontcolor="#FFFFFF",
		height=0.23611,
		label="Conrado Augustus de Melo [0]",
		pos="429.5,116.5",
		width=1.6111];
	4	 [URL="http://lattes.cnpq.br/8200282913635713",
		color="#17272B",
		fontcolor="#FFFFFF",
		height=0.23611,
		label="Carlos E. Keutenedjian Mady [0]",
		pos="567.5,116.5",
		width=1.7083];
	5	 [URL="http://lattes.cnpq.br/9615242685505657",
		color="#17272B",
		fontcolor="#FFFFFF",
		height=0.23611,
		label="Sergio Valdir Bajay [0]",
		pos="693.5,116.5",
		width=1.2778];
	6	 [URL="http://lattes.cnpq.br/6535849579850035",
		color="#17272B",
		fontcolor="#FFFFFF",
		height=0.23611,
		label="Waldyr L. Ribeiro Gallo [0]",
		pos="810.5,116.5",
		width=1.4722];
	7	 [URL="http://lattes.cnpq.br/4762940910820774",
		color="#17272B",
		fontcolor="#FFFFFF",
		height=0.23611,
		label="Sonia R. da Cal Seixas [0]",
		pos="932.5,116.5",
		width=1.4028];
	8	 [URL="http://lattes.cnpq.br/9257679689413129",
		color="#17272B",
		fontcolor="#FFFFFF",
		height=0.23611,
		label="Paulo de Barros Correia [0]",
		pos="1053.5,116.5",
		width=1.4583];
	10	 [URL="http://lattes.cnpq.br/0826147739353493",
		color="#17272B",
		fontcolor="#FFFFFF",
		height=0.23611,
		label="Marcelo da Cunha Pereira [0]",
		pos="1180.5,116.5",
		width=1.5556];
	12	 [URL="http://lattes.cnpq.br/1913450752136533",
		color="#17272B",
		fontcolor="#FFFFFF",
		height=0.23611,
		label="Ieda Geriberto Hidalgo [0]",
		pos="1305.5,116.5",
		width=1.4167];
	13	 [URL="http://lattes.cnpq.br/8452695309949645",
		color="#17272B",
		fontcolor="#FFFFFF",
		height=0.23611,
		label="Gilberto De Martino Jannuzzi [0]",
		pos="1436.5,116.5",
		width=1.7222];
	15	 [URL="http://lattes.cnpq.br/7253800571271613",
		color="#17272B",
		fontcolor="#FFFFFF",
		height=0.23611,
		label="Ennio Peres da Silva [0]",
		pos="1563.5,116.5",
		width=1.3056];
}
