strict graph grafo2 {
	graph [bb="0,0,1879,17",
		id=grafo2,
		overlap=False
	];
	node [fontsize=8,
		label="\N",
		shape=rectangle,
		style=filled
	];
	0	 [URL="http://lattes.cnpq.br/8579051478703901",
		color="#17272B",
		fontcolor="#FFFFFF",
		height=0.23611,
		label="Rinaldo d. Santos Araújo [0]",
		pos="54.5,8.5",
		width=1.5139];
	1	 [URL="http://lattes.cnpq.br/",
		color="#17272B",
		fontcolor="#FFFFFF",
		height=0.23611,
		label="[Nome-nao-identificado] [0]",
		pos="180.5,8.5",
		width=1.4861];
	2	 [URL="http://lattes.cnpq.br/",
		color="#17272B",
		fontcolor="#FFFFFF",
		height=0.23611,
		label="[Nome-nao-identificado] [0]",
		pos="305.5,8.5",
		width=1.4861];
	3	 [URL="http://lattes.cnpq.br/",
		color="#17272B",
		fontcolor="#FFFFFF",
		height=0.23611,
		label="[Nome-nao-identificado] [0]",
		pos="430.5,8.5",
		width=1.4861];
	4	 [URL="http://lattes.cnpq.br/",
		color="#17272B",
		fontcolor="#FFFFFF",
		height=0.23611,
		label="[Nome-nao-identificado] [0]",
		pos="555.5,8.5",
		width=1.4861];
	5	 [URL="http://lattes.cnpq.br/",
		color="#17272B",
		fontcolor="#FFFFFF",
		height=0.23611,
		label="[Nome-nao-identificado] [0]",
		pos="680.5,8.5",
		width=1.4861];
	6	 [URL="http://lattes.cnpq.br/",
		color="#17272B",
		fontcolor="#FFFFFF",
		height=0.23611,
		label="[Nome-nao-identificado] [0]",
		pos="805.5,8.5",
		width=1.4861];
	7	 [URL="http://lattes.cnpq.br/",
		color="#17272B",
		fontcolor="#FFFFFF",
		height=0.23611,
		label="[Nome-nao-identificado] [0]",
		pos="930.5,8.5",
		width=1.4861];
	8	 [URL="http://lattes.cnpq.br/",
		color="#17272B",
		fontcolor="#FFFFFF",
		height=0.23611,
		label="[Nome-nao-identificado] [0]",
		pos="1055.5,8.5",
		width=1.4861];
	9	 [URL="http://lattes.cnpq.br/",
		color="#17272B",
		fontcolor="#FFFFFF",
		height=0.23611,
		label="[Nome-nao-identificado] [0]",
		pos="1180.5,8.5",
		width=1.4861];
	10	 [URL="http://lattes.cnpq.br/",
		color="#17272B",
		fontcolor="#FFFFFF",
		height=0.23611,
		label="[Nome-nao-identificado] [0]",
		pos="1305.5,8.5",
		width=1.4861];
	11	 [URL="http://lattes.cnpq.br/",
		color="#17272B",
		fontcolor="#FFFFFF",
		height=0.23611,
		label="[Nome-nao-identificado] [0]",
		pos="1430.5,8.5",
		width=1.4861];
	12	 [URL="http://lattes.cnpq.br/",
		color="#17272B",
		fontcolor="#FFFFFF",
		height=0.23611,
		label="[Nome-nao-identificado] [0]",
		pos="1555.5,8.5",
		width=1.4861];
	13	 [URL="http://lattes.cnpq.br/",
		color="#17272B",
		fontcolor="#FFFFFF",
		height=0.23611,
		label="[Nome-nao-identificado] [0]",
		pos="1680.5,8.5",
		width=1.4861];
	14	 [URL="http://lattes.cnpq.br/5727625323313221",
		color="#17272B",
		fontcolor="#FFFFFF",
		height=0.23611,
		label="Antônio C. Santana dos Santos [0]",
		pos="1815.5,8.5",
		width=1.7639];
}
