
PB0:2013,6;2014,6;2015,5;2016,2;
PB1:2013,2;2016,4;
PB2:2016,1;
PB4:2013,10;2014,13;2015,14;2016,6;
PB5:2013,1;2014,3;2015,1;2016,2;
PB6:2014,11;2015,7;2016,12;
PB7:2014,1;
PT4:2015,1;
OA1:2016,1;
OA2:2016,3;2017,2;
OA4:2017,1;
OA5:2016,1;2017,1;
OC0:2013,1;2016,1;
OC1:2014,1;2015,1;
OC2:2013,6;2014,8;2015,6;2016,3;
OC4:2013,5;2014,3;2016,8;
OC5:2013,3;2014,1;2015,1;2016,2;
OC6:2013,2;2014,1;2015,2;
Pj:2002,4;2004,1;2005,1;2006,1;2008,1;2009,1;2010,1;2012,3;2013,3;2014,7;2015,1;
PB:2013,19;2014,34;2015,27;2016,27;
PT:2015,1;
OA:2016,5;2017,4;
OC:2013,17;2014,14;2015,10;2016,14;
Ep:2013,1;2014,1;2015,1;
Eo:2013,1;2016,1;