artigoEmPeriodico	Geraldo Luis Bezerra Ramalho	2016	http://dx.doi.org/10.1016/j.eswa.2016.07.016	Evolutionary optimization of a multiscale descriptor for leaf shape analysis	Expert Systems with Applications	SOUZA, M. M. S. ; MEDEIROS, F. N. S. ; Ramalho, G. L B ; PAULA, I. C. ; OLIVEIRA, I. N. S.	A1	
artigoEmPeriodico	Geraldo Luis Bezerra Ramalho	2016	http://dx.doi.org/10.1016/j.measurement.2016.08.012	Rotation-invariant Feature Extraction using a Structural Co-occurrence Matrix	MEASUREMENT	BEZERRA RAMALHO, GERALDO L.; FERREIRA, DANIEL S. ; REBOUÇAS FILHO, PEDRO P. ; SOMBRA DE MEDEIROS, FÁTIMA N.	Qualis nao identificado	MEASUREMENT
trabalhoCompletoEmCongresso	Geraldo Luis Bezerra Ramalho	2016		AVALIAÇÃO DO DESEMPENHO DE UM SEGUIDOR SOLAR MONOAXIAL PARA SISTEMAS FOTOVOLTAICOS ISOLADOS	VI Congresso Brasileiro de Energia Solar	BARBOSA, D. A. ; CARVALHO, P. C. M. ; RAMALHO, G. L. B. ; MOREIRA, A. P. ; BORGES NETO, M. R. ; MENEZES, R. J. A.		
artigoEmPeriodico	Marcos Erick Rodrigues da Silva	2016	http://dx.doi.org/10.1016/j.snb.2015.09.066	pH optical sensor based on thin films of sol-gel with bromocresol purple	Sensors and Actuators. B, Chemical	TIMBÓ, ÁTILA PEREIRA ; PINTO, PAULO VICTOR FERREIRA ; PINHO, HILTON ANDRADE ; DE MOURA, LUCAS PINHEIRO ; CHRETIEN, JECOL BAMUTSHA ; VIANA, FLÁVIO WANDERLEY ; FILHO, ROGÉRIO GUERRA DIÓGENES ; DA SILVA, ERANDIR BRASIL ; DA SILVA, MARCOS ERICK RODRIGUES ; MENEZES, JOSÉ WALLY MENDONÇA ; GUIMARÃES, GLENDO DE FREITAS ; FRAGA, WILTON BEZERRA	A1	
artigoEmPeriodico	Marcos Erick Rodrigues da Silva	2016	http://dx.doi.org/10.1590/s1413-41522016134641	Avaliação experimental e modelagem matemática de filtros anaeróbios como alternativa de baixo custo para remoção de algas de efluentes de lagoas de estabilização	Engenharia Sanitária e Ambiental (Online)	ARAÚJO, GERMÁRIO MARCOS ; LIMA NETO, IRAN EDUARDO ; ARAÚJO, ANDRÉ LUIS CALADO ; SILVA, MARCOS ERICK RODRIGUES DA	B1	
trabalhoCompletoEmCongresso	Marcos Erick Rodrigues da Silva	2016		EFEITO DA MUDANÇA DO MANANCIAL NA QUALIDADE DA ÁGUA DE ABASTECIMENTO DA CIDADE DE ALCÂNTARAS ? CE	XVII Simpósio Luso-Brasileiro de Engenharia Sanitária e Ambiental	LEITE, D. G. ; VIANA, M. B. ; SILVA, M. E. R.		
trabalhoCompletoEmCongresso	Marcos Erick Rodrigues da Silva	2016		Redução anaeróbia e microaeróbia do corante azo Reactive red 2	Congresso Brasileiro de Engenharia Química ? COBEQ 2016	BARROS, A. N. ; MENDES, Y. C. ; LEMOS, V. F. ; FIRMINO, P. I. M. ; SILVA, M. E. R. ; DOS SANTOS, A. B.		
trabalhoCompletoEmCongresso	Marcos Erick Rodrigues da Silva	2016		AVALIAÇÃO DE PROCESSOS OXIDATIVOS AVANÇADOS NO PÓS-TRATAMENTO DE REATORES ANAERÓBIOS E MICROAERÓBIOS TRATANDO O CORANTE AZO RR2	Congresso Brasileiro de Engenharia Química ? COBEQ 2016	LEMOS, V. F. ; BARROS, A. N. ; FREITAS, Y. S. M. ; FIRMINO, P. I. M. ; SILVA, M. E. R. ; DOS SANTOS, A. B.		
trabalhoCompletoEmCongresso	Marcos Erick Rodrigues da Silva	2016		Otimização multivariada do processo UV/H2O2 no tratamento de efluente da indústria têxtil	Congresso Brasileiro de Engenharia Química ? COBEQ 2016	FREITAS, Y. S. M. ; MENDES, Y. C. ; SILVA, M. E. R. ; DOS SANTOS, A. B.		
artigoEmPeriodico	Francisco Eduardo Arruda Rodrigues	2016	http://dx.doi.org/10.1016/j.indcrop.2016.07.029	Chromatography, spectroscopy and thermal analysis of oil and biodiesel of sesame (Sesamum indicum) − An alternative for the Brazilian Northeast	Industrial Crops and Products (Print)	BEZERRA MOTA GOMES ARRUDA, TATHILENE ; Arruda Rodrigues, Francisco Eduardo ; Duarte Arruda, David Thomas ; Pontes Silva Ricardo, Nágila Maria ; Barbosa Dantas, Manoel ; COSTA DE ARAÚJO, KELVIN	A2	
resumoExpandidoEmCongresso	Francisco Eduardo Arruda Rodrigues	2016	THERMAL AND SPECTROSCOPY ANALYSIS OF THE BIODIESEL OBTAINED FROM IN SITU TRANSESTERIFICATION ? AN OPTION FOR PRODUCERS OF BABAÇU OF ARATUBA-CE	X Congresso Brasileiro / IV Congresso Pan-Americano de Análise Térmica e Calorimetria, 2016, São Paulo. X Congresso Brasileiro / IV Congresso Pan-Americano de Análise Térmica e Calorimetria	BEZERRA MOTA GOMES ARRUDA, TATHILENE ; ARRUDA, D. T. D. ; MOREIRA, F. B. F. ; BEZERRA, R. C. F. ; ASSUNCAO, J. C. C. ; RODRIGUES, F. E. A.		
artigoEmPeriodico	Auzuir Ripardo de Alexandria	2016	http://dx.doi.org/10.5120/ijca2016907751	Inserting Photovoltaic Solar Energy to an Automated Irrigation System	International Journal of Computer Applications	BRAGA, E.J. ; DE, A.R. ; DOS, L.C. ; REGES, J.P.	B2	International Journal of Computer Applications in Technology
artigoEmPeriodico	Auzuir Ripardo de Alexandria	2016	http://dx.doi.org/10.21439/conexoes.v10i2.752	SISTEMA DE DETERMINAÇÃO DE COORDENADAS CARTESIANAS BASEADO EM VISÃO ESTÉREO	Revista Conexões - Ciência e tecnologia	Holanda, Guilherme Costa ; BESSA, Jéssyca Almeida ; BESSA, Renan ; MOTA, FRANCISCO ALAN XAVIER DA ; ROCHA NETO, AJALMAR REGO DA ; Alexandria, Auzuir Ripardo	Qualis nao identificado	Revista Conexões - Ciência e tecnologia
artigoEmPeriodico	Auzuir Ripardo de Alexandria	2016	http://dx.doi.org/10.21439/conexoes.v10i5.1160	Avaliação Computacional da Influência da Temperatura na Potência de um Painel Fotovoltaico	Revista Conexões - Ciência e tecnologia	RIBEIRO, I. P. ; MATOS, F. F. S. ; ALEXANDRIA, A. R.	Qualis nao identificado	Revista Conexões - Ciência e tecnologia
trabalhoCompletoEmCongresso	Erika da Justa Teixeira Rocha	2016		CARACTERIZAÇÃO CLIMATOLÓGICA E SUA INFLUÊNCIA NA AGRICULTURA DO MUNICÍPIO DE SÃO BENEDITO - CEARÁ	II CAMAER - Congresso Amazônico de Meio Ambiente e Energias Renováveis	ROCHA, E.J.T.; GONDIM, F. A. ; ALMEIDA, F. B. B.		
artigoEmPeriodico	Francisco Frederico dos Santos Matos	2016	http://dx.doi.org/10.1109/TLA.2016.7786302	A Characterization of Vertical Axis Wind Turbines	Revista IEEE América Latina	MAGALHAES ALBUQUERQUE, IGOR ; MATOS, FRANCISCO FREDERICO DOS SANTOS	B1	
artigoEmPeriodico	Francisco Frederico dos Santos Matos	2016	http://dx.doi.org/10.21439/conexoes.v10i5.1170	Avaliação da Curvatura do Bocal de um Túnel de Vento Subsônico e Aberto, Utilizando Simulação Numérica	Revista Conexões - Ciência e tecnologia	ARARIPE, R. S. ; MATOS, F. F. S.	Qualis nao identificado	Revista Conexões - Ciência e tecnologia
artigoEmPeriodico	Francisco Frederico dos Santos Matos	2016	http://dx.doi.org/10.21439/conexoes.v10i5.1165	Análise Estrutural de uma Turbina Eólica de Eixo Vertical	Revista Conexões - Ciência e tecnologia	CRAVEIRO, G. S. ; MATOS, F. F. S.	Qualis nao identificado	Revista Conexões - Ciência e tecnologia
artigoEmPeriodico	Francisco Frederico dos Santos Matos	2016	http://dx.doi.org/10.21439/conexoes.v10i5.1166	Avaliação de Desempenho de um Sistema de Climatização por Absorção de Vapor Utilizando Energia Solar	Revista Conexões - Ciência e tecnologia	SOARES, G. F. C. ; MATOS, F. F. S. ; AGUIAR, M. V. S. ; FERREIRA, S. P.	Qualis nao identificado	Revista Conexões - Ciência e tecnologia
artigoEmPeriodico	Francisco Frederico dos Santos Matos	2016	http://dx.doi.org/10.21439/conexoes.v10i5.1169	Análise da Geometria de um Túnel de Vento para Calibração de Anemômetros	Revista Conexões - Ciência e tecnologia	LOPES, A.L.M. ; SOUSA, I. F. ; MATOS, F. F. S.	Qualis nao identificado	Revista Conexões - Ciência e tecnologia
artigoEmPeriodico	Francisco Frederico dos Santos Matos	2016	http://dx.doi.org/10.21439/conexoes.v10i5.1160	Avaliação Computacional da Influência da Temperatura na Potência de um Painel Fotovoltaico	Revista Conexões - Ciência e tecnologia	RIBEIRO, INDIRA PONTE ; MATOS, FRANCISCO FREDERICO DOS SANTOS ; ALEXANDRIA, AUZUIR RIPARDO	Qualis nao identificado	Revista Conexões - Ciência e tecnologia
trabalhoCompletoEmCongresso	Francisco Frederico dos Santos Matos	2016		MAXIMIZAÇÃO DA VAZÃO DE PRODUÇÃO DE UM SISTEMA DE BOMBEAMENTO LINEAR SUBMERSO DE DUPLO EFEITO PELO MÉTODO DE CARGA DE EULER	Congresso Nacional de Engenharia Mecânica	MOREIRA, A.P. ; LEPIKSON, H. A. ; SCHNITMAN, L. ; RAMALHO, G. L. B. ; MATOS, F. F. S.		
artigoEmPeriodico	José Renato de Brito Sousa	2016	http://dx.doi.org/10.1109/TLA.2016.7430058	Battery Charger Lead-Acid using IC BQ2031	Revista IEEE América Latina	CIARLINI CHAGAS FREITAS, DAVID ; LOPES DE MORAES, JERMANA ; CAVALCANTI NETO, EDSON ; SOUSA, JOSE RENATO BRITO	B1	
artigoEmPeriodico	Marcelo Monteiro Valente Parente	2016	http://dx.doi.org/10.1590/s1517-707620160004.0096	Estudo da Inibição de Corrosão do aço carbono em ácido clorídricona presença de mangiferina	Matéria (UFRJ)	SANTOS, JORGE EDSON PINHEIRO DOS ; BARROSO, ANA PAULA RODRIGUES DO NASCIMENTO ; PARENTE, MARCELO MONTEIRO VALENTE ; SAMPAIO, CAROLINE DE GOES	B1	
artigoEmPeriodico	Marcelo Monteiro Valente Parente	2016	http://dx.doi.org/10.1016/j.eswa.2015.09.025	A novel Vickers hardness measurement technique based on Adaptive Balloon Active Contour Method	Expert Systems with Applications	LIMA MOREIRA, FRANCISCO DIEGO ; KLEINBERG, MAURÍCIO NUNES ; ARRUDA, HEMERSON FURTADO ; COSTA FREITAS, FRANCISCO NÉLIO ; VALENTE PARENTE, MARCELO MONTEIRO ; DE ALBUQUERQUE, VICTOR HUGO COSTA ; REBOUÇAS FILHO, PEDRO PEDROSA	A1	
artigoEmPeriodico	Pedro Pedrosa Rebouças Filho	2016	http://dx.doi.org/10.1016/j.eswa.2015.09.025	A novel Vickers hardness measurement technique based on Adaptive Balloon Active Contour Method	Expert Systems with Applications	LIMA MOREIRA, FRANCISCO DIEGO ; KLEINBERG, MAURÍCIO NUNES ; ARRUDA, HEMERSON FURTADO ; COSTA FREITAS, FRANCISCO NÉLIO ; VALENTE PARENTE, MARCELO MONTEIRO ; DE ALBUQUERQUE, VICTOR HUGO COSTA ; Rebouças Filho, Pedro Pedrosa	A1	
artigoEmPeriodico	Pedro Pedrosa Rebouças Filho	2016	http://dx.doi.org/10.1109/TLA.2016.7430087	3D Lung Fissure Segmentation in TC images based in Textures	Revista IEEE América Latina	Cavalcanti Neto, E. ; CORTEZ, P. C. ; CAVALCANTE, T. S. ; SILVA FILHO, V. E. R. ; Rebouças Filho, Pedro Pedrosa ; HOLANDA, M. A.	B1	
artigoEmPeriodico	Pedro Pedrosa Rebouças Filho	2016	http://dx.doi.org/10.1109/TLA.2016.7459619	AgentGeo: Multi-Agent System of Satellite Images Mining	Revista IEEE América Latina	FREITAS, N. C. A. ; Rebouças Filho, Pedro Pedrosa ; MOURA, C. D. G. ; SILVA, M. P. S.	B1	
artigoEmPeriodico	Pedro Pedrosa Rebouças Filho	2016	http://dx.doi.org/10.1016/j.measurement.2016.04.029	A new approach to calculate the nodule density of ductile cast iron graphite using a Level set	Measurement (London. Print)	REBOUÇAS, E. S. ; BRAGA, A. M. ; MARQUES, R. C. P. ; REBOUÇAS FILHO, P. P.	Qualis nao identificado	Measurement (London. Print)
artigoEmPeriodico	Pedro Pedrosa Rebouças Filho	2016	http://dx.doi.org/10.1109/TLA.2016.7530445	Recognition of handwritten digits using the signature features and Optimum-Path Forest Classifier	Revista IEEE América Latina	LOPES, G. S. ; SILVA, D. C. ; RODRIGUES, A. W. O. ; Rebouças Filho, Pedro Pedrosa	B1	
artigoEmPeriodico	Pedro Pedrosa Rebouças Filho	2016	http://dx.doi.org/10.3390/met6070164	Classification of Induced Magnetic Field Signals for the Microstructural Characterization of Sigma Phase in Duplex Stainless Steels	METALS-BASEL	SILVA, E. M. ; MARINHO, L. B. ; Rebouças Filho, Pedro Pedrosa ; LEITE, J. P. ; LEITE, J. P. ; FIALHO, W. M. L. ; ALBUQUERQUE, V. H. C. ; TAVARES, J. M. R.	Qualis nao identificado	METALS-BASEL
artigoEmPeriodico	Pedro Pedrosa Rebouças Filho	2016	http://dx.doi.org/10.1016/j.measurement.2016.08.012	Rotation-invariant Feature Extraction using a Structural Co-occurrence Matrix	Measurement (London. Print)	BEZERRA RAMALHO, GERALDO L. ; FERREIRA, DANIEL S. ; REBOUÇAS FILHO, PEDRO P. ; SOMBRA DE MEDEIROS, FÁTIMA N.	Qualis nao identificado	Measurement (London. Print)
artigoEmPeriodico	Pedro Pedrosa Rebouças Filho	2016	http://dx.doi.org/10.1109/TLA.2016.7786333	Mechanical Traction Machine Retrofitting via Digital Data Acquisition and Processing	Revista IEEE América Latina	CUNHA, M. A. Q. ; MARINHO, L. B. ; Rebouças Filho, Pedro Pedrosa	B1	
artigoEmPeriodico	Pedro Pedrosa Rebouças Filho	2016	http://dx.doi.org/10.1109/TLA.2016.7786345	Eddy Currents Electromagnetic Brake Device	Revista IEEE América Latina	CUNHA, M. A. Q. ; PEREIRA, A. H. ; SCHMIDLIN JUNIOR, C. R. ; Rebouças Filho, Pedro Pedrosa	B1	
artigoEmPeriodico	Pedro Pedrosa Rebouças Filho	2016	http://dx.doi.org/10.1007/s00521-016-2388-3	Embedded real-time speed limit sign recognition using image processing and machine learning techniques	Neural Computing & Applications (Print)	GOMES, S. L. ; REBOUÇAS, E. S. ; Cavalcanti Neto, E. ; Papa, J. P. ; ALBUQUERQUE, V. H. C. ; Rebouças Filho, Pedro Pedrosa ; TAVARES, J. M. R. S.	A2	
trabalhoCompletoEmCongresso	Pedro Pedrosa Rebouças Filho	2016		Classificação automática do tipo de ferro fundido utilizando Reconhecimento de Padrões em imagens de Microscopia Óptica	Congresso Nacional de engenharia Mecânica	RODRIGUES, D. A. ; SANTOS, G. P. ; FERNANDES, M. C. ; SANTOS, J. C. ; FREITAS, F. N. C. ; Rebouças Filho, Pedro Pedrosa		
trabalhoCompletoEmCongresso	Pedro Pedrosa Rebouças Filho	2016		Stroke detection through a nonparametric estimation-based level set approach based on the Parzen windows	Brazilian Symposium on Computer Graphics and Image Processing	REBOUÇAS, E. S. ; OLIVEIRA, S. A. F. ; MARQUES, R. C. P. ; Rebouças Filho, Pedro Pedrosa		
trabalhoCompletoEmCongresso	Pedro Pedrosa Rebouças Filho	2016		Lung Segmentation in Chest Computerized Tomography Images Using the Border Following Algorithm	International Conference on Intelligent Systems Design and Applications (ISDA'2016)	RODRIGUES, M. B. ; MARINHO, L. B. ; NOBREGA, R. V. M. ; SOUZA, W. M. ; Rebouças Filho, Pedro Pedrosa		
trabalhoCompletoEmCongresso	Pedro Pedrosa Rebouças Filho	2016		A new approach to Human Activity Recognition using Machine Learning techniques	International Conference on Intelligent Systems Design and Applications (ISDA'2016)	MARINHO, L. B. ; SOUZA JUNIOR, A. H. ; Rebouças Filho, Pedro Pedrosa		
resumoExpandidoEmCongresso	Pedro Pedrosa Rebouças Filho	2016	Construção de mosaico aplicado à microscopia óptica	V Seminário de Iniciação Científica e Tecnológica - Universo IFCE 2016, 2016, Maracanaú. V Seminário de Iniciação Científica e Tecnológica - Universo IFCE 2016. Maracanaú: DEPPI - IFCE	RODRIGUES, D. A. ; Rebouças Filho, Pedro Pedrosa ; FREITAS, F. N. C. ; MOREIRA, F. D. L. ; ALVES, J. L.		
resumoExpandidoEmCongresso	Pedro Pedrosa Rebouças Filho	2016	Novo e poderoso Método de Contornos Ativos Crisp Adaptativo 3D aplicado na segmentação pulmonar em imagens de CT do tórax	V Seminário de Iniciação Científica e Tecnológica - Universo IFCE 2016, 2016, Maracanaú. V Seminário de Iniciação Científica e Tecnológica - Universo IFCE 2016. Maracanaú: DEPPI - IFCE	LIMA, D. A. ; HOLANDA, G. B. ; SARMENTO, R. M. ; Rebouças Filho, Pedro Pedrosa		
trabalhoCompletoEmCongresso	Francisco Nélio Costa Freitas	2016		Classificação automática do tipo de ferro fundido utilizando Reconhecimento de Padrões em imagens de Microscopia Óptica	Congresso Nacional de Engenharia Mecânica (CONEM)	RODRIGUES, D. A. ; SANTOS, G. P. ; FERNANDES, M. C. ; SANTOS, J. C. ; FREITAS, F. N. C. ; Rebouças Filho, Pedro Pedrosa		
artigoEmPeriodico	Pedro Henrique Augusto Medeiros	2016	http://dx.doi.org/10.1002/hyp.10801	Runoff initiation in a preserved semiarid Caatinga small watershed, Northeastern Brazil	Hydrological Processes (Print)	DE FIGUEIREDO, JOSÉ VIDAL ; DE ARAÚJO, JOSÉ CARLOS ; MEDEIROS, PEDRO HENRIQUE AUGUSTO ; COSTA, ALEXANDRE C.	A2	
artigoEmPeriodico	Pedro Henrique Augusto Medeiros	2016	http://dx.doi.org/10.1016/j.jhydrol.2016.08.016	Effect of dry spells and soil cracking on runoff generation in a semiarid micro watershed under land use change	Journal of Hydrology (Amsterdam)	Santos, J.C.N. ; Andrade, E.M. ; Guerreiro, M.J.S. ; Medeiros, P.H.A. ; Palácio, H.A.Q. ; Araújo Neto, J.R.	A1	
artigoEmPeriodico	Pedro Henrique Augusto Medeiros	2016	http://dx.doi.org/10.1016/j.scitotenv.2016.07.024	Bathymetric survey of water reservoirs in north-eastern Brazil based on TanDEM-X satellite data	Science of the Total Environment	ZHANG, SHUPING ; FOERSTER, SASKIA ; Medeiros, Pedro ; DE ARAÚJO, JOSÉ CARLOS ; MOTAGH, MAHDI ; WASKE, BJOERN	A1	
artigoEmPeriodico	Pedro Henrique Augusto Medeiros	2016	http://dx.doi.org/10.21439/conexoes.v10i5.1176	Efeito da Rede de Reservatórios sobre a Energia Hidráulica Acumulada em Bacia Hidrográfica de Meso-Escala no Semiárido Brasileiro	REVISTA CONEXÕES - CIÊNCIA E TECNOLOGIA	PINHEIRO DO NASCIMENTO, ANTONIA TATIANA ; GURGEL MACAMBIRA, ALLISON ; AUGUSTO MEDEIROS, PEDRO HENRIQUE	Qualis nao identificado	REVISTA CONEXÕES - CIÊNCIA E TECNOLOGIA
artigoEmPeriodico	Pedro Henrique Augusto Medeiros	2016	http://dx.doi.org/10.1007/s11269-016-1517-1	Effect of Rainfall Characteristics on Runoff and Water Erosion for Different Land Uses in a Tropical Semiarid Region	WATER RESOURCES MANAGEMENT	DOS SANTOS, JULIO CESAR NEVES ; DE ANDRADE, EUNICE MAIA ; MEDEIROS, PEDRO HENRIQUE AUGUSTO ; GUERREIRO, MARIA JOÃO SIMAS ; DE QUEIROZ PALÁCIO, HELBA ARAÚJO	A2	
trabalhoCompletoEmCongresso	Pedro Henrique Augusto Medeiros	2016		Avaliação do uso de sedimento de açude como substrato para o cultivo de plântulas de girassol sob estresse hídrico	II Congresso Amazônico de Meio Ambiente e Energias Renováveis	Braga, B.B. ; Gondim, F.A. ; Medeiros, P.H.A. ; Nunes Júnior, F.H. ; Almeida, N.M.		
trabalhoCompletoEmCongresso	Pedro Henrique Augusto Medeiros	2016		Proposta para operação de pequenos açudes no semiárido	XIII Simpósio de Recursos Hídricos do Nordeste	Brasil, P.P. ; Medeiros, P.H.A. ; Costa, C.A.G.		
resumoExpandidoEmCongresso	Pedro Henrique Augusto Medeiros	2016	Racionalidade energética em reservatórios do semiárido: uma breve abordagem	I Seminário de Pesquisa e Inovação em Energias Renováveis e Sustentabilidade, 2016, Fortaleza. Anais do I Seminário de Pesquisa e Inovação em Energias Renováveis e Sustentabilidade	Nascimento, A.T.P. ; Macambira, A.G. ; Medeiros, P.H.A.		
resumoExpandidoEmCongresso	Pedro Henrique Augusto Medeiros	2016	Revisão bibliográfica e caracterização fisiográfica da bacia do açude Tijuquinha - Baturité, CE	II Workshop de Recursos Naturais do Semiárido, 2016, Campina Grande. Anais do II Workshop de Recursos Naturais do Semiárido	Lira, C.C.S. ; Medeiros, P.H.A.		
resumoExpandidoEmCongresso	Pedro Henrique Augusto Medeiros	2016	Análise da disponibilidade hídrica em um reservatório de médio porte: caso do açude Marengo	II Workshop de Recursos Naturais do Semiárido, 2016, Campina Grande. Anais do II Workshop de Recursos Naturais do Semiárido	Nascimento, A.T.P. ; Medeiros, P.H.A.		
artigoEmPeriodico	Franklin Aragão Gondim	2016	http://dx.doi.org/10.21439/conexoes.v10i2.863	CRESCIMENTO INICIAL DE DOIS CULTIVARES DE GIRASSOL EM CASA DE VEGETAÇÃO SOB CONDIÇÕES DE CLIMA TROPICAL QUENTE SUBÚMIDO	Revista Conexões - Ciência e tecnologia	Júnior, F.H.N. ; GONDIM, F. A. ; BRAGA, B. B.	Qualis nao identificado	Revista Conexões - Ciência e tecnologia
artigoEmPeriodico	Franklin Aragão Gondim	2016		Sanitary landfill leachate as a sorce of nutrients on the initial growth of sunflower plants	Revista Brasileira de Engenharia Agrícola e Ambiental (Impresso)	Júnior, F.H.N. ; Gondim, Franklin Aragão ; BRAGA, B. B. ; PONTES FILHO ; PEREIRA, M.S. ; BARBOSA, F.E.L.	B1	
artigoEmPeriodico	Franklin Aragão Gondim	2016	http://dx.doi.org/10.4136/ambi-agua.1964	Crescimento foliar e atividades das enzimas antioxidativas em plântulas de girassol suplementadas com percolado de aterro sanitário e submetidas a estresse hídrico	Revista Ambiente & Água	NUNES JUNIOR, FRANCISCO HOLANDA ; Gondim, Franklin Aragão ; FREITAS, VALDINEIA SOARES ; BRAGA, BRENNDA BEZERRA ; BATISTA DE BRITO, PAULO OVÍDIO ; MARTINS, KAIO	B1	
artigoEmPeriodico	Franklin Aragão Gondim	2016		RESÍDUO SÓLIDO DE CARCINICULTURA DIMINUI OS EFEITOS DELETÉRIOS DO ESTRESSE HÍDRICO EM PLANTAS DE GIRASSOL	Revista Brasileira de Agroecologia	BRAGA, B. B. ; GONDIM, F. A. ; Júnior, F.H.N. ; Barbosa, R.F. ; Martins, K.	B2	
artigoEmPeriodico	Franklin Aragão Gondim	2016	http://dx.doi.org/10.5539/jps.v6n1p76	Effects of Different Concentrations of Organic Waste on Selected Traits of Individuals Capsicum Chinense Jacq.	JOURNAL OF PLANT STUDIES	COSTA FILHO, FRANCISCO ORLANDO HOLANDA ; AMORIM, JEFANIA SOUSA BRAGA ; PEREIRA, MAGNUM DE SOUSA ; BARBOSA, FRANCISCA EDINEIDE LIMA ; BARBOSA, RIFANDREO MONTEIRO ; PONTES FILHO, ROBERTO ALBUQUERQUE ; Gondim, Franklin Aragão	B1	
artigoEmPeriodico	Franklin Aragão Gondim	2016	http://dx.doi.org/10.1007/s40626-016-0069-3	Increased drought tolerance in maize plants induced by H2O2 is closely related to an enhanced enzymatic antioxidant system and higher soluble protein and organic solutes contents	Theoretical and Experimental Plant Physiology (Antiga: 'Brazilian Journal of Plant Physiology (Impresso)	DE SOUSA, DÉBORAH PÂMELA FREIRE ; BRAGA, BRENNDA BEZERRA ; Gondim, Franklin Aragão ; Gomes-Filho, Enéas ; MARTINS, KAIO ; DE BRITO, PAULO OVÍDIO BATISTA	B1	Brazilian Journal of Plant Physiology (Impresso)
trabalhoCompletoEmCongresso	Franklin Aragão Gondim	2016		CARACTERIZAÇÃO CLIMATOLÓGICA E SUA INFLUÊNCIA NA AGRICULTURA DO MUNICÍPIO DE SÃO BENEDITO - CEARÁ	II Congresso Amazônico de Meio Ambiente e Energias Renováveis (II CAMAER)	Almeida, F.B.B ; Gondim, Franklin Aragão ; Rocha, E.J.T.		
trabalhoCompletoEmCongresso	Franklin Aragão Gondim	2016		AVALIAÇÕES BIOMÉTRICAS E TEORES RELATIVOS DE CLOROFILA DE PLÂNTULAS DE GIRASSOL SUPLEMENTADAS COM EICHHORNIA CRASSIPES NO MEIO DE CRESCIMENTO E SUBMETIDAS A ESTRESSE HÍDRICO	II Congresso Amazônico de Meio Ambiente e Energias Renováveis (II CAMAER)	Barbosa, R.F. ; Gondim, Franklin Aragão ; Martins, K. ; Brito, P.O.B. ; Silva, G.D.		
trabalhoCompletoEmCongresso	Franklin Aragão Gondim	2016		CRESCIMENTO INICIAL E TEORES DE SOLUTOS ORGÂNICOS EM PLÂNTULAS DE GIRASSOL SUPLEMENTADAS COM PERCOLADO DE ATERRO SANITÁRIO E SUBMTIDAS A ESTRESSE HÍDRICO	II Congresso Amazônico de Meio Ambiente e Energias Renováveis (II CAMAER)	Júnior, F.H.N. ; Gondim, Franklin Aragão ; BRAGA, B. B. ; Martins, K. ; Barbosa, R.F.		
trabalhoCompletoEmCongresso	Franklin Aragão Gondim	2016		AVALIAÇÃO BIOMÉTRICA E TEORES RELATIVOS DE CLOROFILA DE PLANTAS MULUNGU (ERYTHRINA VELUTINA WILLD) SOB DIFERENTES CONDIÇÕES DE IRRIGAÇÃO EM TELADO AGRÍCOLA	II Congresso Amazônico de Meio Ambiente e Energias Renováveis (II CAMAER)	Brito, P.O.B. ; Gondim, Franklin Aragão ; Júnior, F.H.N. ; Barbosa, R.F. ; PEREIRA, M.S.		
trabalhoCompletoEmCongresso	Franklin Aragão Gondim	2016		AVALIAÇÃO DO USO DE SEDIMENTO DE AÇUDE COMO SUBSTRATO PARA O CULTIVO DE PLÂNTULAS DE GIRASSOL SOB ESTRESSE HÍDRICO	II Congresso Amazônico de Meio Ambiente e Energias Renováveis (II CAMAER)	BRAGA, B. B. ; Gondim, Franklin Aragão ; Júnior, F.H.N. ; Medeiros, P.H.A. ; Almeida, N.M.		
trabalhoCompletoEmCongresso	Franklin Aragão Gondim	2016		ANÁLISE DE CRESCIMENTO DE PLANTAS DE MULUNGU IRRIGADAS COM DIFERENTES CAPACIDADES DE CAMPO	II Congresso Amazônico de Meio Ambiente e Energias Renováveis (II CAMAER)	Martins, K. ; Brito, P.O.B. ; Gondim, Franklin Aragão ; PONTES FILHO ; BRAGA, B. B.		
trabalhoCompletoEmCongresso	Franklin Aragão Gondim	2016		CRESCIMENTO DE PLANTAS DE Ceiba speciosa EM SOLO CONTAMINADO POR METAIS PESADOS	II CAMAER- Congresso Amazônico de Meio Ambiente e Energias Renováveis	de Arruda, J. F. ; DUTRA, A. V. ; VASCONCELOS, A. L. M. ; LEITE, A. G. ; BRAGA, B. B. ; GONDIM, F. A.		
resumoExpandidoEmCongresso	Franklin Aragão Gondim	2016	Emergência e crescimento inicial de plantas de girassol submetidas a diferentes concentrações de percolado de aterro sanitário	I Seminário de Pesquisa e Inovação em Energias Renováveis e Sustentabilidade, 2016, Maracanaú. I Seminário de Pesquisa e Inovação em Energias Renováveis e Sustentabilidade, 2016	Júnior, F.H.N. ; GONDIM, F. A. ; BRAGA, B. B. ; Barbosa, R.F. ; Brito, P.O.B.		
trabalhoCompletoEmCongresso	Claudio Marques de Sá Medeiros	2016	http://dx.doi.org/10.1109/IJCNN.2016.7727281	Classification and sensitivity analysis to detect fault in induction motors using an MLP network	2016 International Joint Conference on Neural Networks (IJCNN)	VIEIRA, RENAN G. ; MEDEIROS, CLAUDIO M. S. ; SILVA, ELIAS T.		
trabalhoCompletoEmCongresso	Claudio Marques de Sá Medeiros	2016	http://dx.doi.org/10.1109/sbesc.2016.028	Embedding a Neural Classifier to Detect Faults in a Three-Phase Induction Motor	2016 VI Brazilian Symposium on Computing Systems Engineering (SBESC)	VIEIRA, RENAN GOMES ; CUNHA, REBECA GUERREIRO C. ; MEDEIROS, CLAUDIO MARQUES SA ; SILVA, ELIAS TEODORO		
trabalhoCompletoEmCongresso	Claudio Marques de Sá Medeiros	2016		ESTIMACÃO DE PARÂMETROS DE REGIME PERMANENTE DA MÁQUINA SÍNCRONA DE ÍMÃS PERMANENTES	12th IEEE/IAS International Conference on Industry Applications - INDUSCON2016	SCHMIDLIN JR, C. R. ; LIMA, F. KLEBER DE A. ; BRANCO, C. GUSTAVO C. ; MEDEIROS, CLAUDIO M. S.		
