strict graph grafo2 {
	graph [bb="0,0,1762,273",
		id=grafo2,
		overlap=False
	];
	node [fontsize=8,
		label="\N",
		shape=rectangle,
		style=filled
	];
	0	 [URL="http://lattes.cnpq.br/8539341671152883",
		color="#17272B",
		fontcolor="#FFFFFF",
		height=0.23611,
		label="Anna A. Figueirêdo de Almeida [1]",
		pos="65.5,72.5",
		width=1.8194];
	19	 [URL="http://lattes.cnpq.br/0764511052669622",
		color="#17272B",
		fontcolor="#FFFFFF",
		height=0.23611,
		label="Ulisses Umbelino dos Anjos [15]",
		pos="368.5,8.5",
		width=1.7083];
	0 -- 19	 [fontsize=8,
		label=1.0,
		lp="140,40.5",
		pos="77.133,63.704 90.402,55.234 113.04,42.038 134.5,35.5 191.39,18.165 259.2,12.136 307.14,10.161"];
	1	 [URL="http://lattes.cnpq.br/7925449690046513",
		color="#17272B",
		fontcolor="#FFFFFF",
		height=0.23611,
		label="Ronei Marcos de Moraes [35]",
		pos="435.5,264.5",
		width=1.5556];
	1 -- 19	 [fontsize=8,
		label=1.0,
		lp="165,136.5",
		pos="379.31,262.14 298.62,258.64 159.5,246.13 159.5,201.5 159.5,201.5 159.5,201.5 159.5,71.5 159.5,40.418 245.54,23.698 307.21,15.706"];
	5	 [URL="http://lattes.cnpq.br/8338527087554463",
		color="#17272B",
		fontcolor="#FFFFFF",
		height=0.23611,
		label="Jordana de Almeida Nogueira [9]",
		pos="435.5,200.5",
		width=1.7222];
	1 -- 5	 [fontsize=8,
		label=2.0,
		lp="441,232.5",
		pos="435.5,255.9 435.5,244 435.5,221.1 435.5,209.16"];
	8	 [URL="http://lattes.cnpq.br/7564660473747042",
		color="#17272B",
		fontcolor="#FFFFFF",
		height=0.23611,
		label="Kátia S. Q. Silva Ribeiro [4]",
		pos="743.5,200.5",
		width=1.5];
	1 -- 8	 [fontsize=8,
		label=1.0,
		lp="705,232.5",
		pos="491.5,263.37 540.92,261.87 614.39,256.23 675.5,237.5 696.96,230.92 719.54,217.47 732.52,209.01"];
	12	 [URL="http://lattes.cnpq.br/4561729191450640",
		color="#17272B",
		fontcolor="#FFFFFF",
		height=0.23611,
		label="Cesar Cavalcanti da Silva [3]",
		pos="262.5,200.5",
		width=1.5278];
	1 -- 12	 [fontsize=8,
		label=1.0,
		lp="326,232.5",
		pos="385.71,256 365.06,251.93 341.15,245.96 320.5,237.5 302.52,230.13 283.77,217.43 272.62,209.25"];
	13	 [URL="http://lattes.cnpq.br/0240551533292579",
		color="#17272B",
		fontcolor="#FFFFFF",
		height=0.23611,
		label="Liliane d. Santos Machado [42]",
		pos="574.5,200.5",
		width=1.6389];
	1 -- 13	 [fontsize=8,
		label=25.0,
		lp="521,232.5",
		pos="452.54,255.9 479.22,244 530.55,221.1 557.32,209.16"];
	15	 [URL="http://lattes.cnpq.br/3915051035089861",
		color="#17272B",
		fontcolor="#FFFFFF",
		height=0.23611,
		label="Rodrigo P. de Toledo Vianna [11]",
		pos="823.5,72.5",
		width=1.75];
	1 -- 15	 [fontsize=8,
		label=5.0,
		lp="714,168.5",
		pos="491.56,261.67 545.31,259.02 621.94,252.65 647.5,237.5 669.14,224.67 663.32,209.88 680.5,191.5 724.46,144.47 787.01,98.902 812.28,\
81.217"];
	18	 [URL="http://lattes.cnpq.br/3186920393443928",
		color="#17272B",
		fontcolor="#FFFFFF",
		height=0.23611,
		label="Ana M. Gondim Valença [22]",
		pos="368.5,72.5",
		width=1.5694];
	1 -- 18	 [fontsize=8,
		label=6.0,
		lp="360,168.5",
		pos="418,255.94 400.8,247.44 375.58,231.84 364.5,209.5 342.57,165.27 359.11,102.61 365.93,81.096"];
	5 -- 19	 [fontsize=8,
		label=5.0,
		lp="452,104.5",
		pos="437.72,191.81 443.54,170.04 457.2,106.79 433.5,63.5 421.87,42.268 398.23,25.972 382.89,17.07"];
	14	 [URL="http://lattes.cnpq.br/6866270928240455",
		color="#17272B",
		fontcolor="#FFFFFF",
		height=0.23611,
		label="Joao Agnaldo do Nascimento [8]",
		pos="988.5,136.5",
		width=1.6944];
	5 -- 14	 [fontsize=8,
		label=2.0,
		lp="634,168.5",
		pos="469.48,191.96 507.89,183.73 572.38,170.74 628.5,163.5 733.06,150.02 855.68,143.02 927.46,139.82"];
	8 -- 19	 [fontsize=8,
		label=2.0,
		lp="582,104.5",
		pos="729.92,191.92 686.65,167.86 547.9,91.548 429.5,35.5 415.56,28.9 399.5,22.086 387.36,17.09"];
	8 -- 14	 [fontsize=8,
		label=2.0,
		lp="883,168.5",
		pos="770.64,191.93 797.66,184.46 840.35,172.84 877.5,163.5 903.41,156.99 932.86,150.11 954.92,145.07"];
	12 -- 19	 [fontsize=8,
		label=1.0,
		lp="236,104.5",
		pos="251.73,191.81 235.45,179.17 207.49,152.87 217.5,127.5 238.05,75.435 257.3,67.095 303.5,35.5 315.24,27.473 329.82,21.352 342.2,17.072"];
	16	 [URL="http://lattes.cnpq.br/5580004940091667",
		color="#17272B",
		fontcolor="#FFFFFF",
		height=0.23611,
		label="Eufrásio de A. Lima Neto [6]",
		pos="282.5,136.5",
		width=1.5417];
	12 -- 16	 [fontsize=8,
		label=1.0,
		lp="280,168.5",
		pos="264.95,191.9 268.79,180 276.18,157.1 280.03,145.16"];
	13 -- 18	 [fontsize=8,
		label=17.0,
		lp="493,136.5",
		pos="562.23,192 525.68,169.64 417.77,103.64 380.97,81.125"];
	15 -- 19	 [fontsize=8,
		label=5.0,
		lp="727,40.5",
		pos="796.47,63.938 765.9,55.676 714.51,42.667 669.5,35.5 587.14,22.386 490.97,15.532 429.92,12.221"];
	14 -- 15	 [fontsize=8,
		label=1.0,
		lp="943,104.5",
		pos="974.43,127.88 959.59,120.04 935.36,107.84 913.5,99.5 894.2,92.139 871.9,85.683 854.33,81.045"];
	16 -- 19	 [fontsize=8,
		label=1.0,
		lp="297,72.5",
		pos="281.53,127.7 280.18,113.73 279.16,84.007 291.5,63.5 304.97,41.117 331.68,25.619 349.82,17.143"];
	16 -- 18	 [fontsize=8,
		label=4.0,
		lp="337,104.5",
		pos="293.05,127.9 309.55,116 341.31,93.102 357.87,81.165"];
	2	 [URL="http://lattes.cnpq.br/9931973391211710",
		color="#17272B",
		fontcolor="#FFFFFF",
		height=0.23611,
		label="Ana T. M. Cavalcanti da Silva [7]",
		pos="677.5,264.5",
		width=1.7361];
	2 -- 13	 [fontsize=8,
		label=5.0,
		lp="638,232.5",
		pos="664.87,255.9 645.1,244 607.07,221.1 587.23,209.16"];
	10	 [URL="http://lattes.cnpq.br/0616539963047807",
		color="#17272B",
		fontcolor="#FFFFFF",
		height=0.23611,
		label="Neir Antunes Paes [4]",
		pos="859.5,200.5",
		width=1.2083];
	2 -- 10	 [fontsize=8,
		label=2.0,
		lp="785,232.5",
		pos="699.82,255.9 734.84,243.97 802.32,220.98 837.29,209.07"];
	3	 [URL="http://lattes.cnpq.br/4055146648812877",
		color="#17272B",
		fontcolor="#FFFFFF",
		height=0.23611,
		label="Tatiene Correia de Souza [4]",
		pos="1310.5,264.5",
		width=1.5139];
	7	 [URL="http://lattes.cnpq.br/6515725808648467",
		color="#17272B",
		fontcolor="#FFFFFF",
		height=0.23611,
		label="Caliandra M. B. Luna Lima [2]",
		pos="1245.5,200.5",
		width=1.625];
	3 -- 7	 [fontsize=8,
		label=2.0,
		lp="1288,232.5",
		pos="1302.5,255.9 1290.1,244 1266.1,221.1 1253.5,209.16"];
	11	 [URL="http://lattes.cnpq.br/2198188215129698",
		color="#17272B",
		fontcolor="#FFFFFF",
		height=0.23611,
		label="Tarciana Liberal Pereira [2]",
		pos="1375.5,200.5",
		width=1.4722];
	3 -- 11	 [fontsize=8,
		label=2.0,
		lp="1353,232.5",
		pos="1318.5,255.9 1330.9,244 1354.9,221.1 1367.5,209.16"];
	4	 [URL="http://lattes.cnpq.br/2328238717105962",
		color="#17272B",
		fontcolor="#FFFFFF",
		height=0.23611,
		label="Hemílio F. Campos Coêlho [3]",
		pos="1016.5,264.5",
		width=1.6111];
	4 -- 19	 [fontsize=8,
		label=1.0,
		lp="1164,136.5",
		pos="1074.7,260.47 1113.9,254.91 1158.5,240.1 1158.5,201.5 1158.5,201.5 1158.5,201.5 1158.5,71.5 1158.5,35 615.45,16.405 429.83,11.115"];
	4 -- 15	 [fontsize=8,
		label=1.0,
		lp="929,168.5",
		pos="1008.4,255.79 1003.1,250.63 995.84,243.68 989.5,237.5 928.02,177.53 854.52,104.42 831.08,81.054"];
	4 -- 14	 [fontsize=8,
		label=2.0,
		lp="992,200.5",
		pos="1010.7,255.99 1003.4,246.02 991.18,227.56 986.5,209.5 980.6,186.74 984.45,158.58 986.9,145.22"];
	9	 [URL="http://lattes.cnpq.br/1760765397044137",
		color="#17272B",
		fontcolor="#FFFFFF",
		height=0.23611,
		label="Josemberg Moura de Andrade [2]",
		pos="1068.5,200.5",
		width=1.7222];
	4 -- 9	 [fontsize=8,
		label=1.0,
		lp="1052,232.5",
		pos="1022.9,255.9 1032.9,244 1052.1,221.1 1062.1,209.16"];
	9 -- 14	 [fontsize=8,
		label=2.0,
		lp="1039,168.5",
		pos="1058.7,191.9 1043.3,180 1013.8,157.1 998.39,145.16"];
	6	 [URL="http://lattes.cnpq.br/6526050617910624",
		color="#17272B",
		fontcolor="#FFFFFF",
		height=0.23611,
		label="Jozemar Pereira dos Santos [2]",
		pos="859.5,264.5",
		width=1.6111];
	6 -- 10	 [fontsize=8,
		label=2.0,
		lp="865,232.5",
		pos="859.5,255.9 859.5,244 859.5,221.1 859.5,209.16"];
	17	 [URL="http://lattes.cnpq.br/8680871640499952",
		color="#17272B",
		fontcolor="#FFFFFF",
		height=0.23611,
		label="Luiz M. de A. Lima Filho [0]",
		pos="1438.5,264.5",
		width=1.5417];
	20	 [URL="http://lattes.cnpq.br/5348717261204017",
		color="#17272B",
		fontcolor="#FFFFFF",
		height=0.23611,
		label="Flávia E. L. de Lima Ferreira [0]",
		pos="1572.5,264.5",
		width=1.6806];
	21	 [URL="http://lattes.cnpq.br/6080000618358423",
		color="#17272B",
		fontcolor="#FFFFFF",
		height=0.23611,
		label="Sergio Ribeiro dos Santos [0]",
		pos="1706.5,264.5",
		width=1.5417];
}
