strict digraph grafo3 {
	graph [bb="0,0,1966.5,657",
		id=grafo3,
		overlap=False
	];
	node [fontsize=8,
		label="\N",
		shape=rectangle,
		style=filled
	];
	0	 [URL="http://lattes.cnpq.br/2314309546470778",
		color="#17272B",
		fontcolor="#FFFFFF",
		height=0.23611,
		label="Sergio Muñoz [0]",
		pos="1064,648.5",
		width=1.0139];
	1	 [URL="http://lattes.cnpq.br/4802548698016081",
		color="#17272B",
		fontcolor="#FFFFFF",
		height=0.23611,
		label="Saul de Castro Leite [2]",
		pos="1165,648.5",
		width=1.2917];
	10	 [URL="http://lattes.cnpq.br/3572434390881704",
		color="#17272B",
		fontcolor="#FFFFFF",
		height=0.23611,
		label="Raul Fonseca Neto [4]",
		pos="1165,584.5",
		width=1.2361];
	1 -> 10	 [arrowhead=normal,
		arrowsize=0.75,
		fontsize=8,
		label=1.0,
		lp="1154.5,616.5",
		penwidth=3.5,
		pos="e,1158,593.26 1158.7,639.85 1155.1,634.93 1150.9,628.23 1149,621.5 1146.9,614.06 1149.8,606.16 1153.6,599.67"];
	10 -> 1	 [arrowhead=normal,
		arrowsize=0.75,
		fontsize=8,
		label=0.5,
		lp="1170.5,616.5",
		penwidth=2.0,
		pos="e,1165,639.9 1165,593.16 1165,602.86 1165,619.8 1165,632.19"];
	12	 [URL="http://lattes.cnpq.br/2487554612123446",
		color="#17272B",
		fontcolor="#FFFFFF",
		height=0.23611,
		label="Carlos C. Hasenclever Borges [3]",
		pos="1165,520.5",
		width=1.7222];
	10 -> 12	 [arrowhead=normal,
		arrowsize=0.75,
		fontsize=8,
		label=0.5,
		lp="1154.5,552.5",
		penwidth=2.0,
		pos="e,1158,529.26 1158.7,575.85 1155.1,570.93 1150.9,564.23 1149,557.5 1146.9,550.06 1149.8,542.16 1153.6,535.67"];
	12 -> 10	 [arrowhead=normal,
		arrowsize=0.75,
		fontsize=8,
		label=0.67,
		lp="1172.5,552.5",
		penwidth=2.51,
		pos="e,1165,575.9 1165,529.16 1165,538.86 1165,555.8 1165,568.19"];
	25	 [URL="http://lattes.cnpq.br/7733681743453751",
		color="#17272B",
		fontcolor="#FFFFFF",
		height=0.23611,
		label="Heder Soares Bernardino [9]",
		pos="988,72.5",
		width=1.5139];
	12 -> 25	 [arrowhead=normal,
		arrowsize=0.75,
		fontsize=8,
		label=0.17,
		lp="1192.5,296.5",
		penwidth=1.01,
		pos="e,1042.5,75.471 1169.2,511.73 1175.1,500.24 1185,477.86 1185,457.5 1185,457.5 1185,457.5 1185,135.5 1185,110.91 1165.3,109.91 1143,\
99.5 1114.2,86.025 1079.5,79.431 1050.2,76.245"];
	23	 [URL="http://lattes.cnpq.br/0375745110240885",
		color="#17272B",
		fontcolor="#FFFFFF",
		height=0.23611,
		label="Helio J. Corrêa Barbosa [4]",
		pos="1098,456.5",
		width=1.4583];
	12 -> 23	 [arrowhead=normal,
		arrowsize=0.75,
		fontsize=8,
		label=0.17,
		lp="1115.5,488.5",
		penwidth=1.01,
		pos="e,1098.3,465.26 1136.3,511.98 1126.1,508.01 1115.3,502.1 1108,493.5 1103.1,487.76 1100.6,479.79 1099.3,472.81"];
	25 -> 12	 [arrowhead=normal,
		arrowsize=0.75,
		fontsize=8,
		label=0.06,
		lp="1230.5,296.5",
		penwidth=0.68,
		pos="e,1179.9,511.87 1042.5,77.002 1111.9,82.988 1223,98.369 1223,135.5 1223,457.5 1223,457.5 1223,457.5 1223,479.55 1203.2,497.01 1186.7,\
507.7"];
	25 -> 23	 [arrowhead=normal,
		arrowsize=0.75,
		fontsize=8,
		label=0.33,
		lp="1149.5,264.5",
		penwidth=1.49,
		pos="e,1108.2,447.93 1042.3,74.082 1086.6,77.782 1142,91.259 1142,135.5 1142,393.5 1142,393.5 1142,393.5 1142,413.46 1126.6,431.48 1114.1,\
442.88"];
	11	 [URL="http://lattes.cnpq.br/9030707448549156",
		color="#17272B",
		fontcolor="#FFFFFF",
		height=0.23611,
		label="Leonardo Goliatt da Fonseca [14]",
		pos="428,328.5",
		width=1.7222];
	25 -> 11	 [arrowhead=normal,
		arrowsize=0.75,
		fontsize=8,
		label=0.17,
		lp="974.5,200.5",
		penwidth=1.01,
		pos="e,490.09,326.73 983.55,81.24 977.38,92.702 967,115.04 967,135.5 967,265.5 967,265.5 967,265.5 967,312.2 643.5,323.75 497.74,326.59"];
	7	 [URL="http://lattes.cnpq.br/9672291905868428",
		color="#17272B",
		fontcolor="#FFFFFF",
		height=0.23611,
		label="Michèle C. Resende Farage [6]",
		pos="261,136.5",
		width=1.6111];
	25 -> 7	 [arrowhead=normal,
		arrowsize=0.75,
		fontsize=8,
		label=0.06,
		lp="384.5,104.5",
		penwidth=0.68,
		pos="e,283.03,127.92 933.45,74.019 804.37,75.54 483.05,81.108 377,99.5 360.31,102.39 318.89,115.83 290.35,125.44"];
	15	 [URL="http://lattes.cnpq.br/6681044486435612",
		color="#17272B",
		fontcolor="#FFFFFF",
		height=0.23611,
		label="Afonso C. de Castro Lemonge [6]",
		pos="722,392.5",
		width=1.7361];
	25 -> 15	 [arrowhead=normal,
		arrowsize=0.75,
		fontsize=8,
		label=0.28,
		lp="1030.5,232.5",
		penwidth=1.34,
		pos="e,782.81,383.98 996.89,81.336 1001.8,86.114 1007.5,92.614 1011,99.5 1016.7,110.86 1015.3,114.89 1017,127.5 1025.7,192.25 1037.3,\
219.85 1000,273.5 959.4,331.93 937.16,345.09 869,365.5 843.8,373.04 815.47,378.69 790.46,382.76"];
	6	 [URL="http://lattes.cnpq.br/9998509212446471",
		color="#17272B",
		fontcolor="#FFFFFF",
		height=0.23611,
		label="Patricia Habib Hallak [2]",
		pos="284,8.5",
		width=1.3472];
	25 -> 6	 [arrowhead=normal,
		arrowsize=0.75,
		fontsize=8,
		label=0.11,
		lp="582.5,40.5",
		penwidth=0.83,
		pos="e,332.3,16.38 933.47,69.114 854.37,65.416 703.22,57.456 575,45.5 493.02,37.856 398.47,25.501 339.96,17.439"];
	23 -> 12	 [arrowhead=normal,
		arrowsize=0.75,
		fontsize=8,
		label=0.13,
		lp="1142.5,488.5",
		penwidth=0.89,
		pos="e,1156.8,511.9 1106.3,465.16 1117.5,475.52 1137.6,494.11 1151.1,506.63"];
	23 -> 25	 [arrowhead=normal,
		arrowsize=0.75,
		fontsize=8,
		label=0.75,
		lp="1098.5,264.5",
		penwidth=2.75,
		pos="e,1028.4,81.043 1096.6,447.9 1094.5,436.23 1091,413.21 1091,393.5 1091,393.5 1091,393.5 1091,135.5 1091,107.55 1062.8,91.877 1035.9,\
83.284"];
	23 -> 15	 [arrowhead=normal,
		arrowsize=0.75,
		fontsize=8,
		label=0.13,
		lp="940.5,424.5",
		penwidth=0.89,
		pos="e,767.7,401.04 1052.3,447.96 982.36,436.43 849.22,414.48 775.13,402.26"];
	2	 [URL="http://lattes.cnpq.br/6653435398940498",
		color="#17272B",
		fontcolor="#FFFFFF",
		height=0.23611,
		label="Rodrigo Weber dos Santos [5]",
		pos="655,264.5",
		width=1.5833];
	3	 [URL="http://lattes.cnpq.br/8602778120667424",
		color="#17272B",
		fontcolor="#FFFFFF",
		height=0.23611,
		label="Rafael A. Bonfim de Queiroz [1]",
		pos="717,200.5",
		width=1.6944];
	2 -> 3	 [arrowhead=normal,
		arrowsize=0.75,
		fontsize=8,
		label=0.17,
		lp="682.5,232.5",
		penwidth=1.01,
		pos="e,700.46,209.19 657.88,255.89 661.12,248.07 667.01,235.88 675,227.5 680.3,221.94 687.04,217.09 693.55,213.13"];
	4	 [URL="http://lattes.cnpq.br/6986138014246480",
		color="#17272B",
		fontcolor="#FFFFFF",
		height=0.23611,
		label="Luciana C. Dias Campos [5]",
		pos="346,200.5",
		width=1.5];
	2 -> 4	 [arrowhead=normal,
		arrowsize=0.75,
		fontsize=8,
		label=0.06,
		lp="450.5,232.5",
		penwidth=0.68,
		pos="e,368.83,209.04 597.76,258.35 545.16,253.28 471.22,245.19 443,237.5 432.25,234.57 430.38,231.57 420,227.5 405.67,221.88 389.56,216.15 \
376.04,211.5"];
	8	 [URL="http://lattes.cnpq.br/9374460427113373",
		color="#17272B",
		fontcolor="#FFFFFF",
		height=0.23611,
		label="Marcelo Lobosco [4]",
		pos="838,200.5",
		width=1.1667];
	2 -> 8	 [arrowhead=normal,
		arrowsize=0.75,
		fontsize=8,
		label=0.58,
		lp="810.5,232.5",
		penwidth=2.24,
		pos="e,828.88,209.05 712.12,256.65 734.76,252.72 760.66,246.68 783,237.5 797.51,231.54 812.3,221.6 822.88,213.67"];
	2 -> 11	 [arrowhead=normal,
		arrowsize=0.75,
		fontsize=8,
		label=0.06,
		lp="645.5,296.5",
		penwidth=0.68,
		pos="e,490.07,324.37 651.07,273.3 646.36,281.78 637.62,294.98 626,301.5 604.48,313.58 545.65,320.27 497.67,323.82"];
	13	 [URL="http://lattes.cnpq.br/9127577198387019",
		color="#17272B",
		fontcolor="#FFFFFF",
		height=0.23611,
		label="Bernardo Martins Rocha [1]",
		pos="838,136.5",
		width=1.4861];
	2 -> 13	 [arrowhead=normal,
		arrowsize=0.75,
		fontsize=8,
		label=0.08,
		lp="901.5,200.5",
		penwidth=0.74,
		pos="e,850.58,145.18 712.06,259.08 774.88,252.8 869.59,238.65 889,209.5 903.26,188.08 876.84,163.76 856.99,149.58"];
	24	 [URL="http://lattes.cnpq.br/4797934811107085",
		color="#17272B",
		fontcolor="#FFFFFF",
		height=0.23611,
		label="Luis P. da Silva Barra [2]",
		pos="398,136.5",
		width=1.3611];
	2 -> 24	 [arrowhead=normal,
		arrowsize=0.75,
		fontsize=8,
		label=0.06,
		lp="604.5,200.5",
		penwidth=0.68,
		pos="e,447.28,140.21 647.24,255.84 625.52,234.56 564.06,175.51 539,163.5 512.95,151.02 481.55,144.51 454.99,141.12"];
	3 -> 2	 [arrowhead=normal,
		arrowsize=0.75,
		fontsize=8,
		label=1.0,
		lp="704.5,232.5",
		penwidth=3.5,
		pos="e,667.02,255.85 712.19,209.17 707.19,216.82 698.86,228.68 690,237.5 684.99,242.49 678.97,247.3 673.35,251.4"];
	4 -> 2	 [arrowhead=normal,
		arrowsize=0.75,
		fontsize=8,
		label=0.06,
		lp="513.5,232.5",
		penwidth=0.68,
		pos="e,608.58,256 377.48,209.06 409.67,216.67 461.19,228.55 506,237.5 537.44,243.78 572.78,249.98 601.15,254.75"];
	4 -> 11	 [arrowhead=normal,
		arrowsize=0.75,
		fontsize=8,
		label=0.81,
		lp="378.5,264.5",
		penwidth=2.93,
		pos="e,413.76,320 347.63,209.16 351.81,227.21 364.41,272.98 390,301.5 394.94,307.01 401.27,311.93 407.35,315.97"];
	4 -> 24	 [arrowhead=normal,
		arrowsize=0.75,
		fontsize=8,
		label=0.06,
		lp="368.5,168.5",
		penwidth=0.68,
		pos="e,383.49,145.05 347.8,191.96 349.95,184.2 354.13,172.05 361,163.5 365.38,158.04 371.2,153.24 376.92,149.29"];
	4 -> 7	 [arrowhead=normal,
		arrowsize=0.75,
		fontsize=8,
		label=0.08,
		lp="292.5,168.5",
		penwidth=0.74,
		pos="e,264.4,145.06 319.23,191.89 307.84,187.74 294.92,181.74 285,173.5 277.89,167.6 272.07,159.06 267.95,151.78"];
	8 -> 2	 [arrowhead=normal,
		arrowsize=0.75,
		fontsize=8,
		label=0.88,
		lp="765.5,232.5",
		penwidth=3.14,
		pos="e,677.44,255.9 815.66,209.07 782.84,220.19 721.52,240.96 684.87,253.38"];
	8 -> 13	 [arrowhead=normal,
		arrowsize=0.75,
		fontsize=8,
		label=0.13,
		lp="827.5,168.5",
		penwidth=0.89,
		pos="e,830.94,145.02 830.18,191.8 823.96,184.71 816.79,173.77 820,163.5 821.35,159.18 823.7,154.94 826.26,151.18"];
	11 -> 25	 [arrowhead=normal,
		arrowsize=0.75,
		fontsize=8,
		label=0.11,
		lp="498.5,200.5",
		penwidth=0.83,
		pos="e,933.63,78.107 473.79,319.96 500.92,312.88 533.19,299.32 550,273.5 574.49,235.87 463.16,226.72 491,191.5 544.61,123.67 804.84,90.717 \
925.87,78.857"];
	11 -> 2	 [arrowhead=normal,
		arrowsize=0.75,
		fontsize=8,
		label=0.02,
		lp="612.5,296.5",
		penwidth=0.56,
		pos="e,641.33,273.06 490.16,321.54 519.17,317.65 553.87,311.39 584,301.5 594,298.22 617.21,286.11 634.39,276.83"];
	11 -> 4	 [arrowhead=normal,
		arrowsize=0.75,
		fontsize=8,
		label=0.35,
		lp="351.5,264.5",
		penwidth=1.55,
		pos="e,343.62,209.12 403.73,319.92 383.25,312.03 355.49,297.41 344,273.5 335.32,255.43 338.29,231.76 341.73,216.58"];
	11 -> 24	 [arrowhead=normal,
		arrowsize=0.75,
		fontsize=8,
		label=0.02,
		lp="298.5,232.5",
		penwidth=0.56,
		pos="e,348.67,144.74 393.61,319.89 380.4,315.86 365.7,309.95 354,301.5 299.43,262.07 282.09,240.21 273,173.5 272.4,169.1 270.2,166.95 \
273,163.5 277.58,157.87 310.16,151.2 340.91,146.03"];
	11 -> 7	 [arrowhead=normal,
		arrowsize=0.75,
		fontsize=8,
		label=0.14,
		lp="275.5,232.5",
		penwidth=0.92,
		pos="e,259.96,145.14 390.58,320 373.7,315.82 353.81,309.76 337,301.5 299.46,283.06 283.92,276.18 268,237.5 256.41,209.34 257.39,172.95 \
259.18,152.74"];
	11 -> 15	 [arrowhead=normal,
		arrowsize=0.75,
		fontsize=8,
		label=0.14,
		lp="600.5,360.5",
		penwidth=0.92,
		pos="e,686.24,383.96 463.97,337.08 518.13,348.51 620.49,370.09 678.68,382.36"];
	19	 [URL="http://lattes.cnpq.br/4695699230584970",
		color="#17272B",
		fontcolor="#FFFFFF",
		height=0.23611,
		label="Flávia de Souza Bastos [4]",
		pos="154,72.5",
		width=1.4167];
	11 -> 19	 [arrowhead=normal,
		arrowsize=0.75,
		fontsize=8,
		label=0.14,
		lp="152.5,200.5",
		penwidth=0.92,
		pos="e,152.18,81.084 365.89,326.24 282.59,322.82 145,310.39 145,265.5 145,265.5 145,265.5 145,135.5 145,119.42 148,101.23 150.54,88.73"];
	14	 [URL="http://lattes.cnpq.br/1092810690505352",
		color="#17272B",
		fontcolor="#FFFFFF",
		height=0.23611,
		label="Alexandre Abrahão Cury [1]",
		pos="487,264.5",
		width=1.5139];
	11 -> 14	 [arrowhead=normal,
		arrowsize=0.75,
		fontsize=8,
		label=0.07,
		lp="472.5,296.5",
		penwidth=0.71,
		pos="e,480.82,273.16 436.81,319.78 442.45,314.73 449.83,307.9 456,301.5 462.92,294.31 470.22,285.88 476,278.98"];
	13 -> 2	 [arrowhead=normal,
		arrowsize=0.75,
		fontsize=8,
		label=0.5,
		lp="641.5,200.5",
		penwidth=2.0,
		pos="e,649.2,255.94 784.53,144.41 730.98,152.56 654.02,168.03 636,191.5 622.89,208.57 634.87,233.89 644.85,249.51"];
	13 -> 8	 [arrowhead=normal,
		arrowsize=0.75,
		fontsize=8,
		label=0.5,
		lp="843.5,168.5",
		penwidth=2.0,
		pos="e,838,191.9 838,145.16 838,154.86 838,171.8 838,184.19"];
	24 -> 2	 [arrowhead=normal,
		arrowsize=0.75,
		fontsize=8,
		label=0.17,
		lp="551.5,200.5",
		penwidth=1.01,
		pos="e,639.69,256 413.55,145.12 457.32,166.58 581.67,227.55 632.71,252.57"];
	24 -> 4	 [arrowhead=normal,
		arrowsize=0.75,
		fontsize=8,
		label=0.17,
		lp="390.5,168.5",
		penwidth=1.01,
		pos="e,356.16,192 394.23,145.12 390.27,152.73 383.57,164.56 376,173.5 371.87,178.38 366.79,183.14 361.99,187.23"];
	24 -> 11	 [arrowhead=normal,
		arrowsize=0.75,
		fontsize=8,
		label=0.17,
		lp="408.5,232.5",
		penwidth=1.01,
		pos="e,424.82,319.73 400.06,145.12 402.75,155.51 407.31,174.75 409,191.5 409.8,199.46 410.66,201.67 409,209.5 407.18,218.06 402.82,218.94 \
401,227.5 400.08,231.85 400.35,233.1 401,237.5 404.99,264.65 415.39,294.99 422.06,312.59"];
	21	 [URL="http://lattes.cnpq.br/2440193189134197",
		color="#17272B",
		fontcolor="#FFFFFF",
		height=0.23611,
		label="Elson Magalhães Toledo [1]",
		pos="417,72.5",
		width=1.4861];
	24 -> 21	 [arrowhead=normal,
		arrowsize=0.75,
		fontsize=8,
		label=0.5,
		lp="402.5,104.5",
		penwidth=2.0,
		pos="e,408.76,81.324 396.27,127.82 394.95,120.37 393.82,108.85 397,99.5 398.5,95.079 401.1,90.823 403.93,87.079"];
	7 -> 25	 [arrowhead=normal,
		arrowsize=0.75,
		fontsize=8,
		label=0.08,
		lp="330.5,104.5",
		penwidth=0.74,
		pos="e,933.52,74.122 270.82,127.73 282.49,119.01 302.92,105.33 323,99.5 379.84,82.996 771.77,76.255 925.92,74.221"];
	7 -> 4	 [arrowhead=normal,
		arrowsize=0.75,
		fontsize=8,
		label=0.08,
		lp="320.5,168.5",
		penwidth=0.74,
		pos="e,336.65,191.84 272.76,145.01 280.59,150.08 291.03,157.02 300,163.5 310.45,171.05 321.86,179.98 330.71,187.06"];
	7 -> 11	 [arrowhead=normal,
		arrowsize=0.75,
		fontsize=8,
		label=0.33,
		lp="187.5,232.5",
		penwidth=1.49,
		pos="e,365.95,327.12 238.63,145.19 229.32,149.35 219.06,155.35 212,163.5 171.84,209.85 164.03,263.28 212,301.5 234.08,319.09 304.01,325 \
358.39,326.88"];
	7 -> 19	 [arrowhead=normal,
		arrowsize=0.75,
		fontsize=8,
		label=0.33,
		lp="186.5,104.5",
		penwidth=1.49,
		pos="e,157.47,81.237 219.31,127.94 205.56,124.03 190.78,118.19 179,109.5 171.47,103.95 165.4,95.417 161.13,88.056"];
	17	 [URL="http://lattes.cnpq.br/5293684092572886",
		color="#17272B",
		fontcolor="#FFFFFF",
		height=0.23611,
		label="Ciro de Barros Barbosa [1]",
		pos="279,72.5",
		width=1.4306];
	7 -> 17	 [arrowhead=normal,
		arrowsize=0.75,
		fontsize=8,
		label=0.17,
		lp="279.5,104.5",
		penwidth=1.01,
		pos="e,276.77,81.165 263.21,127.9 266.04,118.14 271.02,100.98 274.64,88.534"];
	15 -> 25	 [arrowhead=normal,
		arrowsize=0.75,
		fontsize=8,
		label=0.42,
		lp="1007.5,232.5",
		penwidth=1.76,
		pos="e,990.42,81.328 771.53,383.99 831.66,372.03 931.06,342.5 980,273.5 1020.6,216.3 1002.1,124.98 992.53,88.896"];
	15 -> 23	 [arrowhead=normal,
		arrowsize=0.75,
		fontsize=8,
		label=0.08,
		lp="1058.5,424.5",
		penwidth=0.74,
		pos="e,1086.2,447.92 784.33,396.12 859.52,399.76 981.26,407.31 1025,419.5 1044.7,424.98 1065.4,435.73 1079.7,444.06"];
	15 -> 11	 [arrowhead=normal,
		arrowsize=0.75,
		fontsize=8,
		label=0.33,
		lp="546.5,360.5",
		penwidth=1.49,
		pos="e,447.76,337.06 659.67,385.35 624.05,381.16 578.71,374.69 539,365.5 509.74,358.73 477.15,347.73 454.89,339.67"];
	15 -> 6	 [arrowhead=normal,
		arrowsize=0.75,
		fontsize=8,
		label=0.17,
		lp="7.5,200.5",
		penwidth=1.01,
		pos="e,235.5,10.227 659.7,391.87 521.19,392.21 191.37,390.3 83,365.5 43.804,356.53 0,369.71 0,329.5 0,329.5 0,329.5 0,71.5 0,25.36 144.89,\
13.502 227.69,10.492"];
	19 -> 11	 [arrowhead=normal,
		arrowsize=0.75,
		fontsize=8,
		label=0.5,
		lp="103.5,200.5",
		penwidth=2.0,
		pos="e,365.93,328.28 139.87,81.087 123.28,91.14 98,110.55 98,135.5 98,265.5 98,265.5 98,265.5 98,318 261.37,327.32 358.21,328.23"];
	19 -> 7	 [arrowhead=normal,
		arrowsize=0.75,
		fontsize=8,
		label=0.5,
		lp="219.5,104.5",
		penwidth=2.0,
		pos="e,247.88,127.9 167.23,81.165 185.82,91.936 219.81,111.63 241.36,124.12"];
	14 -> 11	 [arrowhead=normal,
		arrowsize=0.75,
		fontsize=8,
		label=1.0,
		lp="446.5,296.5",
		penwidth=3.5,
		pos="e,429.16,319.83 466.94,273.03 457.96,277.27 447.87,283.37 441,291.5 436.01,297.41 432.87,305.39 430.93,312.34"];
	21 -> 24	 [arrowhead=normal,
		arrowsize=0.75,
		fontsize=8,
		label=1.0,
		lp="418.5,104.5",
		penwidth=3.5,
		pos="e,402.07,127.96 416.07,81.079 415.03,88.457 413.09,99.93 410,109.5 408.77,113.32 407.12,117.32 405.44,121"];
	17 -> 7	 [arrowhead=normal,
		arrowsize=0.75,
		fontsize=8,
		label=1.0,
		lp="259.5,104.5",
		penwidth=3.5,
		pos="e,257.06,127.81 268.49,81.143 263.05,85.768 256.95,92.181 254,99.5 251.3,106.21 252.37,114.05 254.4,120.7"];
	6 -> 25	 [arrowhead=normal,
		arrowsize=0.75,
		fontsize=8,
		label=0.5,
		lp="684.5,40.5",
		penwidth=2.0,
		pos="e,933.64,66.712 332.53,13.774 457.07,24.742 787.85,53.874 926.01,66.041"];
	6 -> 15	 [arrowhead=normal,
		arrowsize=0.75,
		fontsize=8,
		label=0.5,
		lp="56.5,200.5",
		penwidth=2.0,
		pos="e,659.48,392.2 235.72,12.592 167.48,18.31 51,33.618 51,71.5 51,329.5 51,329.5 51,329.5 51,389.34 479.62,393.13 651.73,392.24"];
	5	 [URL="http://lattes.cnpq.br/3074561832181610",
		color="#17272B",
		fontcolor="#FFFFFF",
		height=0.23611,
		label="Priscila V. Z. Capriles Goliatt [0]",
		pos="1291,648.5",
		width=1.7083];
	9	 [URL="http://lattes.cnpq.br/4710759665420538",
		color="#17272B",
		fontcolor="#FFFFFF",
		height=0.23611,
		label="Flavio Barbosa de Souza [0]",
		pos="1425,648.5",
		width=1.5];
	16	 [URL="http://lattes.cnpq.br/6907017215672171",
		color="#17272B",
		fontcolor="#FFFFFF",
		height=0.23611,
		label="Henrique Steinherz Hippert [0]",
		pos="1555,648.5",
		width=1.6111];
	18	 [URL="http://lattes.cnpq.br/0311818140902541",
		color="#17272B",
		fontcolor="#FFFFFF",
		height=0.23611,
		label="Grigori Chapiro [0]",
		pos="1671,648.5",
		width=1.0972];
	20	 [URL="http://lattes.cnpq.br/8621487041613032",
		color="#17272B",
		fontcolor="#FFFFFF",
		height=0.23611,
		label="Wilhelm Passarella Freire [0]",
		pos="1784,648.5",
		width=1.5417];
	22	 [URL="http://lattes.cnpq.br/9559119135506333",
		color="#17272B",
		fontcolor="#FFFFFF",
		height=0.23611,
		label="Felipe d. Santos Loureiro [0]",
		pos="1912,648.5",
		width=1.5139];
}
