ID_Lattes|MATRICULA|NOME|CH|mail|LP_1|PROGRAMA_1|CATEG_1|Periodo_Inicio_1|Periodo_Fim_1|Resp_prog|Resp_LP1
K4230034J2|99999|RICARDO GABBAY DE SOUZA|40|UFF@UFF.br|SGS|SGS|P|2013|2016|SGS|SGS
K4783553E8|99999|JACOB BINSZTOK|40|UFF@UFF.br|SGS|SGS|P|2013|2016||
K8067792P2|99999|HELDER GOMES COSTA|40|UFF@UFF.br|SGS|SGS|P|2013|2016||
K4746463E6|99999|SERGIO LUIZ BRAGA FRANCA|40|UFF@UFF.br|SGS|SGS|P|2013|2016||
K4787249T9|99999|EDISON DAUSACKER BIDONE|40|UFF@UFF.br|SGS|SGS|P|2013|2016||
K4787123Z3|99999|ANNIBAL PARRACHO SANTANNA|40|UFF@UFF.br|SGS|SGS|P|2013|2016||
K4727949A4|99999|JOSE RODRIGUES DE FARIAS FILHO|40|UFF@UFF.br|SGS|SGS|P|2013|2016||
K4791508Z3|99999|EMMANUEL PAIVA DE ANDRADE|40|UFF@UFF.br|SGS|SGS|P|2013|2016||
K4250260J8|99999|JULIO VIEIRA NETO|40|UFF@UFF.br|SGS|SGS|P|2013|2016||
K4791688P2|99999|OSVALDO LUIZ GONCALVES QUELHAS|40|UFF@UFF.br|SGS|SGS|P|2013|2016||
K4426848Z7|99999|MIRIAN PICININI MEXAS|40|UFF@UFF.br|SGS|SGS|P|2013|2016||
K4796196Z1|99999|ROGER MATSUMOTO MOREIRA|40|UFF@UFF.br|SGS|SGS|P|2013|2016||
K4768548H3|99999|MARIA DE LURDES COSTA DOMINGOS|40|UFF@UFF.br|SGS|SGS|P|2013|2016||
K4214814H8|99999|MARCELO JASMIM MEIRINO|40|UFF@UFF.br|SGS|SGS|P|2013|2016||
K4728066Z2|99999|LUIS PEREZ ZOTES|40|UFF@UFF.br|SGS|SGS|P|2013|2016||
K4781841A6|99999|JULIO CESAR DE FARIA ALVIM WASSERMAN|40|UFF@UFF.br|SGS|SGS|P|2013|2016||
K4785632P3|99999|DANIEL VIDAL PEREZ|40|UFF@UFF.br|SGS|SGS|P|2013|2016||
K4773622E9|99999|SERGIO RICARDO DA SILVEIRA BARROS|40|UFF@UFF.br|SGS|SGS|P|2013|2016||
K4785775D4|99999|LUIS ALBERTO DUNCAN RANGEL|40|UFF@UFF.br|SGS|SGS|P|2013|2016||
K4799920H0|99999|LISIANE VEIGA MATTOS|40|UFF@UFF.br|SGS|SGS|P|2013|2016||
K4791172A4|99999|GILSON BRITO ALVES LIMA|40|UFF@UFF.br|SGS|SGS|P|2013|2016||
K4792561Y9|99999|LETICIA HELENA MEDEIROS VELOSO|40|UFF@UFF.br|SGS|SGS|P|2013|2016||
