strict digraph grafo3 {
	graph [bb="0,0,3203,145",
		id=grafo3,
		overlap=False
	];
	node [fontsize=8,
		label="\N",
		shape=rectangle,
		style=filled
	];
	0	 [URL="http://lattes.cnpq.br/1836363748488436",
		color="#17272B",
		fontcolor="#FFFFFF",
		height=0.23611,
		label="Alexandre da Costa Sena [2]",
		pos="57.5,136.5",
		width=1.5];
	21	 [URL="http://lattes.cnpq.br/4869894816851795",
		color="#17272B",
		fontcolor="#FFFFFF",
		height=0.23611,
		label="Leandro A. Justen Marzulo [2]",
		pos="57.5,72.5",
		width=1.5972];
	0 -> 21	 [arrowhead=normal,
		arrowsize=0.75,
		fontsize=8,
		label=1.0,
		lp="47,104.5",
		penwidth=3.5,
		pos="e,51.216,81.153 50.538,127.74 45.004,120.6 38.631,109.63 41.5,99.5 42.661,95.398 44.672,91.307 46.884,87.625"];
	21 -> 0	 [arrowhead=normal,
		arrowsize=0.75,
		fontsize=8,
		label=1.0,
		lp="63,104.5",
		penwidth=3.5,
		pos="e,57.5,127.9 57.5,81.165 57.5,90.864 57.5,107.8 57.5,120.19"];
	1	 [URL="http://lattes.cnpq.br/9781797634377318",
		color="#17272B",
		fontcolor="#FFFFFF",
		height=0.23611,
		label="Fabiano Souza de Oliveira [0]",
		pos="186.5,136.5",
		width=1.5694];
	2	 [URL="http://lattes.cnpq.br/7657422977567514",
		color="#17272B",
		fontcolor="#FFFFFF",
		height=0.23611,
		label="Frederico A. de Oliveira Cruz [0]",
		pos="323.5,136.5",
		width=1.7222];
	3	 [URL="http://lattes.cnpq.br/6107034183202542",
		color="#17272B",
		fontcolor="#FFFFFF",
		height=0.23611,
		label="Celia M. Cortez Silva [1]",
		pos="452.5,136.5",
		width=1.3611];
	10	 [URL="http://lattes.cnpq.br/5258150848273682",
		color="#17272B",
		fontcolor="#FFFFFF",
		height=0.23611,
		label="Roseli Suzi Wedemann [1]",
		pos="380.5,72.5",
		width=1.4306];
	3 -> 10	 [arrowhead=normal,
		arrowsize=0.75,
		fontsize=8,
		label=0.5,
		lp="408,104.5",
		penwidth=2.0,
		pos="e,383.71,81.222 431.93,127.85 422.22,123.52 410.94,117.38 402.5,109.5 396.13,103.55 390.93,95.36 387.19,88.291"];
	26	 [URL="http://lattes.cnpq.br/6348480289055660",
		color="#17272B",
		fontcolor="#FFFFFF",
		height=0.23611,
		label="Maria C. Stelling de Castro [1]",
		pos="451.5,8.5",
		width=1.6111];
	3 -> 26	 [arrowhead=normal,
		arrowsize=0.75,
		fontsize=8,
		label=0.5,
		lp="458,72.5",
		penwidth=2.0,
		pos="e,451.56,17.125 452.44,128 452.28,107.82 451.84,52.112 451.62,24.883"];
	10 -> 3	 [arrowhead=normal,
		arrowsize=0.75,
		fontsize=8,
		label=0.5,
		lp="430,104.5",
		penwidth=2.0,
		pos="e,444.6,127.87 390.48,81.039 397.11,86.126 405.95,93.062 413.5,99.5 422.15,106.88 431.53,115.52 438.92,122.48"];
	10 -> 26	 [arrowhead=normal,
		arrowsize=0.75,
		fontsize=8,
		label=0.5,
		lp="408,40.5",
		penwidth=2.0,
		pos="e,431.83,17.012 383.73,63.792 387.34,55.888 393.86,43.632 402.5,35.5 408.94,29.436 417.07,24.376 424.85,20.38"];
	26 -> 3	 [arrowhead=normal,
		arrowsize=0.75,
		fontsize=8,
		label=0.5,
		lp="479,72.5",
		penwidth=2.0,
		pos="e,457.93,127.71 457.31,17.237 460.67,22.182 464.6,28.888 466.5,35.5 475.57,67.113 475.11,77.758 466.5,109.5 465.42,113.48 463.64,\
117.53 461.7,121.2"];
	26 -> 10	 [arrowhead=normal,
		arrowsize=0.75,
		fontsize=8,
		label=0.5,
		lp="430,40.5",
		penwidth=2.0,
		pos="e,390.51,63.993 443.83,17.159 436.29,24.597 424.36,36.11 413.5,45.5 408.11,50.163 402.02,55.055 396.56,59.323"];
	4	 [URL="http://lattes.cnpq.br/3909390599449995",
		color="#17272B",
		fontcolor="#FFFFFF",
		height=0.23611,
		label="Carlos F. F. de Barros e Vasconcellos [0]",
		pos="594.5,136.5",
		width=2.0694];
	5	 [URL="http://lattes.cnpq.br/4299545465339581",
		color="#17272B",
		fontcolor="#FFFFFF",
		height=0.23611,
		label="Antonio C. de Moura Santos [0]",
		pos="747.5,136.5",
		width=1.6667];
	6	 [URL="http://lattes.cnpq.br/",
		color="#17272B",
		fontcolor="#FFFFFF",
		height=0.23611,
		label="[Nome-nao-identificado] [0]",
		pos="879.5,136.5",
		width=1.4861];
	7	 [URL="http://lattes.cnpq.br/0403732822984772",
		color="#17272B",
		fontcolor="#FFFFFF",
		height=0.23611,
		label="Alexandre Sztajnberg [0]",
		pos="999.5,136.5",
		width=1.3472];
	8	 [URL="http://lattes.cnpq.br/4754635406522430",
		color="#17272B",
		fontcolor="#FFFFFF",
		height=0.23611,
		label="Jerrylee D. Yoshii Silva [0]",
		pos="1118.5,136.5",
		width=1.4583];
	9	 [URL="http://lattes.cnpq.br/7535348349141535",
		color="#17272B",
		fontcolor="#FFFFFF",
		height=0.23611,
		label="Vera M. Benjamim Werneck [2]",
		pos="1249.5,136.5",
		width=1.6806];
	11	 [URL="http://lattes.cnpq.br/1829333800490851",
		color="#17272B",
		fontcolor="#FFFFFF",
		height=0.23611,
		label="Rosa M. E. Moreira da Costa [2]",
		pos="1249.5,72.5",
		width=1.6806];
	9 -> 11	 [arrowhead=normal,
		arrowsize=0.75,
		fontsize=8,
		label=1.0,
		lp="1239,104.5",
		penwidth=3.5,
		pos="e,1242.5,81.264 1243.2,127.85 1239.6,122.93 1235.4,116.23 1233.5,109.5 1231.4,102.06 1234.3,94.165 1238.1,87.672"];
	11 -> 9	 [arrowhead=normal,
		arrowsize=0.75,
		fontsize=8,
		label=1.0,
		lp="1255,104.5",
		penwidth=3.5,
		pos="e,1249.5,127.9 1249.5,81.165 1249.5,90.864 1249.5,107.8 1249.5,120.19"];
	12	 [URL="http://lattes.cnpq.br/5413422509570085",
		color="#17272B",
		fontcolor="#FFFFFF",
		height=0.23611,
		label="Paulo E. Duarte Pinto [0]",
		pos="1377.5,136.5",
		width=1.3611];
	13	 [URL="http://lattes.cnpq.br/1734587740129156",
		color="#17272B",
		fontcolor="#FFFFFF",
		height=0.23611,
		label="Augusto C. de Castro Barbosa [1]",
		pos="1507.5,136.5",
		width=1.7361];
	27	 [URL="http://lattes.cnpq.br/7992727935310462",
		color="#17272B",
		fontcolor="#FFFFFF",
		height=0.23611,
		label="Marcus V. Tovar Costa [1]",
		pos="1507.5,72.5",
		width=1.4306];
	13 -> 27	 [arrowhead=normal,
		arrowsize=0.75,
		fontsize=8,
		label=1.0,
		lp="1497,104.5",
		penwidth=3.5,
		pos="e,1500.5,81.264 1501.2,127.85 1497.6,122.93 1493.4,116.23 1491.5,109.5 1489.4,102.06 1492.3,94.165 1496.1,87.672"];
	27 -> 13	 [arrowhead=normal,
		arrowsize=0.75,
		fontsize=8,
		label=1.0,
		lp="1513,104.5",
		penwidth=3.5,
		pos="e,1507.5,127.9 1507.5,81.165 1507.5,90.864 1507.5,107.8 1507.5,120.19"];
	14	 [URL="http://lattes.cnpq.br/1706605645478326",
		color="#17272B",
		fontcolor="#FFFFFF",
		height=0.23611,
		label="Ana L. de C. Leite Duboc [0]",
		pos="1643.5,136.5",
		width=1.5417];
	15	 [URL="http://lattes.cnpq.br/8300604408079168",
		color="#17272B",
		fontcolor="#FFFFFF",
		height=0.23611,
		label="Ricardo Carvalho de Barros [0]",
		pos="1775.5,136.5",
		width=1.625];
	16	 [URL="http://lattes.cnpq.br/3413049864861519",
		color="#17272B",
		fontcolor="#FFFFFF",
		height=0.23611,
		label="Rosa M. Videira de Figueiredo [0]",
		pos="1915.5,136.5",
		width=1.7639];
	17	 [URL="http://lattes.cnpq.br/9164335773757265",
		color="#17272B",
		fontcolor="#FFFFFF",
		height=0.23611,
		label="Regina Serrão Lanzillotti [0]",
		pos="2051.5,136.5",
		width=1.5139];
	18	 [URL="http://lattes.cnpq.br/2324159515825927",
		color="#17272B",
		fontcolor="#FFFFFF",
		height=0.23611,
		label="Raul Jose Donangelo [0]",
		pos="2172.5,136.5",
		width=1.3333];
	19	 [URL="http://lattes.cnpq.br/8180092714037435",
		color="#17272B",
		fontcolor="#FFFFFF",
		height=0.23611,
		label="Patrícia Nunes da Silva [0]",
		pos="2290.5,136.5",
		width=1.4306];
	20	 [URL="http://lattes.cnpq.br/0556459512101837",
		color="#17272B",
		fontcolor="#FFFFFF",
		height=0.23611,
		label="Luis A. Vidal de Carvalho [0]",
		pos="2416.5,136.5",
		width=1.5556];
	22	 [URL="http://lattes.cnpq.br/7074540262731419",
		color="#17272B",
		fontcolor="#FFFFFF",
		height=0.23611,
		label="Neide d. Santos Souza [0]",
		pos="2540.5,136.5",
		width=1.3889];
	23	 [URL="http://lattes.cnpq.br/0662797102623056",
		color="#17272B",
		fontcolor="#FFFFFF",
		height=0.23611,
		label="Sheila R. Murgel Veloso [0]",
		pos="2662.5,136.5",
		width=1.4861];
	24	 [URL="http://lattes.cnpq.br/3383864003678045",
		color="#17272B",
		fontcolor="#FFFFFF",
		height=0.23611,
		label="Cristiane de Faria Oliveira [0]",
		pos="2790.5,136.5",
		width=1.5694];
	25	 [URL="http://lattes.cnpq.br/4468191018994448",
		color="#17272B",
		fontcolor="#FFFFFF",
		height=0.23611,
		label="Maria H. de P. Leite Mello [0]",
		pos="2922.5,136.5",
		width=1.5833];
	28	 [URL="http://lattes.cnpq.br/3965328361563422",
		color="#17272B",
		fontcolor="#FFFFFF",
		height=0.23611,
		label="Luerbio Faria [0]",
		pos="3033.5,136.5",
		width=1];
	29	 [URL="http://lattes.cnpq.br/4657870977403568",
		color="#17272B",
		fontcolor="#FFFFFF",
		height=0.23611,
		label="Guilherme L. Abelha Mota [0]",
		pos="3145.5,136.5",
		width=1.5972];
}
