ID_Lattes|MATRICULA|NOME|CH|mail|LP_1|PROGRAMA_1|CATEG_1|Periodo_Inicio_1|Periodo_Fim_1|Resp_prog|Resp_LP1
K4771315U4|99999|VITOR SCHLICKMANN|40|UFSM@UFSM.br|EPT|EPT|P|2013|2016|EP|EPT
K4704276H9|99999|VANTOIR ROBERTO BRANCHER|40|UFSM@UFSM.br|EPT|EPT|P|2013|2016||
K4147810J0|99999|ROSELENE MOREIRA GOMES POMMER|40|UFSM@UFSM.br|EPT|EPT|P|2013|2016||
K4728776H1|99999|RICARDO MACHADO ELLENSOHN|40|UFSM@UFSM.br|EPT|EPT|P|2013|2016||
K4797726H7|99999|CLAUDIA SMANIOTTO BARIN|40|UFSM@UFSM.br|EPT|EPT|P|2013|2016||
K4728142H0|99999|MARTA ROSELI DE AZEREDO BARICHELLO|40|UFSM@UFSM.br|EPT|EPT|P|2013|2016||
K4765177T4|99999|MARCO ANTONIO DALLA COSTA|40|UFSM@UFSM.br|EPT|EPT|P|2013|2016||
K4442650Z6|99999|MARCELO FREITAS DA SILVA|40|UFSM@UFSM.br|EPT|EPT|P|2013|2016||
K4707249T0|99999|LILIANA SOARES FERREIRA|40|UFSM@UFSM.br|EPT|EPT|P|2013|2016||
K4706992T6|99999|LEILA MARIA ARAUJO SANTOS|40|UFSM@UFSM.br|EPT|EPT|P|2013|2016||
K4731078T8|99999|JANETE MARIA DE CONTO|40|UFSM@UFSM.br|EPT|EPT|P|2013|2016||
K4706915E9|99999|GILSE ANTONINHA MORGENTAL FALKEMBACH|40|UFSM@UFSM.br|EPT|EPT|P|2013|2016||
K4709269U6|99999|CLAUDEMIR DE QUADROS|40|UFSM@UFSM.br|EPT|EPT|P|2013|2016||
K4773313H5|99999|ASCISIO DOS REIS PEREIRA|40|UFSM@UFSM.br|EPT|EPT|P|2013|2016||
K4708889T1|99999|ARNILDO POMMER|40|UFSM@UFSM.br|EPT|EPT|P|2013|2016||
K4761972E3|99999|ALYSSON RANIERE SEIDEL|40|UFSM@UFSM.br|EPT|EPT|P|2013|2016||
