strict graph grafo1 {
	graph [bb="0,0,1360.5,233",
		id=grafo1,
		overlap=False
	];
	node [fontsize=8,
		label="\N",
		shape=rectangle,
		style=filled
	];
	0	 [URL="http://lattes.cnpq.br/1073307881297127",
		color="#17272B",
		fontcolor="#FFFFFF",
		height=0.23611,
		label="Pedro A. de Paula Pereira [2]",
		pos="63.5,224.5",
		width=1.5278];
	11	 [URL="http://lattes.cnpq.br/4049958660392553",
		color="#17272B",
		fontcolor="#FFFFFF",
		height=0.23611,
		label="Jailson Bittencourt de Andrade [4]",
		pos="63.5,170.5",
		width=1.7639];
	0 -- 11	 [pos="63.5,215.83 63.5,206 63.5,189.05 63.5,179.2"];
	12	 [URL="http://lattes.cnpq.br/7767998250007993",
		color="#17272B",
		fontcolor="#FFFFFF",
		height=0.23611,
		label="Gisele Olímpio da Rocha [2]",
		pos="63.5,116.5",
		width=1.5139];
	11 -- 12	 [pos="63.5,161.83 63.5,152 63.5,135.05 63.5,125.2"];
	1	 [URL="http://lattes.cnpq.br/9170893104155674",
		color="#17272B",
		fontcolor="#FFFFFF",
		height=0.23611,
		label="Silvio A. B. Vieira de Melo [1]",
		pos="320.5,224.5",
		width=1.6111];
	3	 [URL="http://lattes.cnpq.br/7228906971455111",
		color="#17272B",
		fontcolor="#FFFFFF",
		height=0.23611,
		label="Heloysa M. Carvalho Andrade [3]",
		pos="229.5,170.5",
		width=1.75];
	1 -- 3	 [pos="307.07,215.83 289.77,205.94 259.87,188.86 242.69,179.04"];
	7	 [URL="http://lattes.cnpq.br/2483185411923070",
		color="#17272B",
		fontcolor="#FFFFFF",
		height=0.23611,
		label="Ednildo Andrade Torres [6]",
		pos="274.5,116.5",
		width=1.4722];
	1 -- 7	 [pos="318.77,215.63 315.98,203.63 309.93,180.18 301.5,161.5 295.45,148.1 286.07,133.81 280.11,125.27"];
	3 -- 7	 [pos="236.14,161.83 244.65,152 259.31,135.05 267.83,125.2"];
	10	 [URL="http://lattes.cnpq.br/7897779819494573",
		color="#17272B",
		fontcolor="#FFFFFF",
		height=0.23611,
		label="Cristina M. A. L. T. da M. Hermida Quintella [6]",
		pos="216.5,62.5",
		width=2.4167];
	7 -- 10	 [pos="265.94,107.83 254.98,97.996 236.08,81.051 225.09,71.204"];
	16	 [URL="http://lattes.cnpq.br/6401622195719726",
		color="#17272B",
		fontcolor="#FFFFFF",
		height=0.23611,
		label="Iuri Muniz Pepe [3]",
		pos="273.5,8.5",
		width=1.1111];
	7 -- 16	 [pos="284.69,107.97 298.5,96.767 320.56,74.747 312.5,53.5 306.78,38.421 293.26,25.194 283.75,17.278"];
	10 -- 16	 [pos="224.91,53.827 235.69,43.996 254.26,27.051 265.05,17.204"];
	2	 [URL="http://lattes.cnpq.br/5363080225273626",
		color="#17272B",
		fontcolor="#FFFFFF",
		height=0.23611,
		label="Jardel Pereira Gonçalves [2]",
		pos="190.5,224.5",
		width=1.4861];
	2 -- 3	 [pos="196.25,215.83 203.63,206 216.34,189.05 223.72,179.2"];
	4	 [URL="http://lattes.cnpq.br/2272781877323360",
		color="#17272B",
		fontcolor="#FFFFFF",
		height=0.23611,
		label="Sandro Lemos Machado [0]",
		pos="449.5,224.5",
		width=1.4722];
	5	 [URL="http://lattes.cnpq.br/4754562885515304",
		color="#17272B",
		fontcolor="#FFFFFF",
		height=0.23611,
		label="Daniel Veras Ribeiro [0]",
		pos="568.5,224.5",
		width=1.3333];
	6	 [URL="http://lattes.cnpq.br/1428637808064409",
		color="#17272B",
		fontcolor="#FFFFFF",
		height=0.23611,
		label="Milton José Porsani [0]",
		pos="680.5,224.5",
		width=1.2639];
	8	 [URL="http://lattes.cnpq.br/3733846364293441",
		color="#17272B",
		fontcolor="#FFFFFF",
		height=0.23611,
		label="Asher Kiperstok [0]",
		pos="784.5,224.5",
		width=1.1111];
	9	 [URL="http://lattes.cnpq.br/8676714298611642",
		color="#17272B",
		fontcolor="#FFFFFF",
		height=0.23611,
		label="Paulo Fernando de Almeida [0]",
		pos="901.5,224.5",
		width=1.625];
	13	 [URL="http://lattes.cnpq.br/5927149543717327",
		color="#17272B",
		fontcolor="#FFFFFF",
		height=0.23611,
		label="Caio M. Castro de Castilho [0]",
		pos="1035.5,224.5",
		width=1.5972];
	14	 [URL="http://lattes.cnpq.br/5329137760546794",
		color="#17272B",
		fontcolor="#FFFFFF",
		height=0.23611,
		label="Maria d. G. Andrade Korn [0]",
		pos="1167.5,224.5",
		width=1.5694];
	15	 [URL="http://lattes.cnpq.br/5969382268977201",
		color="#17272B",
		fontcolor="#FFFFFF",
		height=0.23611,
		label="Luiz R. P. de Andrade Lima [0]",
		pos="1301.5,224.5",
		width=1.6389];
}
