artigoEmPeriodico	2013		Possibilidades epistemológicas para a ampliação da Teoria da Administração Pública: uma análise a partir do conceito do Novo Serviço Público	Cadernos EBAPE.BR (FGV)	ABREU, A. C. D. ; AMIN, A. ; FIALHO, F. A. P.	B1	
artigoEmPeriodico	2013		Ensino para a inovação: por que é tão importante formar pessoas inovadoras?	E-tech: Tecnologias para Competitividade Industrial	ABREU, A. F. ; DANDOLINI, G. A. ; TARTARI, Jaqueline de Souza ; SOUZA, João Artur de ; TEZA, P. ; FERNANDES, R. F. ; MIGUEZ, V. B.	B3	
artigoEmPeriodico	2013		Aspectos do Perfil Profissional do Designer Gráfico Brasileiro	Revista Educação Gráfica	ALMEIDA, F. S. ; Perassi, R.	Qualis nao identificado	Revista Educação Gráfica
artigoEmPeriodico	2013		O processo de cocriação de experiências em plataformas de engajamento.	Datagramazero (Rio de Janeiro)	ARBEX, D. ; GIGLIO, K. ; Perassi, R. ; VARVAKIS, G.	B1	
artigoEmPeriodico	2013		Jornalismo hiperlocal e o desafio da criação de uma agenda noticiosa internacional plural	In Texto (UFRGS. Online)	BALDESSAR, M. J.; DELLAGNELLO, P. H.	B1	
artigoEmPeriodico	2013		Lei de acesso à informação e o debate acerca da divulgação de dados remuneratórios de servidores públicos	Democracia Digital e Governo Eletrônico	BERNARDES, M. B. ; SANTOS, P. M ; ROVER, Aires José ; ROVER, Aires José	B5	
artigoEmPeriodico	2013		A criação do conhecimento para a gestão de propriedades rurais no Brasil e na Austrália	SOBER	BINOTO, Erlaine ; NAKAYAMA, Marina Keiko ; SIQUEIRA, E. S.	Qualis nao identificado	SOBER
artigoEmPeriodico	2013		Ações para conter Impactos Ambientais na Orla Marítima: caso do município Balneário Gaivota	Olam: Ciência & Tecnologia (Rio Claro. Online)	BITENCOURT, N. L. R. ; SORIANO-SIERRA, E. J. ; HERNANDORENA, P.	B4	
artigoEmPeriodico	2013	http://dx.doi.org/10.1590/s0104-530x2013005000010	Modelo de referência para avaliação de portais turísticos com o suporte da gestão do conhecimento	Gestão & Produção (UFSCAR. Impresso)	BIZ, ALEXANDRE AUGUSTO ; Todesco, José Leomar ; RADOS, GREGÓRIO JEAN VARVAKIS	A2	
artigoEmPeriodico	2013		O Experimentalismo e a influência da Teoria da Gestalt na área de Design	Estudos em Design (Online)	BORTOLAS, N. ; BOEHS, G. ; Perassi, R. ; VIEIRA, M. L. H.	B1	
artigoEmPeriodico	2013		O sistema Isotype e a moderna estilização geométrica dos plctogramas em interfaces gráficas digitais	Revista Educação Gráfica	BORTOLAS, N. ; COTO, J. ; Perassi, R. ; VIEIRA, M. L. H.	Qualis nao identificado	Revista Educação Gráfica
artigoEmPeriodico	2013	http://dx.doi.org/10.14521/P2237-5163.2013.0004.0001	Aprendizagem gerencial e mudança organizacional: uma revisão bibliométrica	Revista Produção em Foco	MACEDO, M.; BOTELHO, L. ; GAUTHIER, F. A. O. ; TRINDADE, E. P.	Qualis nao identificado	Revista Produção em Foco
artigoEmPeriodico	2013		O CONCEITO BA COMO PROPOSTA PARA O COMPARTILHAMENTO DO CONHECIMENTO EM UMA AGÊNCIA BANCÁRIA	Revista Inova Ação	BOTTOLI, C. D. M. ; MACEDO, M. ; TRINDADE, E. P.	Qualis nao identificado	Revista Inova Ação
artigoEmPeriodico	2013		A Tecnologia Gráfica na Produção de Embalagens e a Influência no Posicionamento das Marcas	Educação Gráfica (Online)	BRAGLIA, I. ; CASTRO, L. P. S. ; PEREIRA, A. T. C.	Qualis nao identificado	Educação Gráfica (Online)
artigoEmPeriodico	2013		Naturalismo e Design: da Mão à Colher	DAPesquisa	BROGIN, B. ; Perassi, R. ; ARAUJO, S. M. M. ; SA, T. H. M. ; BATISTA, V. J.	B4	
artigoEmPeriodico	2013		Autorregulação: processo metacognitivo facilitador da aprendizagem	Competência (Porto Alegre)	CAMPESTRINI, Bernadette Beber ; SILVA, E. ; BUONFLGLIO, S. U. ; FIALHO, F. A. P.	B4	
artigoEmPeriodico	2013		Informar e sensibilizar: estudo da comunicação de marca de moda em suporte gráfico digital.	Convergencias: revista de invesitigacao e ensino das artes	CAMPOS, A. Q. ; Perassi, R.	B4	
artigoEmPeriodico	2013		O sistema cultural da moda	Alceu (Online)	CAMPOS, A. Q. ; Perassi, R. ; Gomes, L. (Luiz Salomão Ribas Gomes)	Qualis nao identificado	Alceu (Online)
artigoEmPeriodico	2013		A comunicação de tendências de moda em rede on-line	Texto Digital (UFSC)	CAMPOS, A. Q. ; Perassi, R. ; Gomes, L. (Luiz Salomão Ribas Gomes)	B1	
artigoEmPeriodico	2013		Indicadores de balneabilidade: a situação brasileira e as recomendações da world health organizarion	International Journal of Knowledge Engineering and Management	Carlos Henrique Berg ; Mary Jeruza Guercio ; ULBRICHT, V. R.	B4	
artigoEmPeriodico	2013		Testes de Usabilidade Emocionais para Interfaces Humano Computador	Revista Educaonline	Carlos Henrique Berg ; ULBRICHT, V. R.	B3	
artigoEmPeriodico	2013		A Iconografia em comunidades indígenas	Projética	CAVALCANTE, A. L. B. L. ; ROSSATO, J. ; FIALHO, Francisco Antônio Pereira. ; Perassi, R.	B5	
artigoEmPeriodico	2013		Indicadores de gestão na revisão por pares: confiabilidade da revisão recíproca anônima de propostas de mestrado	Liinc em Revista	DENISCZWICZ, M. ; KERN, V. M.	B1	
artigoEmPeriodico	2013		Percepções gráficas da marca Lança Perfume na campanha publicitária da coleção Outono/Inverno 2012	Revista Anagrama (USP)	DIAS, A. R. ; Perassi, R.	B4	
artigoEmPeriodico	2013		Barreiras e facilitadores para a geração de ideias	Revista Eletrônica de Estratégia & Negócios	DOROW, P. F. ; MEDEIROS, C. ; SOUZA, João Artur de ; DANDOLINI, G. A.	B3	
artigoEmPeriodico	2013		Diagnóstico da Gestão do Conhecimento em uma Instituição de Ensino Superior: um estudo de caso	Espacios (Caracas)	DOROW, P. F. ; SCHMITT, M. T. B. ; MEDEIROS, C. ; DANDOLINI, G. A. ; SOUZA, João Artur de	B1	
artigoEmPeriodico	2013		Compartilhamento do conhecimento e inovação: um estudo de caso	Espacios (Caracas)	DOROW, P. F. ; SCHMITT, M. T. B. ; SILVA NETO, E. ; SANTOS, N. ; DANDOLINI, G. A. ; SOUZA, João Artur de	B1	
artigoEmPeriodico	2013	http://dx.doi.org/10.4028/www.scientific.net/MSF.730-732.50	The Influence of the PCL-T Concentration in PLDLA Membrane	Materials Science Forum	Duarte, M. A. T. ; Coppini, L. ; Lucchesi C. ; MACEDO, M. ; Duek, E. A. R.	B2	
artigoEmPeriodico	2013	http://dx.doi.org/10.7867/1980-4431.2013v18n2p44-61	As faces da aprendizagem de gerentes: O caso de uma organização de microcrédito	Revista de Negócios (Online)	DURIGON, DANILO ; VIDES DA SILVA, FABIULA MENEGUETE ; SIQUEIRA, ELISABETE STRADIOTTO ; BINOTTO, ERLAINE ; CASTRO DE ALMEIDA CUNHA, CRISTIANO JOSÉ	B3	
artigoEmPeriodico	2013	http://dx.doi.org/10.5339/qproc.2013.mlearn.6	Large Scale Deployment of Tablet Computers in High Schools in Brazil	QScience Proceedings	FARIAS, GIOVANNI ; ALLY, MOHAMED ; DE SOUZA PINTO, CLAUDIA ALEXANDRA ; SPANHOL, FERNANDO JOSÉ	Qualis nao identificado	QScience Proceedings
artigoEmPeriodico	2013		Lições Aprendidas: Agregando Valor ao Gerenciamento de Projetos	Revista de Gestão e Projetos	FERENHOF, H. A. ; FORCELLINI, F. A. ; VARVAKIS, G.	B3	
artigoEmPeriodico	2013		Método Aprender a Crescer: uma nova perspectiva de crescimento para PMEs	Navus Revista de Gestão e Tecnologia	FERENHOF, H. A. ; FRAGA, B. D. ; SELIG, P. M.	B5	
artigoEmPeriodico	2013		Método Aprender a Crescer: uma nova perspectiva de crescimento para PMEs	Navus Revista de Gestão e Tecnologia	FERENHOF, H. A. ; FRAGA, B. D. ; SELIG, P. M.	B5	
artigoEmPeriodico	2013		Ferramentas Scup e Many Eyes na Identificação de Oportunidades para o Front End da Inovação	Datagramazero (Rio de Janeiro)	FERNANDES, R. F. ; TEZA, P. ; MIGUEZ, V. B. ; DANDOLINI, G. A. ; SOUZA, João Artur de ; ABREU, A. F.	B1	
artigoEmPeriodico	2013		Interface Model for Accessible Forums for Blind, Deaf and Non-disabled People	Communications in Computer and Information Science (Print)	FLOR, C. S. ; BRITO, R. F. ; KAMINSKI, D. ; VANZIN, Tarcisio. ; ULBRICHT, V. R.	Qualis nao identificado	Communications in Computer and Information Science (Print)
artigoEmPeriodico	2013	http://dx.doi.org/10.1590/s1413-65382013000200002	Recomendações da WCAG 2.0 (2008) e a acessibilidade de surdos em conteúdos da Web	Revista Brasileira de Educação Especial	FLOR, CARLA DA SILVA ; Vanzin, Tarcisio ; ULBRICHT, VÂNIA	A2	
artigoEmPeriodico	2013		O IGC EM UMA INSTITUIÇÃO SEM CONCEITO : AS AÇÕES DE REFERÊNCIA COM BASE NA PERCEPÇÃO DO PROCURADOR INSTITUCIONAL	Gestão Universitária	FRANCISCO, T. H. A. ; MELO, P. A. ; NAKAYAMA, M. K. ; OTANI, N. ; RAMOS, Alexandre M.	B3	
artigoEmPeriodico	2013		Principios decisórios para diminuição dos riscos de Integração após fusão e aquisição.	Espacios (Caracas)	FREIRE, P S. ; SPANHOL, F. J.	B1	
artigoEmPeriodico	2013		DIAGNÓSTICO DA CAPACITAÇÃO ORGANIZACIONAL PARA O TRABALHO EM EQUIPE	Navus Revista de Gestão e Tecnologia	FREIRE, P. S. ; JENOVEVA NETO, R. ; SPANHOL, F. J. ; MONTIBELLER-FILHO, G.	B5	
artigoEmPeriodico	2013		Knowledge sharing and creation: defining the concepts and relationships between the terms	Espacios (Caracas)	Freire, P. S. ; UENO, A. T. ; CARVALHO, I. M. ; SPANHOL, F. J.	B1	
artigoEmPeriodico	2013		Vantagem da complexidade: desenvolvimento organizacional para o enfrentamento da hipercompetitividade.	Espacios (Caracas)	FREIRE, P. S.; JENOVEVA NETO, R. ; VIEIRA, A. C. P. ; YAMAGUCHI, C. K.	B1	
artigoEmPeriodico	2013		Tools for Knowledge Management Assessment: A Study BIBLIOMETRIC.	International Journal of Knowledge Engineering and Management	FREIRE, P. S.; UENO, A. T. ; DIAS, M. A. H. ; SANTOS, N.	B4	
artigoEmPeriodico	2013		FERRAMENTAS DE AVALIAÇÃO DE GESTÃO DO CONHECIMENTO: UM ESTUDO BIBLIOMÉTRTICO	International Journal of Knowledge Engineering and Management	FREIRE, P. S.; UENO, T.U. ; DIAS, M.A.H. ; SANTOS, N.	B4	
artigoEmPeriodico	2013	http://dx.doi.org/10.9781/ijimai.2013.217	A multi-agent system model to integrate Virtual Learning Environments and Intelligent Tutoring Systems	The International Journal of Interactive Multimedia and Artificial Intelligence - IJIMAI	GIUFFRA, CECILIA ; Silveria, Ricardo	Qualis nao identificado	The International Journal of Interactive Multimedia and Artificial Intelligence - IJIMAI
artigoEmPeriodico	2013		Modelo de Descoberta de Conhecimentos e Interesses Baseado em Insumos Textuais Eletrônicos: Uma proposta para apoio a Gestão do Capital Humano	Revista Gestão & Tecnologia	GONÇALVES, Alexandre L.; MORALES, A. B. T. ; BORDIN, A. S.	B3	
artigoEmPeriodico	2013		Webgd Acessível ? uma Proposta de Interface	Human Factors in Design	GONÇALVES, Marília ; ULBRICHT, V. R. ; BATISTA, C. R. ; REGINALDO, T. ; PIRES, L. F.	Qualis nao identificado	Human Factors in Design
artigoEmPeriodico	2013	http://dx.doi.org/10.5433/2236-2207.2013v4n2p83	Influência do pensamento cético na prática do design moderno com foco na validação	Projética	GOULART, MICHELA CRISTIANE FRANÇA ; DA SILVA JUNIOR, JOSÉ ELIAS ; CROCOMO DOS REIS, PAULO FERNANDO ; LUIZ DE SOUSA, RICHARD PERASSI ; MERINO, EUGENIO ANDRES DIAZ ; GONÇALVES, MARILIA MATOS	B5	
artigoEmPeriodico	2013		Aumento de eficiência de um carneiro hidráulico para uso no meio rural	Espacios (Caracas)	Gouvea, C. K. ; SILVA, D. ; HURTADO, A. L. B. ; MACEDO, M.	B1	
artigoEmPeriodico	2013		A transferência para o mercado do conhecimento produzido na pesquisa acadêmica	Navus Revista de Gestão e Tecnologia	GUBIANI, J. S. ; GUBIANI, J.S. ; MORALES, A. B. T. ; SELIG, P. M. ; ROCHA, F. B.	B5	
artigoEmPeriodico	2013		A influência do capital intelectual no potencial de inovação das universidades	Iberoamerican Journal of Industrial Engineering	GUBIANI, J. S. ; MORALES, A. ; SELIG, P. M.	B4	
artigoEmPeriodico	2013		A transferência para o mercado do conhecimento produzido na pesquisa acadêmica	Navus Revista de Gestão e Tecnologia	GUBIANI, J. S. ; MORALES, A. ; SELIG, P. M. ; ROCHA, F. B.	B5	
artigoEmPeriodico	2013		A qualidade do conteúdo da Agência Brasil/EBC: avaliação dos requisitos ?diversidade?, ?pluralidade? e ?cobertura de políticas públicas?	Eptic (UFS)	GUERRA, J.L. ; CHRISTOFOLETTI, R. ; BALDESSAR, M. J. ; LIMA, S. P.	B2	
artigoEmPeriodico	2013		Design de Serviço no setor público: estudo de caso do projeto Make It Work na cidade de Sunderland (Inglaterra)	Estudos em Design (Online)	HINNING, R. ; FIALHO, F. A. P.	B1	
artigoEmPeriodico	2013		APLICAÇÃO DE CRITÉRIOS DE USABILIDADE EM FERRAMENTA DE INCLUSÃO DE CONTEÚDOS ACESSÍVEIS NO MOODLE PARA CEGOS	Ergodesign & HCI	KUNTZ, V. H. ; ULBRICHT, V. R. ; MACEDO, Claudia. M. S. de	Qualis nao identificado	Ergodesign & HCI
artigoEmPeriodico	2013		Fluxo de conhecimento interorganizacional: estudo de múltiplos casos em uma cadeia produtiva	Espacios (Caracas)	KURTZ, D. J. ; SIERRA, E. J. S. ; VARVAKIS, G.	B1	
artigoEmPeriodico	2013		Estudo das capacidades organizacionais sob a lente da ambidestria: uma abordagem a partir do ponto de vista estratégico	Navus Revista de Gestão e Tecnologia	KURTZ, D. J. ; VARVAKIS, G.	B5	
artigoEmPeriodico	2013		Infográficos na Web: uma Proposta Centrada no Usuário Surdo	Human Factors in Design	LAPOLLI, M. ; VANZIN, Tarcisio. ; Ulbricht, Vania Ribas	Qualis nao identificado	Human Factors in Design
artigoEmPeriodico	2013		A tecnologia e o processo de gestão do design.	Convergencias: revista de invesitigacao e ensino das artes	LAURO, A. B. ; Perassi, R. ; FIGUEIREDO, L. F. G.	B4	
artigoEmPeriodico	2013	http://dx.doi.org/10.5007/1518-2924.2013v18n37p19	Análise do perfil dos estudantes de um curso Lato Sensu utilizando ferramenta RapidMiner	Encontros Bibli	LEONARDI, JULIANA ; CATAPAN, ARACI HACK ; BASTOS, ROGÉRIO CID	B1	
artigoEmPeriodico	2013		Memória organizacional: Uma revisão bibliográfica em bases nacionais	E-tech: Tecnologias para Competitividade Industrial	LEZANA, Álvaro Guillermo Rojas ; FIALHO, F. A. P. ; LEONARDI, J. ; CAMILOTTI, L. ; BASTOS, Rogério Cid ; SOUTO-MAIOR, T. J.	B3	
artigoEmPeriodico	2013		(In)acessibilidade digital	Infodesign (SBDI. Online)	LICHESKI, L. ; FADEL, L. M.	B2	
artigoEmPeriodico	2013		Modelagem do Conhecimento Regulatório em Distribuidora de Energia Elétrica: ONTOREG-D	Revista do CCEI	Loch, Murialdo ; Todesco, José Leomar ; GAUTHIER, Fernando Álvaro Ostuni ; GUEMBAROVSKI, Ricardo H ; Günther, Helen Fischer	B3	
artigoEmPeriodico	2013	http://dx.doi.org/10.1177/1046878112471509	Business Games for Leadership Development: A Systematic Review	Simulation & Gaming	LOPES, Mauricio. C. ; Lopes, M. C. ; FIALHO, F. A. P. ; CUNHA, C. J. C. A. ; NIVEIROS, S. I.	B2	
artigoEmPeriodico	2013		Avaliação dos sítios das assembleias legislativas do Brasil utilizando a métrica da usabilidade	Democracia Digital e Governo Eletrônico	LORENSKI, F. ; MEZZAROBA, M. ; CARMO, V. M. ; CARMO, Valter Moura do ; ROVER, Aires José	B5	
artigoEmPeriodico	2013		Management practices for organizational knowledge creation: retail sector enterprise case study in Brazil	International Journal of Knowledge Engineering and Management	MACEDO, M. ; Espindola, O. ; GAUTHIER, F. A. O. ; Freitas, F. ; Santos, A. J.	B4	
artigoEmPeriodico	2013		Mapeamento de competências individuais em uma equipe de desenvolvimento de produtos eletrônicos de aplicação industrial	Revista Produção em Foco	MACEDO, M. ; LINO, J. R. ; GAUTHIER, F. A. O. ; BOTELHO, L.	Qualis nao identificado	Revista Produção em Foco
artigoEmPeriodico	2013		DESENVOLVIMENTO DE PROFISSIONAIS HORISTAS EFETIVOS LIGADOS À MANUFATURA: UM ESTUDO DE CASO EM UMA EMPRESA MULTINACIONAL FABRICANTE DE ELETRODOMÉSTICOS	Revista Inova Ação	MACEDO, M.; BARBOSA, G. R. ; Lanzer, E. A. ; TRINDADE, E. P.	Qualis nao identificado	Revista Inova Ação
artigoEmPeriodico	2013	http://dx.doi.org/10.14521/P2237-5163.2013.0003.0001	A gestão do conhecimento e as práticas de gestão dos coordenadores de curso de uma instituição educacional de Joinville: um estudo de caso	Produção em Foco	MACEDO, M.; Benzi, H. M. O. ; TRINDADE, E. P.	C	
artigoEmPeriodico	2013	http://dx.doi.org/10.3895/S1808-04482012000400011	CARACTERIZAÇÃO DO AMBIENTE DE INOVAÇÃO DE UMA EMPRESA DE INFORMAÇÕES PARA DECISÃO DE NEGÓCIOS	Revista Gestão Industrial	MACEDO, M.; Muller, L. ; Duarte, M. A. T.	B3	
artigoEmPeriodico	2013	http://dx.doi.org/10.3895/S1808-04482013000200005	IMPACTOS DA IMPLEMENTAÇÃO DO LEAN MANUFACTURING NA OBTENÇÃO DE VANTAGEM COMPETITIVA: UM ESTUDO DE CASOS MÚLTIPLOS	Revista Gestão Industrial	MACEDO, M.; Possamai, E.	B3	
artigoEmPeriodico	2013	http://dx.doi.org/10.14521/p2237-5163.2013.0003.0005	Ferramenta Workflow para apoio ao processo de criação de Conhecimento: um estudo de casos múltiplos	Produção em Foco	MACEDO, M.; Schimitz, Q. T. ; Misaghi, M	C	
artigoEmPeriodico	2013	http://dx.doi.org/10.1109/tla.2013.6533974	Intangible Assets as Success Factor in Creating Business in Knowledge Economy	Revista IEEE América Latina	MACHADO, E. ; Machado, Elizandra ; PRADO, M. L. ; FRANZONI, A. M. B. ; SELIG, P. M.	B1	
artigoEmPeriodico	2013		ERGONOMIA E SUSTENTABILIDADE APLICADAS NO DESENVOLVIMENTO DE UMA CADEIRA MODELO ESPREGUIÇADEIRA	Revista do IST	Machado, P ; Crêscencio, R ; Mafra. E. ; Duarte, M. A. T. ; MACEDO, M. ; GERHMANN, S. S.	B5	
artigoEmPeriodico	2013		Gestión sustentable de la orla marítima en destinos turísticos. Una parspectiva social sobre el proyecto ORLA	Estudios y Perspectivas en Turismo	MARTINS, M. E. ; SORIANO-SIERRA, E. J.	B1	
artigoEmPeriodico	2013		Sintomatologia dolorosa em bailarinos: uma revisão	Revista Brasileira de Ciência e Movimento	MEEREIS, Estele Caroline Welter ; TEIXEIRA, Clarissa Stefani ; PRANKE, Gabriel Ivan ; LEMOS, Luiz Fernando Cuozzo ; MOTA, Carlos Bolli	B2	
artigoEmPeriodico	2013		Gestão da Inovação em organizações: um estudo de caso em uma empresa de pequeno porte no segmento metalurgico na cidade de Curitiba-PR	HOLOS	MELO, J. ; SILVA, W. L. ; VAZ, C. R. ; SELIG, P. M. ; FRANCISCO, A. C.	Qualis nao identificado	HOLOS
artigoEmPeriodico	2013		Design	Design Philosophy Papers (Online)	MEYER, G. ; Pereira, Alice T. Cybis	B1	
artigoEmPeriodico	2013		O portal e-democracia da Câmara dos Deputados como sistema sócio-tecnológico	Democracia Digital e Governo Eletrônico	MEZZAROBA, M. ; SEWALD JUNIOR, Egon ; SEWALD JUNIOR, EGON ; ALVES, J. B. M. ; ROVER, Aires José	B5	
artigoEmPeriodico	2013		Knowledge management, project integration and corporate sustainability: is there a link?	Journal of Project, Program & Portfolio Management	MICHELS, E. ; GRIJO, P. E. A. ; MACHADO, E. ; SELIG, P. M.	Qualis nao identificado	Journal of Project, Program & Portfolio Management
artigoEmPeriodico	2013		Fotografia e Design: abordagem pragmática do fotojornalismo.	Razón y Palabra	MIRANDA, C. F. ; Richard Perassi Luiz de Sousa ; BALDESSAR, M. J.	B1	
artigoEmPeriodico	2013		Competências profissionais: uma análise bibliométrica no portal de periódicos da Capes	Revista do CCEI	MULLER, J. M. ; OTANI, N. ; FIALHO, F. A. P. ; FRANCISCO, T. H. A.	B3	
artigoEmPeriodico	2013		Afecto e conflicto en las interacciones en ambientes virtuales de aprendizaje	Revista Iberoamericana de Educación a Distancia	MÜLBERT, A. L. ; GIRONDI, A. ; PEREIRA, Alice T. Cybis ; NAKAYAMA, M. K.	B2	
artigoEmPeriodico	2013		Design e Marketing: Experiência e Comportamento de Consumo Relacionados à Marca Mcdonald?s	Revista Educação Gráfica	NAPOLEÃO, E. ; VIEIRA, S. ; COSTA, E. S. ; Perassi, R. ; BALDESSAR, M. J.	Qualis nao identificado	Revista Educação Gráfica
artigoEmPeriodico	2013		Estudos semióticos: análise perceptiva e a terceiridade peirceana na obra ?Jogos Infantis? de Pieter Bruegel	Projética	NETTO, M. ; FIALHO, F. A. P. ; SOUZA, R. P. L.	B5	
artigoEmPeriodico	2013		Governança eletrônica e inclusão digital na Prefeitura Municipal de Criciúma (SC)	Democracia Digital e Governo Eletrônico	PACHECO, D. C. ; REGINALDO, T. ; FRANZONI, A. M. B. ; BALDESSAR, M. J.	B5	
artigoEmPeriodico	2013		I dentidade corporativa e gestão d o design: aspectos pré - denotativos de identificação da linha de produtos Dolce Gusto da marca Nescafé /Nestlé	Estudos em Design (Online)	PALMIERI, A. R. ; OGAVA, C. C. D. ; SANTOS, E. S. ; Perassi, R. ; FIGUEIREDO, L. F. G.	B1	
artigoEmPeriodico	2013		Formação de Professores em Comunicação Alternativa para crianças com TEA: contextos em ação	Revista Educação Especial (UFSM)	PASSERINO, Liliana Maria ; BEZ, M. R. ; VICCARI, R. M.	B2	
artigoEmPeriodico	2013	http://dx.doi.org/10.5433/1981-8920.2013v18n3p154	Avaliação da qualidade dos serviços em unidades de informação: proposição de uma metodologia; Evaluación de la calidad de servicio en las unidades de información: propuesta de una metodología	Informação & Informação (UEL. Online)	PASSOS, KETRY GORETE FARIAS DOS ; MENEGATTI, YARA ; SILVA, JOSÉ MARCOS DA ; VARVAKIS, GREGÓRIO	B2	
artigoEmPeriodico	2013		Identificação de competências individuais em métodos de avaliação de ativos intangíveis	Revista ADMpg (Online)	Paula Regina Zarelli ; SELIG, P. M. ; VAZ, C. R. ; FERENHOF, H. ; SAFANELLI, A.	B3	
artigoEmPeriodico	2013		Fuleco: Um Estudo Semiótico da Mascote da Copa do Mundo da FIFA Brasil 2014	Palíndromo	PELLIZZONI, R. C. ; ROMAO, V. P. A. ; SOUSA, Richard Perassi Luiz de ; FIALHO, F. A. P. ; GONÇALVES, Marília Matos	Qualis nao identificado	Palíndromo
artigoEmPeriodico	2013		Semiótica enquanto disciplina científica: uma ferramenta para uma comunicação eficaz	Perspectivas em Gestão & Conhecimento	Maria Elizabeth Horn Pepulim ; FIALHO, F. A. P. ; SOUZA, R. P. L.	B1	
artigoEmPeriodico	2013		Mídia e Conhecimento: Geometria e Narratividade no Plano Videográfico	Revista Hipertexto	Perassi, R	B4	
artigoEmPeriodico	2013		Cultura, Linguagem Gráfica e Alfabetismo Visual	Revista Educação Gráfica	Perassi, R.; CASTRO, L. ; DIAS, A. R. ; CAMPOS, A. Q.	Qualis nao identificado	Revista Educação Gráfica
artigoEmPeriodico	2013		Marketing: gestão e conhecimento científico	Revista de Negócios (Online)	SOUSA, Richard Perassi Luiz ; RODRIGUES, Thiago Meneghel ; PACHECO, R. C. S.	B3	
artigoEmPeriodico	2013	http://dx.doi.org/10.1590/s1413-81232013000700011	Qualidade de vida de professores de educação básica do município de Florianópolis, SC, Brasil	Ciência e Saúde Coletiva (Impresso)	PEREIRA, Érico Felden ; TEIXEIRA, Clarissa Stefani ; LOPES, Adair da Silva	A2	
artigoEmPeriodico	2013		Contratos de innovación de investigación y desarrollo, protección de los resultados y licenciamiento en salud pública: clausulas clave	Biomédica (Bogotá)	PIMENTEL, L. O	Qualis nao identificado	Biomédica (Bogotá)
artigoEmPeriodico	2013	http://dx.doi.org/10.14569/IJACSA.2013.040403	Analysis of an Automatic Accessibility Evaluator to Validate a Virtual and Authenticated Environment	International Journal of Advanced Computer Science and Applications	PIVETTA, E. M. ; FLOR, C. S. ; SAITO, D. S. ; ULBRICHT, V. R.	Qualis nao identificado	International Journal of Advanced Computer Science and Applications
artigoEmPeriodico	2013		Contribuições para o design de interface para design de interface de um Ambiente Virtual de Ensino Aprendizagem acessível a surdos	Infodesign (SBDI. Online)	PIVETTA, E. M. ; SAITO, D. S. ; ALMEIDA, A. M. P. ; ULBRICHT, V. R.	B2	
artigoEmPeriodico	2013		Análise Semiótica da Língua de Sinais	Acta Semiótica et Linguística	PIVETTA, E. M. ; SAITO, D. S. ; FLOR, C. S. ; Perassi, R.	B2	
artigoEmPeriodico	2013		CREATION OF KNOWLEDGE IN NOW PROVIDER OF TELECOMMUNICATIONS SERVICES: A CASEV STUDY	Revista IEEE América Latina	PRADO, M. L. ; SOUZA, V.A. B. ; LAPOLLI, É. M. ; GONCALVES, E. B.	B1	
artigoEmPeriodico	2013		A produção científica em gestão do conhecimento aplicada à tecnologia de informação	Revista Sophia	PREISSLER JUNIOR, S. ; SOUZA, João Artur de ; DANDOLINI, G. A.	Qualis nao identificado	Revista Sophia
artigoEmPeriodico	2013		A cor funcional na infocartografia temática.	Revista Educação Gráfica	QUINTAO, F. ; Perassi, R. ; TRISKA, R.	Qualis nao identificado	Revista Educação Gráfica
artigoEmPeriodico	2013		Redução de riscos de desastres na prática: a participação da Defesa Civil e do município em plataformas digitais de redes sociais	Democracia Digital e Governo Eletrônico	REGINALDO, T. ; PACHECO, D. C. ; BALDESSAR, M. J. ; FRANZONI, A. M. B.	B5	
artigoEmPeriodico	2013	http://dx.doi.org/10.9781/ijimai.2013.211	BROA: An agent-based model to recommend relevant Learning Objects from Repository Federations adapted to learner profile	International Journal of Interactive Multimedia and Artificial Intelligence	RODRIGUEZ, PAULA ; TABARES, VALENTINA ; DUQUE, NESTOR ; OVALLE, DEMETRIO ; VIcari, Rosa	Qualis nao identificado	International Journal of Interactive Multimedia and Artificial Intelligence
artigoEmPeriodico	2013		Propriocepção no esporte: uma revisão sobre a prevenção e recuperação de lesões desportivas	Revista Saúde	ROSSATO, Carla Emilia ; TEIXEIRA, Clarissa Stefani ; LEMOS, Luiz Fernando Cuozzo ; PRANKE, Gabriel Ivan ; MOTA, Carlos Bolli	Qualis nao identificado	Revista Saúde
artigoEmPeriodico	2013		Fluxo de valor de uma Indústria de Confecção: uma análise a partir do pensamento enxuto	Espacios (Caracas)	ROSSATO, J. ; SOUZA, L. L. C. ; FORCELLINI, F. A. ; VARVAKIS, G.	B1	
artigoEmPeriodico	2013		ACELERAÇÃO PROCESSUAL E O PROCESSO JUDICIAL DIGITAL: Um Estudo Comparativo de Tempos de Tramitação em Tribunais de Justiça	Democracia Digital e Governo Eletrônico	ROTTA, M. J. R. ; VIEIRA, P. ; ROVER, Aires José ; SEWALD JUNIOR, Egon	B5	
artigoEmPeriodico	2013		Inclusão digital e social: cidadania e autopoiese na sociedade da informação	International Journal of Knowledge Engineering and Management	ROVER, A. J	B4	
artigoEmPeriodico	2013		Extensão e Gestão Universitária: um estudo do Projeto Chiquitos na Chiquitania Boliviana	Espacios (Caracas)	SANTOS, A. D. ; BOHN, C. S. ; DANDOLINI, G. A. ; ALVES, J. B. M.	B1	
artigoEmPeriodico	2013		Eliciting intrinsic knowledge in the business processes of electronic government with UML extensions	Business Process Management Journal	SANTOS, P. M. ; BRAGA, Marcus de Melo ; ROVER, Aires José	Qualis nao identificado	Business Process Management Journal
artigoEmPeriodico	2013	http://dx.doi.org/10.1590/s0034-76122013000300009	Ranking dos tribunais de contas brasileiros: uma avaliação a partir dos padrões web em governo eletrônico	Revista de Administração Pública (Impresso)	SANTOS, PALOMA MARIA ; BERNARDES, MARCIELE BERGER ; ROVER, Aires José ; MEZZAROBA, ORIDES	A2	
artigoEmPeriodico	2013		A cooperação judiciária no Brasil em face do e-Judiciário	Democracia Digital e Governo Eletrônico	SARDETO, Patricia Eliane da Rosa ; ROVER, Aires José	B5	
artigoEmPeriodico	2013		Gestão de comunidades de prática: Fatores críticos de sucesso as suas manutenções	Revista Administração em Diálogo - RAD	SCHMITT, S. R., ; SELIG, P. M. ; SANTOS, N. ; NUNES, C. S.	B2	
artigoEmPeriodico	2013		Personalização no jornalismo on-line: Uma análise de conteúdo dos principais jornais	Datagramazero (Rio de Janeiro)	SCHMITT, V. ; VARVAKIS, G.	B1	
artigoEmPeriodico	2013		Knowledge and Ontology Engineering for Smart Services	Springer - Studies in Computational Intelligence	SCHNEIDER, Viviane ; PACHECO, R. C. S. ; SALM JR, José Francisco ; KOLLER, Karine	Qualis nao identificado	Springer - Studies in Computational Intelligence
artigoEmPeriodico	2013		Funcionalidades desejáveis a um BPMS para suportar os Processos de Gestão do Conhecimento	Revista do CCEI	SENA, M. A.C. ; BASTOS, L. C.	B3	
artigoEmPeriodico	2013		GESTOR E USUÁRIOS: DUAS VISÕES DA PROPOSTA DE VALOR DE UM CENTRO DE INFORMAÇÃO	Revista ACB (Florianópolis)	SENA, P. M. B. ; TREVISOL NETO, O. ; VARVAKIS, G.	B2	
artigoEmPeriodico	2013		A sustentabilidade agropecuária segundo a concepção e a prática de extensionistas rurais do oeste catariense	S & G. Sistemas & Gestão	SILVA, A. W. L. ; SELIG, P. M. ; LERIPIO, A. A. ; NETTO, M.	B3	
artigoEmPeriodico	2013		A Sustentabilidade Agropecuária Segundo a Concepção e a Prática de Extensionistas Rurais do Oeste Catarinense	S & G. Sistemas & Gestão	SILVA, A. W. L. ; SELIG, P. M. ; NETTO, M. ; LERIPIO, A. A.	B3	
artigoEmPeriodico	2013		Aprendizagem em organizações como resultado de processos de avaliação ambiental	Ambiente & Sociedade (Online)	SILVA, A. W. L. ; STEIL, A. V. ; SELIG, Paulo Maurício	B1	
artigoEmPeriodico	2013		Learning in organizations as outcome of environmental assessments process	Ambiente e Sociedade (Campinas)	SILVA, A. W. L. ; STEIL, Andrea Valéria ; SELIG, P. M.	A2	
artigoEmPeriodico	2013		O relacionamento interpessoal e as transições de professores universitários	Gestão e Desenvolvimento (FEEVALE)	SILVA, F. M. V. ; CUNHA, C. J. C. A.	B4	
artigoEmPeriodico	2013	http://dx.doi.org/10.5007/1983-4535.2013v6n3p332	Experiências vividas: a transição de líder para contribuidor individual em universidades de Santa Catarina	Revista Gestao Universitaria na America Latina - GUAL	SILVA, FABIULA MENEGUETE VIDES DA ; CUNHA, CRISTIANO JOSÉ CASTRO DE ALMEIDA	B3	
artigoEmPeriodico	2013		TESTE DE USABILIDADE DE UMA NARRATIVA HIPERMIDIÁTICA POR MEIO DE AVALIAÇÃO EMOCIONAL (Emocard)	RENOTE. Revista Novas Tecnologias na Educação	Silvia Quevedo ; BLEICHER, S. ; Carlos Henrique Berg ; RIBAS ULBRICHT, V	B3	
artigoEmPeriodico	2013		Gestão do Conhecimento em Projeto de EaD: O Caso PAI/UFSC	RENOTE. Revista Novas Tecnologias na Educação	SOARES, A. P. ; NAKAYAMA, M. K. ; KLERING, L. R. ; SILVEIRA, R. A.	B3	
artigoEmPeriodico	2013		Presença do Pensamento Complexo em Projeto de EaD Inter Organizacional: O Caso PAI/UFSC	RENOTE. Revista Novas Tecnologias na Educação	SOARES, A. P. ; NAKAYAMA, M. K. ; KLERING, L. R. ; SILVEIRA, R. A.	B3	
artigoEmPeriodico	2013		Criação e Gestão do Conhecimento em Projeto de EAD: Análise da Parte do Projeto Aluno Integrado do Ministério da Educação Coordenada pela UFSC	RGO. Revista Gestão Organizacional (Online)	SOARES, A. P. ; NAKAYAMA, M. K. ; KLERING, L. R. ; SILVEIRA, R. A.	B2	
artigoEmPeriodico	2013		Gestão do conhecimento em projeto de EaD : o caso PAI/UFSC [recurso eletrônico]	RENOTE. Revista Novas Tecnologias na Educação	SOARES, Aline Pereira ; NAKAYAMA, Marina Keiko ; KLERING, D. L. R. ; Ricardo Azambuja Silveira	B3	
artigoEmPeriodico	2013		Presença do pensamento complexo em projeto de EaD interorganizacional : o caso PAI/UFSC [recurso eletrônico]	RENOTE. Revista Novas Tecnologias na Educação	SOARES, Aline Pereira ; NAKAYAMA, Marina Keiko ; KLERING, D. L. R. ; Ricardo Azambuja Silveira	B3	
artigoEmPeriodico	2013		GESTÃO ESTRATÉGICA DO CONHECIMENTO: UMA PROPOSTA DE FORMAÇÃO PROFISSIONAL	Revista de Ensino de Engenharia	Sohn, Ana Paula Lisboa ; Vieira, Filipa Dionísio ; Casarotto Filho, Nelson ; SOUZA, João Artur de	B2	
artigoEmPeriodico	2013		Comunicação na gestão de crises:a 'Deontologia' da atividade jornalística.	Estudos em Jornalismo e Mídia	SOUZA, A. R. ; Perassi, R. ; GIGLIO, K.	B1	Estudos em Jornalismo e Mídia (UFSC)
artigoEmPeriodico	2013		Los estilos y los modelos de gestión de la información: alternativas para la toma de decisión	Biblios (Lima)	STARCK, K. R. ; VARVAKIS, G. ; SILVA, E. L.	B2	
artigoEmPeriodico	2013		Evaluación de la calidad de metadatos en repositorios digitales de objetos de aprendizaje	Revista Interamericana de Bibliotecologia	TABARES, V. ; MENDEZ, N. D. D. ; MORENO, J. ; OVALLE, Demetrio A ; VICCARI, R. M.	B2	
artigoEmPeriodico	2013		Direcionadores do processo de inovação: o papel da estratégia, liderança e cultura	Navus Revista de Gestão e Tecnologia	TEZA, P. ; Miguez, V. B. ; FERNANDES, R. F. ; DANDOLINI, G. A.	B5	
artigoEmPeriodico	2013		GERAÇÃO DE IDEIAS: APLICAÇÃO DA TÉCNICA WORLD CAFÉ	International Journal of Knowledge Engineering and Management	Teza, P. ; Miguez, V. B. ; FERNANDES, R. F. ; DANDOLINI, G. A. ; SOUZA, J. A. ; ABREU, A. F.	B4	
artigoEmPeriodico	2013		CAFÉ DE IDEIAS: MELHORANDO A GERAÇÃO DE IDEIAS EM JOVENS ESTUDANTES DE CURSOS DE QUALIFICAÇÃO PROFISSIONAL	International Journal Knowledge Engineering and Management	Teza, P. ; Miguez, V. B. ; FERNANDES, R. F. ; DANDOLINI, G. A. ; SOUZA, J. A. ; ABREU, A. F.	B4	
artigoEmPeriodico	2013		GERAÇÃO DE IDEIAS: APLICAÇÃO DA TÉCNICA WORLD CAFÉ	International Journal of Knowledge Engineering and Management	Teza, P. ; Miguez, V. B. ; FERNANDES, R. F. ; DANDOLINI, G. A. ; SOUZA, João Artur de ; ABREU, A. F.	B4	
artigoEmPeriodico	2013		CONFIANÇA	International Journal of Knowledge Engineering and Management	TORRES, M. K. L. ; NAKAYAMA, M. K.	B4	
artigoEmPeriodico	2013	http://dx.doi.org/10.7867/1980-4431.2013v18n4p17-32	Mapeamento e análise dos processos de importação de uma pequena empresa brasileira	Revista de Negócios (Online)	TOSTA, H. T. ; COSTA, A. M. ; TOSTA, K.B.T. ; FREIRE, P. S. ; TECCHIO, E. L.	B3	
artigoEmPeriodico	2013		A função designer de informação na área da Comunicação Social. Informação	Informação & Sociedade (UFPB. Impresso)	Maria Elizabeth Horn Pepulim ; VANZIN, T. ; ULBRICHT, V. R. ; FIALHO, Francisco Antônio Pereira	A2	
artigoEmPeriodico	2013		Capital intelectual em programas públicos: percepções do PROANTAR	Navus Revista de Gestão e Tecnologia	VARVAKIS, G. ; DIAS, M. A. H. ; NAKAYAMA, M. K.	B5	
artigoEmPeriodico	2013		Entrevista de Desligamento como Ferramenta de Gestão de Conhecimento	Navus Revista de Gestão e Tecnologia	VIDOTTO, J. D. F. ; SPERONI, R. M. ; NERES, W. A. ; BASTOS, Rogerio Cid	B5	
artigoEmPeriodico	2013		A review of environmental monitoring and auditing in the context of risk: unveiling the extent of a confused relationship	Journal of Cleaner Production	VIEGAS, C. V ; BOND, A. J. ; RIBEIRO, J.L.D. ; SELIG, P. M.	A1	
artigoEmPeriodico	2013	http://dx.doi.org/10.1016/j.jclepro.2012.12.041	A review of environmental monitoring and auditing in the context of risk: unveiling the extent of a confused relationship	Journal of Cleaner Production	VIEGAS, Cláudia V. ; BOND, ALAN ; DUARTE RIBEIRO, JOSÉ LUIS ; SELIG, PAULO MAURÍCIO	A1	
artigoEmPeriodico	2013	http://dx.doi.org/10.1016/j.cities.2013.05.006	Urban land planning: The role of a Master Plan in influencing local temperatures	Cities	VIEGAS, Cláudia V. ; SALDANHA, DEJANIRA LUDERITZ ; BOND, ALAN ; RIBEIRO, JOSÉ LUIS DUARTE ; SELIG, PAULO M.	Qualis nao identificado	Cities
artigoEmPeriodico	2013		Gestão do Design: A percepção da imagem da marca	Estudos em Design (Online)	VIEIRA, S. ; Perassi, R.	B1	
artigoEmPeriodico	2013		Comportamento angular da coluna lombar no movimento de apoio: um estudo de caso	Revista Brasileira de Biomecânica (Impresso)	WARTH, Lauriano Cecchin ; TEIXEIRA, Clarissa Stefani ; LEMOS, Luiz Fernando Cuozzo ; PEREIRA, Érico Felden ; MOTA, Carlos Bolli	B2	
artigoEmPeriodico	2013	http://dx.doi.org/10.1590/S1413-99362013000300003	Mineração de textos biomédicos: uma revisão bibliométrica	Perspectivas em Ciência da Informação (Impresso)	WOSZEZENKI, C. ; GONÇALVES, Alexandre L.	A2	
artigoEmPeriodico	2013		Desaprendizagem Organizacional: uma revisão bibliométrica e analítica da literatura	Perspectivas em Gestão & Conhecimento	WOSZEZENKI, C. R. ; BESEN, F. ; SANTOS, J. L. S. ; STEIL, A. V.	B1	
artigoEmPeriodico	2013		O Twitter® como objeto de investigação empírico-quantitativa: uma revisão bibliométrica	Espacios (Caracas)	WOSZEZENKI, C. R. ; FREITAS JUNIOR, V. ; ANDERLE, D. F. ; STEIL, A. V. ; Dandolini, Gertrudes ; Souza, João Arthur	B1	
artigoEmPeriodico	2013	http://dx.doi.org/10.5433/1981-8920.2013v18n2p77	Objetos digitais: em busca da precisão conceitual; Objetos digitales: en busca de la precisión conceptual	Informação & Informação (UEL. Online)	YAMAOKA, ELOI JUNITI ; GAUTHIER, FERNANDO OSTUNI	B2	
artigoEmPeriodico	2013	http://dx.doi.org/10.1590/S1413-99362013000100005	Mapeamento da produção científica sobre memória organizacional e ontologias	Perspectivas em Ciência da Informação (Impresso)	ZANCANARO, A. ; ERPEN, J. G. ; SANTOS, J. L. S. ; STEIL, A. V. ; TODESCO, José Leomar	A2	
trabalhoCompletoEmCongresso	2013		Sala de aula integrada e convergente: uma análise de recursos educacionais digitais	6º Conahpa - Congresso Nacional de Ambientes Hipermidia para Aprendizagem	Pereira, Alice T. Cybis; GONCALVES, B. S. ; Vieira, D. F, ; Giacomelli, I. ; Baldessar, M. J. ; Gonçalves, M.M.		
trabalhoCompletoEmCongresso	2013		Características doDesign de Hipermidia em Smarphones: Estudo do Aplicativo Itunes U	Grahica'13 - XXI Simpósio de Geometria Descritiva e Desenho Técnico e X International Conference on Graphics Engineering for Arts and Design	Feijó, V, C, ; Baldessar, M. J. ; Pereira, Alice T. Cybis ; Gonçalves, M.M.		
trabalhoCompletoEmCongresso	2013		Parques Tecnológicos: A Sinergia da Hélice Tríplice pela Visão Autopoiética	III Congresso Internacional de Conhecimento e Inovação - CIKI	AMARAL, R. R. ; SARTORI, V. ; CUNHA, C. J. C. A. ; CATAPAN, A. H.		
trabalhoCompletoEmCongresso	2013		Influência interdisciplinar das TICs no desenvolvimento das Smart Cities	Simpósio Internacional sobre Interdisciplinaridade no Ensino	ANDERLE, D. F. ; GAUTHIER, Fernando Álvaro Ostuni ; Todesco, José Leomar		
trabalhoCompletoEmCongresso	2013		Interdisciplinaridade em sala de aula: reflexões e práticas	Simpósio Internacional sobre Interdisciplinaridade no Ensino	Andreza Regina Lopes ; CATAPAN, A. H. ; SARTORI, V.		
trabalhoCompletoEmCongresso	2013		O estilo universalista na representação gráfica da mascote da copa FIFA de 2014	Graphica 2013: XXI Simpósio Nacional de Geometria Descritiva e Desenho Técnico; X International Conference Graphics Engeneering for Arts and Design	ARAUJO, S. M. M. ; SA, T. H. M. ; Perassi, R.		
trabalhoCompletoEmCongresso	2013		Proporção geométrica em marcas gráficas	Graphica 2013: XXI Simpósio Nacional de Geometria Descritiva e Desenho Técnico; X International Conference Graphics Engeneering for Arts and Design	ARAUJO, S. M. M. ; SA, T. H. M. ; Perassi, R.		
trabalhoCompletoEmCongresso	2013		O Fluxo de informação em projetos de inovação	XIV Encontro Nacional de Pesquisa em Ciência da Informação	ARAUJO, W. C. O. ; SILVA, E. L. ; VARVAKIS, G.		
trabalhoCompletoEmCongresso	2013		Ferramentas tecnológicas para a construção de mapas mentais e conceituais	III Congresso Internacional do Conhecimento e Inovação	AUGUSTIN, L. W. ; SANTOS, J. L. S. ; STEIL, A. V.		
trabalhoCompletoEmCongresso	2013		Teoria Educacional e Semiótica na compreensão de imagens: análise da animação 'Um plano para salvar o planeta	VI Seminário de Leitura de Imagens UDESC	BALDESSAR, M. J		
trabalhoCompletoEmCongresso	2013		Utilização das TIC para expressão gráfica na educação: um estudo com professores	Graphica 2013	BALDESSAR, M. J.; FERNANDES, A. ; REGINALDO, T.		
trabalhoCompletoEmCongresso	2013		O design de ícones para o web site ?Iconografia da Ilha de Santa Catarina?	6 Congresso Nacional De Ambientes Hipermídia para Aprendizagem - 6 CONAHPA	BATISTA, Cláudia Regina ; ULBRICHT, V. R.		
trabalhoCompletoEmCongresso	2013		TrustE: An Emotional Trust Model for Agents	European Workshop on Multi-Agent Systems	BITENCOURT, G. K. S. ; Silveira, R. A. ; MARCHI, J.		
trabalhoCompletoEmCongresso	2013		As transformações das mídias e sua influência nas formas de apresentação visual da informação	: 6º Congresso Internacional de Design da Informação	BLEICHER, S. ; Ulbricht, Vania Ribas ; GONÇALVES, Berenice Santos ; VANZIN, Tarcisio.		
trabalhoCompletoEmCongresso	2013		As Transformações das Mídias e Sua Influência nas Formas de Apresentação Visual da Informação	5º Congresso Internacional de Design da Informação	BLEICHER, S. ; VANZIN, T. ; ULBRICHT, V. R. ; GONCALVES, B.		
trabalhoCompletoEmCongresso	2013	http://dx.doi.org/10.13140/2.1.1179.4249	Análise da Produção Científica do Simpósio Internacional sobre Interdisciplinaridade no Ensino, na Pesquisa e na Extensão ? Região Sul	Simpósio Internacional sobre Interdisciplinaridade no Ensino	BORDIN, Andrea Sabedra ; CECI, Flávio ; GONÇALVES, Alexandre Leopoldo ; GAUTHIER, Fernando Alvaro Ostuni ; PACHECO, ROBERTO C. S		
trabalhoCompletoEmCongresso	2013		UNIVERSIDADES EMPREENDEDORAS: PANORAMA DOS ESTUDOS BRASILEIROS SOBRE O TEMA	XIII Colóquio Internacional sobre Gestão Universitária nas Américas	BOTELHO, L. ; MACEDO, M. ; NOGUEIRA, S. V. ; ANNES, C. E. R. ; GASTALDO, L. F. ; GAUTHIER, F. A. O.		
trabalhoCompletoEmCongresso	2013		Compartilhamento do conhecimento: um estudo de caso em uma Instituição Financeira	IX Congresso Nacional de Excelência em Gestão	BOTTOLI, C. D. M. ; MACEDO, M. ; Misaghi, M ; Freitas, F.		
trabalhoCompletoEmCongresso	2013		Diretrizes para o Design de Interação de Objetos de Aprendizagem em Realidade Aumentada	13º Ergodesign/USIHC	BRAGA, Marta Cristina Goulart ; ULBRICHT, V. R. ; Tarcisio Vanzin		
trabalhoCompletoEmCongresso	2013		A Expressão Gráfica do Projeto de Sinalização do Complexo Esportivo de um Resort: Elos deRepresentações Rupestres	Grahica'13 - XXI Simpósio de Geometria Descritiva e Desenho Técnico e X International Conference on Graphics Engineering for Arts and Design	Braglia, I. ; Gularte, C. P. ; PEREIRA, A. T. C.		
trabalhoCompletoEmCongresso	2013		Simplicidade e Complexidade Visual na Produção e Expressão Gráfica das Embalagens	Grahica'13 - XXI Simpósio de Geometria Descritiva e Desenho Técnico e X International Conference on Graphics Engineering for Arts and Design	BRAGLIA, I. A. ; CASTRO, L. P. S. ; Pereira, Alice T. Cybis		
trabalhoCompletoEmCongresso	2013		A Proposta de Representação e Expressão Gráfica do Funil de Inovação Suportado pelas Ferramementas de Engenharia do Conhecimento	Grahica'13 - XXI Simpósio de Geometria Descritiva e Desenho Técnico e X International Conference on Graphics Engineering for Arts and Design	Braglia, I.de A. ; Pereira, Alice T. Cybis		
trabalhoCompletoEmCongresso	2013		A interdisciplinaridade no desenvolvimento gráfico do funil de inovação suportado pelas ferramentas de Engenharia do Conhecimento	Simpósio Internacional sobre Interdisciplinaridade no Ensino	Braglia, Israel de Alcântara ; Pereira, Alice T. Cybis ; SOUZA, João Artur de		
trabalhoCompletoEmCongresso	2013		Informação Científica acessível como Sistema Hipermídia	6º Conahpa - Congresso Nacional de Ambientes Hipermidia para Aprendizagem	BRITO, R. F. ; Shintaku, M. ; Pereira, Alice T. Cybis		
trabalhoCompletoEmCongresso	2013		APRENDIZAGEM ORGANIZACIONAL: UM ESTUDO EM UMA DAS PRÓ-REITORIAS DA UNIVERSIDADE FEDERAL DE SANTA CATARINA	ENANGRAD - Encontro Nacional dos Cursos de Graduação em Administração	BUCHELE, G. T. ; MULLER, I. R. F. ; TEZA, P. ; MULLER, R. F. ; SOUZA, João Artur de		
trabalhoCompletoEmCongresso	2013		DESAPRENDIZAGEM ORGANIZACIONAL: UM ESTUDO EM UMA DAS PRÓ-REITORIAS DA UNIVERSIDADE FEDERAL DE SANTA CATARINA	Congresso Internacional do Conhecimento e Inovação	BUCHELE, G. T. ; TEZA, P. ; MULLER, I. R. F. ; SOUZA, João Artur de		
trabalhoCompletoEmCongresso	2013		REPRESENTAÇÃO GRÁFICA DO CONHECIMENTO: ANÁLISE DE HISTÓRIA EM QUADIRNHOS PARA EaD POR MEIO DE MAPA COGNITIVO	XXI Simpósio Nacional de Geometria Descritiva e Desenho Técnico e X International Conference on Graphics for Arts and Design	BUSARELLO, R. I. ; Andreza Regina Lopes da Silva ; SANTOS, Neri dos ; FIALHO, Francisco Antônio Pereira ; ULBRICHT, V. R. ; Fernando Jose Spanhol		
trabalhoCompletoEmCongresso	2013		Ensino quadro a quadro: histórias em quadrinhos como narrativa de aprendizagem	6 CONAHPA	BUSARELLO, R. I. ; ULBRICHT, V. R.		
trabalhoCompletoEmCongresso	2013		Navegando em Histórias em Quadrinhos Acessíveis para Alunos Surdos	13 ERGODESIGN E USIHC	BUSARELLO, Raul Inácio ; ULBRICHT, V. R.		
trabalhoCompletoEmCongresso	2013		A context-aware approach on semantic trajectories	The 25th International Conference on Software Engineering and Knowledge Engineering	Caio Silva ; DANTAS, M. A. R.		
trabalhoCompletoEmCongresso	2013		Uma Abordagem Semântica de Seleção de Recursos Sensível ao Contexto	SBAC-PAD: Workshop de Iniciação Científica (WIC)	CAMILO, E. ; DANTAS, M. A. R.		
trabalhoCompletoEmCongresso	2013		The Online Broadcast of Fashion Trends: MPDClick Website	Senses Sensibility in Florianópolis: Advertising	CAMPOS, A. Q. ; Perassi, R.		
trabalhoCompletoEmCongresso	2013		O mito da sereia nas expressões gráficas da campanha publicitária de marca de moda	Graphica 2013: XXI Simpósio Nacional de Geometria Descritiva e Desenho Técnico; X International Conference Graphics Engeneering for Arts and Design	CAMPOS, A. Q. ; Perassi, R. ; Gomes, L. (Luiz Salomão Ribas Gomes)		
trabalhoCompletoEmCongresso	2013		A leitura de imagens dos materiais de campanha político-partidária: estudo de caso	Graphica 2013: XXI Simpósio Nacional de Geometria Descritiva e Desenho Técnico; X International Conference Graphics Engeneering for Arts and Design	CAMPOS, B. I. ; BRAVIANO, G. ; Perassi, R.		
trabalhoCompletoEmCongresso	2013		Co-creative methodology: the analysis of the Beatles? album cover Sgt. Peppers Lonely Hearts Club	IDEMI 2013 ? International Conference on Integration of Design	CAMPOS, B. I. ; NAPOLEÃO, E. ; Gomes, L. (Luiz Salomão Ribas Gomes) ; Perassi, R. ; BRAVIANO, G.		
trabalhoCompletoEmCongresso	2013		Multiagent Based Recommendation System Model for Indexing and Retrieving Learning Objects	11th International Workshops of PAAMS - Practical Applications of Agents and Multi-Agent Systems	Campos, Ronaldo ; COMARELLA, R. ; Ricardo Azambuja Silveira		
trabalhoCompletoEmCongresso	2013		Language systemic for environmental sustainability analysis applied to textile industry - comparasion of the portuguese and brazilian models	XIX International Conference on Industrial Engineering and Operations Management	CARREIRA, S. S. ; CARREIRA, M. F. ; ANTONELLI, G. C. ; FRANZONI, A. M. B.		
trabalhoCompletoEmCongresso	2013		Análise dos fatores que influenciam no posicionamento das empresas no mercado automobilístico de Maringá ? PR	III Congresso Brasileiro de Engenharia de Produção	CARREIRA, S. S. ; CARREIRA, M. F. ; LACHI, T. S. ; FRANZONI, A. M. B. ; ANTONELLI, G. C.		
trabalhoCompletoEmCongresso	2013		A tipografia como base do Projeto gráfico-editorial	Graphica 2013: XXI Simpósio Nacional de Geometria Descritiva e Desenho Técnico; X International Conference Graphics Engeneering for Arts and Design	CASTRO, L. P. S. ; Perassi, R.		
trabalhoCompletoEmCongresso	2013		La Formación Profesional en la perspectiva de la Pedagogia de las Competencias: una salida para el crises de empleabilidade? El Curriculo Referencia de la Rede e-Tec Brasil	VI CONGRESO INTERNACIONAL DE FORMACIÓN PARA EL TRABAJO : FORMACIÓN PARA EL TRABAJO EN TIEMPOS DE CRISIS: B ALANCE Y PROSPECTIVA	CATAPAN, A. H.; KASSICK, C. N.		
trabalhoCompletoEmCongresso	2013		Os bastidores das novas tecnologias	Congresso de Iniciação Científica do Inatel	CATAPAN, A. H.; OGLIARI, C. L.		
trabalhoCompletoEmCongresso	2013		Estudos Prospectivos e o Planejamento da Educação a Distância: um Olhar para Múltiplos Futuros	ESUD 2013 - X Congresso Brasileiro de Ensino Superior a Distância	CATAPAN, A. H.; RIBAS, Julio C ; SPANHOL, F. J.		
trabalhoCompletoEmCongresso	2013		A Questão da Técnica: berço da cibercultura	Segundo Congresso latinoamericano de filosofia de la educación	CATAPAN, A. H.; VITKOSKI, J. R.		
trabalhoCompletoEmCongresso	2013		As metáforas no projeto hipermidiático e suas estruturas subjacentes	6º Conahpa - Congresso Nacional de Ambientes Hipermidia para Aprendizagem	COLUSSO, L. F. ; Pereira, Alice T. Cybis ; GONCALVES, B. S.		
trabalhoCompletoEmCongresso	2013		Análise Bibliométrica dos Estudos Quantitativos da Web of Science sobre Fatores de Influência na Adoção de Sistemas de Governo Eletrônico	XVI Seminário em Admistração	COSTA, L. A. ; OLIVEIRA, P. C. ; DANDOLINI, Gertrudes Aparecida ; SOUZA, João Artur de		
trabalhoCompletoEmCongresso	2013		EDUBLOGS - CONSTRUÇÃO E A DISSEMINAÇÃO DO CONHECIMENTO DE FORMA COLABORATIVA E COOPERATIVA	V Congresso Internacional de Educação UNIBAVE	CRISTIANO, M. A. S. ; LOSSO, C. R. C. ; LUZ FILHO, S. S. da		
trabalhoCompletoEmCongresso	2013		Organização e teatro: uma análise bibliométrica	Congresso de Administração	CUNHA, C. J. C. A.; GUNTHER, H. F. ; GONCALVES, E. B.		
trabalhoCompletoEmCongresso	2013		AVALIAÇÃO DE DESEMPENHO - REVISÃO SISTEMÁTICA E ANÁLISQE DE LITERATURA RECENTE	XX Simpósio de engenharia de produção	DANDOLINI, G. A.; DUTRA, Ronye M. O. ; ABREU, A. F. ; ABREU, P. F. ; VALENTIM, Celso R. S.		
trabalhoCompletoEmCongresso	2013		O Ciclo de Gestão do Conhecimento na Prática: um estudo nos núcleos empresariais catarinenses	Congresso Internacional do Conhecimento e Inovação	DAVILA, G. A. ; FRAGA, B. D. ; DIANA, J. B. ; SPANHOL, F. J.		
trabalhoCompletoEmCongresso	2013		The teaching of architectural drawing using BIM (Building Information Modeling): Concepts and tools	3rd. International Conference on Integration of Design	Delatorre, V. ; PEREIRA, ALICE THERESINHA CYBIS		
trabalhoCompletoEmCongresso	2013		Fatores que influenciam no processo de compartilhar conhecimento em um projeto de extensão: um estudo do Projeto Chiquitos, na Chiquitania, Boliviana	XIII Colóquio Internacional sobre Gestão Universitária nas Américas	DELGADO, A. A. S. ; LINO, S. R. L. ; LUZ FILHO, S. S. da ; ALVES, J. B. M.		
trabalhoCompletoEmCongresso	2013		Emotion, Advertising and Branding: the Identity of Brands Built by Advertising Discourse	Senses Sensibility 2013	DIAS, A. R. ; OLIVEIRA, S. R. R. ; Perassi, R.		
trabalhoCompletoEmCongresso	2013		Identificação de oportunidades para inovação através da pesquisa de satisfação: estudo de caso em uma indústria de papel	IX EMEPRO	DOBUCHAK, L. P. ; MACEDO, M. ; Freitas, F. ; VALENTINA, L. V. O. D.		
trabalhoCompletoEmCongresso	2013		A Geração e o Desenvolvimento de Ideias em Organizações Empreendedoras	X Congresso Online de Administração	ESPER, A. ; Kracik, M. ; REZENDE, M. S. C. ; GOMES, R. K. ; ALVES, J. B. M.		
trabalhoCompletoEmCongresso	2013		Using storytelling to investigate interactions	SBGames 2013 - XII Simpósio Brasileiro de Jogos e Entretenimento Digital	FADEL, L. M.; ANDALO, F.		
trabalhoCompletoEmCongresso	2013		6º CONAHPA ? João Pessoa ? PB ? 04 a 06 de setembro de 2013 Curso Introdução a Educação Ambiental: uma abordage m pela experiência do usuário	6o CONAHPA - Congresso Nacional de Ambientes Hipermídia para Aprendizagem	FADEL, L. M.; FERNANDES, D. M. ; HOPKER, S. B. ; PERCIGILI, L. ; CRUZ, M. ; FERREIRA, M. E.		
trabalhoCompletoEmCongresso	2013		ANÁLISE DAS DIMENSÕES DO CAPITAL INTELECTUAL: UMA REVISÃO DE LITERATURA	III CONGRESSO INTERNACIONAL DE CONHECIMENTO E INOVAÇÃO	FERENHOF, H. A. ; BIALECKI, M. Z. ; SELIG, P. M.		
trabalhoCompletoEmCongresso	2013		Método Aprender a Crescer: uma nova perspectiva de crescimento para PMEs	III CONGRESSO INTERNACIONAL DE CONHECIMENTO E INOVAÇÃO	FERENHOF, H. A. ; FRAGA, B. D. ; SELIG, P. M.		
trabalhoCompletoEmCongresso	2013		The importance of Knowledge Waste for Intellectual Capital Management and Enterprise Performance	10th International Conference on Intellectual Capital	FERENHOF, H. A. ; SELIG, P. M.		
trabalhoCompletoEmCongresso	2013		Revisão Sistemática Qualitativa: Representação bidimensional de formas espaciais dos cegos	6 Congresso Nacional De Ambientes Hipermídia para Aprendizagem - 6 CONAHPA	Fernanda Cristine Poletto da SILVA ; ULBRICHT, V. R.		
trabalhoCompletoEmCongresso	2013		Interface Model for Accessible Forums for Blind, Deaf and Non-disabled People	Constantine Stephanidis. (Org.). HCI International	FLOR, Carla S. ; KAMINSKI, Douglas. ; VANZIN, Tarcisio.		
trabalhoCompletoEmCongresso	2013		O Emocard na avaliação da interação do usuário no WebGD	6 Congresso Nacional De Ambientes Hipermídia para Aprendizagem - 6 CONAHPA	FLORES, A. B. ; Carlos Henrique Berg ; ULBRICHT, V. R.		
trabalhoCompletoEmCongresso	2013		Ensino de Geometria para Deficientes Visuais em EAD: necessidades e interesses	13 ERGODESIGN E USIHC	FLORES, A. B. ; ZANDOMENEGHI, A. L. A. O. ; Vilma Villarouco ; ULBRICHT, V. R.		
trabalhoCompletoEmCongresso	2013		Análise epistemológica da avaliação institucional da educação superior brasileira: reflexõessobre a transposição de paradigmas	III Colóquio Internacional de Epistemologia e Sociologia da Ciência da Administração	FRANCISCO, THIAGO HENRIQUE ALMINO ; NAKAYAMA, Marina Keiko		
trabalhoCompletoEmCongresso	2013		Diagnostico da Capacitação Organizacional para o Trabalho em Equipe	Congresso Internacional do Conhecimento e Inovação	FREIRE, P S. ; SPANHOL, F. J. ; JENOVEVA NETO, R.		
trabalhoCompletoEmCongresso	2013		IDENTIFICAÇÃO DE OPORTUNIDADES DE INOVAÇÃO ATRAVÉS DA CONSTRUÇÃO E ANÁLISE DE CENÁRIOS PROSPECTIVOS	IX Congresso Nacional de Excelencia em Gestão - CNEG	FREITAS FILHO, L. F. ; BACK, S. ; DANDOLINI, Gertrudes Aparecida ; SOUZA, João Artur de		
trabalhoCompletoEmCongresso	2013	http://dx.doi.org/10.1109/3PGCIC.2013.32	An Enhancement of a Scheduling Approach for an Opportunistic Environment	2013 Eighth International Conference on P2P	GOMES, ELIZA ; Dantas, M.A.R.		
trabalhoCompletoEmCongresso	2013		O desenvolvimento de pessoas ? do treinamento aos novos desafios da gestão	X Congresso Virtual Brasileiro de Administração	GOMES, R. K. ; BOTELHO, M. ; FRANZONI, A. M. B.		
trabalhoCompletoEmCongresso	2013		Características do Design de Hipermídia em Smartphones: Estudo do Aplicativo Itunes. In: GRAPHICA 2013 - Simpósio Nacional de Geometria Descritiva e Desenho Técnico e International Conference on Graphics for Arts and Design	GRAPHICA 2013 - Simpósio Nacional de Geometria Descritiva e Desenho Técnico e International Conference on Graphics for Arts and Design,	GONCALVES, M. M. ; BALDESSAR, M. J.		
trabalhoCompletoEmCongresso	2013		Os papéis do líder e da liderança na gestão do conhecimento	III Congresso Internacional de Conhecimento e Inovação - CIKI	GRAMKOW, F. B. ; CUNHA, C. J. C. A.		
trabalhoCompletoEmCongresso	2013		A pesquisa universitária e a aplicação na inovação	42 JAIIO - Jornadas Argentinas de Informática	GUBIANI, J. S. ; MORALES, A. ; SELIG, P. M.		
trabalhoCompletoEmCongresso	2013		O Resultado da pesquisa universitária é transferido para a sociedade?	XXXIII - Encontro Nacional de Engenharia de Produção	GUBIANI, J. S. ; MORALES, A. ; SELIG, P. M.		
trabalhoCompletoEmCongresso	2013		A Transferência do Conhecimento Produzido nas Universidades	III CONGRESSO INTERNACIONAL DE CONHECIMENTO E INOVAÇÃO	GUBIANI, J. S. ; MORALES, A. ; SELIG, P. M.		
trabalhoCompletoEmCongresso	2013		Mindful Leadership: origem e concepção	Congresso de Administração	GUNTHER, H. F. ; CUNHA, C. J. C. A. ; LOCH, M.		
trabalhoCompletoEmCongresso	2013		O conceito de líder na liderança espiritual	Congresso de Administração	GUNTHER, H. F. ; VICENTINI, L. C. ; CUNHA, C. J. C. A.		
trabalhoCompletoEmCongresso	2013		Algumas considerações sobre o acesso a bulas digitais por meio de dispositivos móveis	13 ERGODESIGN E USIHC	HAMMERSCHMIDT, C. ; SPINILLO, C. ; ULBRICHT, V. R.		
trabalhoCompletoEmCongresso	2013		COMPETITIVE INTELLIGENCE FOR SMALL AND MEDIUM ENTERPRISES: THEORETICAL ASSUMPTIONS FOR THE DEVELOPMENT OF A MODEL	IDEMI - 3rd INT. CONF. ON INTEGRATION OF DESIGN	HUGEN, J. A. ; Miglioranza, D. ; DANDOLINI, G. A. ; SOUZA, João Artur de		
trabalhoCompletoEmCongresso	2013		Modelo Conceitual para Criação de Jogos Educativos Digitais	Congresso Internacional do Conhecimento e Inovação	JAPPUR, R. F. ; FORCELINI, F. A. ; SPANHOL, F. J.		
trabalhoCompletoEmCongresso	2013		Jogo Educativo Digital para a Sustentabilidade no Ambiente Residencial	I Simposio de Pesquisas em Games da UFSC	JAPPUR, Rafael Feyh ; ARBEX, D. F. ; FORCELLINI, Fernando Antonio ; SELIG, P. M. ; RADOS, G. J. V.		
trabalhoCompletoEmCongresso	2013		Cor, Forma e Estilo de desenho: um estudo exploratório sobre as preferências de crianças surdas	6 Congresso Nacional De Ambientes Hipermídia para Aprendizagem - 6 CONAHPA	Juliana BUENO ; Laura Sánchez GARCÍA ; ULBRICHT, V. R.		
trabalhoCompletoEmCongresso	2013		Deaf children and hearing : a comparative study about preferences to color, shape and drawing style	6 CIDI	Juliana BUENO ; ULBRICHT, V. R. ; CARLA G. SPINILLO ; Laura Sánchez GARCÍA		
trabalhoCompletoEmCongresso	2013		Acessibilidade em Redes Sociais Temáticas	XVIII Conferência Internacional sobre Informática na Educação	KAMINSKI, Douglas. ; PALAZZO, Luiz Antonio Moro ; Vanzin, T.		
trabalhoCompletoEmCongresso	2013		Aspectos Interdisciplinares em Design Thinking - um enfoque na Administração de Negócios, Moda e Psicologia Social	Simpósio Internacional sobre Interdisciplinaridade no Ensino	KIELING, A. P. ; KAULING, G. B. ; MULLER, J. M. ; FIALHO, F. A. P.		
trabalhoCompletoEmCongresso	2013		A GESTÃO DO CONHECIMENTO APLICADA NA TERCEIRIZAÇÃO: UMA ANÁLISE NA RELAÇÃO ENTRE TERCEIRIZADOS E CONTRATANTES	COMBREPRO 2013	KLEINA, J. S. ; ZENI, A. M. ; MACEDO, M.		
trabalhoCompletoEmCongresso	2013		Contextualização do uso das ferramentas colaborativas em Ambientes Virtuais de Aprendizagem	6 Congresso Nacional De Ambientes Hipermídia para Aprendizagem - 6 CONAHPA	KUNTZ, V. H. ; Marcia Maria ALVES ; Rodrigo Duran GONZALEZ ; ULBRICHT, V. R. ; MACEDO, Cláudia Mara Scudelari de		
trabalhoCompletoEmCongresso	2013		Recomendações de usabilidade para ferramenta de inclusão de conteúdos acessíveis do Moodle voltada a deficientes visuais	13 ERGODESIGN E USIHC	KUNTZ, V. H. ; ULBRICHT, V. R. ; MACEDO, Cláudia Mara Scudelari de		
trabalhoCompletoEmCongresso	2013		Capacidade de Absorção do Conhecimento e Capacidades Dinâmicas no Contexto de Ambientes Turbulentos: uma análise da literatura	IV Encontro de Administração da Informação ? EnADI	KURTZ, D. J. ; SANTOS, J. L. S. ; STEIL, A. V.		
trabalhoCompletoEmCongresso	2013		Estudo das capacidades organizacionais sob a lente da ambidestria: uma abordagem a partir do ponto de vista estratégico	III Congresso Internacional de Conhecimento e Inovação - ciKi	KURTZ, D. J. ; VARVAKIS, G.		
trabalhoCompletoEmCongresso	2013		Empreendedorismo e inovação em empresas de base tecnológica catarinenses	XV Congresso da Associação Latino-Iberoamericana de Gestão de Tecnologia	LAPOLLI, J. ; FRANZONI, A. M. B.		
trabalhoCompletoEmCongresso	2013		Visualización del conocimiento por medio de infografía en web: una propuesta centrada en el aprendizaje de sordos	V Congreso Internacional Latina de Comunicación Social	Mariana Lapolli ; BLEICHER, S. ; VANZIN, T. ; ULBRICHT, V. R. ; José Luis Valero Sancho		
trabalhoCompletoEmCongresso	2013		La utilización de narrativas infográficas en web para la educación de sordos	V Congreso Internacional Latina de Comunicación Social	Mariana Lapolli ; VANZIN, T. ; ULBRICHT, V. R. ; José Luis Valero Sancho		
trabalhoCompletoEmCongresso	2013		Sistemas operacionais: o design como nova perspectiva facilitadora para usuários da terceira idade	V Tec Soc: Simpósio Nacional de Tecnologia e Sociedade	LAURO, A. B. ; SA, T. H. M. ; FONSECA, J. ; FIALHO, F. A. P. ; Perassi, R.		
trabalhoCompletoEmCongresso	2013		Bañados del Este: Dádiva de la Naturaleza	XXVII Congreso Nacional de Geografia y Ambiente	LEDO, B. S. ; SORIANO-SIERRA, E. J.		
trabalhoCompletoEmCongresso	2013		A Controvérsia entre os Métodos de Análise de Projetos de Referência em Arquitetura e o Ensino de Projeto Performativo	SIGRADI 2013 - 17th Conference of the Iberoamerican Society of Digital Graphics	Leite, Leandro S. ; Pereira, Alice T. Cybis		
trabalhoCompletoEmCongresso	2013		Sistemas de B-Learning e suas Vantagens	ICBL2013 - International Conference on Interactive Computer Aided Blended Learning	Leite, T. R. ; SOUZA, R. P. L. ; ALVES, J. B. M.		
trabalhoCompletoEmCongresso	2013		Biocombustíveis no Brasil: evolução do patenteamento do Etanol combustível de cana-de-açúcar no Brasil a partir do Programa Nacional do Álcool/Proalcool 1975-2011	ALTEC 2013 - XV Congresso da Associação Latino-Iberoamericana de Gestão de Tecnologia	LIMA, Araken A. ; PIMENTEL, L. O. ; ZIBETTI, F. W. ; ROSARIO, F. J. P. ; SANTOS, D. A. ; WINTER, E.		
trabalhoCompletoEmCongresso	2013		Perfil das Pequenas e Médias Empresas da Região de Florianópolis: Implicações para a Gestão do Conhecimento	III Congresso Internacional de Conhecimento e Inovação - ciKi	LIMA, G. V. C. ; ROSSATO, J. ; VARVAKIS, G.		
trabalhoCompletoEmCongresso	2013		MAPEAMENTO DE COMPETÊNCIAS INDIVIDUAIS EM UMA EQUIPE DE DESENVOLVIMENTO DE PRODUTOS ELETRÔNICOS INDUSTRIAIS	SIMPEP 2013	LINO, J. R. ; MACEDO, M.		
trabalhoCompletoEmCongresso	2013		Mapeamento de competências individuais em uma equipe de desenvolvimento de produtos eletrônicos de aplicação industrial	IX EMEPRO	LINO, J. R. ; MACEDO, M. ; Batiz, E. C. ; Santos, A. J.		
trabalhoCompletoEmCongresso	2013		Extensao Universitária um relato de experiência: a interdisciplinariedade no Projeto Chiquitos, na Chiquitania, Boliviana	Simpósio Internacional sobre Interdisciplinaridade no Ensino	LINO, S. R. L. ; DELGADO, A. A. S. ; LUZ FILHO, S. S. da		
trabalhoCompletoEmCongresso	2013		A APRENDIZAGEM ORGANIZACIONAL NA REDE FEDERAL DE EDUCAÇÃO PROFISSIONAL CIENTÍFICA E TECNOLÓGICA EM SANTA CATARINA, BRASIL	XV Congresso de Gestão de Tecnologia Latino-Iberoamericano	LINO, S. R. L. ; SILVEIRA, A. ; LUZ FILHO, S. S. da		
trabalhoCompletoEmCongresso	2013		PROPOSTA DE UM ROTEIRO DE AVALIAÇÃO PARA O DESENVOLVIMENTO DE PROFISSIONAIS DE MANUFATURA: UM ESTUDO DE CASO EM UMA EMPRESA FABRICANTE DE ELETRODOMÉSTICOS	SIMPEP 2013	MACEDO, M.; BARBOSA, G. R. ; Batiz, E. C. ; Santos, A. J.		
trabalhoCompletoEmCongresso	2013		AVALIAÇÃO DOS IMPACTOS DOS ESTILOS DE LIDERANÇA NO CLIMA ORGANIZACIONAL: UM ESTUDO DE CASO EM UMA EMPRESA DE REFRIGERAÇÃO	COMBREPRO 2013	MACEDO, M.; BORGES, G. ; Freitas, F. ; GERHMANN, S. S.		
trabalhoCompletoEmCongresso	2013		Senado Federal em Tour Virtual 360° - Inovação e Gestão de Ambientes Virtuais	6 Congresso Nacional De Ambientes Hipermídia para Aprendizagem - 6 CONAHPA	MACEDO, R. P. ; Carla Susana da Encarnação Marques ; ULBRICHT, V. R.		
trabalhoCompletoEmCongresso	2013		Brand and Dynamics: an Analysis of Suggested Movement in Olympic Brands	Sense Sensibility 2013	MACHADO, A. P. ; CAMPOS, A. ; NUNES, C. C. ; Perassi, R.		
trabalhoCompletoEmCongresso	2013		Planejamento da gestão do conhecimento nos planos de negócios de novas empresas	XX Simpósio de Engenharia de Produção	MACHADO, E ; FOLLMANN, N. ; FRANZONI, A. M. B. ; GAUTHIER, F. A. O.		
trabalhoCompletoEmCongresso	2013		Knowledge management: a business plan approach	10th International Conference on Intellectual Capital	MACHADO, E. ; FRANZONI, A. M. B. ; FERENHOF, H. A. ; SELIG, P. M.		
trabalhoCompletoEmCongresso	2013		Revisão de Literatura sobre Custos e Capital Intelectual	ENEGI ENCONTRO NACIONAL DE ENGENHARIA E GESTÃO INDUSTRIAL	MACHADO, E. ; VAZ, C. R. ; SELIG, P. M.		
trabalhoCompletoEmCongresso	2013		Modelo de Qualidade de Experiência à Gestão do Conhecimento em Empresas Fornecedoras de Serviços Convergentes	Congresso Internacional Conhecimento e Inovação	Madalena Pereira Silva ; Dantas, M. A. R		
trabalhoCompletoEmCongresso	2013		Un estudio comparativo de paradgmas de modelacion de procesos intensivos em conocimiento organizacional	VI Simposio Internacional de Ingenieria Industrial: actualidad y nuevas tendencias 2013	MALDONADO, M. U. ; VAZ, C. R. ; RADOS, Gregório Jean Varvakis ; SELIG, P. M.		
trabalhoCompletoEmCongresso	2013		Análise do design da informação para ferramentas colaborativas em ambientes virtuais de aprendizagem	5 INFODESIGN	Marcia Maria ALVES ; KUNTZ, V. H. ; Rodrigo Duran GONZALEZ ; ULBRICHT, V. R. ; MACEDO, Cláudia Mara Scudelari de		
trabalhoCompletoEmCongresso	2013		Mídia do conhecimento na aprendizagem e desenvolvimento de Objeto de Aprendizagem em Realidade Aumentada	6 Congresso Nacional De Ambientes Hipermídia para Aprendizagem - 6 CONAHPA	Marta C. Goulart Braga ; ULBRICHT, V. R.		
trabalhoCompletoEmCongresso	2013		AVALIAÇÃO DO PROCESSO DE FORMULAÇÃO DE ESTRATÉGIAS NA GESTÃO DO CONHECIMENTO A PARTIR DA PERCEPÇÃO DO DIRIGENTE EMPRESARIAL	SMPEP 2013	MATTOS, A. R. ; MACEDO, M.		
trabalhoCompletoEmCongresso	2013		O MODELO DE GESTÃO DO CONHECIMENTO SENSE MAKING APLICADO A PRESTAÇÃO DE SERVIÇOS EM UM CONSULTÓRIO ODONTOLÓGICO: UM ESTUDO DE CASO EM UNIÃO DA VITÓRIA - PR	COMBREPRO 2013	MATTOS, A. R. ; MACEDO, M.		
trabalhoCompletoEmCongresso	2013		Design e expressão nos cartazes contemporâneos: uma abordagem semiótica	6º Congresso Internacional de Design da Informação 5º InfoDesign Brasil 6º Congic	MEDEIROS, D. P. ; Perassi, R.		
trabalhoCompletoEmCongresso	2013		Direcionadores do processo de inovação: o papel da estratégia, liderança e cultura	Congresso Internacional do Conhecimento e Inovação	Miguez, V. B. ; FERNANDES, R. F. ; TEZA, P. ; DANDOLINI, G. A.		
trabalhoCompletoEmCongresso	2013		O e-book como mídia do conhecimento	VI Seminário Leitura de Imagens para a Educação:Múltiplas Mídias	MIRANDA, M. ; Perassi, R.		
trabalhoCompletoEmCongresso	2013		Pós- Graduação interdisciplinar e a teoria geral de sistemas: o caso do programa de Pós-Graduação em Engenharia e Gestão do Conhecimento	XIII Colóquio Internacional sobre Gestão Universitária nas Américas	MOELLER, J. E. ; MACHADO, E ; MELO, M. B. ; SOUZA, R. M. ; SANTOS, A. ; FRANZONI, A. M. B.		
trabalhoCompletoEmCongresso	2013		Um levantamento e análise da literatura sobre desaprendizagem organizacional no contexto da inovação	ENEGEP - Encontro Nacional de Engenharia de Produção	MULLER, I. R. F. ; TEZA, P. ; Steil, A. V. ; SOUZA, João Artur de ; SELL, D.		
trabalhoCompletoEmCongresso	2013		Contribuições de ferramentas de gestão do conhecimento aplicadas à sustentabilidade baseadas em uma revisão sistemática de literatura	4th International Workshop Advances in Cleaner Production	MUNOZ, D. L. C. ; Coelho, Christianne de Souza Reinisch ; STEIL, A. V.		
trabalhoCompletoEmCongresso	2013		A mídia como difusora do conhecimento científico	V Seminário Nacional de Avaliação e Gestão das Feiras de Matemática.	MUNZLINGER, A. ; ALBURQUEQUE, D. A. ; Perassi, R.		
trabalhoCompletoEmCongresso	2013		Package Design Compounding the Brand Imaginary Acquis	Senses Sensibility 2013	NAPOLEÃO, E. ; Perassi, R. ; Gomes, L. (Luiz Salomão Ribas Gomes)		
trabalhoCompletoEmCongresso	2013		Semantic Portals as a support for Knowledge Management in Organizations	0th CONTECSI International Conference on Information Systems and Technology Management	NAZARIO, D. C. ; WOSZEZENKI, C. ; SELL, D. ; GAUTHIER, O. F.		
trabalhoCompletoEmCongresso	2013		Gestão do conhecimento aplicada ao conhecimento tradicional: o estado da arte	XV Congresso Latino- Iberoamericana de Gestão de Tecnologia	NETTO, M. ; SILVA, A. W. L. ; CUNHA, C. J. C. A. ; SELIG, P. M.		
trabalhoCompletoEmCongresso	2013		Delineamento de pesquisas e projetos interdisciplinares conduzidos pelo Núcleo de Estudos e Observação de Gestão, Aprendizagem e Pessoas (NEOGAP), UFSC	Simpósio Internacional sobre Interdisciplinaridade no Ensino	Nunes, Carolina S. ; TORRES, M. K. L. ; OLIVEIRA, P. C. ; NAKAYAMA, M. K.		
trabalhoCompletoEmCongresso	2013		Desenho instrucional acessível: materiais didáticos com desenho universal para acesso de alunos cegos ao conhecimento escolar	: 13º Congresso Internacional de Ergonomia Usabilidade de Interfaces Humano Tecnologia - 13º ERGODESIGN e USIHC 13º Congresso Internacional de Ergonomia Usabilidade de Interfaces Humano Tecnologia	NUNES, E. V. ; SILVA, Charles. L. Cesconetto ; VANZIN, Tarcisio.		
trabalhoCompletoEmCongresso	2013		A influência do Design e da Usabilidade no processo de ensino/aprendizagem através de um software educacional	13o Ergodesign/Usihc	OLIVEIRA, V N P ; PADOVANI, S ; FADEL, L. M.		
trabalhoCompletoEmCongresso	2013		Conhecimento Crítico e Estratégico em convênios e captação de recursos municipais	3º Congresso Internacional de Conhecimento e Inovação	PACHECO, D. C. ; FORMANSKI, J. G. ; FRANZONI, A. M. B.		
trabalhoCompletoEmCongresso	2013		Avaliação de Maturidade a Gestão do Conhecimento em Administração Pública Municipal	3º Congresso Internacional de Conhecimento e Inovação	PACHECO, D. C. ; FRANZONI, A. M. B.		
trabalhoCompletoEmCongresso	2013		A gestão educacional baseada na gestão de pessoas e do conhecimento	3º Congresso Internacional de Conhecimento e Inovação.	PACHECO, D. C. ; FRANZONI, A. M. B.		
trabalhoCompletoEmCongresso	2013		Contribuição da Gestão do Conhecimento à Gestão de Pessoas em Organização Públicas	3º Congresso Internacional de Conhecimento e Inovação	PACHECO, D. C. ; MACHADO, E ; FRANZONI, A. M. B. ; LAPOLLI, É. M.		
trabalhoCompletoEmCongresso	2013		An Intelligent Tutoring Systems Integrated with Learning Management Systems	11th International Workshops of Practical Applications of Agents and Multi-Agent Systems	PALOMINO, C. E. G. ; SILVEIRA, Ricardo Azambuja ; NAKAYAMA, M. K.		
trabalhoCompletoEmCongresso	2013		TRÍPTICO: modelo para uso de imagens digitais no ensino de História	XXVII Símpósio Nacional de História - ANPUH	PAVANATI, I. ; Perassi, R.		
trabalhoCompletoEmCongresso	2013		Princípios da Administração Científica e do Lean Manufacturing aplicados em uma fábrica de injeção de peças plásticas: análise comparativa do resultado operacional	IX EMEPRO	PAWLAK, J. S. ; MACEDO, M.		
trabalhoCompletoEmCongresso	2013		Análise das dimensões da marca corporativa: estudo de caso do cluster textil do vale do rio Itajaí-SC	Congresso Nacional de Excelência em Gestão	PETRELLI, M. ; Perassi, R. ; ARDIGO, C. M. ; MORESCO, G. M.		
trabalhoCompletoEmCongresso	2013		Cultura corporativa orientada à marca: estudo do cluster calçadista catarinense	Congresso Nacional de Excelência em Gestão	PETRELLI, M. ; Perassi, R. ; GONCALVES, M. M. ; GOMEZ, L. S. R.		
trabalhoCompletoEmCongresso	2013		Espaços favoráveis a criação do conhecimento	III Congresso Internacional de Conhecimento e Inovação	PILLON, A. E. ; MACEDO, M. ; Freitas, F.		
trabalhoCompletoEmCongresso	2013		A importância da aprendizagem organizacional no processo de criação do conhecimento nas empresas	III Congresso Internacional de Conhecimento e Inovação	PILLON, A. E. ; MACEDO, M. ; Freitas, F.		
trabalhoCompletoEmCongresso	2013		Análise do Comportamento Intraempreendedor dos Colaboradores de Empresa Prestadora de Serviço em Telecomunicações	CONVIBRA 2013 - online conference	PRADO, M. L. ; MACHADO, E. ; LAPOLLI, É. M. ; SOUZA, V.A. B.		
trabalhoCompletoEmCongresso	2013		A Disseminação do Conhecimento como Fator de Inovação em Empresa de Telecomunicações	XV Congresso de Tecnologia Latino-Iberoamericano - ALTEC 2013	PRADO, M.L. ; MACHADO, E. ; LAPOLLI, É. M. ; SOUZA, V.A. B.		
trabalhoCompletoEmCongresso	2013		PROPOSTA DE UM MODELO PARA PREDIÇÃO DE MANUTENÇÕES DE EQUIPAMENTOS MÉDICO-HOSPITALARES: UM ESTUDO MULTICASOS EM HOSPITAIS DA GRANDE FLORIANÓPOLIS (SC)	X Congresso Online de Administração - CONVIBRA	PREISSLER JUNIOR, S. ; VIEGAS, T. V. ; CASTANEDA, W. A. C. ; DANDOLINI, Gertrudes Aparecida ; SOUZA, João Artur de		
trabalhoCompletoEmCongresso	2013		A Semantic Web Approach to Recommend Learning Objects	International Workshops of PAAMS	PRIMO, TIAGO THOMPSEN ; Behr, A ; VICCARI, R. M.		
trabalhoCompletoEmCongresso	2013		Desenvolvimento de objetos de aprendizagem: um estudo sobre o design gráfico da interface	6 Congresso Nacional De Ambientes Hipermídia para Aprendizagem - 6 CONAHPA	BLEICHER, S. ; Silvia Quevedo ; ULBRICHT, V. R. ; VANZIN, T.		
trabalhoCompletoEmCongresso	2013		O processo de construção da política de comunicação IFSC	3º Congresso Internacional de Conhecimento e Inovação (ciKi	RAMOS, T. L. ; Perassi, R.		
trabalhoCompletoEmCongresso	2013		Sistemas de b-learning e sua aplicação no processo de ensino e aprendizagem	International Conference on Interactive Computer aided Blended Learning - ICBL 2013	RAMOS, T. L. ; Perassi, R. ; ALVES. J. B.		
trabalhoCompletoEmCongresso	2013		APLICAÇÃO DO MODELO DE AUTOAVALIAÇÃO DO DESEMPENHO AMBIENTAL ? MADA NAS INDÚSTRIAS SUCROALCOOLEIRAS DO ESTADO DO MATO GROSSO DO SUL	XX Simpósio Nacional de Engenharia de Produção	RAUPP, F. ; SELIG, P. M. ; SIERRA, E. J. S.		
trabalhoCompletoEmCongresso	2013		Ensino-Aprendizagem e Educação para o Desenvolvimento Sustentável	VI Congresso Internacional de Educação UNIBAVE	REGINALDO, T. ; PACHECO, D. C. ; BALDESSAR, M. J. ; FRANZONI, A. M. B.		
trabalhoCompletoEmCongresso	2013		História em Quadrinhos como Objeto de Aprendizagem Hipermidiático	Grahica'13 - XXI Simpósio de Geometria Descritiva e Desenho Técnico e X International Conference on Graphics Engineering for Arts and Design	Ropelatto, L. ; TRISKA, R. ; Pereira, Alice T. Cybis ; Gonçalves, M.M.		
trabalhoCompletoEmCongresso	2013		Análise Sistêmica de uma Estratégia de Manutenção e Disseminação do Conhecimento Aplicada no Contexto da Segurança Pública	Congresso Brasileiro de Sistemas	ROSA, A. J. P. ; COSTA, L. A. ; ALVES, J. B. M.		
trabalhoCompletoEmCongresso	2013		Uma Ontologia para Modelar o Conhecimento Utilizado pelo Juiz Durante a Elaboração da Sentença	III Congresso Internacional Conhecimento e Inovação	ROTTA, M. ; SEWALD, Egon ; SELL, D. ; ROVER, A.		
trabalhoCompletoEmCongresso	2013		Evaluación de los portales de las asambleas legislativas de los estados brasileros aplicando la metodología multi-criterio de apoyo a la decisión	V Jornadas Sobre Derecho y Tecnologia XVII Encuentro ìbero-latino-americano sobre Gobierno Electrônico e Inclusión Digital	ROVER, Aires José		
trabalhoCompletoEmCongresso	2013		Governo Eletrônico e Tecnologias Móveis: um estudo de caso de telefonia móvel na segurança pública	42 Jornadas Argentinas de Informática	ROVER, Aires José		
trabalhoCompletoEmCongresso	2013		Redes de Cooperação: oportunidades para o desenvolvimento rural	CONVIBRA 2013 - online conference	SA, M. A. ; BITTARELLO, K. P. ; GONCALVES, E. B. ; LAPOLLI, É. M.		
trabalhoCompletoEmCongresso	2013		Responsabilidade Socioambiental: um desafio para a micro e pequena empresa	Simpósio de Excelência em gestão e Tecnologia	SA, M. A. ; GONCALVES, E. B. ; BITTARELLO, K. P. ; LAPOLLI, É. M.		
trabalhoCompletoEmCongresso	2013		O impacto da incorporação das TICs na Educação a Distancia: uma revisão Sistemática	EATI-	SAITO, D. S. ; BURIGO, L. ; Elisa Maria Pivetta ; ULBRICHT, V. R. ; Silvio Serafim da Luz Filho		
trabalhoCompletoEmCongresso	2013		Avaliação de acessibilidade com a participação de usuários surdos	13 Congresso Internacional de Ergonomia Usabilidade de Interfaces Humano Tecnologia: Produto	SAITO, D. S. ; Elisa Maria Pivetta ; ULBRICHT, V. R.		
trabalhoCompletoEmCongresso	2013		Técnicas de avaliação de acessibilidade de sites para pessoas surdas	6 Congresso Nacional De Ambientes Hipermídia para Aprendizagem - 6 CONAHPA	SAITO, D. S. ; PIVETTA, E. M. ; ULBRICHT, V. R.		
trabalhoCompletoEmCongresso	2013		EXTENSIÓN Y GESTIÓN UNIVERSITARIA: UN ESTUDIO DEL PROYECTO CHIQUITOS EN LA CHIQUITANIA BOLIVIANA	XIII COLOQUIO Internaciola de Gestión Universitária en América del Sur	SANTOS, A. D. ; BOHN, C. S. ; DANDOLINI, G. A. ; SOUZA, J. A.		
trabalhoCompletoEmCongresso	2013		The teaching of design of experiments in technology and engineering courses: critical analysis of educational resources available	ICIEOM	Santos, A. J. ; JUNCKES, R. S. ; MACEDO, M. ; Batiz, E. C.		
trabalhoCompletoEmCongresso	2013	http://dx.doi.org/10.1109/ISCC.2013.6755049	An analysis of replication and retrieval of medical image data using a database management system and a distributed file system	2013 IEEE Symposium on Computers and Communications (ISCC)	SANTOS, ELIAS AMARAL ; COMUNELLO, EROS ; DE MACEDO, DOUGLAS D.J. ; CAPRETZ, MIRIAM A.M. ; Prado, Thiago Coelho ; Dantas, M.A.R.		
trabalhoCompletoEmCongresso	2013		Ambientes virtuais de colaboração e aprendizagem interorganizacionais: estudo de caso sobre a rede social ACATE	3º Congresso Internacional de Conhecimento e Inovação	SANTOS, G. S. P. ; BITTARELLO, K. P. ; LAPOLLI, É. M. ; FRANZONI, A. M. B.		
trabalhoCompletoEmCongresso	2013		Avaliação: análise ergonômica de interface para jogos digitais casuais para a plataforma mobile	XII Simpósio Brasileiro de Jogos e Entretenimento Digital - SBGames 2013	SANTOS, M. A. S. ; PEREIRA, ALICE THERESINHA CYBIS ; Gonçalves, M.M.		
trabalhoCompletoEmCongresso	2013		Cognitive approach to crisis leadership: a bridging edge to manage transboundary crises	29th EGOS Colloquium	Santos, R. A. S. ; CUNHA, C. J. C. A.		
trabalhoCompletoEmCongresso	2013		CITAÇÃO DAS PARTES EM UM PROCESSO JUDICIAL: EXPLICITAÇÃO E IMPLEMENTAÇÃO DE MELHORIAS A PARTIR DA INTEGRAÇÃO ENTRE GESTÃO DO CONHECIMENTO E BUSINESS PROCESS MANAGEMENT	VII Congresso Nacional de Gestão do Conhecimento na Esfera Congresso Nacional de Gestão do Conhecimento na Esfera PúblicaCongresso Nacional de Gestão do Conhecimento na Esfera Pública Congresso Nacional de Gestão do Conhecimento na Esfera Pública	SENA, M. ; PADILHA, P. ; DANDOLINI, G. A.		
trabalhoCompletoEmCongresso	2013		Processo de Desenvolvimento de Ontologia de Domínio da Área Jurídica: Caso Acidentes de Trânsito	8ª Conferência Ibérica de Sistemas e Tecnologias de Informação	SEWALD JUNIOR, E. ; ROTTA, M. J. R. ; SILVA, E. R. G. ; GAUTHIER, F. A. O. ; CARMO, V. R. ; ROVER, A. J.		
trabalhoCompletoEmCongresso	2013		Procedural Acceleration and Judicial Procedure in Eletronic Media: Case Study at the Court of the State of São Paulo	Simposio Argentino de Informatica y Derecho - jaiio 2013	SEWALD JUNIOR, EGON ; ROVER, Aires José		
trabalhoCompletoEmCongresso	2013		Desenvolvimento de Pesquisa Interdisciplinar: Narrativa e Críticas de Construção de Ontologias no Âmbito do Projeto CNJ Acadêmico	Simpósio Internacional sobre Interdisciplinaridade no Ensino	SEWALD JUNIOR, EGON ; ROVER, Aires José		
trabalhoCompletoEmCongresso	2013		Observatórios de informação e conhecimento: discutindo bases conceituais e perspectivas de efetividade	IX Congresso Nacional de Excelência em Gestão	SILVA, A. W. L. ; NETTO, M. ; FILHO, E. A. H. ; SELIG, P. M.		
trabalhoCompletoEmCongresso	2013		Observatórios Brasileiros de meio ambiente e sustentabilidade: diagnostico e análise	XV Congresso de Gestão de Tecnologia Latino-Iberoamericano	SILVA, A. W. L. ; NETTO, M. ; SELIG, P. M. ; FILHO, E. A. H.		
trabalhoCompletoEmCongresso	2013		Designer instrucional: da formação múltipla a atuação interdisciplinar	Simpósio Internacional sobre Interdisciplinaridade no Ensino	SILVA, A.R.L. ; DIANA, J. B. ; SPANHOL, FERNANDO JOSÉ		
trabalhoCompletoEmCongresso	2013		Construção do Conhecimento na EAD:uma reflexão a luz do Material didático	III Coloquio Luso Brasileiro de Educação a Distância e Elearning	SILVA, A.R.L. ; SPANHOL, F. J. ; SARTORI, V.		
trabalhoCompletoEmCongresso	2013		Elaborando material didático em EaD: uma abordagem centrada na equipe multidisciplinar	19 Congresso Internacional ABED de Educação a Distância	SILVA, A.R.L. ; SPANHOL, FERNANDO JOSÉ		
trabalhoCompletoEmCongresso	2013		Design de documentos em gestão de projetos: análise semântica e pragmática de modelos de relatórios de projeto	6th Information Design International Congress	SILVA, C. H. ; FERENHOF, H. A. ; SPINILLO, C. G. ; SELIG, P. M.		
trabalhoCompletoEmCongresso	2013		O design instrucional e o pragmatismo de John Dewey no contexto da EAD no Brasil	Graphica 2013	SILVA, C. W. ; TEIXEIRA, D. J. ; ROPELATTO, L. ; GONCALVES, B. S. ; TRISKA, R. ; Perassi, R.		
trabalhoCompletoEmCongresso	2013	http://dx.doi.org/10.1109/WiMOB.2013.6673394	Quality-aware context provider: A filtering approach to context-aware systems on ubiquitous environment	2013 IEEE 9th International Conference on Wireless and Mobile Computing	SILVA, CAIO ; Dantas, M. A. R		
trabalhoCompletoEmCongresso	2013		Tornar-se gestor: a experiência vivida pelo professor universitário	IV Encontro de Gestão de Pessoas e Relações de Trabalho - EnGPR	Silva, F. M. V. ; CUNHA, C. J. C. A. ; BINOTTO, ERLAINE ; SIQUEIRA, E. S.		
trabalhoCompletoEmCongresso	2013		Deixando de ser gestor universitário: o relacionamento interpessoal	Encontro Nacional dos Programas de Pós-Graduação em Administração - EnANPAD XXXVII	SILVA, FABIULA MENEGUETE VIDES DA ; Binotto, E. ; SIQUEIRA, E. S. ; CUNHA, C. J. C. A.		
trabalhoCompletoEmCongresso	2013		Processo de Publicação de Linked Data para a Distribuição de Informação e Conhecimento	III Congresso Internacional do Conhecimento e Inovação	SILVA, G. ; FRANSEN, G. B. ; Todesco, José Leomar ; GAUTHIER, Fernando Álvaro Ostuni ; SPERONI, R. M.		
trabalhoCompletoEmCongresso	2013		A Concepção das Lideranças do Processo de Compartilhamento do Conhecimento em organizações Públicas: um estudo de caso	CONVIBRA 2013 - online conference	SILVA, Mirian Torquato ; WILLERDING, I. A. V. ; SOUZA, V.A. B. ; LAPOLLI, É. M.		
trabalhoCompletoEmCongresso	2013		Estudo sobre métrica avaliativa da aprendizagem: uma integração entre lógica de fuzzy, mapa conceitual e taxonomia educacional	XVIII Congresso Internacional de Informática Educativa - TISE 2013	SILVA, N. V. ; MENDES, E. B. ; ALVES, J. B. M.		
trabalhoCompletoEmCongresso	2013		Um Estudo de Orientação a Contexto em Ambiente de Redes sem Fio	XIV Simpósio em Sistemas Computacionais - Workshop de Iniciação Científica	SILVA, R. P. E. ; DANTAS, M. A. R. ; SANTOS, E. R.		
trabalhoCompletoEmCongresso	2013	http://dx.doi.org/10.1109/WETICE.2013.12	A Data Management in a Private Cloud Storage Environment Utilizing High Performance Distributed File Systems	2013 IEEE 22nd International Workshop On Enabling Technologies: Infrastructure For Collaborative Enterprises (WETICE)	SOARES, TIAGO S. ; Dantas, M.A.R. ; Macedo, Douglas D.J. De ; BAUER, MICHAEL A.		
trabalhoCompletoEmCongresso	2013		Medio Ambiente y Sostenibilidad	XXVII Congreso Nacional de Geografia y Ambiente	SORIANO-SIERRA, E. J		
trabalhoCompletoEmCongresso	2013		SCIENTIFICS PRODUCTION OF ACTIVITY-BASED COSTING IN SERVICES: THROUG FOR BUILDING A PORTFOLIO BIBLIOGRAFHIC AND BIBLIOMETRIC ANALYSIS	XIX International Conference on Industrial Engineering and Operations Management	STEFANO, N. M. ; WERUTSKY, V. D. B. G. ; SELIG, P. M. ; CASAROTTO FILHO, Nelson		
trabalhoCompletoEmCongresso	2013		CONHECER A NATUREZA ATRAVÉS DA GEOMETRIA: OBJETO DE APRENDIZAGEM VIRTUAL PARA CEGOS	XXI Simpósio Nacional de Geometria Descritiva e Desenho Técnico e X International Conference on Graphics for Arts and Design	TEIXEIRA NETO, O. M. ; Tatiana de Trota ; ULBRICHT, V. R. ; MACEDO, Cláudia Mara Scudelari de		
trabalhoCompletoEmCongresso	2013		Aprendizagem Organizacional e Inovação: uma análise bibliométrica da produção científica internacional	VI Encontro de Estudos em Estratégia - 3Es	TEODOROSKI, R. C. C. ; SANTOS, J. L. S. ; STEIL, A. V.		
trabalhoCompletoEmCongresso	2013	http://dx.doi.org/10.5220/0004548402780285	Linked Open Government Data Research Panorama	International Conference on Knowledge Engineering and Ontology Development	TODESCO, Bernardo P. R. ; BLUME, Bruno ; ZANCANARO, Airton ; Todesco, José Leomar ; GAUTHIER, Fernando Álvaro Ostuni		
trabalhoCompletoEmCongresso	2013		A Socioterapia e o despertar da Criatividade: um caminho para o processo de inovação em organizações de base tecnológica	XV Congresso de Tecnologia Latino-Iberoamericano - ALTEC 2013	TORQUATO, M. ; LAPOLLI, É. M.		
trabalhoCompletoEmCongresso	2013		O Jovem Estagiário e a sua contribuição para a promoção da Inovação em Organizações públicas: um estudo de caso	XV Congresso de Tecnologia Latino-Iberoamericano - ALTEC 2013	TORQUATO, M. ; WILLERDING, I. A. V. ; LAPOLLI, É. M.		
trabalhoCompletoEmCongresso	2013		A contribuição da ilustração como objeto de aprendizagem para adultos em ambiente virtual	6º Congresso Nacional de Ambientes Hipermídia para Aprendizagem	TROTTA, T. ; M.TEIXEIRA NETO, O. ; ULBRICHT, V. R. ; MACEDO, Cláudia Mara Scudelari de		
trabalhoCompletoEmCongresso	2013		Acessibilidade em ambiente virtual de ensino aprendizagem: uma visão holística para a inclusão global	II Ergotridesign	Ulbricht, Vania Ribas ; Vanzin, T. ; Quevedo, Silvia		
trabalhoCompletoEmCongresso	2013		Cenários prospectivos e análise de impacto no setor de tecnologia de informação e comunicação	Congresso Internacional do Conhecimento e Inovação	VALCARENGHI, E. V. ; BORGES, M. A. ; DANDOLINI, G. A. ; SOUZA, João Artur de		
trabalhoCompletoEmCongresso	2013		Capital Intelectual em programas públicos: percepções do PROANTAR	III Congresso Internacional de Conhecimento e Inovação - ciKi	VARVAKIS, G.; DIAS, M. A. H. ; NAKAYAMA, M.		
trabalhoCompletoEmCongresso	2013		Theorical model of intelectual capital for the reverse logistics post-sale process: case of refrigeration appliances	III CONGRESSO INTERNACIONAL DE CONHECIMENTO E INOVAÇÃO	VAZ, C. R. ; GRABOT, B. ; MALDONADO, M. U. ; SELIG, P. M.		
trabalhoCompletoEmCongresso	2013		Revisão de Literatura Estruturada da Produção Cientifica sobre o conceito de Logística Reversa (1990 - 2012)	XVI Simpósio de Administração da Produção	VAZ, C. R. ; MALDONADO, M. U. ; SELIG, P. M.		
trabalhoCompletoEmCongresso	2013		Indicadores de desempenho como uma prática de desenvolvimento sustentável: uma revisão com o foco na gestão ambiental	Congresso Internacional de Administração	VAZ, C. R. ; VAZ, J. R. ; SELIG, P. M.		
trabalhoCompletoEmCongresso	2013		Entrevista de Desligamento como Ferramenta de Gestão de Conhecimento	Congresso Internacional de Conhecimento e Inovação (CIKI)	VIDOTTO, J. D. F. ; SPERONI, R. M. ; NERES, W. A. ; BASTOS, Rogerio Cid		
trabalhoCompletoEmCongresso	2013		The Role of Health in Impact Assessment and Related Initiatives: a Literature Review	IV International Workshop on Advances in Cleaner Production	VIEGAS, C. V ; RADOS, G. J. V. ; SELIG, P. M.		
trabalhoCompletoEmCongresso	2013		A five-years literature review on HIA subject, methods and quantification	2nd National Health Impact Assessment Meeting	VIEGAS, C. V ; RADOS, Gregório Jean Varvakis ; SELIG, P. M.		
trabalhoCompletoEmCongresso	2013		Meme Aware: The Influence of Brand Management in the Culture	Senses Sensibility 2013	VIEIRA, S. ; MENEZES, G. S. ; Perassi, R.		
trabalhoCompletoEmCongresso	2013		Estudo semiótico de placas de sinalização: bases para uma proposta metodológica	Graphica 2013: XXI Simpósio Nacional de Geometria Descritiva e Desenho Técnico; X International Conference Graphics Engeneering for Arts and Design	VIEIRA, S. ; SPAGNUELO, D. ; Perassi, R.		
trabalhoCompletoEmCongresso	2013		A interferência da imagem no comportamento	Anais Graphica 2013	VIEIRA, S. ; SPAGNUELO, D. ; Perassi, R.		
trabalhoCompletoEmCongresso	2013		AVALIAÇÃO DA GESTÃO DA INOVAÇÃO EM EMPRESAS START - UP	ENEGI ENCONTRO NACIONAL DE ENGENHARIA E GESTÃO INDUSTRIAL	WERUTSKY, V. D. B. G. ; SELIG, P. M. ; AGRASSO NETO, M. ; STEFANO, N. M.		
trabalhoCompletoEmCongresso	2013		A BIBLIOMETRIC ASSEMENT ON SUSTAINABILITY IN INNOVATION MANAGEMENT CONTEXT	22nd Conference on Production Research	WERUTSKY, V. D. B. G. ; VAZ, C. R. ; VIEGAS, C. V ; SELIG, P. M.		
trabalhoCompletoEmCongresso	2013		O moderador de comunidade de prática virtual em ambiente de inovação aberta: visão introdutória	CiKi - III Congresso Internacional do Conhecimento e Inovação	WILBERT, J. K. W. ; BOING, H. ; SOUZA, João Artur de ; DANDOLINI, G. A.		
trabalhoCompletoEmCongresso	2013		O PESQUISADOR CORPORATIVO COMO INTEGRADOR ENTRE EMPRESA E UNIVERSIDADE	Congresso Internacional do Conhecimento e Inovação	WILBERT, J. K. W. ; Mallmann, M. L. ; DUARTE, K. B. ; DANDOLINI, G. A.		
trabalhoCompletoEmCongresso	2013		A Interdisciplinaridade no ABC da Preservação Digital	Simpósio Internacional sobre Interdisciplinaridade no Ensino	YAMAOKA, E. J. ; GAUTHIER, F. A. O.		
trabalhoCompletoEmCongresso	2013		Publishing Multidimensional Statistical Linked Data	eKNOW 2013 : The Fifth International Conference on Information	Zancanaro, Airton ; PIZZOL, L. D. ; SPERONI, R. M. ; Todesco, José Leomar ; GAUTHIER, Fernando Álvaro Ostuni		
trabalhoCompletoEmCongresso	2013		Análise das metodologias para mensurar inovação	CIKI	ZENI, A. M. ; Freitas, F. ; MACEDO, M.		
trabalhoCompletoEmCongresso	2013		AVALIAÇÃO DO GRAU DE INOVAÇÃO EM EMPRESAS INTENSIVAS EM CONHECIMENTO: UM ESTUDO NO SETOR DE TI	SIMPEP 2013	ZENI, A. M. ; Freitas, F. ; MACEDO, M.		
trabalhoCompletoEmCongresso	2013		Avaliação do grau de inovação em empresas intensivas em conhecimento	III Congresso Internacional de Conhecimento e Inovação	ZENI, A. M. ; MACEDO, M. ; Freitas, F.		
trabalhoCompletoEmCongresso	2013		A GESTÃO DO CONHECIMENTO DA ERA DE FERRAMENTAS DE TI EM NUVEM	SIMPEP 2013	ZENI, A. M. ; MACEDO, M. ; Freitas, F.		
trabalhoCompletoEmCongresso	2013		A relação business intelligence e gestão do conhecimento na era de ferramentas de TI na nuvem	CIKI	ZENI, A. M. ; MACEDO, M. ; Freitas, F.		
trabalhoCompletoEmCongresso	2013		Interação entre a Teoria da Comunicação e o Compartilhamento do Conhecimento: estudo de caso das teses e dissertações defendidas em um Programa de Pós-Graduação Multidisciplinar em Engenharia e Gestão do Conhecimento	Congresso Nacional de Excelência em Gestão	ZIMMER, P. ; LUZ FILHO, S. S. da		
trabalhoCompletoEmCongresso	2013		Lacunas teóricas nos estudos sobre confiança e inovação: um olhar crítico sobre o conhecimento produzido em periódicos indexados na SCOPUS entre 2008 e 2012	XXXIII Encontro Nacional de Engenharia de Produção	ZIMMER, P. ; LUZ FILHO, S. S. da		
trabalhoCompletoEmCongresso	2013		Interação entre inovação e relações de confiança: uma análise de conteúdo da produção indexada na Scopus	XV Congresso da Associação Latino-Iberoamericana de Gestão de Tecnologia	ZIMMER, P. ; LUZ FILHO, S. S. da		
trabalhoCompletoEmCongresso	2013		Uma Experiência Interdisciplinar: trajetória profissional dos egressos do Programa de Pós-Graduação em Engenharia e Gestão do Conhecimento -UFSC	Simpósio Internacional sobre Interdisciplinaridade no Ensino	ZIMMER, P. ; SELIG, P. M. ; LUZ FILHO, S. S. da		
trabalhoCompletoEmCongresso	2013		Evoluções na marca gráfica do Festival de Dança de Joinville: identidade e diversidade	Graphica 2013: XXI Simpósio Nacional de Geometria Descritiva e Desenho Técnico; X International Conference Graphics Engeneering for Arts and Design	ZWIRTES, A. M. ; Perassi, R.		
resumoExpandidoEmCongresso	2013	Educação a Distância: reflexões a luz de uma análise bibliométrica	Anais do III Colóqui Luso-Brasileiro de Educação a Distância e Elearning, 2013, Lisboa. III Colóqui Luso-Brasileiro de Educação a Distância e Elearning	CATAPAN, A. H.; SARTORI, V. ; Silva, A. R.		
resumoExpandidoEmCongresso	2013	Análise de Sistemas Regionais de Inovação e Santa Catarina	FOCIEST VII, 2013, Joinville. FOCIEST VII	ESTRASZULAS, T. S. ; MACEDO, M.		
resumoExpandidoEmCongresso	2013	Heraclito: a Dialectical Tutor for Logic	Portuguese Conference on Artificial Intelligence, EPIA, 2013, Açores/Portugal. 16th Portuguese Conference on Artificial Intelligence, EPIA 2013, Proceedings. New York: Springer	Gluz, J. C. ; PENTEADO, F. ; MOSSMANN, M. ; GOMES, L. ; VIcari, Rosa		
resumoExpandidoEmCongresso	2013	Mangrove restoration in Brazil: Restoring old paradigms to strengthen future outcomes	1st Guyana Mangrove Forum Georgetown (Guyana) - Restoring and Managing Mangrove Ecosystems in a changing world, 2013, Georgetown. Book of Abstracts of the 1st Guyana Mangrove Forum Georgetown (Guyana) - Restoring and Managing Mangrove Ecosystems in a changing world	ROVAI, A. S. ; PAGLIOSA, P. R. ; BARUFI, J. B. ; SOUZA, R. S. ; TORRES, M. A. ; HORTA JUNIOR, P. A. ; III, R. R. L. ; SORIANO-SIERRA, E. J. ; CINTRON, G. ; NOVELLI, Y. S. ; MENEGUINI, R. P.		
resumoExpandidoEmCongresso	2013	Repositório institucional como sistema técnico-social: composição, ambiente e estrutura	Encontro Nacional de Pesquisa em Ciência da Informação (ENANCIB), XIV, 2013, Florianópolis-SC. Anais	SILVA, Luciana Mara ; FORMOSO, R. G. ; KERN, V. M.		
