1291453676215259
9450656500678801
9309852020275972
5968277283151495
7340498779482990
4007512293061299
3942924352722374
9944887484098543
7283266294803882
6067809162522750
4667394765104255
9026558448518034
5736356273033652
5183392166876146
4639086492347803
9906894972452817
8331771311191246
9916588298312326
4445340232693548
5866881378328643
1457780611246233
4455422053321491
2539934454517047
4411555357116077
4900565459364275
4834011530700633
8841113239645760
5098313138514050
3370111653429241
1758724413801654
2583464549558231
0083694169452379
5732783206082038
6654173989547259
8679182448370232
2677616430037792
6804330341401151
2563023038415859
4777298613817310
8059148083624149
1880377231722847
1245060231128858
7211268481398938
3514821940003826
6160761539163880
2433732826278230
4514078816861791
7153590399035351
2191415186368878
7285086037443803
5016119298122922
0399871372793521
6395346342569490
2273330697461036
8858366413076038
2941335797138677
4408245995524032
8357205683967768
0107727024654188
3380880692108970
7026969540049771
5900576762082210
5093383182385338
2709477242481610
5260249217149507
6654735909223836
9657496459525365
9140136724972740
4397982308559255
1997081203278902
4182991093279453
4353719005526350
4251219281955392
3762091453068901
5025251887185654
8653053694824805
5197630064436738
7279085196985116
2333794966860226
5587890154156833
3628223248832085
2845353851318732
2016353138272838
6749949106384192
7271033321880162
1319023655989041
8838851869543457
0050911068627632
3883536502592508
1197393060469712
0878410768350416
5104573307305494
0937027790051680
4394374515273599
6067211941209460
1675315368809161
9338964066152352
4764993345719234
1486004582806497
3792997214276145
8522485526692626
9464360572868758
1886459532412260
6724702305350914
3973615940199264
4583506896107343
1859027020843429
3717266550674021
9732857616502177
5167203367542704
0832298305352059
9506136012570087
8311058933263053
8755525548378705
5132812297496991
1273273559157254
1880005512422802
2514982537387903
3547201296103445
7501670571026001
9113029921599086
6307729519818105
9746983508214859
0704821040372884
7112069461031926
2780757160695166
6324790827842684
5764635299335289
0179070058662351
7275608974248322
1039942274833696
1182419403152450
0794581381523125
1112395110229337
4699557517804554
7227767555433465
4440310160874109
3659697507980563
5013857600463891
3065168914755480
3559083413253401
3982427601169824
7238752086932293
0736704249866363
9375639768929991
3092444092031580
8662450983131237
1388068308789579
7279787274611008
2534601801498544
0307859719242030
3515832241340502
3230849665453611
7500109652248564
6392305131339969
3146460913165531
0427736982554233
6196255018259461
6267716868501584
6981711788951887
9281330146583065
4715070196182654
6078964891704436
5372002792799857
0637811527251299
9232567042677107
7692617542610686
5922134637978789
4816299986065788
2318413245910780
6327098263064552
4821077407620769
0370832655988299
9579859673529534
6826790692234990
7015010540283703
0033898078248794
3260077562370842
9661159976349656
2539825151216671
6385281823901259
6278242900635253
3638337609850834
4798038466270107
9152129362414050
7741461754349903
7674934224612535
5337563051184403
0872697653187302
1635475892372110
1720976876119389
3864761697400948
2527832479056723
6850029099624828
6609138567701393
8670584898353787
8167526156938399
