strict graph grafo2 {
	graph [bb="0,0,3269.5,145",
		id=grafo2,
		overlap=False
	];
	node [fontsize=8,
		label="\N",
		shape=rectangle,
		style=filled
	];
	0	 [URL="http://lattes.cnpq.br/1888940152771113",
		color="#17272B",
		fontcolor="#FFFFFF",
		height=0.23611,
		label="Lidia M. Pepe de Moraes [3]",
		pos="131.5,136.5",
		width=1.5139];
	7	 [URL="http://lattes.cnpq.br/6464993141431276",
		color="#17272B",
		fontcolor="#FFFFFF",
		height=0.23611,
		label="João R. Moreira de Almeida [1]",
		pos="59.5,72.5",
		width=1.6528];
	0 -- 7	 [fontsize=8,
		label=1.0,
		lp="106,104.5",
		pos="122.67,127.9 108.85,116 82.264,93.102 68.401,81.165"];
	20	 [URL="http://lattes.cnpq.br/8228010543041248",
		color="#17272B",
		fontcolor="#FFFFFF",
		height=0.23611,
		label="Fernando A. Gonçalves Torres [4]",
		pos="155.5,8.5",
		width=1.75];
	0 -- 20	 [fontsize=8,
		label=3.0,
		lp="151,72.5",
		pos="132.93,128 137.19,105.64 149.76,39.637 154.05,17.125"];
	7 -- 20	 [fontsize=8,
		label=1.0,
		lp="119,40.5",
		pos="71.271,63.898 89.696,51.998 125.15,29.102 143.63,17.165"];
	1	 [URL="http://lattes.cnpq.br/1705430650855494",
		color="#17272B",
		fontcolor="#FFFFFF",
		height=0.23611,
		label="Leonardo Giordano Paterno [0]",
		pos="262.5,136.5",
		width=1.625];
	2	 [URL="http://lattes.cnpq.br/1412260545035778",
		color="#17272B",
		fontcolor="#FFFFFF",
		height=0.23611,
		label="Jurandir Rodrigues de Souza [0]",
		pos="399.5,136.5",
		width=1.6667];
	3	 [URL="http://lattes.cnpq.br/5311560340084408",
		color="#17272B",
		fontcolor="#FFFFFF",
		height=0.23611,
		label="Juliana Petrocchi Rodrigues [0]",
		pos="536.5,136.5",
		width=1.6389];
	4	 [URL="http://lattes.cnpq.br/7324869293866597",
		color="#17272B",
		fontcolor="#FFFFFF",
		height=0.23611,
		label="José V. Elias Bernardi [0]",
		pos="663.5,136.5",
		width=1.375];
	5	 [URL="http://lattes.cnpq.br/5126547270872842",
		color="#17272B",
		fontcolor="#FFFFFF",
		height=0.23611,
		label="José J. Linares León [0]",
		pos="777.5,136.5",
		width=1.2917];
	6	 [URL="http://lattes.cnpq.br/8243497871129180",
		color="#17272B",
		fontcolor="#FFFFFF",
		height=0.23611,
		label="Joel Camargo Rubim [0]",
		pos="890.5,136.5",
		width=1.3333];
	8	 [URL="http://lattes.cnpq.br/1505814835374901",
		color="#17272B",
		fontcolor="#FFFFFF",
		height=0.23611,
		label="Jez W. Batista Braga [0]",
		pos="1004.5,136.5",
		width=1.3194];
	9	 [URL="http://lattes.cnpq.br/6403427750833514",
		color="#17272B",
		fontcolor="#FFFFFF",
		height=0.23611,
		label="Jader Galba Busato [0]",
		pos="1115.5,136.5",
		width=1.25];
	10	 [URL="http://lattes.cnpq.br/6040333497171664",
		color="#17272B",
		fontcolor="#FFFFFF",
		height=0.23611,
		label="Grace Ferreira Ghesti [1]",
		pos="1227.5,136.5",
		width=1.3472];
	15	 [URL="http://lattes.cnpq.br/1214716137780644",
		color="#17272B",
		fontcolor="#FFFFFF",
		height=0.23611,
		label="Nádia Skorupa Parachin [1]",
		pos="1227.5,72.5",
		width=1.4722];
	10 -- 15	 [fontsize=8,
		label=1.0,
		lp="1233,104.5",
		pos="1227.5,127.9 1227.5,116 1227.5,93.102 1227.5,81.165"];
	11	 [URL="http://lattes.cnpq.br/5464023129390042",
		color="#17272B",
		fontcolor="#FFFFFF",
		height=0.23611,
		label="Fernando Fabriz Sodré [0]",
		pos="1344.5,136.5",
		width=1.4028];
	12	 [URL="http://lattes.cnpq.br/9861081561303546",
		color="#17272B",
		fontcolor="#FFFFFF",
		height=0.23611,
		label="Alexandre Perez Umpierre [0]",
		pos="1470.5,136.5",
		width=1.5833];
	13	 [URL="http://lattes.cnpq.br/4851548247475082",
		color="#17272B",
		fontcolor="#FFFFFF",
		height=0.23611,
		label="Paulo A. F. Herbert Ribeiro [0]",
		pos="1604.5,136.5",
		width=1.625];
	14	 [URL="http://lattes.cnpq.br/7421096523152034",
		color="#17272B",
		fontcolor="#FFFFFF",
		height=0.23611,
		label="Adriano Otávio Maldaner [0]",
		pos="1736.5,136.5",
		width=1.5278];
	16	 [URL="http://lattes.cnpq.br/1190292525097613",
		color="#17272B",
		fontcolor="#FFFFFF",
		height=0.23611,
		label="Maria S. Soares Felipe [1]",
		pos="235.5,72.5",
		width=1.4028];
	16 -- 20	 [fontsize=8,
		label=1.0,
		lp="206,40.5",
		pos="225.69,63.898 210.34,51.998 180.79,29.102 165.39,17.165"];
	17	 [URL="http://lattes.cnpq.br/1367227325248750",
		color="#17272B",
		fontcolor="#FFFFFF",
		height=0.23611,
		label="Maria Lucilia dos Santos [0]",
		pos="1863.5,136.5",
		width=1.5];
	18	 [URL="http://lattes.cnpq.br/6449987900688958",
		color="#17272B",
		fontcolor="#FFFFFF",
		height=0.23611,
		label="Marcos Juliano Prauchner [0]",
		pos="1991.5,136.5",
		width=1.5417];
	19	 [URL="http://lattes.cnpq.br/5077323083768252",
		color="#17272B",
		fontcolor="#FFFFFF",
		height=0.23611,
		label="Marcelo H. Sousa Ferreira [0]",
		pos="2121.5,136.5",
		width=1.5694];
	21	 [URL="http://lattes.cnpq.br/",
		color="#17272B",
		fontcolor="#FFFFFF",
		height=0.23611,
		label="[Nome-nao-identificado] [0]",
		pos="2249.5,136.5",
		width=1.4861];
	22	 [URL="http://lattes.cnpq.br/0115124958520241",
		color="#17272B",
		fontcolor="#FFFFFF",
		height=0.23611,
		label="Valéria Regina Bellotto [0]",
		pos="2373.5,136.5",
		width=1.4444];
	23	 [URL="http://lattes.cnpq.br/4220445584776352",
		color="#17272B",
		fontcolor="#FFFFFF",
		height=0.23611,
		label="Sônia Maria de Freitas [0]",
		pos="2493.5,136.5",
		width=1.3889];
	24	 [URL="http://lattes.cnpq.br/9888455998189405",
		color="#17272B",
		fontcolor="#FFFFFF",
		height=0.23611,
		label="Fabrício M. Souza Silva [0]",
		pos="2614.5,136.5",
		width=1.4722];
	25	 [URL="http://lattes.cnpq.br/7735605194095870",
		color="#17272B",
		fontcolor="#FFFFFF",
		height=0.23611,
		label="Fábio Moreira da Silva [0]",
		pos="2736.5,136.5",
		width=1.4167];
	26	 [URL="http://lattes.cnpq.br/4578658799634346",
		color="#17272B",
		fontcolor="#FFFFFF",
		height=0.23611,
		label="Simone Monteiro e Silva [0]",
		pos="2859.5,136.5",
		width=1.5];
	27	 [URL="http://lattes.cnpq.br/7612104033806948",
		color="#17272B",
		fontcolor="#FFFFFF",
		height=0.23611,
		label="Sarah Silva Brum [0]",
		pos="2974.5,136.5",
		width=1.1806];
	28	 [URL="http://lattes.cnpq.br/8997745775645416",
		color="#17272B",
		fontcolor="#FFFFFF",
		height=0.23611,
		label="Paulo A. Ziani Suarez [0]",
		pos="3084.5,136.5",
		width=1.3611];
	29	 [URL="http://lattes.cnpq.br/6580089254529584",
		color="#17272B",
		fontcolor="#FFFFFF",
		height=0.23611,
		label="Ângelo H. de Lira Machado [0]",
		pos="3210.5,136.5",
		width=1.6389];
}
