1888940152771113
1705430650855494
1412260545035778
5311560340084408
7324869293866597
5126547270872842
8243497871129180
6464993141431276
1505814835374901
6403427750833514
6040333497171664
5464023129390042
9861081561303546
4851548247475082
7421096523152034
1214716137780644
1190292525097613
1367227325248750
6449987900688958
5077323083768252
8228010543041248

0115124958520241
4220445584776352
9888455998189405
7735605194095870
4578658799634346
7612104033806948
8997745775645416
6580089254529584
