artigoEmPeriodico	Lidia Maria Pepe de Moraes	2013	http://dx.doi.org/10.1186/2193-1801-2-441	pPCV, a versatile vector for cloning PCR products	SpringerPlus	JANNER, CHRISTIANE R ; BRITO, ANA LÍVIA ; Moraes, Lidia Maria ; REIS, VIVIANE CB ; TORRES, FERNANDO AG	Qualis nao identificado	SpringerPlus
artigoEmPeriodico	Lidia Maria Pepe de Moraes	2013	http://dx.doi.org/10.1186/2193-1801-2-656	A novel promisingTrichoderma harzianum strain for the production of a cellulolytic complex using sugarcane bagasse in natura	SpringerPlus	BENOLIEL, Bruno ; TORRES, FERNANDO ARARIPE ; De Moraes, Lidia Maria	Qualis nao identificado	SpringerPlus
artigoEmPeriodico	Leonardo Giordano Paterno	2013	http://dx.doi.org/10.1007/s11837-013-0608-1	Layer-by-Layer Enabled Nanomaterials for Chemical Sensing and Energy Conversion	JOM (Warrendale)	Paterno, Leonardo G.; Soler, Maria A. G.	Qualis nao identificado	JOM (Warrendale)
artigoEmPeriodico	Leonardo Giordano Paterno	2013		Layer-by-Layer Assembled Cobalt Ferrite Nanoparticles for Chemical Sensing	Journal of Nanofluids	ALCANTARA, G ; PATERNO, L. G. ; FONSECA, F. J. ; SILVA, M. A. P. ; MORAIS, P. C. ; Soler, M.A.G.	B4	
artigoEmPeriodico	Leonardo Giordano Paterno	2013	http://dx.doi.org/10.1016/j.jmmm.2013.07.054	Morphology and magnetism of multifunctional nanostructured - films: Simulation and experiments	Journal of Magnetism and Magnetic Materials	NEUMANN, R.F. ; BAHIANA, M. ; Paterno, L.G. ; Soler, M.A.G. ; SINNECKER, J.P. ; WEN, J.G. ; Morais, P.C.	A2	
artigoEmPeriodico	Leonardo Giordano Paterno	2013	http://dx.doi.org/10.1039/c3cp53602e	Dielectric properties of cobalt ferrite nanoparticles in ultrathin nanocomposite films	PCCP. Physical Chemistry Chemical Physics (Print)	Alcantara, Gustavo B. ; Paterno, Leonardo G. ; Fonseca, Fernando J. ; Pereira-da-Silva, Marcelo A. ; Morais, Paulo C. ; Soler, Maria A. G.	A1	
artigoEmPeriodico	Jurandir Rodrigues de Souza	2013	http://dx.doi.org/10.1016/j.microc.2012.05.014	Development and validation of a voltammetric method for determination of total phenolic acids in cotton cultivars	Microchemical Journal (Print)	MAGARELLI, GABRIELLA ; da Silva, Jonatas Gomes ; SOUSA FILHO, IDIO ALVES DE ; LOPES, INAYAN SÉPHORA DOURADO ; SOUZADE, JURANDIR RODRIGUES ; HOFFMANN, LUCIA VIEIRA ; de Castro, Clarissa Silva Pires	A2	
artigoEmPeriodico	José Vicente Elias Bernardi	2013	http://dx.doi.org/10.3390/ijerph10062150	Fish Consumption during Pregnancy, Mercury Transfer, and Birth Weight along the Madeira River Basin in Amazonia	International Journal of Environmental Research and Public Health	Marques, Rejane ; BERNARDI, JOSÉ ; DÓREA, JOSÉ ; BRANDÃO, KATIANE ; BUENO, LUCÉLIA ; LEÃO, RENATA ; MALM, Olaf	B1	
artigoEmPeriodico	José Vicente Elias Bernardi	2013		Flood pulse and spatial dynamics of mercury in sediments in Puruzinho lake, Brazilian Amazon.	Acta Amazonica (Impresso)	ALMEIDA, R. ; Bernardi, J.V.E. ; OLIVEIRA, R.C. ; De Carvalho, D.P. ; MANZATTO, A.G. ; LACERDA, L.D.	A2	
artigoEmPeriodico	José Vicente Elias Bernardi	2013	http://dx.doi.org/10.1007/s00128-013-1093-5	Breast Milk Lead Concentrations of Mothers Living Near Tin Smelters	Bulletin of Environmental Contamination and Toxicology	MARQUES, REJANE C. ; MOREIRA, MARIA DE FÁTIMA R. ; BERNARDI, JOSÉ VICENTE E. ; DÓREA, JOSÉ G.	A2	
artigoEmPeriodico	José Vicente Elias Bernardi	2013	http://dx.doi.org/10.1007/s12011-013-9743-3	Mercury Transfer During Pregnancy and Breastfeeding: Hair Mercury Concentrations as Biomarker	Biological Trace Element Research	MARQUES, R.C. ; Bernardi, J.V.E. ; Dórea, José G. ; LEÃO, RENATA S. ; Malm, Olaf	B1	
artigoEmPeriodico	José Joaquín Linares León	2013	http://dx.doi.org/10.1007/s10800-012-0496-z	Ethanol oxidation on a high temperature PBI-based DEFC using Pt/C, PtRu/C and Pt3Sn/C as catalysts	Journal of Applied Electrochemistry	LINARES, JOSÉ J.; Zignani, Sabrina C. ; ROCHA, THAIRO A. ; Gonzalez, Ernesto R.	A2	
artigoEmPeriodico	José Joaquín Linares León	2013	http://dx.doi.org/10.1016/j.ijhydene.2012.06.113	Different anode catalyst for high temperature polybenzimidazole-based direct ethanol fuel cells	International Journal of Hydrogen Energy	LINARES, JOSÉ J.; ROCHA, THAIRO A. ; ZIGNANI, SABRINA ; Paganin, Valdecir A. ; Gonzalez, Ernesto R.	A1	
artigoEmPeriodico	José Joaquín Linares León	2013	http://dx.doi.org/10.1007/s10800-013-0572-z	Nb as an influential element for increasing the CO tolerance of PEMFC catalysts	Journal of Applied Electrochemistry	ROCHA, THAIRO A. ; IBANHI, FELIPE ; COLMATI, FLÁVIO ; LINARES, JOSÉ J. ; Paganin, Valdecir A. ; Gonzalez, Ernesto R.	A2	
artigoEmPeriodico	José Joaquín Linares León	2013	http://dx.doi.org/10.2174/22113525113119990009	Nanomaterials for Improving the Properties of Polymeric Electrolyte Membranes in Energy Managing Devices	Nanoscience & Nanotechnology-Asia	BATTIROLA, L. C. ; LINARES, J.J.	Qualis nao identificado	Nanoscience & Nanotechnology-Asia
artigoEmPeriodico	José Joaquín Linares León	2013	http://dx.doi.org/10.1016/j.ijhydene.2013.04.162	Endurance study of a solid polymer electrolyte direct ethanol fuel cell based on a Pt-Sn anode catalyst	International Journal of Hydrogen Energy	ZIGNANI, S.C. ; BAGLIO, V. ; LINARES, J.J. ; MONFORTE, G. ; GONZALEZ, E.R. ; ARICÒ, A.S.	A1	
artigoEmPeriodico	José Joaquín Linares León	2013	http://dx.doi.org/10.1007/s12678-013-0162-1	NiMnOx/C: A Non-noble Ethanol-Tolerant Catalyst for Oxygen Reduction in Alkaline Exchange Membrane DEFC	Electrocatalysis (Print)	GARCIA, AMANDA C. ; LINARES, JOSE J. ; CHATENET, MARIAN ; TICIANELLI, EDSON A.	B4	
artigoEmPeriodico	José Joaquín Linares León	2013	http://dx.doi.org/10.1149/2.068401jes	Glycerol Utilization in Microbial Fuel Cells: Conditioning Stage and Influence of the Glycerol Concentration	Journal of the Electrochemical Society	GUIMARAES, A. Q. ; Linares, J. J.	A1	
artigoEmPeriodico	João Ricardo Moreira de Almeida	2013	http://dx.doi.org/10.1016/j.rser.2012.12.058	Biodiesel production in Brazil and alternative biomass feedstocks	Renewable & Sustainable Energy Reviews	BERGMANN, J.C ; TUPINAMBÁ, D.D ; COSTA, O.Y.A ; ALMEIDA, J.R.M ; BARRETO, C.C ; QUIRINO, B.F	A1	
artigoEmPeriodico	Jez Willian Batista Braga	2013	http://dx.doi.org/10.1016/j.microc.2012.03.008	Development and validation of a chemometric method for direct determination of hydrochlorothiazide in pharmaceutical samples by diffuse reflectance near infrared spectroscopy	Microchemical Journal (Print)	Ferreira, Marcus H. ; Braga, Jez W.B. ; Sena, Marcelo M.	A2	
artigoEmPeriodico	Jez Willian Batista Braga	2013	http://dx.doi.org/10.1515/hf-2011-0207	Assessment of total phenols and extractives of mahogany wood by near infrared spectroscopy (NIRS)	Holzforschung (Berlin. Print)	da Silva, Allan Ribeiro ; MONTEIRO PASTORE, TEREZA CRISTINA ; Batista Braga, Jez Willian ; Davrieux, Fabrice ; ARAKAKI OKINO, ESMERALDA YOSHICO ; RAUBER CORADIN, VERA TERESINHA ; ALVES CAMARGOS, JOSÉ ARLETE ; do Prado, Alexandre Gustavo Soares	B1	
artigoEmPeriodico	Jez Willian Batista Braga	2013	http://dx.doi.org/10.1021/ac3034147	Correlation of cocaine hydrochloride samples seized in Brazil based on determination of residual solvents: an innovative chemometric method for determination of linkage thresholds.	Analytical Chemistry (Washington)	ZACCA, J. J. ; GROBÉRIO, T. S. ; Maldaner, Adriano O. ; Vieira, Maurício L. ; BRAGA, J. W. B.	A1	
artigoEmPeriodico	Jader Galba Busato	2013	http://dx.doi.org/10.1590/s2197-00252013000100003	Plant physiology as affected by humified organic matter	Theoretical and Experimental Plant Physiology	Zandonadi, Daniel Basílio ; Santos, Mirella Pupo ; Busato, Jader Galba ; PERES, L. E. P. ; Façanha, Arnoldo Rocha	Qualis nao identificado	Theoretical and Experimental Plant Physiology
artigoEmPeriodico	Jader Galba Busato	2013	http://dx.doi.org/10.2136/sssaj2013.06.0211	On Critical Coagulation Concentration Theory and Grain Size Analysis of Oxisols	Soil Science Society of America Journal	LEÃO, TAIRONE PAIVA ; BARROS GUIMARÃES, THALITA LUZIA ; DE FIGUEIREDO, CÍCERO CÉLIO ; GALBA BUSATO, JADER ; SATO BREYER, HARUMI	A2	
resumoExpandidoEmCongresso	Jader Galba Busato	2013	CARBON POOLS AND SOIL FERTILITY IN AN OXISOL FROM CERRADO UNDER DIFFERENT COFFEE PRODUCTION SYSTEMS	10º Encontro Brasileiro de Substâncias Húmicas, 2013, Goiânia. EBSH	MARINHO, E. B. ; Zandonadi, Daniel Basílio ; BENEDITO, L. E. C. ; SOUZA, R. B. ; Figueiredo, Cícero Célio ; BUSATO, Jader Galba		
resumoExpandidoEmCongresso	Jader Galba Busato	2013	PRODUÇÃO ORGÂNICA DE ALFACE ROMANA COM BIOFERTILIZANTES ENRIQUECIDOS COM SUBSTÂNCIAS HÚMICAS	10º Encontro Brasileiro de Substâncias Húmicas, 2013, Goiânia. EBSH	Zandonadi, Daniel Basílio ; SOUZA, R. B. ; BUSATO, Jader Galba ; SILVA, J. ; MATTOS, L. M.		
artigoEmPeriodico	Grace Ferreira Ghesti	2013	http://dx.doi.org/10.1016/j.apcata.2012.10.009	Investigation of biodiesel production by HUSY and Ce/HUSY zeolites: Influence of structural and acidity parameters	APPLIED CATALYSIS A-GENERAL	Borges, L. D. ; MOURA, NAYARA N. ; DIAS, S. C. L. ; COSTA, A.A. ; BRAGA, P.R.S. ; DIAS, José A. ; GHESTI, G. F. ; MACEDO, J. L.	A1	
trabalhoCompletoEmCongresso	Grace Ferreira Ghesti	2013		Preparação, Caracterização e Uso de Dolomita Mineral como Catalisador Heterogêneo na Produção de Biodiesel via Reação de Transesterificação de Óleo Residual	17º Congresso Brasileiro de Catálise e VII Congresso de Catálise do Mercosul	Gaio, L.M. ; RODRIGUES, J. P. ; MACEDO, J. L. ; GHESTI, G. F.		
resumoExpandidoEmCongresso	Grace Ferreira Ghesti	2013	Dolomita mineral como catalisador heterogêneo na reação de transesterifcação de óleo vegetal residual	8º Congresso Internacional de Bioenergia, 2013, São Paulo - SP. Congresso Internacional de Bioenergia	GHESTI, G. F.; GAIO, L. M. ; RODRIGUES, J. P. ; MACEDO, J. L.		
artigoEmPeriodico	Fernando Fabriz Sodré	2013	http://dx.doi.org/10.1590/S0100-40422013000200016	Drogas de abuso em águas naturais e residuárias urbanas: ocorrência, determinação e aplicações forenses	Química Nova (Impresso)	FEITOSA, R. S. ; SODRÉ, F. F. ; MALDANER, A. O.	A2	
artigoEmPeriodico	Alexandre Perez Umpierre	2013	http://dx.doi.org/10.5935/1984-6835.20130010	Glycerochemistry and Glycerol Valorization	Revista Virtual de Química	UMPIERRE, A. P.; MACHADO, F.	B2	
artigoEmPeriodico	Adriano Otávio Maldaner	2013	http://dx.doi.org/10.1021/ac3034147	Correlation of cocaine hydrochloride samples seized in Brazil based on determination of residual solvents: an innovative chemometric method for determination of linkage thresholds.	Analytical Chemistry (Washington)	Zacca, Jorge J. ; GROBÉRIO, TATIANE S. ; Maldaner, Adriano O. ; VIEIRA, MAURÍCIO L. ; BRAGA, JEZ W. B.	A1	
artigoEmPeriodico	Adriano Otávio Maldaner	2013	http://dx.doi.org/10.1590/s0100-40422013000200016	Drogas de abuso em águas naturais e residuárias urbanas: ocorrência, determinação e aplicações forenses	Química Nova (Impresso)	FEITOSA, RAFAEL SILVA ; SODRÉ, FERNANDO FABRIZ ; MALDANER, Adriano Otávio	A2	
artigoEmPeriodico	Nádia Skorupa Parachin	2013		Critical Aspects to be Considered Prior to Large-Scale Production of Peptides	Current Protein and Peptide Science	MULDER, KELLY CRISTINA ; VIANA, ANTÔNIO AMÉRICO BARBOSA ; X, M. ; Parachin, Nádia Skorupa	A2	
artigoEmPeriodico	Nádia Skorupa Parachin	2013	http://dx.doi.org/10.1016/j.biortech.2013.11.042	Utilization of glycerin byproduct derived from soybean oil biodiesel as a carbon source for heterologous protein production in Pichia pastoris	Bioresource Technology	ANASTÁCIO, G.S. ; SANTOS, K.O. ; SUAREZ, P.A.Z. ; TORRES, F.A.G. ; de Marco, J.L. ; PARACHIN, N.S.	A1	
artigoEmPeriodico	Maria Sueli Soares Felipe	2013	http://dx.doi.org/10.1166/jbn.2013.1491	Nanobiotechnological Approaches to Delivery of DNA Vaccine Against Fungal Infection	Journal of Biomedical Nanotechnology	Ribeiro, A. M. ; SOUZA, A. C. O. ; Amaral, A. C. ; VASCONCELOS, N. M. ; JERÔNIMO, M. S. ; CARNEIRO, F. P. ; FACCIOLI, L. H. ; FELIPE, M. S. S. ; SILVA, C. L. ; Bocca, A. L.	A1	
artigoEmPeriodico	Maria Sueli Soares Felipe	2013	http://dx.doi.org/10.1128/ec.05052-11	Molecular and Morphological Data Support the Existence of a Sexual Cycle in Species of the Genus Paracoccidioides	Eukaryotic Cell	TEIXEIRA, M. D. M. ; THEODORO, R. C. ; DERENGOWSKI, L. D. S. ; NICOLA, A. M. ; BAGAGLI, E. ; FELIPE, M. S.	Qualis nao identificado	Eukaryotic Cell
artigoEmPeriodico	Maria Sueli Soares Felipe	2013	http://dx.doi.org/10.1093/nar/gkt484	The Genome of Anopheles darlingi, the main neotropical malaria vector	Nucleic Acids Research	MARINOTTI, O	A1	
artigoEmPeriodico	Maria Sueli Soares Felipe	2013	http://dx.doi.org/10.1371/journal.pntd.0002281	Phylogenetic Analysis Reveals a High Prevalence of Sporothrix brasiliensis in Feline Sporotrichosis Outbreaks	PLoS Neglected Tropical Diseases (Online)	RODRIGUES, ANDERSON MESSIAS ; DE MELO TEIXEIRA, MARCUS ; DE HOOG, G. SYBREN ; SCHUBACH, TÂNIA MARIA PACHECO ; PEREIRA, SANDRO ANTONIO ; FERNANDES, GEISA FERREIRA ; BEZERRA, LEILA MARIA LOPES ; Felipe, Maria Sueli ; DE CAMARGO, ZOILO PIRES	A1	
artigoEmPeriodico	Maria Sueli Soares Felipe	2013	http://dx.doi.org/10.2217/fmb.13.68	Paracoccidioidomycosis: eco-epidemiology, taxonomy and clinical and therapeutic issues	Future Microbiology (Print)	BOCCA, Anamelia Lorenzetti ; AMARAL, ANDRÉ CORRÊA ; Teixeira, Marcus Melo ; SATO, PAULA ; SHIKANAI-YASUDA, MARIA APARECIDA ; SOARES FELIPE, MARIA SUELI	A2	
artigoEmPeriodico	Maria Sueli Soares Felipe	2013	http://dx.doi.org/10.1155/2013/148317	A Recombinant Multiepitope Protein for Hepatitis B Diagnosis	BioMed Research International	DE SOUZA, MARILEN QUEIROZ ; Galdino, Alexsandro Sobreira ; DOS SANTOS, JOSÉ CARLOS ; SOARES, MARCUS VINICIUS ; NÓBREGA, YANNA C. DE ; ÁLVARES, ALICE DA CUNHA MORALES ; DE FREITAS, SONIA MARIA ; TORRES, Fernando Araripe Gonçalves ; Torres, Fernando Araripe Gonçalves ; Felipe, MSS	Qualis nao identificado	BioMed Research International
artigoEmPeriodico	Maria Sueli Soares Felipe	2013	http://dx.doi.org/10.1007/s11046-012-9599-7	DNA-hsp65 Vaccine as Therapeutic Strategy to Treat Experimental Chromoblastomycosis Caused by Fonsecaea Pedrosoi	Mycopathologia (Dordrecht. Online)	SIQUEIRA, ISAQUE MEDEIROS ; RIBEIRO, ALICE MELO ; Medeiros Nóbrega, Yanna Karla ; SIMON, KARINA SMIDT ; SOUZA, ANA CAMILA OLIVEIRA ; JERÔNIMO, MÁRCIO SOUZA ; Neto, Florêncio Figueiredo Cavalcante ; SILVA, Célio Lopes ; Felipe, MSS ; BOCCA, A. L. ; Bocca, Anamélia Lorenzetti	B1	
artigoEmPeriodico	Maria Sueli Soares Felipe	2013	http://dx.doi.org/10.1016/j.mmcr.2013.02.004	Pulmonary cavitation and skin lesions mimicking tuberculosis in a HIV negative patient caused by Sporothrix brasiliensis	Medical Mycology Case Reports	OROFINO-COSTA, ROSANE ; UNTERSTELL, NATASHA ; CARLOS GRIPP, ALEXANDRE ; DE MACEDO, PRISCILA MARQUES ; BROTA, ARLES ; DIAS, EMYLLI ; TEIXEIRA, M. M. ; DE MELO TEIXEIRA, MARCUS ; Felipe, MSS ; BERNARDES-ENGEMANN, ANDRÉA R ; LOPES-BEZERRA, LEILA MARIA	Qualis nao identificado	Medical Mycology Case Reports
artigoEmPeriodico	Maria Sueli Soares Felipe	2013	http://dx.doi.org/10.1371/journal.pone.0075656	Differences in Cell Morphometry, Cell Wall Topography and Gp70 Expression Correlate with the Virulence of Sporothrix brasiliensis Clinical Isolates	Plos One	CASTRO, RAFAELA A. ; KUBITSCHEK-BARREIRA, PAULA H. ; TEIXEIRA, PEDRO A. C. ; SANCHES, GLENDA F. ; TEIXEIRA, Marcus M. ; QUINTELLA, LEONARDO P. ; ALMEIDA, SANDRO R. ; COSTA, ROSANE O. ; CAMARGO, ZOILO P. ; FELIPE, MARIA S. S. ; DE SOUZA, WANDERLEY ; LOPES-BEZERRA, LEILA M.	A1	
artigoEmPeriodico	Maria Sueli Soares Felipe	2013		Phospholipase gene expression during Paracoccidioides brasiliensis morphological transition and infection.	Memórias do Instituto Oswaldo Cruz (Impresso)	Soares DA ; Oliveira MB ; Evangelista AF ; VENÂNCIO. E. J. ; ANDRADE, R. V. ; FELIPE, M S ; PETROFEZA, S. S.	A1	
artigoEmPeriodico	Maria Sueli Soares Felipe	2013	http://dx.doi.org/10.2174/1389203711209070632	Nanobiotechnology: An Efficient Approach to Drug Delivery of Unstable Biomolecules	Current Protein and Peptide Science	AMARAL, A.C. ; Felipe, M.S.S.	A2	
artigoEmPeriodico	Maria Sueli Soares Felipe	2013	http://dx.doi.org/10.2174/1877912311303010008	Nanotechnological Strategies to Improve Antifungal Therapy	Recent Patents on Nanomedicine	AMARAL, A. ; FELIPE, M.	Qualis nao identificado	Recent Patents on Nanomedicine
artigoEmPeriodico	Maria Sueli Soares Felipe	2013	http://dx.doi.org/10.3109/13693786.2013.794311	<i>Paracoccidioides lutzii</i> sp. nov.: biological and clinical implications	Medical Mycology (Oxford. Print)	TEIXEIRA, Marcus de Melo ; THEODORO, RAQUEL CORDEIRO ; OLIVEIRA, FABIANA FREIRE MENDES DE ; MACHADO, GABRIEL CAPELLA ; HAHN, ROSANE CHRISTINE ; BAGAGLI, EDUARDO ; SAN-BLAS, Gioconda ; Felipe, Maria Sueli Soares	A2	
trabalhoCompletoEmCongresso	Marcos Juliano Prauchner	2013		Tailoring the porosity of biomass-based activated carbons intended for methane storage	Annual World Conference on Carbon	Prauchner, M. J.; RODRIGUEZ-REINOSO, F.		
artigoEmPeriodico	Fernando Araripe Gonçalves Torres	2013	http://dx.doi.org/10.1590/1414-431x20133024	Culture of bovine ovarian follicle wall sections maintained the highly estrogenic profile under basal and chemically defined conditions	Brazilian journal of medical and biological research	Vasconcelos, RB ; SALLES, L.P. ; Oliveira e Silva, I ; Gulart, L. V. M. ; Souza, DK ; Torres, Fernando A. G. ; Bocca, A.L. ; Rosa e Silva, A. A. M.	A2	
artigoEmPeriodico	Fernando Araripe Gonçalves Torres	2013	http://dx.doi.org/10.1186/2193-1801-2-441	pPCV, a versatile vector for cloning PCR products	SpringerPlus	JANNER, CHRISTIANE R ; BRITO, ANA LÍVIA ; MORAES, LIDIA MARIA ; REIS, VIVIANE CB ; TORRES, FERNANDO AG	Qualis nao identificado	SpringerPlus
artigoEmPeriodico	Fernando Araripe Gonçalves Torres	2013	http://dx.doi.org/10.1155/2013/148317	A Recombinant Multiepitope Protein for Hepatitis B Diagnosis	BioMed Research International	DE SOUZA, MARILEN QUEIROZ ; Galdino, Alexsandro Sobreira ; DOS SANTOS, JOSÉ CARLOS ; SOARES, MARCUS VINICIUS ; NÓBREGA, YANNA C. DE ; ÁLVARES, ALICE DA CUNHA MORALES ; DE FREITAS, SONIA MARIA ; TORRES, Fernando Araripe Gonçalves ; Torres, Fernando Araripe Gonçalves ; Felipe, MSS	Qualis nao identificado	BioMed Research International
artigoEmPeriodico	Fernando Araripe Gonçalves Torres	2013	http://dx.doi.org/10.1186/2193-1801-2-656	A novel promisingTrichoderma harzianum strain for the production of a cellulolytic complex using sugarcane bagasse in natura	SpringerPlus	BENOLIEL, Bruno ; Torres, Fernando Araripe ; DE MORAES, LIDIA MARIA	Qualis nao identificado	SpringerPlus
artigoEmPeriodico	Fernando Araripe Gonçalves Torres	2013	http://dx.doi.org/10.1016/j.biortech.2013.11.042	Utilization of glycerin byproduct derived from soybean oil biodiesel as a carbon source for heterologous protein production in Pichia pastoris	Bioresource Technology	ANASTÁCIO, G.S. ; SANTOS, K.O. ; SUAREZ, P.A.Z. ; TORRES, F.A.G. ; DE MARCO, J.L. ; PARACHIN, N.S.	A1	
artigoEmPeriodico	Simone Monteiro e Silva	2013	http://dx.doi.org/10.1007/s11746-012-2156-1	Thermal Degradation Kinetics of Carotenoids in Palm Oil	Journal of the American Oil Chemists' Society	Sampaio, Klicia A. ; AYALA, JOSE V. ; SILVA, Simone Monteiro e ; CERIANI, ROBERTA ; VERHÉ, ROLAND ; Meirelles, A. J. A. ; Meirelles, Antonio J. A.	A2	
artigoEmPeriodico	Simone Monteiro e Silva	2013	http://dx.doi.org/10.3303/CET1332292	Study of Fatty Acid and Fatty Alcohol Formation from Hydrolysis of Rice Bran Wax	Chemical Engineering Transactions	TRONI, K. L. ; SILVA, Simone Monteiro e ; MEIRELLES, A.J.A. ; CERIANI, R.	B2	
artigoEmPeriodico	Simone Monteiro e Silva	2013	http://dx.doi.org/10.1016/j.jfoodeng.2013.04.026	Adsorption of carotenes and phosphorus from palm oil onto acid activated bleaching earth: Equilibrium, kinetics and thermodynamics	Journal of Food Engineering	SILVA, Simone Monteiro e; Sampaio, Klicia A. ; CERIANI, ROBERTA ; VERHÉ, ROLAND ; STEVENS, CHRISTIAN ; DE GREYT, WIM ; Meirelles, A. J. A. ; Meirelles, Antonio J.A.	A1	
trabalhoCompletoEmCongresso	Sarah Silva Brum	2013		Adsorção reativa de dibenzotiofeno *DBT) em argilas modificadas com aluminio	17 Congresso Brasileiro de Catálise e VII Congresso de Catálise do Mercosul	TIRELLI, A. A. ; GUIMARES, I. R. ; TERRA, J. C. S. ; RESENDE, E. C. ; BRUM, S. S. ; Guerreiro, M. C.		
resumoExpandidoEmCongresso	Sarah Silva Brum	2013	Obtenção de Glicose A Partir de Derivado da Celulose Visando à Produção de Etanol de Segunda Geração	17 Congresso Brasileiro de Catálise e VII Congresso de Catálise do Mercosul, 2013, Gramado. Anais do 17 Congresso Brasileiro de Catálise e VII Congresso de Catálise do Mercosul	BRUM, S. S.; GROSSI, E. C. ; Suzuki, L. L. ; ARAUJO, F. C. ; SUAREZ, P. A. Z. ; PETROCCHI, J. R.		
artigoEmPeriodico	Paulo Anselmo Ziani Suarez	2013	http://dx.doi.org/10.1016/j.indcrop.2012.07.007	New metal catalysts active for thermal polymerization of vegetable oils	Industrial Crops and Products (Print)	Mello, Vinicius M. ; Oliveira, Gustavo V. ; Mandarino, José M.G. ; Carrão-Panizzi, Mercedes C. ; Suarez, Paulo A.Z.	A2	
artigoEmPeriodico	Paulo Anselmo Ziani Suarez	2013	http://dx.doi.org/10.5935/0103-5053.20130040	Turning Used Frying Oil into a New Raw Material to Printing Inks	Journal of the Brazilian Chemical Society (Impresso)	MELLO, Vinicius Moreira ; MELLO, VINÍCIUS M. ; SUAREZ, PAULO ; Oliveira, Gustavo V.	A2	
artigoEmPeriodico	Paulo Anselmo Ziani Suarez	2013	http://dx.doi.org/10.1016/j.tca.2013.03.035	Thermal behavior of Sterculia striata oil	Thermochimica Acta (Print)	MANGAS, MARIA BEATRIZ PEREIRA ; MELLO, VINÍCIUS MOREIRA ; SUAREZ, PAULO ANSELMO ZIANI	A2	
artigoEmPeriodico	Paulo Anselmo Ziani Suarez	2013	http://dx.doi.org/10.1007/s12155-013-9310-y	Potential Application of Turnip Oil (Raphanus sativus L.) for Biodiesel Production: Physical-Chemical Properties of Neat Oil, Biofuels and their Blends with Ultra-Low Sulphur Diesel (ULSD)	BioEnergy Research	SHAH, SHAILESH N. ; Iha, Osvaldo K. ; ALVES, FLÁVIO C. S. C. ; Sharma, Brajendra K. ; Erhan, Sevim Z. ; Suarez, Paulo A. Z.	A2	
artigoEmPeriodico	Paulo Anselmo Ziani Suarez	2013	http://dx.doi.org/10.2174/1385272811317030005	On the Use of Ionic Liquids in Biomass Transformations: Reaction Media and Catalysts	Current Organic Chemistry	Suarez, P.A.Z.; RAMALHO, H. F.	A2	
artigoEmPeriodico	Paulo Anselmo Ziani Suarez	2013	http://dx.doi.org/10.5935/1984-6835.20130002	The Chemistry of Oils and Fats and their Extraction and Refining Processes	Revista Virtual de Química	RAMALHO, H. F. ; Suarez, P.A.Z.	B2	
artigoEmPeriodico	Paulo Anselmo Ziani Suarez	2013	http://dx.doi.org/10.5935/1984-6835.20130003	Thermal Processes in Fats and Oils	Revista Virtual de Química	Suarez, P.A.Z.; MARTINS, G. B. C. ; MELLO, V. M.	B2	
artigoEmPeriodico	Paulo Anselmo Ziani Suarez	2013	http://dx.doi.org/10.5935/1984-6835.20130004	The Use of Waste Oils and Fats to Produce High Value Products: Formulation of Printing Inks Involving Used Frying Oils	Revista Virtual de Química	MONTENEGRO, M. A. ; MARTINS,G. B. C. ; Suarez, P.A.Z. ; HOFMANN-GATTI, T. ; pereira, r.c	B2	
artigoEmPeriodico	Paulo Anselmo Ziani Suarez	2013	http://dx.doi.org/10.5935/1984-6835.20130006	The Chemistry of Hydrogenation of Oils and Fats and their Applicability in Industry	Revista Virtual de Química	Pinho, David M. M. ; Suarez, P.A.Z.	B2	
artigoEmPeriodico	Paulo Anselmo Ziani Suarez	2013	http://dx.doi.org/10.5935/1984-6835.20130001	Edição Especial Dedicada ao Grupo de Pesquisas Rede de Estudos em Oleoquímica	Revista Virtual de Química	Suarez, Paulo A.Z.; MENEGHETTI, S. P.	B2	
artigoEmPeriodico	Ângelo Henrique de Lira Machado	2013	http://dx.doi.org/10.1039/c3ob40142a	'Dba-free' palladium intermediates of the Heck-Matsuda reaction	Organic & Biomolecular Chemistry	MACHADO, A. H. L.; MILAGRE, H. M. S. ; EBERLIN, L. S. ; SABINO, A. A. ; CORREIA, C. R. D. ; EBERLIN, M. N.	A1	
