strict graph grafo1 {
	graph [bb="0,0,1496.5,179",
		id=grafo1,
		overlap=False
	];
	node [fontsize=8,
		label="\N",
		shape=rectangle,
		style=filled
	];
	0	 [URL="http://lattes.cnpq.br/8529549983857097",
		color="#17272B",
		fontcolor="#FFFFFF",
		height=0.23611,
		label="Eriton Rodrigo Botero [2]",
		pos="190,170.5",
		width=1.3889];
	3	 [URL="http://lattes.cnpq.br/4615245702160544",
		color="#17272B",
		fontcolor="#FFFFFF",
		height=0.23611,
		label="Anderson R. Lima Caires [4]",
		pos="190,116.5",
		width=1.5278];
	0 -- 3	 [pos="190,161.83 190,152 190,135.05 190,125.2"];
	11	 [URL="http://lattes.cnpq.br/0366398884876006",
		color="#17272B",
		fontcolor="#FFFFFF",
		height=0.23611,
		label="Nelson L. de Campos Domingues [1]",
		pos="68,62.5",
		width=1.8889];
	3 -- 11	 [pos="172.26,107.94 149.13,98.08 108.9,80.934 85.761,71.07"];
	13	 [URL="http://lattes.cnpq.br/4915694295850733",
		color="#17272B",
		fontcolor="#FFFFFF",
		height=0.23611,
		label="Lucas Pizzuti [4]",
		pos="190,62.5",
		width=0.98611];
	3 -- 13	 [pos="190,107.83 190,97.996 190,81.051 190,71.204"];
	19	 [URL="http://lattes.cnpq.br/2603433458436438",
		color="#17272B",
		fontcolor="#FFFFFF",
		height=0.23611,
		label="Gleison Antonio Casagrande [4]",
		pos="222,8.5",
		width=1.6667];
	3 -- 19	 [pos="201.94,107.73 212.62,100 227.55,87.07 234,71.5 241.72,52.862 232.14,28.987 226.15,17.031"];
	13 -- 19	 [pos="194.72,53.827 200.77,43.996 211.2,27.051 217.26,17.204"];
	1	 [URL="http://lattes.cnpq.br/6320661844629609",
		color="#17272B",
		fontcolor="#FFFFFF",
		height=0.23611,
		label="Eliana J. Sanjinez Argandoña [4]",
		pos="430,170.5",
		width=1.6944];
	6	 [URL="http://lattes.cnpq.br/2368005158362357",
		color="#17272B",
		fontcolor="#FFFFFF",
		height=0.23611,
		label="Silvia Maria Martelli [1]",
		pos="311,116.5",
		width=1.3194];
	1 -- 6	 [pos="412.7,161.94 390.13,152.08 350.9,134.93 328.32,125.07"];
	9	 [URL="http://lattes.cnpq.br/7887148115540704",
		color="#17272B",
		fontcolor="#FFFFFF",
		height=0.23611,
		label="Rodrigo S. Ribeiro Leite [6]",
		pos="430,116.5",
		width=1.4861];
	1 -- 9	 [pos="430,161.83 430,152 430,135.05 430,125.2"];
	18	 [URL="http://lattes.cnpq.br/5762548246076451",
		color="#17272B",
		fontcolor="#FFFFFF",
		height=0.23611,
		label="Gustavo Graciano Fonseca [9]",
		pos="512,62.5",
		width=1.5833];
	1 -- 18	 [pos="445.96,161.92 459.98,154.48 479.98,141.89 492,125.5 504.44,108.54 509.36,83.494 511.12,71.067"];
	9 -- 18	 [pos="442.1,107.83 457.69,97.939 484.63,80.856 500.12,71.035"];
	2	 [URL="http://lattes.cnpq.br/3624370723788970",
		color="#17272B",
		fontcolor="#FFFFFF",
		height=0.23611,
		label="Eduardo José de Arruda [0]",
		pos="574,170.5",
		width=1.4583];
	4	 [URL="http://lattes.cnpq.br/4212280532558083",
		color="#17272B",
		fontcolor="#FFFFFF",
		height=0.23611,
		label="Alexeia Barufatti Grisolia [4]",
		pos="712,170.5",
		width=1.5417];
	14	 [URL="http://lattes.cnpq.br/5737574588414921",
		color="#17272B",
		fontcolor="#FFFFFF",
		height=0.23611,
		label="Kelly M. Pires de Oliveira [4]",
		pos="712,116.5",
		width=1.5556];
	4 -- 14	 [pos="712,161.83 712,152 712,135.05 712,125.2"];
	5	 [URL="http://lattes.cnpq.br/1855232571882443",
		color="#17272B",
		fontcolor="#FFFFFF",
		height=0.23611,
		label="Zefa Valdivina Pereira [0]",
		pos="836,170.5",
		width=1.4028];
	7	 [URL="http://lattes.cnpq.br/2125771574338340",
		color="#17272B",
		fontcolor="#FFFFFF",
		height=0.23611,
		label="Seila Rojas de Souza [0]",
		pos="952,170.5",
		width=1.3194];
	8	 [URL="http://lattes.cnpq.br/6833721744326745",
		color="#17272B",
		fontcolor="#FFFFFF",
		height=0.23611,
		label="Rozanna Marques Muzzi [0]",
		pos="1072,170.5",
		width=1.5];
	10	 [URL="http://lattes.cnpq.br/0182914969079164",
		color="#17272B",
		fontcolor="#FFFFFF",
		height=0.23611,
		label="Patricia Hatsue Suegama [0]",
		pos="1198,170.5",
		width=1.5];
	12	 [URL="http://lattes.cnpq.br/2828592893802233",
		color="#17272B",
		fontcolor="#FFFFFF",
		height=0.23611,
		label="Márcia Regina Russo [1]",
		pos="589,116.5",
		width=1.3472];
	12 -- 18	 [pos="577.64,107.83 563,97.939 537.7,80.856 523.16,71.035"];
	15	 [URL="http://lattes.cnpq.br/4397388543222105",
		color="#17272B",
		fontcolor="#FFFFFF",
		height=0.23611,
		label="Kelly C. da Silva Brabes [1]",
		pos="1324,170.5",
		width=1.4861];
	16	 [URL="http://lattes.cnpq.br/4795342927264998",
		color="#17272B",
		fontcolor="#FFFFFF",
		height=0.23611,
		label="Ivan Ramires [1]",
		pos="1324,116.5",
		width=0.98611];
	15 -- 16	 [pos="1324,161.83 1324,152 1324,135.05 1324,125.2"];
	17	 [URL="http://lattes.cnpq.br/2262428543098100",
		color="#17272B",
		fontcolor="#FFFFFF",
		height=0.23611,
		label="Heberth Juliano Vieira [0]",
		pos="1446,170.5",
		width=1.4028];
}
