strict graph grafo1 {
	graph [bb="0,0,1517.5,179",
		id=grafo1,
		overlap=False
	];
	node [fontsize=8,
		label="\N",
		shape=rectangle,
		style=filled
	];
	0	 [URL="http://lattes.cnpq.br/9033957482568348",
		color="#17272B",
		fontcolor="#FFFFFF",
		height=0.23611,
		label="João Inácio Soletti [0]",
		pos="43.5,170.5",
		width=1.2083];
	1	 [URL="http://lattes.cnpq.br/6822339713125905",
		color="#17272B",
		fontcolor="#FFFFFF",
		height=0.23611,
		label="Eduardo Calil de Oliveira [0]",
		pos="160.5,170.5",
		width=1.5278];
	2	 [URL="http://lattes.cnpq.br/4155051332618408",
		color="#17272B",
		fontcolor="#FFFFFF",
		height=0.23611,
		label="Patrick H. da Silva Brito [2]",
		pos="287.5,170.5",
		width=1.4861];
	3	 [URL="http://lattes.cnpq.br/5760364940162939",
		color="#17272B",
		fontcolor="#FFFFFF",
		height=0.23611,
		label="Evandro de Barros Costa [2]",
		pos="227.5,116.5",
		width=1.5];
	2 -- 3	 [pos="278.65,161.83 267.3,152 247.75,135.05 236.39,125.2"];
	8	 [URL="http://lattes.cnpq.br/4038730280834132",
		color="#17272B",
		fontcolor="#FFFFFF",
		height=0.23611,
		label="Ig I. B. Santana Pinto [3]",
		pos="348.5,116.5",
		width=1.3472];
	2 -- 8	 [pos="296.5,161.83 308.03,152 327.91,135.05 339.46,125.2"];
	11	 [URL="http://lattes.cnpq.br/5438107871273282",
		color="#17272B",
		fontcolor="#FFFFFF",
		height=0.23611,
		label="Fábio P. Duarte da Costa [3]",
		pos="227.5,62.5",
		width=1.5];
	3 -- 11	 [pos="227.5,107.83 227.5,97.996 227.5,81.051 227.5,71.204"];
	9	 [URL="http://lattes.cnpq.br/2752203627912781",
		color="#17272B",
		fontcolor="#FFFFFF",
		height=0.23611,
		label="Alan Pedro da Silva [2]",
		pos="348.5,62.5",
		width=1.2778];
	8 -- 9	 [pos="348.5,107.83 348.5,97.996 348.5,81.051 348.5,71.204"];
	12	 [URL="http://lattes.cnpq.br/4485667581908849",
		color="#17272B",
		fontcolor="#FFFFFF",
		height=0.23611,
		label="Arturo Hernández-Domínguez [2]",
		pos="227.5,8.5",
		width=1.75];
	11 -- 12	 [pos="227.5,53.827 227.5,43.996 227.5,27.051 227.5,17.204"];
	4	 [URL="http://lattes.cnpq.br/0650394251228023",
		color="#17272B",
		fontcolor="#FFFFFF",
		height=0.23611,
		label="Luis Cláudius Coradine [0]",
		pos="411.5,170.5",
		width=1.4444];
	5	 [URL="http://lattes.cnpq.br/9436003592759770",
		color="#17272B",
		fontcolor="#FFFFFF",
		height=0.23611,
		label="Marcelo Costa de Oliveira [0]",
		pos="537.5,170.5",
		width=1.5556];
	6	 [URL="http://lattes.cnpq.br/6935433850568144",
		color="#17272B",
		fontcolor="#FFFFFF",
		height=0.23611,
		label="Alejandro C. Frery Orgambide [4]",
		pos="674.5,170.5",
		width=1.75];
	10	 [URL="http://lattes.cnpq.br/0319343616289472",
		color="#17272B",
		fontcolor="#FFFFFF",
		height=0.23611,
		label="Raquel da Silva Cabral [1]",
		pos="555.5,116.5",
		width=1.4167];
	6 -- 10	 [pos="657.2,161.94 634.63,152.08 595.4,134.93 572.82,125.07"];
	17	 [URL="http://lattes.cnpq.br/4978869867640619",
		color="#17272B",
		fontcolor="#FFFFFF",
		height=0.23611,
		label="Heitor S. Ramos Filho [3]",
		pos="674.5,116.5",
		width=1.3889];
	6 -- 17	 [pos="674.5,161.83 674.5,152 674.5,135.05 674.5,125.2"];
	19	 [URL="http://lattes.cnpq.br/7957606883987162",
		color="#17272B",
		fontcolor="#FFFFFF",
		height=0.23611,
		label="Andre L. Lins de Aquino [2]",
		pos="713.5,62.5",
		width=1.5];
	6 -- 19	 [pos="692.05,161.93 706.13,154.79 724.91,142.63 733.5,125.5 742.83,106.9 728.42,83.008 719.57,71.04"];
	17 -- 19	 [pos="680.25,107.83 687.63,97.996 700.34,81.051 707.72,71.204"];
	7	 [URL="http://lattes.cnpq.br/2550748932150373",
		color="#17272B",
		fontcolor="#FFFFFF",
		height=0.23611,
		label="Eliana de Almeida Silva [0]",
		pos="808.5,170.5",
		width=1.4722];
	13	 [URL="http://lattes.cnpq.br/9314020351211705",
		color="#17272B",
		fontcolor="#FFFFFF",
		height=0.23611,
		label="Aydano Pamponet Machado [0]",
		pos="939.5,170.5",
		width=1.6528];
	14	 [URL="http://lattes.cnpq.br/4791933287778887",
		color="#17272B",
		fontcolor="#FFFFFF",
		height=0.23611,
		label="Jorge A. P. de Miranda Coelho [0]",
		pos="1080.5,170.5",
		width=1.7639];
	15	 [URL="http://lattes.cnpq.br/8951598251334162",
		color="#17272B",
		fontcolor="#FFFFFF",
		height=0.23611,
		label="Marcus de Melo Braga [0]",
		pos="1212.5,170.5",
		width=1.4028];
	16	 [URL="http://lattes.cnpq.br/4967240163248619",
		color="#17272B",
		fontcolor="#FFFFFF",
		height=0.23611,
		label="Henrique P. Loureiro Luna [0]",
		pos="1338.5,170.5",
		width=1.5833];
	18	 [URL="http://lattes.cnpq.br/6643419601004637",
		color="#17272B",
		fontcolor="#FFFFFF",
		height=0.23611,
		label="Leonardo Viana Pereira [0]",
		pos="1465.5,170.5",
		width=1.4444];
}
