strict digraph grafo3 {
	graph [bb="0,0,1622,81",
		id=grafo3,
		overlap=False
	];
	node [fontsize=8,
		label="\N",
		shape=rectangle,
		style=filled
	];
	0	 [URL="http://lattes.cnpq.br/1512717941866097",
		color="#17272B",
		fontcolor="#FFFFFF",
		height=0.23611,
		label="Paulo F. Ferreira Rosa [0]",
		pos="50,72.5",
		width=1.3889];
	1	 [URL="http://lattes.cnpq.br/1185487031019435",
		color="#17272B",
		fontcolor="#FFFFFF",
		height=0.23611,
		label="Paulo César Pellanda [1]",
		pos="166,72.5",
		width=1.3333];
	13	 [URL="http://lattes.cnpq.br/5161688186852047",
		color="#17272B",
		fontcolor="#FFFFFF",
		height=0.23611,
		label="Alberto Mota Simões [1]",
		pos="166,8.5",
		width=1.3472];
	1 -> 13	 [arrowhead=normal,
		arrowsize=0.75,
		fontsize=8,
		label=1.0,
		lp="155.5,40.5",
		penwidth=3.5,
		pos="e,159.72,17.153 159.04,63.736 153.5,56.604 147.13,45.635 150,35.5 151.16,31.398 153.17,27.307 155.38,23.625"];
	13 -> 1	 [arrowhead=normal,
		arrowsize=0.75,
		fontsize=8,
		label=1.0,
		lp="171.5,40.5",
		penwidth=3.5,
		pos="e,166,63.898 166,17.165 166,26.864 166,43.797 166,56.189"];
	2	 [URL="http://lattes.cnpq.br/0270661833822671",
		color="#17272B",
		fontcolor="#FFFFFF",
		height=0.23611,
		label="Maria T. M. Rocco Giraldi [0]",
		pos="289,72.5",
		width=1.5833];
	3	 [URL="http://lattes.cnpq.br/8911936841113704",
		color="#17272B",
		fontcolor="#FFFFFF",
		height=0.23611,
		label="Maria E. Soares Marques [1]",
		pos="419,72.5",
		width=1.5139];
	5	 [URL="http://lattes.cnpq.br/2431901858566512",
		color="#17272B",
		fontcolor="#FFFFFF",
		height=0.23611,
		label="Luiz A. Vieira Carneiro [1]",
		pos="419,8.5",
		width=1.4444];
	3 -> 5	 [arrowhead=normal,
		arrowsize=0.75,
		fontsize=8,
		label=1.0,
		lp="408.5,40.5",
		penwidth=3.5,
		pos="e,412.04,17.264 412.72,63.847 409.1,58.934 404.91,52.232 403,45.5 400.89,38.057 403.77,30.165 407.64,23.672"];
	5 -> 3	 [arrowhead=normal,
		arrowsize=0.75,
		fontsize=8,
		label=1.0,
		lp="424.5,40.5",
		penwidth=3.5,
		pos="e,419,63.898 419,17.165 419,26.864 419,43.797 419,56.189"];
	4	 [URL="http://lattes.cnpq.br/1766896412449188",
		color="#17272B",
		fontcolor="#FFFFFF",
		height=0.23611,
		label="Luiz F. C. Ferreira da Silva [0]",
		pos="550,72.5",
		width=1.6111];
	6	 [URL="http://lattes.cnpq.br/0054945070201197",
		color="#17272B",
		fontcolor="#FFFFFF",
		height=0.23611,
		label="Leonardo de Castro Oliveira [0]",
		pos="686,72.5",
		width=1.6528];
	7	 [URL="http://lattes.cnpq.br/4578693731159389",
		color="#17272B",
		fontcolor="#FFFFFF",
		height=0.23611,
		label="José A. Apolinário Junior [1]",
		pos="819,72.5",
		width=1.5278];
	11	 [URL="http://lattes.cnpq.br/4946117471548540",
		color="#17272B",
		fontcolor="#FFFFFF",
		height=0.23611,
		label="Carla Liberal Pagliari [1]",
		pos="819,8.5",
		width=1.3472];
	7 -> 11	 [arrowhead=normal,
		arrowsize=0.75,
		fontsize=8,
		label=1.0,
		lp="808.5,40.5",
		penwidth=3.5,
		pos="e,812.04,17.264 812.72,63.847 809.1,58.934 804.91,52.232 803,45.5 800.89,38.057 803.77,30.165 807.64,23.672"];
	11 -> 7	 [arrowhead=normal,
		arrowsize=0.75,
		fontsize=8,
		label=1.0,
		lp="824.5,40.5",
		penwidth=3.5,
		pos="e,819,63.898 819,17.165 819,26.864 819,43.797 819,56.189"];
	8	 [URL="http://lattes.cnpq.br/7247460085720503",
		color="#17272B",
		fontcolor="#FFFFFF",
		height=0.23611,
		label="Itamar Borges Junior [0]",
		pos="940,72.5",
		width=1.3194];
	9	 [URL="http://lattes.cnpq.br/8610703960852975",
		color="#17272B",
		fontcolor="#FFFFFF",
		height=0.23611,
		label="Ernesto Leite Pinto [0]",
		pos="1051,72.5",
		width=1.25];
	10	 [URL="http://lattes.cnpq.br/6256072821309272",
		color="#17272B",
		fontcolor="#FFFFFF",
		height=0.23611,
		label="Maurício H. Costa Dias [0]",
		pos="1166,72.5",
		width=1.4444];
	12	 [URL="http://lattes.cnpq.br/9907968103431589",
		color="#17272B",
		fontcolor="#FFFFFF",
		height=0.23611,
		label="Antonio E. Carrilho da Cunha [0]",
		pos="1298,72.5",
		width=1.7222];
	14	 [URL="http://lattes.cnpq.br/2131496810770098",
		color="#17272B",
		fontcolor="#FFFFFF",
		height=0.23611,
		label="Rosângela Fernandes Coelho [0]",
		pos="1439,72.5",
		width=1.6806];
	15	 [URL="http://lattes.cnpq.br/3620084512865554",
		color="#17272B",
		fontcolor="#FFFFFF",
		height=0.23611,
		label="Ronaldo Moreira Salles [0]",
		pos="1570,72.5",
		width=1.4444];
}
