
PB0:2014,32;
PB1:2014,1;
PB2:2014,2;
PB4:2014,38;
PB5:2014,1;
PB6:2014,1;
PB7:2014,2;
PB8:2014,3;
PT3:*itens sem ano,2;
PT4:2014,9;
PT5:2014,4;
OA0:2014,1;2016,2;
OA1:2010,1;2013,2;2014,7;2015,5;2016,7;2017,6;
OA2:2015,4;2016,14;2017,8;
OA4:2013,5;2016,1;2017,5;
OA5:2013,3;2016,3;2017,2;
OC1:2014,2;
OC2:2014,17;
OC4:2014,9;
OC5:2014,14;
OC6:2014,3;
Pm:2014,6;
Pj:2002,1;2003,1;2004,3;2006,2;2007,3;2008,4;2009,2;2010,3;2011,5;2012,9;2013,6;2014,6;
PB:2014,80;
PT:*itens sem ano,2;2014,13;
OA:2010,1;2013,10;2014,8;2015,9;2016,27;2017,21;
OC:2014,45;
Ep:2014,16;
Eo:2014,1;