5165721870469193
3099042017458103
3684400139138167
1414604911611346
8031329691973209
1889970768520644
3868808682299944
6829284455406047
5841725453281175
3165380752669036
1173620785883814
3761082063391085
2965334494309540
1388529283382853
3660246608270309
8460754406496786
1784363474172652
1181184739332722
4860987002234607
7710994342098865
3737478300026958
3335792822231284
6368988548199178
4762940910820774
2487238880227616
5948716722524125
8434128019700380
9329958819852011
0142074313979686
8233599695321047
8441249529400604
1478016905331075
7231542758132505
0350663398310476
9558073517436117
5693681670847561
7471129537375702
4660824698053179
9175936137896864
2025762511680012
1608673584881629
9306582045191164
0990690835122059
2969535606899836
5797744707744686
7127061516312044
5361181196979714
9732821293393793
1750154267305530
7440413221171078
8200282913635713
2633839778514121
3029200491133492
2891655324467640
8945920227509332
8718162034897457
1957443513601740
9719333478534147
5537733634858498
3781834918669528
5828911272818152
2248903075480185
9890322878300982
6877841308694432
4630203406071626
9870026906198249
0213112231789493
2201394736033144
4803642830639806
1942336506683381
8162573572238492
2017199004095441
6867376592649835
2158196443144675
9517586732542745
4284805455166367
1173707956218092
1616204547689304
0043570126726535
9868721105296158
2046705582265705
9060974474062619
5828318714118625
4595465071420439
3141577169664062
1325247019367288
2023820786382900
3482147818811600
1861023236526564
3355785866214621
2872056751024508
7754410281265624
8832258266252948
3294483385986998
1274488181096676
3699082804969492
5479882786360858
0312987419566728
2271044514284983
8872746095894845
8258858460621065
8331624442510021
4081877910447859
9182535209147578
2691820145197058
2754787460697664
6802184258602239
2711699996455302
6649112128287777
6464091119856967
1689603103624357
9615242685505657
9410136771427091
8715239067781381
6545170130151894
7756037973001995
8393676652999400
8336822452689736
1293709711274544
8041626078120100
3482050700648362
7835878522109146
9289355444812190
1503283535579534
1727781468687176
6123811912250634
2786353912832939
0057190634986691
7632245413046227
1465711084846988
4973422579164559
4606907684544959
2464993548761909
1348339517901277
5876582230872195
6970261362941505
3649518910868817
4753476583820084
6600247708123655
8400310812556346
6938403261298678
1707802457836675
3643733290339740
3556560435961222
0014494249105252
1674582391044741
2104003453772370
7149846081415916
4284743223213625
0628115278935692
2910741033006998
2074765955027449
3810088438992371
5963024958708851
1101468635300462
8338826449053539
5011595022231231
5573301475044497
3924114468889793
9061718205554566
0936619055402651
2924728886748360
3207664810028726
5644479113682589
0630058625710755
7573274864370566
5373631394883825
3856083583221781
9447786439023437
4922173912121598
1785014503376921
0925321719024140
4511646102728382
7108245336327043
8058184728987379
1721019087926458
1960620473831019
5450805572417395
7699805428000895
1632381212575761
1766558858445284
5348033416763940
0367605087571652
0420031645212893
2392046441835896
2428239883671397
1925908887660997
6604265274201801
2310703382053227
8690868696190633
9236103902422225
7810874305666395
7984956973544220
5452949507381981
2699196515879292
7018373401269948
0870593828183273
0294264745783506
7982283028426982
7697783248402834
2011381324859254
6074255944014126
4765329226508977
1334740702110645
9638281050014449
2146827739602504
9004164371826191
2764888655397639
9653654803297649
2650858119455746
1411247278652879
6470412191668476
0938805013383423
8868440128303935
5891290481492220
7955541244717243
1362331008721555
9480872229631779
3187159193534447
5571022514393377
4646726597049553
1356242304868969
8315480409336088
7342852272040565
2649013878608329
8444233927942764
3608337314955861
2209350043155049
0009015688374245
8033490313680312
7225604363307521
3728767799603880
0196848315636080
1734748583668695
3178864999293864
8324604057518384
6566831048358784
3274474702626525
1040073160928250
4579010542660634
0951933738732996
2988437176012972
5925977706828021
5009182371990039
2152164500205177
4569317153145783
8199808131949033
0308486911718989
8593764525171799
0635642368184161
3600892425331389
8788197899545402
6881990637613409
7282763701085219
8814881937448353
9927877895574494
2121584556879953
0584304668536213
0522360394137728
6717975539243110
1348914219247337
7938569522991201
9966662812057339
5940113046592928
0840212910289462
7202601999192100
9703941932203592
6989872325179552
1374012206166960
6291723725655127
5269031128431861
6836144033010861
7849911404070622
3972418086915306
3944249888907360
3785638307721158
2522115962876820
6334840462737474
6198721584655627
4496176823869481
0272462550643321
0924867038114045
5307597010143674
7544514248852232
4278400664155684
5665533458963246
4308301332725560
0556496646523883
2483185411923070
2452458420580665
3824581342536899
1252026760932526
2300175961000015
5332714324442736
0684169868367239
8452695309949645
7635072427530391
2679662557433472
3229457850858581
3595605534544460
7253800571271613
1913450752136533
6535849579850035
5174965023660237
2193298297728971
1054839770814863
9727650514272580
9017643623973318
6517527899869534
6663462240546291
9002026965559712
0006827895405871
3322615178606123
3041095212914007
3418695492517097
5502870381634457
8132600614527661
9881559988241184
2283238330774932
0977650221653955
3930208872786500
1602054738205274
1490315893556043
9242473336905917
8478741766449896
6053228861225200
3423947933040223
7955383731847589
2675009900378570
6810707489365033
2270445665679184
2588927312220421
1381198858353641
3955780406047701
7514918598084999
8631074171256726
6280001726178765
4431674457945869
2318727424326430
7348203362560854
2266279007729131
2854855744345507
2621372434331847
0116848016427400
7738736219606737
3762069492134536
6312568930770140
1191239390743602
5130566170893828
1692941005505058
8303579432217213
6398120875466375
3288352085998633
4453501982017476
8106734394937176
5617686653940925
