strict graph grafo2 {
	graph [bb="0,0,2042.5,81",
		id=grafo2,
		overlap=False
	];
	node [fontsize=8,
		label="\N",
		shape=rectangle,
		style=filled
	];
	0	 [URL="http://lattes.cnpq.br/0373331085707465",
		color="#17272B",
		fontcolor="#FFFFFF",
		height=0.23611,
		label="Fernando Fagundes Ferreira [0]",
		pos="59,72.5",
		width=1.6389];
	1	 [URL="http://lattes.cnpq.br/1539584880795958",
		color="#17272B",
		fontcolor="#FFFFFF",
		height=0.23611,
		label="Candido F. X. de Mendonça Neto [0]",
		pos="204,72.5",
		width=1.8889];
	2	 [URL="http://lattes.cnpq.br/2038805993153668",
		color="#17272B",
		fontcolor="#FFFFFF",
		height=0.23611,
		label="Fernando de Souza Coelho [2]",
		pos="347,72.5",
		width=1.5833];
	7	 [URL="http://lattes.cnpq.br/4889413058276292",
		color="#17272B",
		fontcolor="#FFFFFF",
		height=0.23611,
		label="Flávia Mori Sarti [2]",
		pos="347,8.5",
		width=1.1528];
	2 -- 7	 [fontsize=8,
		label=2.0,
		lp="352.5,40.5",
		pos="347,63.898 347,51.998 347,29.102 347,17.165"];
	3	 [URL="http://lattes.cnpq.br/1758254967187398",
		color="#17272B",
		fontcolor="#FFFFFF",
		height=0.23611,
		label="Paulo A. de Almeida Sinisgalli [0]",
		pos="486,72.5",
		width=1.7639];
	4	 [URL="http://lattes.cnpq.br/9979732565759430",
		color="#17272B",
		fontcolor="#FFFFFF",
		height=0.23611,
		label="Masayuki Oka Hase [0]",
		pos="614,72.5",
		width=1.2917];
	5	 [URL="http://lattes.cnpq.br/8792749813872106",
		color="#17272B",
		fontcolor="#FFFFFF",
		height=0.23611,
		label="José R. Gonçalves de Mendonça [0]",
		pos="745,72.5",
		width=1.8333];
	6	 [URL="http://lattes.cnpq.br/4218896753382242",
		color="#17272B",
		fontcolor="#FFFFFF",
		height=0.23611,
		label="Francisco J. S. Mendizabal Alvarez [0]",
		pos="900,72.5",
		width=1.9722];
	8	 [URL="http://lattes.cnpq.br/1068554491963326",
		color="#17272B",
		fontcolor="#FFFFFF",
		height=0.23611,
		label="Esteban Fernandez Tuesta [0]",
		pos="1045,72.5",
		width=1.5556];
	9	 [URL="http://lattes.cnpq.br/4198814149144165",
		color="#17272B",
		fontcolor="#FFFFFF",
		height=0.23611,
		label="Diego A. Falceta Gonçalves [0]",
		pos="1178,72.5",
		width=1.6389];
	10	 [URL="http://lattes.cnpq.br/7325616838190292",
		color="#17272B",
		fontcolor="#FFFFFF",
		height=0.23611,
		label="Cristina Adams [0]",
		pos="1294,72.5",
		width=1.0833];
	11	 [URL="http://lattes.cnpq.br/0730842074191192",
		color="#17272B",
		fontcolor="#FFFFFF",
		height=0.23611,
		label="Carlos de Brito Pereira [0]",
		pos="1402,72.5",
		width=1.4028];
	12	 [URL="http://lattes.cnpq.br/4710295079878737",
		color="#17272B",
		fontcolor="#FFFFFF",
		height=0.23611,
		label="Carla Morsello [0]",
		pos="1509,72.5",
		width=1.0556];
	13	 [URL="http://lattes.cnpq.br/8618151183586924",
		color="#17272B",
		fontcolor="#FFFFFF",
		height=0.23611,
		label="Camilo Rodrigues Neto [0]",
		pos="1617,72.5",
		width=1.4444];
	14	 [URL="http://lattes.cnpq.br/2318177531681999",
		color="#17272B",
		fontcolor="#FFFFFF",
		height=0.23611,
		label="André C. Rocha Martins [0]",
		pos="1740,72.5",
		width=1.4722];
	15	 [URL="http://lattes.cnpq.br/0827495526048435",
		color="#17272B",
		fontcolor="#FFFFFF",
		height=0.23611,
		label="Ana A. Benedito Silva [0]",
		pos="1861,72.5",
		width=1.3889];
	16	 [URL="http://lattes.cnpq.br/0101577359803272",
		color="#17272B",
		fontcolor="#FFFFFF",
		height=0.23611,
		label="Alexandre Ferreira Ramos [0]",
		pos="1986,72.5",
		width=1.5694];
}
