
PB0:2013,31;
PB2:2013,2;
PB3:*itens sem ano,12;2013,1;
PB4:2013,10;
PB5:2013,3;
PB6:*itens sem ano,1;2013,9;
PB8:2013,8;
PB9:2013,2;
PT4:2013,12;
PT5:2013,7;
OA0:2016,1;2017,1;
OA1:2013,2;2014,2;2015,4;2016,6;2017,4;
OA2:2011,1;2012,2;2013,2;2014,2;2015,9;2016,11;2017,9;
OA4:2015,21;2016,2;2017,6;
OA5:2008,1;2012,1;2015,1;2017,2;
OC1:2013,1;
OC2:2013,5;
OC3:2013,3;
OC4:2013,20;
OC5:2013,6;
OC6:2013,10;
Pm:2013,2;
Pj:2000,1;2003,1;2004,1;2005,1;2006,2;2007,4;2008,4;2009,1;2010,5;2011,7;2012,8;2013,4;
PB:*itens sem ano,13;2013,66;
PT:2013,19;
OA:2008,1;2011,1;2012,3;2013,4;2014,4;2015,35;2016,20;2017,22;
OC:2013,45;
Ep:2013,57;
Eo:2013,5;