strict graph grafo2 {
	graph [bb="0,0,2514.5,81",
		id=grafo2,
		overlap=False
	];
	node [fontsize=8,
		label="\N",
		shape=rectangle,
		style=filled
	];
	0	 [URL="http://lattes.cnpq.br/6099942406051896",
		color="#17272B",
		fontcolor="#FFFFFF",
		height=0.23611,
		label="Paulo E. Maciel de Almeida [3]",
		pos="100,72.5",
		width=1.6389];
	6	 [URL="http://lattes.cnpq.br/2550201329788172",
		color="#17272B",
		fontcolor="#FFFFFF",
		height=0.23611,
		label="Gray Farias Moita [1]",
		pos="43,8.5",
		width=1.1944];
	0 -- 6	 [fontsize=8,
		label=1.0,
		lp="80.5,40.5",
		pos="93.011,63.898 82.071,51.998 61.021,29.102 50.046,17.165"];
	10	 [URL="http://lattes.cnpq.br/2243256075052322",
		color="#17272B",
		fontcolor="#FFFFFF",
		height=0.23611,
		label="Elizabeth Fialho Wanner [2]",
		pos="158,8.5",
		width=1.5];
	0 -- 10	 [fontsize=8,
		label=2.0,
		lp="138.5,40.5",
		pos="107.11,63.898 118.24,51.998 139.66,29.102 150.83,17.165"];
	1	 [URL="http://lattes.cnpq.br/0824886862509279",
		color="#17272B",
		fontcolor="#FFFFFF",
		height=0.23611,
		label="José L. Acebal Fernandes [0]",
		pos="232,72.5",
		width=1.5278];
	2	 [URL="http://lattes.cnpq.br/6078945717558464",
		color="#17272B",
		fontcolor="#FFFFFF",
		height=0.23611,
		label="Marcone J. Freitas Souza [0]",
		pos="360,72.5",
		width=1.5139];
	3	 [URL="http://lattes.cnpq.br/6579355215659091",
		color="#17272B",
		fontcolor="#FFFFFF",
		height=0.23611,
		label="Leonardo Lima dos Santos [0]",
		pos="490,72.5",
		width=1.5833];
	4	 [URL="http://lattes.cnpq.br/7536181384159078",
		color="#17272B",
		fontcolor="#FFFFFF",
		height=0.23611,
		label="José G. Peixoto de Faria [0]",
		pos="618,72.5",
		width=1.4722];
	5	 [URL="http://lattes.cnpq.br/6447512644654475",
		color="#17272B",
		fontcolor="#FFFFFF",
		height=0.23611,
		label="Henrique Elias Borges [0]",
		pos="739,72.5",
		width=1.3889];
	7	 [URL="http://lattes.cnpq.br/7555708910723173",
		color="#17272B",
		fontcolor="#FFFFFF",
		height=0.23611,
		label="Giancarlo Queiroz Pellegrino [0]",
		pos="868,72.5",
		width=1.6944];
	8	 [URL="http://lattes.cnpq.br/6545115051079964",
		color="#17272B",
		fontcolor="#FFFFFF",
		height=0.23611,
		label="Flávio L. Cardeal Pádua [0]",
		pos="1000,72.5",
		width=1.4722];
	9	 [URL="http://lattes.cnpq.br/7224855414322463",
		color="#17272B",
		fontcolor="#FFFFFF",
		height=0.23611,
		label="Fernando A. Campos Gomide [0]",
		pos="1133,72.5",
		width=1.7222];
	11	 [URL="http://lattes.cnpq.br/5249973626810280",
		color="#17272B",
		fontcolor="#FFFFFF",
		height=0.23611,
		label="Cristina Duarte Murta [1]",
		pos="1262,72.5",
		width=1.3611];
	15	 [URL="http://lattes.cnpq.br/6813736989856243",
		color="#17272B",
		fontcolor="#FFFFFF",
		height=0.23611,
		label="Adriano C. Machado Pereira [1]",
		pos="1262,8.5",
		width=1.6667];
	11 -- 15	 [fontsize=8,
		label=1.0,
		lp="1267.5,40.5",
		pos="1262,63.898 1262,51.998 1262,29.102 1262,17.165"];
	12	 [URL="http://lattes.cnpq.br/7962146839706796",
		color="#17272B",
		fontcolor="#FFFFFF",
		height=0.23611,
		label="Breno R. Lamaghere Galvão [0]",
		pos="1389,72.5",
		width=1.6667];
	13	 [URL="http://lattes.cnpq.br/6122907819049400",
		color="#17272B",
		fontcolor="#FFFFFF",
		height=0.23611,
		label="Arthur R. Bosco de Magalhães [0]",
		pos="1531,72.5",
		width=1.7639];
	14	 [URL="http://lattes.cnpq.br/4216801992845696",
		color="#17272B",
		fontcolor="#FFFFFF",
		height=0.23611,
		label="Allbens A. Picardi Faria [0]",
		pos="1666,72.5",
		width=1.4722];
	16	 [URL="http://lattes.cnpq.br/9832733706852720",
		color="#17272B",
		fontcolor="#FFFFFF",
		height=0.23611,
		label="Thiago Gomes de Mattos [0]",
		pos="1792,72.5",
		width=1.5139];
	17	 [URL="http://lattes.cnpq.br/0460460352086325",
		color="#17272B",
		fontcolor="#FFFFFF",
		height=0.23611,
		label="Rogério Martins Gomes [0]",
		pos="1917,72.5",
		width=1.4583];
	18	 [URL="http://lattes.cnpq.br/5174842920583671",
		color="#17272B",
		fontcolor="#FFFFFF",
		height=0.23611,
		label="Rodrigo T. Nogueira Cardoso [0]",
		pos="2049,72.5",
		width=1.7083];
	19	 [URL="http://lattes.cnpq.br/2530445511170734",
		color="#17272B",
		fontcolor="#FFFFFF",
		height=0.23611,
		label="Vinicius Fernandes dos Santos [0]",
		pos="2192,72.5",
		width=1.75];
	20	 [URL="http://lattes.cnpq.br/0923310420440204",
		color="#17272B",
		fontcolor="#FFFFFF",
		height=0.23611,
		label="Thiago Rodrigues de Souza [0]",
		pos="2331,72.5",
		width=1.6111];
	21	 [URL="http://lattes.cnpq.br/8136976170403371",
		color="#17272B",
		fontcolor="#FFFFFF",
		height=0.23611,
		label="Ricardo Sérgio de Souza [0]",
		pos="2461,72.5",
		width=1.4861];
}
