artigoEmPeriodico	2014	http://dx.doi.org/10.3991/ijes.v2i2.3527	MIPS X-Ray: A MARS Simulator Plug-in for Teaching Computer Architecture	International Journal of Recent Contributions from Engineering, Science & IT (iJES)	ARAUJO, M. R. D. ; PÁDUA, F. L. C. ; ANDRADE, F. V. ; CORREA JUNIOR, F. L.	Qualis nao identificado	International Journal of Recent Contributions from Engineering, Science & IT (iJES)
artigoEmPeriodico	2014	http://dx.doi.org/10.1007/s10035-014-0482-8	Mechanical properties of inclined frictional granular layers	Granular Matter (Print)	ATMAN, A. P. F.; Claudin, P. ; Combe, G. ; MARTINS, G. H. B.	B1	
artigoEmPeriodico	2014	http://dx.doi.org/10.1016/j.neucom.2013.04.047	Uninorm based evolving neural networks and approximation capabilities	Neurocomputing (Amsterdam)	BORDIGNON, FERNANDO ; Gomide, Fernando	A2	
artigoEmPeriodico	2014	http://dx.doi.org/10.1590/s1678-86212014000200005	Simulação da movimentação de pessoas em situações de emergência: aspectos ergonômicos e computacionais com autômatos Fuzzy e sua aplicação ao projeto arquitetônico	Ambiente Construído (Online)	BRAGA, HENRIQUE COSTA ; MOITA, Gray Farias ; CAMARGO, FAUSTO ; ALMEIDA, PAULO EDUARDO MACIEL DE	B1	
artigoEmPeriodico	2014	http://dx.doi.org/10.1007/s00138-014-0605-6	Temporal synchronization in mobile sensor networks using image sequence analysis	MACHINE VISION AND APPLICATIONS	Brito, Darlan N. ; PÁDUA, FLÁVIO L. C. ; PEREIRA, GUILHERME A. S.	B1	
artigoEmPeriodico	2014	http://dx.doi.org/10.1016/j.physleta.2014.03.046	Atomic focusing by quantum fields: Entanglement properties	Physics Letters. A (Print)	da Paz, I.G. ; FRAZÃO, H.M. ; Nemes, M.C. ; Peixoto de Faria, J.G.	A2	
artigoEmPeriodico	2014	http://dx.doi.org/10.1103/PhysRevA.89.022303	Entanglement dynamics of many-body systems: Analytical results	Physical Review. A	DE PAULA, A. L. ; DE OLIVEIRA, J. G. G. ; DE FARIA, J. G. PEIXOTO ; FREITAS, DAGOBERTO S. ; Nemes, M. C.	A2	
artigoEmPeriodico	2014	http://dx.doi.org/10.4028/www.scientific.net/KEM.600.535	Development and Experimental Analysis of Ceramic Bricks Panels for Structural Masonry Construction Systems	Key Engineering Materials (Online)	Delgado, L.R. ; MOITA, G. F.	B2	Key Engineering Materials
artigoEmPeriodico	2014		Identification of Coauthors in Scientific Database	World Academy of Science, Engineering and Technology (Online)	DIAS, T. M. R. ; MOITA, G. F.	B2	
artigoEmPeriodico	2014		Identificação e Caracterização de Redes Científicas de Dados Curriculares	iSys: Revista Brasileira de Sistemas de Informação	DIAS, T. M. R. ; MOITA, G. F. ; Dias, P. M. ; MOREIRA, T.	B3	
artigoEmPeriodico	2014	http://dx.doi.org/10.1103/physreva.90.062102	Interference and which-state information for nonorthogonal states	Physical Review. A	FONSECA-ROMERO, K. M. ; DE OLIVEIRA, J. G. G. ; Peixoto de Faria, J. G. ; Nemes, M. C.	A2	
artigoEmPeriodico	2014	http://dx.doi.org/10.1021/ct500085q	Electronic quenching in N(2D)+N2 collisions: a state-specific analysis via surface hopping dynamics	Journal of Chemical Theory and Computation	GALVÃO, BRENO R. L.; BRAGA, JOAO PEDRO ; BELCHIOR, JADSON CLAUDIO ; VARANDAS, ANTÓNIO J.C.	Qualis nao identificado	Journal of Chemical Theory and Computation
artigoEmPeriodico	2014	http://dx.doi.org/10.1016/j.cor.2013.11.002	Multi-objective metaheuristic algorithms for the resource-constrained project scheduling problem with precedence relations	Computers & Operations Research	GOMES, H. C. ; NEVES, F. A. ; Souza, Marcone J.F.	A1	
artigoEmPeriodico	2014	http://dx.doi.org/10.1016/j.eswa.2014.05.005	Query join ordering optimization with evolutionary multi-agent systems	Expert Systems with Applications	GONÇALVES, FREDERICO A.C.A. ; GUIMARÃES, FREDERICO G. ; Souza, Marcone J.F.	A1	
artigoEmPeriodico	2014	http://dx.doi.org/10.1109/TFUZZ.2014.2333774	Evolving granular fuzzy model-based control of nonlinear dynamic systems	IEEE Transactions on Fuzzy Systems	LEITE, DANIEL ; PALHARES, R. ; CAMPOS, V. ; Gomide, F.	A1	
artigoEmPeriodico	2014	http://dx.doi.org/10.1007/s13278-014-0209-1	Workload characterization of a location-based social network	Social Network Analysis and Mining	LINS, THEO ; PEREIRA, ADRIANO C. M. ; BENEVENUTO, FABRÍCIO	Qualis nao identificado	Social Network Analysis and Mining
artigoEmPeriodico	2014	http://dx.doi.org/10.1007/s12530-013-9099-0	Enhanced evolving participatory learning fuzzy modeling: an application for asset returns volatility forecasting	Evolving Systems	MACIEL, LEANDRO ; Gomide, Fernando ; BALLINI, ROSANGELA	B4	
artigoEmPeriodico	2014	http://dx.doi.org/10.4279/pip.060007	Jamming transition in a two-dimensional open granular pile with rolling resistance	Papers in Physics	MAGALHÃES, Caio Franca Merelim ; ATMAN, A. P. F. ; COMBE, Gaël ; MOREIRA, J. G.	Qualis nao identificado	Papers in Physics
artigoEmPeriodico	2014		Optimal Dispatch Programming of Hydroelectric Power Generation with the use of Genetic Algorithms	INFOCOMP (UFLA. Impresso)	Marcelino, C. G. ; WANNER, E. F. ; ALMEIDA, P. E. M. ; MOITA, G. F.	B3	
artigoEmPeriodico	2014	http://dx.doi.org/10.1111/wre.12107	Germination characteristics and seedbank of the alien species (Fabaceae) in Brazilian forest: ecological implications	Weed Research (Print)	Marques, A.R. ; Costa, C. ; Garcia, Q. ; Atman, A.P.F.	Qualis nao identificado	Weed Research (Print)
artigoEmPeriodico	2014	http://dx.doi.org/10.1007/s11258-014-0320-4	Are seed germination and ecological breadth associated? Testing the regeneration niche hypothesis with bromeliads in a heterogeneous neotropical montane vegetation	Plant Ecology (Dordrecht)	Marques, A.R. ; SILVEIRA, F. A. ; Filho, J.P.L. ; Atman, A.P.F.	A2	
artigoEmPeriodico	2014	http://dx.doi.org/10.1162/EVCO_a_00112	On a Vector Space Representation in Genetic Algorithms for Sensor Scheduling in Wireless Sensor Networks	Evolutionary Computation (Online)	MARTINS, F. V. C. ; CARRANO, E. G. ; WANNER, E. F. ; TAKAHASHI, R. H. C. ; MATEUS, G. R. ; NAKAMURA, F. G.	Qualis nao identificado	Evolutionary Computation (Online)
artigoEmPeriodico	2014	http://dx.doi.org/10.1016/j.physa.2014.10.026	Is there any connection between the network morphology and the fluctuations of the stock market index?	Physica. A (Print)	Meira, F. S. ; ATMAN, A. P. F.	A2	
artigoEmPeriodico	2014		Bibliometric Knowledge Organization: A Domain Analytic Method Using Artificial Neural Networks	Knowledge Organization	MEIRELES, M. R. G. ; CENDO#769 ; ALMEIDA, P. E. M.	B1	
artigoEmPeriodico	2014	http://dx.doi.org/10.5540/tema.2014.015.02.0203	Characterization of Spectrum and Eigenvectors of the Schrödinger Operator with Chaotic Potentials	Tendências em Matemática Aplicada e Computacional	OLIVEIRA, W. F. ; PELLEGRINO, G. Q.	B2	TEMA. Tendências em Matemática Aplicada e Computacional
artigoEmPeriodico	2014	http://dx.doi.org/10.1007/s10044-013-0362-6	Evaluating cluster detection algorithms and feature extraction techniques in automatic classification of fish species	Pattern Analysis and Applications (Print)	RODRIGUES, MARCO T. A. ; FREITAS, MÁRIO H. G. ; PÁDUA, FLÁVIO L. C. ; Gomes, Rogério M. ; CARRANO, Eduardo G.	A2	
artigoEmPeriodico	2014		AD e Eventos da Mídia: Uma Análise da Espetacularização do Conflito Verbal	Acta Semiótica et Linguística	SABINO, J. L. F. ; SILVA, G. D. ; PÁDUA, F. L. C.	B2	
artigoEmPeriodico	2014	http://dx.doi.org/10.1007/s00894-014-2421-3	Growth analysis of sodium-potassium alloy clusters from 7 to 55 atoms through a genetic algorithm approach	Journal of Molecular Modeling (Print)	SILVA, M. X. ; GALVÃO, B. R. L. ; BELCHIOR, J. C.	B1	
artigoEmPeriodico	2014	http://dx.doi.org/10.1039/c3cp55379e	Theoretical study of small sodium-potassium alloy clusters through genetic algorithm and quantum chemical calculations	PCCP. Physical Chemistry Chemical Physics (Print)	SILVA, MATEUS XAVIER ; GALVÃO, BRENO RODRIGUES LAMAGHERE ; BELCHIOR, JADSON CLÁUDIO	A1	
artigoEmPeriodico	2014	http://dx.doi.org/10.1590/S0370-44672014000300007	Multi-Criteria decision aid methodology applied to highway truck selection at a mining company	REM. Revista Escola de Minas (Impresso)	SOUSA JUNIOR, W. T. ; Souza, Marcone J. F. ; CABRAL, I. E. ; DINIZ, M. E.	B1	
artigoEmPeriodico	2014		Abordagem Interdisciplinar para a Criação e Preservação de Novos Sinais para Dicionários Terminológicos em Libras	Acta Semiótica et Linguística	SOUZA, C. L. ; LIMA, V. L. S. E. ; PÁDUA, F. L. C.	B2	
artigoEmPeriodico	2014	http://dx.doi.org/10.5430/air.v3n3p49	A unified approach to content-based indexing and retrieval of digital videos from television archives	Artificial Intelligence Research	SOUZA, C. L. ; PÁDUA, F. L. C. ; NUNES, C. F. G. ; ASSIS, G. T. ; SILVA, G. D.	Qualis nao identificado	Artificial Intelligence Research
artigoEmPeriodico	2014	http://dx.doi.org/10.1016/j.optcom.2014.05.070	Parametric competition in non-autonomous Hamiltonian systems	Optics Communications (Print)	SOUZA, L.A.M. ; FARIA, J.G.P. ; Nemes, M.C.	A2	
artigoEmPeriodico	2014	http://dx.doi.org/10.5752/P.2316-9451.2014v3n1p59	Modelagem fuzzy para o problema de temporização semafórica em interseções de quatro tempos DOI - 10.5752/P.2316-9451.2014v3n1p59	Abakós	TORRES, VICTOR HUGO XAVIER ; LEAL, SAMARA SOARES ; ALMEIDA, PAULO EDUARDO MACIEL DE	Qualis nao identificado	Abakós
artigoEmPeriodico	2014	http://dx.doi.org/10.1021/jp5087027	Exploring the Utility of Many-Body Expansions: A Consistent Set of Accurate Potentials for the Lowest Quartet and Doublet States of the Azide Radical With Revisited Dynamics	The Journal of Physical Chemistry. A	VARANDAS, ANTÓNIO J.C. ; GALVÃO, BRENO R. L.	A2	
trabalhoCompletoEmCongresso	2014		Development of an application using a clustering algorithm for definition of collective transportation routes and times	Brazilian Symposium on Geoinformatics	ANDRADE, T. ; PEREIRA, M. A. ; WANNER, E. F.		
trabalhoCompletoEmCongresso	2014		Técnicas de Programação Genética para Descoberta de Fraudes em Transações de Comércio Eletrônico	Symposium on Knowledge Discovery	ASSIS, CARLOS ; PEREIRA, ADRIANO C. M. ; PEREIRA, MARCONI ; CARRANO, EDUARDO G.		
trabalhoCompletoEmCongresso	2014		A genetic programming approach for fraud detection in electronic transactions	IEEE Symposium Series on Computational Intelligence (IEEE SSCI)	ASSIS, CARLOS ; PEREIRA, ADRIANO C. M. ; PEREIRA, MARCONI ; CARRANO, EDUARDO G.		
trabalhoCompletoEmCongresso	2014	http://dx.doi.org/10.5540/03.2015.003.01.0082	Controle da dengue na estação seca da cidade de Curvelo-MG através de um modelo preditivo	XXXV CNMAC Congresso Nacional de Matemática Aplicada e Computacional	BARSANTE, LILLIA S. ; CORDEIRO, FLÁVIA S. ; CARDOSO, RODRIGO T. N. ; ACEBAL, JOSÉ L. ; PAIXÃO, KELLY S. ; EIRAS, ÁLVARO E.		
trabalhoCompletoEmCongresso	2014		Para Onde Devo Viajar: Recomendação de Cidades Baseada em Comunidades de Usuários	III Brazilian Workshop on Social Network Analysis and Mining (BraSNAM)	BIDART, RUHAN ; PEREIRA, ADRIANO C. M. ; ALMEIDA, Jussara ; LACERDA, A. M.		
trabalhoCompletoEmCongresso	2014		Where Should I Go? City Recommendation Based on User Communities	9th Latin American World Wide Web Congress (LA-WEB 2014)	BIDART, RUHAN ; PEREIRA, ADRIANO C. M. ; ALMEIDA, Jussara ; LACERDA, A. M.		
trabalhoCompletoEmCongresso	2014		Otimização estrutural de treliças pelo uso de algoritmos evolutivos híbridos com o método CALIBRA de calibração de parâmetros	XI Simpósio de Mecânica Computacional (SIMMEC) e II Encontro Mineiro de Modelagem Computacional (EMMCOMP)	BITENCOURT, A. S. P. ; MOITA, G. F.		
trabalhoCompletoEmCongresso	2014		Modelagem computacional com Lógica Fuzzy da movimentação de pessoas: determinação e aspectos ergonômicas cinemáticos	XI Simpósio de Mecânica Computacional (SIMMEC) e II Encontro Mineiro de Modelagem Computacional (EMMCOMP)	BRAGA, H. C. ; MOITA, G. F.		
trabalhoCompletoEmCongresso	2014		Potencialidades da lógica fuzzy para a simulação da movimentação bidirecional de pessoas: a formação de rios de escoamento e do empacotamento	XXXV CILAMCE - Iberian Latin American Congress on Computational Methods in Engineering	BRAGA, H. C. ; MOITA, G. F.		
trabalhoCompletoEmCongresso	2014		Fraud Analysis and Prevention in e-Commerce Transactions	9th Latin American World Wide Web Congress (LA-WEB 2014)	CALDEIRA, E. ; BRANDAO, G. ; PEREIRA, ADRIANO C. M.		
trabalhoCompletoEmCongresso	2014		Desenvolvimento de um Modelo Híbrido Baseado em Algoritmo Genético e Busca Tabu para Resolução do Problema de Quadro de Horários Escolar	Simpósio Brasileiro de Pesquisa Operacional	CASSEMIRO, M. V. ; MIRANDA, D. S. ; WANNER, E. F.		
trabalhoCompletoEmCongresso	2014	http://dx.doi.org/10.1109/psc.2014.6808095	A General Variable Neighborhood Search heuristic for short term load forecasting in Smart Grids environment	2014 Clemson University Power Systems Conference (PSC)	COELHO, VITOR N. ; GUIMARAES, FREDERICO G. ; REIS, AGNALDO J. R. ; COELHO, BRUNO N. ; COELHO, IGOR M. ; Souza, Marcone J. F.		
trabalhoCompletoEmCongresso	2014	http://dx.doi.org/10.1109/fuzz-ieee.2014.6891794	A heuristic fuzzy algorithm bio-inspired by Evolution Strategies for energy forecasting problems	2014 IEEE International Conference on Fuzzy Systems (FUZZIEEE)	COELHO, VITOR N. ; GUIMARAES, FREDERICO G. ; REIS, AGNALDO J. R. ; COELHO, IGOR M. ; COELHO, BRUNO N. ; Souza, Marcone J. F.		
trabalhoCompletoEmCongresso	2014	http://dx.doi.org/10.1109/CEC.2014.6900245	AIRP: A heuristic algorithm for solving the unrelated parallel machine scheduling problem	2014 IEEE Congress on Evolutionary Computation (CEC)	COTA, LUCIANO PERDIGAO ; HADDAD, MATHEUS NOHRA ; Souza, Marcone Jamilson Freitas ; COELHO, VITOR NAZARIO		
trabalhoCompletoEmCongresso	2014		Identificação de menores caminhos em redes sociais científicas	11th International Conference on Information Systems and Technology Management CONTECSI 2014	DIAS, T. M. R. ; Dias, P. M. ; AFFONSO, F. ; MOITA, G. F.		
trabalhoCompletoEmCongresso	2014		Caracterização e Análise de redes de palavras-chave em repositórios de publicações científicas	XI Simpósio de Mecânica Computacional (SIMMEC) e II Encontro Mineiro de Modelagem Computacional (EMMCOMP)	DIAS, T. M. R. ; MOITA, G. F.		
trabalhoCompletoEmCongresso	2014		Um processo de extração de dados da Web para identificação de colaboração científica em grandes bases de dados	XXXV CILAMCE - Iberian Latin American Congress on Computational Methods in Engineering	DIAS, T. M. R. ; MOITA, G. F. ; Dias, P. M.		
trabalhoCompletoEmCongresso	2014		Adopting agile software development with emphasis on quality project	11th International Conference on Information Systems and Technology Management CONTECSI 2014	DIAS, T. M. R. ; MOITA, G. F. ; NORONHA, D. H. ; RABELO, E.		
trabalhoCompletoEmCongresso	2014	http://dx.doi.org/10.1142/9789814602228_0008	OPTIMIZATION OF COSTS FOR COMBATING IN OPTIMAL TIME WINDOWS	International Symposium on Mathematical and Computational Biology	DIAS, W. O. ; XAVIER, G. A. ; LIMA, D. A. P. ; WANNER, E. F. ; CARDOSO, R. T. N.		
trabalhoCompletoEmCongresso	2014		A computational approach to the Electric Dispatch Problem: comparative case study between the Differential Evolution, Genetic and Clonal Alghorithms	XVI Encontro Nacional de Modelagem Computacional	FERREIRA, L. S. ; Marcelino, C. G. ; ALMEIDA, P. E. M. ; WANNER, E. F.		
trabalhoCompletoEmCongresso	2014	http://dx.doi.org/10.5220/0004884603760383	AIV: A Heuristic Algorithm based on Iterated Local Search and Variable Neighborhood Descent for Solving the Unrelated Parallel Machine Scheduling Problem with Setup Times	16th International Conference on Enterprise Information Systems	HADDAD, M. N. ; COTA, L. P. ; Souza, Marcone J. F. ; MACULAN, N.		
trabalhoCompletoEmCongresso	2014		Participatory Learning in the Neurofuzzy Short-Term Load Forecasting	IEEE Symposium Series on Computational Intelligence	Hell, Michel B. ; COSTA JÚNIOR, P. P. ; Gomide, F.		
trabalhoCompletoEmCongresso	2014		Design and Evaluation of Automatic Agents for Stock Market Intraday Trading	2014 IEEE/WIC/ACM International Joint Conferences on Web Intelligence (WI) and Intelligent Agent Technologies (IAT)	JABBUR, E. M. ; SILVA, E. J. ; BRAZ, D. C. ; PEREIRA, ADRIANO C. M. ; BRANDAO, H.		
trabalhoCompletoEmCongresso	2014		Parameter estimation of dynamic fuzzy models from uncertain data streams	33st Annual Meeting of the North American Fuzzy Information Processing	LEITE, DANIEL ; Caminhas, Walmir ; LEMOS, ANDRE ; PALHARES, R. ; GOMIDE , Fernando		
trabalhoCompletoEmCongresso	2014	http://dx.doi.org/10.1145/2600428.2609612	Economically-efficient sentiment stream analysis	37th international ACM SIGIR conference on Research development in information retrieval	LOURENCO JR., R. ; VELOSO, Adriano ; PEREIRA, ADRIANO C. M. ; MEIRA JR, Wagner ; FERREIRA, Renato ; PARTHASARATHY, S.		
trabalhoCompletoEmCongresso	2014	http://dx.doi.org/10.1007/978-3-642-34922-5_18	Exchange rate forecasting using echo state networks for trading strategies	2014 IEEE Conference on Computational Intelligence for Financial Engineering and Economics	MACIEL, L. ; BALLINI, R. ; GOMIDE , Fernando		
trabalhoCompletoEmCongresso	2014		Recursive Possibilistic Fuzzy Modeling	IEEE Symposium Series on Computational Intelligence	MACIEL, L. ; Gomide, F. ; BALLINI, R.		
trabalhoCompletoEmCongresso	2014		Semi-automatic Generation of Seed Pages in Genre-Aware Focused Crawling	13th International Conference WWW/Internet	MANGARAVITE, V. ; ASSIS, G. T. ; FERREIRA, A. A. ; PÁDUA, F. L. C.		
trabalhoCompletoEmCongresso	2014		An Evolutionary Approach to Improve Efficiency for Solving the Electric Dispatch Problem	IEEE SSCI 2014	Marcelino, C. G. ; WANNER, E. F. ; ALMEIDA, P. E. M.		
trabalhoCompletoEmCongresso	2014		Genealogia científica: Uma análise hierárquica de pesquisadores orientadores	XI Simpósio de Mecânica Computacional (SIMMEC) e II Encontro Mineiro de Modelagem Computacional (EMMCOMP)	MOREIRA, T. ; DIAS, T. M. R. ; SANTOS, L. ; MOITA, G. F.		
trabalhoCompletoEmCongresso	2014		Uma Investigação acerca da Conectividade da Web Brasileira	XLI Seminário Integrado de Software e Hardware (SEMISH)	MURTA, Cristina ; LIMA JR, V. ; PEREIRA, ADRIANO C. M.		
trabalhoCompletoEmCongresso	2014		Análise e classificação de redes de colaboração utilizando a Plataforma Lattes e redes neurais artificiais	XI Simpósio de Mecânica Computacional (SIMMEC) e II Encontro Mineiro de Modelagem Computacional (EMMCOMP)	OLIVEIRA, E. C. A. ; MOITA, G. F.		
trabalhoCompletoEmCongresso	2014		Uso de dados da Plataforma Lattes para estudo e classificação da colaboração dos pesquisadores do CEFET-MG empregando técnicas de redes neurais	XXXV CILAMCE - Iberian Latin American Congress on Computational Methods in Engineering	OLIVEIRA, E. C. A. ; MOITA, G. F.		
trabalhoCompletoEmCongresso	2014		Sincronicidade em Grupos Neuronais: uma abordagem via algoritmos genéticos	XVII Encontro de Modelagem Computacional	OLIVEIRA, L. D. R. ; GOMES, Rogério M. ; SANTOS, Bruno André ; BORGES, H. E.		
trabalhoCompletoEmCongresso	2014		Um Algoritmo Heurístico Aplicado ao Problema de Oferta de Produtos em Campanhas de Marketing Direto	XLVI Simpósio Brasileiro de Pesquisa Operacional	OLIVEIRA, T. A. ; COELHO, V. N. ; Souza, Marcone J. F. ; BOAVA, D. L. T. ; BOAVA, F. ; COELHO, IGOR MACHADO ; COELHO, B. N.		
trabalhoCompletoEmCongresso	2014		Aprimorar base de testes com princípios de Lógica Nebulosa	XI Simpósio de Mecânica Computacional (SIMMEC) e II Encontro Mineiro de Modelagem Computacional (EMMCOMP)	RABELO, A. F. C. ; MOITA, G. F.		
trabalhoCompletoEmCongresso	2014		Adoção de técnicas de análise de redes sociais como ferramenta de apoio em disciplinas de ensino superior	11th International Conference on Information Systems and Technology Management CONTECSI 2014	RABELO, E. ; DIAS, T. M. R. ; Dias, P. M. ; MOITA, G. F.		
trabalhoCompletoEmCongresso	2014		Adoção de técnicas de análise de redes sociais para apoio em disciplinas de engenharia	XXXV CILAMCE - Iberian Latin American Congress on Computational Methods in Engineering	RABELO, E. ; DIAS, T. M. R. ; MOITA, G. F. ; COSTA, E. E. ; Dias, P. M.		
trabalhoCompletoEmCongresso	2014		Alocação de Tempos Ociosos em uma dada Sequência de Produção com Janelas de Entrega	XLVI Simpósio Brasileiro de Pesquisa Operacional	ROSA, B. F. ; Souza, Marcone J. F. ; DE SOUZA, SERGIO R.		
trabalhoCompletoEmCongresso	2014		Evolving neural network with extreme learning for system modelling	2014 IEEE Evolving and Adaptive Intelligent Systems	ROSA, R. ; GOMIDE , Fernando ; DOVZAN, D. ; SKRJANC, I.		
trabalhoCompletoEmCongresso	2014		Evolving hybrid neural fuzzy network for realized volatility forecasting with jumps	2014 IEEE Conference on Computational Intelligence for Financial Engineering and Economics	ROSA, R. ; MACIEL, L. ; BALLINI, R. ; GOMIDE , Fernando		
trabalhoCompletoEmCongresso	2014		Controle Ótimo Mono e Multiobjetivo de Epidemias por meio de Diferentes Práticas Vacinatórias utilizando o Modelo SIR	XVII Encontro Nacional de Modelagem Computacional	S. JUNIOR, H. E. ; VASCONCELOS, A. S. ; Cardoso, R.T.N.		
trabalhoCompletoEmCongresso	2014		Personalização de Algoritmos de Redes Bayesianas de Classificação para Detecção de Fraude em Transações Web	Simpósio Brasileiro de Sistemas Multimídia e Web (WebMedia)	SA, A. G. C. ; PAPPA, Gisele ; PEREIRA, ADRIANO C. M.		
trabalhoCompletoEmCongresso	2014		Efeito da Aprendizagem, Memória e Cooperação em um Sistema Multiagentes para a Solução de Problemas de Otimização: aplicação ao problema de partição de números	XVII Encontro de Modelagem Computacional	SANTOS, M. R. A. ; GOMES, Rogério M. ; BORGES, H. E. ; SOUZA, D.		
trabalhoCompletoEmCongresso	2014	http://dx.doi.org/10.5151/mathpro-cnmai-0138	Aplicação de Testes Adaptativos Computadorizados em Modelos de Desdobramento Graduado Generalizados	Congresso Nacional de Matemática Aplicada à Indústria	SILVA FILHO, AUGUSTO SOUSA DA ; SANTOS, MARCOS ANTÔNIO DA CUNHA ; CARDOSO, RODRIGO TÔMAS NOGUEIRA		
trabalhoCompletoEmCongresso	2014		Real-Time Nonlinear Modeling of a Twin Rotor MINO System using Evolving Neuro-Fuzzy Network	IEEE Symposium Series on Computational Intelligence	SILVA, A. ; Caminhas, W.M. ; LEMOS, A. ; Gomide, F.		
trabalhoCompletoEmCongresso	2014		Planejamento Operacional de Lavra: Um Estudo de Caso	XLVI Simpósio Brasileiro de Pesquisa Operacional	SILVA, A. A. ; Souza, Marcone J. F. ; GUIMARAES, V. L. ; MARTINS, A. G.		
trabalhoCompletoEmCongresso	2014		A Neural Network Based Approach to Support the Market Making Strategies in High-Frequency Trading	International Joint Conference on Neural Networks	SILVA, E. J. ; BRAZ, D. C. ; PEREIRA, ADRIANO C. M. ; BRANDAO, H.		
trabalhoCompletoEmCongresso	2014		An Agent-Based Metaheuristic Approach applied to the Vehicle Routing Problem with Time-Windows	XI Encontro Nacional de Inteligência Artificial e Computacional	SILVA, M. A. L. ; SOUZA, Sérgio Ricardo de ; OLIVEIRA, S. M. ; Souza, Marcone J. F.		
trabalhoCompletoEmCongresso	2014		Evolving fuzzy model based on c-regression clustering	2014 IEEE Evolving and Adaptive Intelligent Systems	SKRJANC, I. ; DOVZAN, D. ; GOMIDE , Fernando		
trabalhoCompletoEmCongresso	2014		Sistema Multiagentes Bioinspirados para Resolução de Problemas de Otimização: generalização de heurísticas e metaheurísticas	XVII Encontro de Modelagem Computacional	SOUZA, D. ; SANTOS, M. R. A. ; BORGES, H. E. ; GOMES, Rogério M.		
trabalhoCompletoEmCongresso	2014		Richness Distribution from a Behavioral Finance Model Through a Complex Network	International Mathematical Finance Conference	STEFAN, F. M. ; ATMAN, A. P. F.		
