strict graph grafo1 {
	graph [bb="0,0,2545.5,179",
		id=grafo1,
		overlap=False
	];
	node [fontsize=8,
		label="\N",
		shape=rectangle,
		style=filled
	];
	0	 [URL="http://lattes.cnpq.br/1836363748488436",
		color="#17272B",
		fontcolor="#FFFFFF",
		height=0.23611,
		label="Alexandre da Costa Sena [11]",
		pos="60.5,116.5",
		width=1.5556];
	21	 [URL="http://lattes.cnpq.br/4869894816851795",
		color="#17272B",
		fontcolor="#FFFFFF",
		height=0.23611,
		label="Leandro A. Justen Marzulo [11]",
		pos="59.5,62.5",
		width=1.6528];
	0 -- 21	 [pos="60.352,107.83 60.163,97.996 59.838,81.051 59.648,71.204"];
	26	 [URL="http://lattes.cnpq.br/6348480289055660",
		color="#17272B",
		fontcolor="#FFFFFF",
		height=0.23611,
		label="Maria C. Stelling de Castro [7]",
		pos="166.5,8.5",
		width=1.6111];
	0 -- 26	 [pos="75.67,107.99 90.192,100.28 112.11,87.199 127.5,71.5 144.06,54.612 157.14,29.535 163.06,17.084"];
	21 -- 26	 [pos="75.288,53.827 95.635,43.939 130.79,26.856 150.99,17.035"];
	1	 [URL="http://lattes.cnpq.br/9781797634377318",
		color="#17272B",
		fontcolor="#FFFFFF",
		height=0.23611,
		label="Fabiano Souza de Oliveira [0]",
		pos="362.5,170.5",
		width=1.5694];
	2	 [URL="http://lattes.cnpq.br/7657422977567514",
		color="#17272B",
		fontcolor="#FFFFFF",
		height=0.23611,
		label="Frederico A. de Oliveira Cruz [3]",
		pos="225.5,170.5",
		width=1.7222];
	3	 [URL="http://lattes.cnpq.br/6107034183202542",
		color="#17272B",
		fontcolor="#FFFFFF",
		height=0.23611,
		label="Celia M. Cortez Silva [6]",
		pos="225.5,116.5",
		width=1.3611];
	2 -- 3	 [pos="225.5,161.83 225.5,152 225.5,135.05 225.5,125.2"];
	3 -- 26	 [pos="221.26,107.88 210.37,88.319 181.55,36.536 170.7,17.054"];
	10	 [URL="http://lattes.cnpq.br/5258150848273682",
		color="#17272B",
		fontcolor="#FFFFFF",
		height=0.23611,
		label="Roseli Suzi Wedemann [3]",
		pos="265.5,62.5",
		width=1.4306];
	3 -- 10	 [pos="231.4,107.83 238.96,97.996 252,81.051 259.57,71.204"];
	10 -- 26	 [pos="250.89,53.827 232.07,43.939 199.54,26.856 180.85,17.035"];
	4	 [URL="http://lattes.cnpq.br/3909390599449995",
		color="#17272B",
		fontcolor="#FFFFFF",
		height=0.23611,
		label="Carlos F. F. de Barros e Vasconcellos [0]",
		pos="511.5,170.5",
		width=2.0694];
	5	 [URL="http://lattes.cnpq.br/4299545465339581",
		color="#17272B",
		fontcolor="#FFFFFF",
		height=0.23611,
		label="Antonio C. de Moura Santos [0]",
		pos="664.5,170.5",
		width=1.6667];
	6	 [URL="http://lattes.cnpq.br/",
		color="#17272B",
		fontcolor="#FFFFFF",
		height=0.23611,
		label="[Nome-nao-identificado] [0]",
		pos="796.5,170.5",
		width=1.4861];
	7	 [URL="http://lattes.cnpq.br/0403732822984772",
		color="#17272B",
		fontcolor="#FFFFFF",
		height=0.23611,
		label="Alexandre Sztajnberg [1]",
		pos="916.5,170.5",
		width=1.3472];
	11	 [URL="http://lattes.cnpq.br/1829333800490851",
		color="#17272B",
		fontcolor="#FFFFFF",
		height=0.23611,
		label="Rosa M. E. Moreira da Costa [8]",
		pos="916.5,116.5",
		width=1.6806];
	7 -- 11	 [pos="916.5,161.83 916.5,152 916.5,135.05 916.5,125.2"];
	17	 [URL="http://lattes.cnpq.br/9164335773757265",
		color="#17272B",
		fontcolor="#FFFFFF",
		height=0.23611,
		label="Regina Serrão Lanzillotti [1]",
		pos="854.5,62.5",
		width=1.5139];
	11 -- 17	 [pos="907.35,107.83 895.63,97.996 875.43,81.051 863.69,71.204"];
	20	 [URL="http://lattes.cnpq.br/0556459512101837",
		color="#17272B",
		fontcolor="#FFFFFF",
		height=0.23611,
		label="Luis A. Vidal de Carvalho [1]",
		pos="895.5,8.5",
		width=1.5556];
	11 -- 20	 [pos="917.83,107.73 919.6,95.861 922,72.569 917.5,53.5 914.28,39.868 906.16,25.645 900.73,17.182"];
	29	 [URL="http://lattes.cnpq.br/4657870977403568",
		color="#17272B",
		fontcolor="#FFFFFF",
		height=0.23611,
		label="Guilherme L. Abelha Mota [3]",
		pos="1034.5,62.5",
		width=1.5972];
	11 -- 29	 [pos="933.66,107.94 956.03,98.08 994.94,80.934 1017.3,71.07"];
	17 -- 20	 [pos="860.55,53.827 868.3,43.996 881.66,27.051 889.43,17.204"];
	8	 [URL="http://lattes.cnpq.br/4754635406522430",
		color="#17272B",
		fontcolor="#FFFFFF",
		height=0.23611,
		label="Jerrylee D. Yoshii Silva [0]",
		pos="1236.5,170.5",
		width=1.4583];
	9	 [URL="http://lattes.cnpq.br/7535348349141535",
		color="#17272B",
		fontcolor="#FFFFFF",
		height=0.23611,
		label="Vera M. Benjamim Werneck [7]",
		pos="1105.5,170.5",
		width=1.6806];
	9 -- 11	 [pos="1078,161.94 1042.2,152.08 979.86,134.93 944.02,125.07"];
	14	 [URL="http://lattes.cnpq.br/1706605645478326",
		color="#17272B",
		fontcolor="#FFFFFF",
		height=0.23611,
		label="Ana L. de C. Leite Duboc [2]",
		pos="1167.5,116.5",
		width=1.5417];
	9 -- 14	 [pos="1114.6,161.83 1126.4,152 1146.6,135.05 1158.3,125.2"];
	12	 [URL="http://lattes.cnpq.br/5413422509570085",
		color="#17272B",
		fontcolor="#FFFFFF",
		height=0.23611,
		label="Paulo E. Duarte Pinto [2]",
		pos="1044.5,116.5",
		width=1.3611];
	12 -- 29	 [pos="1043,107.83 1041.1,97.996 1037.9,81.051 1036,71.204"];
	13	 [URL="http://lattes.cnpq.br/1734587740129156",
		color="#17272B",
		fontcolor="#FFFFFF",
		height=0.23611,
		label="Augusto C. de Castro Barbosa [9]",
		pos="1369.5,170.5",
		width=1.7361];
	27	 [URL="http://lattes.cnpq.br/7992727935310462",
		color="#17272B",
		fontcolor="#FFFFFF",
		height=0.23611,
		label="Marcus V. Tovar Costa [9]",
		pos="1369.5,116.5",
		width=1.4306];
	13 -- 27	 [pos="1369.5,161.83 1369.5,152 1369.5,135.05 1369.5,125.2"];
	15	 [URL="http://lattes.cnpq.br/8300604408079168",
		color="#17272B",
		fontcolor="#FFFFFF",
		height=0.23611,
		label="Ricardo Carvalho de Barros [0]",
		pos="1508.5,170.5",
		width=1.625];
	16	 [URL="http://lattes.cnpq.br/3413049864861519",
		color="#17272B",
		fontcolor="#FFFFFF",
		height=0.23611,
		label="Rosa M. Videira de Figueiredo [0]",
		pos="1648.5,170.5",
		width=1.7639];
	18	 [URL="http://lattes.cnpq.br/2324159515825927",
		color="#17272B",
		fontcolor="#FFFFFF",
		height=0.23611,
		label="Raul Jose Donangelo [0]",
		pos="1778.5,170.5",
		width=1.3333];
	19	 [URL="http://lattes.cnpq.br/8180092714037435",
		color="#17272B",
		fontcolor="#FFFFFF",
		height=0.23611,
		label="Patrícia Nunes da Silva [0]",
		pos="1896.5,170.5",
		width=1.4306];
	22	 [URL="http://lattes.cnpq.br/7074540262731419",
		color="#17272B",
		fontcolor="#FFFFFF",
		height=0.23611,
		label="Neide d. Santos Souza [0]",
		pos="2016.5,170.5",
		width=1.3889];
	23	 [URL="http://lattes.cnpq.br/0662797102623056",
		color="#17272B",
		fontcolor="#FFFFFF",
		height=0.23611,
		label="Sheila R. Murgel Veloso [0]",
		pos="2138.5,170.5",
		width=1.4861];
	24	 [URL="http://lattes.cnpq.br/3383864003678045",
		color="#17272B",
		fontcolor="#FFFFFF",
		height=0.23611,
		label="Cristiane de Faria Oliveira [0]",
		pos="2266.5,170.5",
		width=1.5694];
	25	 [URL="http://lattes.cnpq.br/4468191018994448",
		color="#17272B",
		fontcolor="#FFFFFF",
		height=0.23611,
		label="Maria H. de P. Leite Mello [0]",
		pos="2398.5,170.5",
		width=1.5833];
	28	 [URL="http://lattes.cnpq.br/3965328361563422",
		color="#17272B",
		fontcolor="#FFFFFF",
		height=0.23611,
		label="Luerbio Faria [0]",
		pos="2509.5,170.5",
		width=1];
}
