strict digraph grafo3 {
	graph [bb="0,0,928,337",
		id=grafo3,
		overlap=False
	];
	node [fontsize=8,
		label="\N",
		shape=rectangle,
		style=filled
	];
	0	 [URL="http://lattes.cnpq.br/6901822630062638",
		color="#17272B",
		fontcolor="#FFFFFF",
		height=0.23611,
		label="Willian Barros Silva [0]",
		pos="47,328.5",
		width=1.3056];
	1	 [URL="http://lattes.cnpq.br/9647533579414452",
		color="#17272B",
		fontcolor="#FFFFFF",
		height=0.23611,
		label="Julián Bravo Castillero [4]",
		pos="163,328.5",
		width=1.4167];
	13	 [URL="http://lattes.cnpq.br/2600285500812676",
		color="#17272B",
		fontcolor="#FFFFFF",
		height=0.23611,
		label="Leslie D. Pérez Fernández [6]",
		pos="163,264.5",
		width=1.5556];
	1 -> 13	 [arrowhead=normal,
		arrowsize=0.75,
		fontsize=8,
		label=1.0,
		lp="152.5,296.5",
		penwidth=3.5,
		pos="e,156.72,273.15 156.04,319.74 150.5,312.6 144.13,301.63 147,291.5 148.16,287.4 150.17,283.31 152.38,279.62"];
	13 -> 1	 [arrowhead=normal,
		arrowsize=0.75,
		fontsize=8,
		label=0.67,
		lp="170.5,296.5",
		penwidth=2.51,
		pos="e,163,319.9 163,273.16 163,282.86 163,299.8 163,312.19"];
	10	 [URL="http://lattes.cnpq.br/0545330428695112",
		color="#17272B",
		fontcolor="#FFFFFF",
		height=0.23611,
		label="Valdecir Bottega [4]",
		pos="154,136.5",
		width=1.1389];
	13 -> 10	 [arrowhead=normal,
		arrowsize=0.75,
		fontsize=8,
		label=0.25,
		lp="188.5,200.5",
		penwidth=1.25,
		pos="e,160.02,145.33 167.18,255.99 169.82,250.92 173.09,243.98 175,237.5 180.81,217.82 181.85,211.82 179,191.5 177.2,178.68 176.38,175.27 \
171,163.5 169.15,159.45 166.73,155.31 164.29,151.56"];
	11	 [URL="http://lattes.cnpq.br/7781627333249561",
		color="#17272B",
		fontcolor="#FFFFFF",
		height=0.23611,
		label="Rejane Pergher [5]",
		pos="105,200.5",
		width=1.0694];
	13 -> 11	 [arrowhead=normal,
		arrowsize=0.75,
		fontsize=8,
		label=0.08,
		lp="145.5,232.5",
		penwidth=0.74,
		pos="e,112.17,209.16 155.89,255.9 146.32,245.67 129.16,227.32 117.43,214.79"];
	10 -> 13	 [arrowhead=normal,
		arrowsize=0.75,
		fontsize=8,
		label=0.38,
		lp="167.5,200.5",
		penwidth=1.64,
		pos="e,162.46,256 154.54,145.12 156,165.44 159.98,221.16 161.91,248.28"];
	10 -> 11	 [arrowhead=normal,
		arrowsize=0.75,
		fontsize=8,
		label=0.38,
		lp="124.5,168.5",
		penwidth=1.64,
		pos="e,106.09,191.97 138.9,145.1 131.39,149.55 122.72,155.82 117,163.5 112.42,169.65 109.52,177.66 107.73,184.55"];
	15	 [URL="http://lattes.cnpq.br/7898168715320830",
		color="#17272B",
		fontcolor="#FFFFFF",
		height=0.23611,
		label="Alexandre Molter [5]",
		pos="99,72.5",
		width=1.1806];
	10 -> 15	 [arrowhead=normal,
		arrowsize=0.75,
		fontsize=8,
		label=0.25,
		lp="124.5,104.5",
		penwidth=1.25,
		pos="e,101.51,81.027 140.06,127.99 132.52,123.41 123.46,117 117,109.5 111.69,103.33 107.49,95.33 104.48,88.435"];
	11 -> 13	 [arrowhead=normal,
		arrowsize=0.75,
		fontsize=8,
		label=0.1,
		lp="117.5,232.5",
		penwidth=0.8,
		pos="e,137.78,255.96 104.63,209.16 104.64,217.03 105.79,229.26 112,237.5 116.8,243.87 123.6,248.8 130.68,252.57"];
	11 -> 10	 [arrowhead=normal,
		arrowsize=0.75,
		fontsize=8,
		label=0.3,
		lp="144.5,168.5",
		penwidth=1.4,
		pos="e,150.13,145.04 114.08,191.82 119.61,186.9 126.62,180.2 132,173.5 137.39,166.79 142.46,158.65 146.38,151.82"];
	11 -> 15	 [arrowhead=normal,
		arrowsize=0.75,
		fontsize=8,
		label=0.6,
		lp="55.5,136.5",
		penwidth=2.3,
		pos="e,87.613,81.071 91.55,191.88 77.458,182.94 56.485,166.61 50,145.5 42.786,122.02 64.455,99.35 81.258,85.914"];
	15 -> 10	 [arrowhead=normal,
		arrowsize=0.75,
		fontsize=8,
		label=0.2,
		lp="145.5,104.5",
		penwidth=1.1,
		pos="e,150.32,127.81 110.54,81.042 117.29,85.815 125.71,92.409 132,99.5 137.71,105.94 142.82,114.05 146.67,120.94"];
	15 -> 11	 [arrowhead=normal,
		arrowsize=0.75,
		fontsize=8,
		label=0.6,
		lp="98.5,136.5",
		penwidth=2.3,
		pos="e,102.76,191.9 97.41,81.08 94.869,94.217 90.427,122.06 93,145.5 94.47,158.89 97.931,173.82 100.76,184.58"];
	5	 [URL="http://lattes.cnpq.br/8476129194599888",
		color="#17272B",
		fontcolor="#FFFFFF",
		height=0.23611,
		label="Fabio Silva Botelho [1]",
		pos="99,8.5",
		width=1.2778];
	15 -> 5	 [arrowhead=normal,
		arrowsize=0.75,
		fontsize=8,
		label=0.2,
		lp="89.5,40.5",
		penwidth=1.1,
		pos="e,93.104,17.214 92.671,63.983 87.436,56.839 81.268,45.703 84,35.5 85.084,31.451 86.968,27.379 89.042,23.699"];
	2	 [URL="http://lattes.cnpq.br/4338284890563991",
		color="#17272B",
		fontcolor="#FFFFFF",
		height=0.23611,
		label="Jonas da Costa Carvalho [10]",
		pos="518,328.5",
		width=1.5417];
	6	 [URL="http://lattes.cnpq.br/3894096111082082",
		color="#17272B",
		fontcolor="#FFFFFF",
		height=0.23611,
		label="Daniela Buske [54]",
		pos="444,264.5",
		width=1.0972];
	2 -> 6	 [arrowhead=normal,
		arrowsize=0.75,
		fontsize=8,
		label=0.6,
		lp="490.5,296.5",
		penwidth=2.3,
		pos="e,453.15,273.16 508.93,319.9 496.5,309.49 474.02,290.65 459.05,278.11"];
	12	 [URL="http://lattes.cnpq.br/2408574220216968",
		color="#17272B",
		fontcolor="#FFFFFF",
		height=0.23611,
		label="Régis Sperotto de Quadros [53]",
		pos="462,136.5",
		width=1.6389];
	2 -> 12	 [arrowhead=normal,
		arrowsize=0.75,
		fontsize=8,
		label=0.4,
		lp="514.5,232.5",
		penwidth=1.7,
		pos="e,470.72,145.43 518.04,319.77 517.83,295.26 514.73,217.75 485,163.5 482.57,159.06 479.25,154.74 475.9,150.93"];
	6 -> 2	 [arrowhead=normal,
		arrowsize=0.75,
		fontsize=8,
		label=0.11,
		lp="464.5,296.5",
		penwidth=0.83,
		pos="e,487.41,319.97 444.93,273.04 446.28,281.03 449.51,293.58 457,301.5 463.36,308.23 471.75,313.3 480.27,317.09"];
	6 -> 12	 [arrowhead=normal,
		arrowsize=0.75,
		fontsize=8,
		label=0.84,
		lp="461.5,200.5",
		penwidth=3.02,
		pos="e,460.84,145.19 445.03,255.93 446.82,242.81 450.63,214.98 454,191.5 455.87,178.47 458.07,163.69 459.68,152.89"];
	7	 [URL="http://lattes.cnpq.br/6672178100422350",
		color="#17272B",
		fontcolor="#FFFFFF",
		height=0.23611,
		label="Claudio Zen Petersen [2]",
		pos="462,72.5",
		width=1.3472];
	6 -> 7	 [arrowhead=normal,
		arrowsize=0.75,
		fontsize=8,
		label=0.01,
		lp="319.5,168.5",
		penwidth=0.53,
		pos="e,440.06,81.078 404.71,260.39 352.37,254.43 268.96,237.6 293,191.5 322.51,134.89 392.96,99.88 432.96,83.851"];
	4	 [URL="http://lattes.cnpq.br/9865056179221557",
		color="#17272B",
		fontcolor="#FFFFFF",
		height=0.23611,
		label="Fabrício Pereira Härter [5]",
		pos="353,200.5",
		width=1.4167];
	6 -> 4	 [arrowhead=normal,
		arrowsize=0.75,
		fontsize=8,
		label=0.04,
		lp="410.5,232.5",
		penwidth=0.62,
		pos="e,364.25,209.16 432.84,255.9 417.29,245.3 388.93,225.98 370.53,213.45"];
	12 -> 2	 [arrowhead=normal,
		arrowsize=0.75,
		fontsize=8,
		label=0.08,
		lp="592.5,232.5",
		penwidth=0.74,
		pos="e,525.59,319.8 521.1,143.89 545.79,147.89 570.49,154.12 578,163.5 615.86,210.78 558.08,284.15 530.88,314.09"];
	12 -> 6	 [arrowhead=normal,
		arrowsize=0.75,
		fontsize=8,
		label=0.86,
		lp="481.5,200.5",
		penwidth=3.08,
		pos="e,450.47,255.76 465.37,145.06 467.45,150.16 469.92,157.09 471,163.5 476.49,196.17 475.67,207.32 462,237.5 460.13,241.63 457.6,245.79 \
455.02,249.55"];
	12 -> 7	 [arrowhead=normal,
		arrowsize=0.75,
		fontsize=8,
		label=0.01,
		lp="469.5,104.5",
		penwidth=0.53,
		pos="e,462,81.165 462,127.9 462,118.23 462,101.3 462,88.891"];
	12 -> 4	 [arrowhead=normal,
		arrowsize=0.75,
		fontsize=8,
		label=0.06,
		lp="385.5,168.5",
		penwidth=0.68,
		pos="e,356.46,191.75 418.87,145.01 404.9,148.9 389.95,154.75 378,163.5 370.45,169.03 364.38,177.56 360.12,184.92"];
	7 -> 6	 [arrowhead=normal,
		arrowsize=0.75,
		fontsize=8,
		label=0.25,
		lp="566.5,168.5",
		penwidth=1.25,
		pos="e,483.31,258.83 474.66,81.116 489.45,90.52 513.95,107.72 530,127.5 561.26,166.03 579.58,198.43 549,237.5 541.58,246.98 515.25,253.49 \
490.81,257.62"];
	7 -> 12	 [arrowhead=normal,
		arrowsize=0.75,
		fontsize=8,
		label=0.25,
		lp="451.5,104.5",
		penwidth=1.25,
		pos="e,454.94,127.98 454.18,81.199 447.96,88.287 440.79,99.228 444,109.5 445.35,113.82 447.7,118.06 450.26,121.82"];
	3	 [URL="http://lattes.cnpq.br/6799036574745985",
		color="#17272B",
		fontcolor="#FFFFFF",
		height=0.23611,
		label="Glênio Aguiar Gonçalves [1]",
		pos="462,8.5",
		width=1.5278];
	7 -> 3	 [arrowhead=normal,
		arrowsize=0.75,
		fontsize=8,
		label=0.5,
		lp="452.5,40.5",
		penwidth=2.0,
		pos="e,455.67,17.017 456.1,63.786 452.71,58.85 448.78,52.145 447,45.5 444.99,38.007 447.79,30.011 451.49,23.463"];
	4 -> 6	 [arrowhead=normal,
		arrowsize=0.75,
		fontsize=8,
		label=0.4,
		lp="376.5,232.5",
		penwidth=1.7,
		pos="e,405.81,255.88 354.98,209.16 357.45,217.27 362.42,229.9 371,237.5 378.86,244.46 388.72,249.59 398.62,253.37"];
	4 -> 12	 [arrowhead=normal,
		arrowsize=0.75,
		fontsize=8,
		label=0.6,
		lp="420.5,168.5",
		penwidth=2.3,
		pos="e,447.97,145.16 365.78,191.98 378.28,184.64 397.89,173.2 415,163.5 423.45,158.71 432.8,153.52 440.92,149.04"];
	3 -> 7	 [arrowhead=normal,
		arrowsize=0.75,
		fontsize=8,
		label=1.0,
		lp="467.5,40.5",
		penwidth=3.5,
		pos="e,462,63.898 462,17.165 462,26.864 462,43.797 462,56.189"];
	5 -> 15	 [arrowhead=normal,
		arrowsize=0.75,
		fontsize=8,
		label=1.0,
		lp="104.5,40.5",
		penwidth=3.5,
		pos="e,99,63.898 99,17.165 99,26.864 99,43.797 99,56.189"];
	8	 [URL="http://lattes.cnpq.br/1533620251940629",
		color="#17272B",
		fontcolor="#FFFFFF",
		height=0.23611,
		label="Camila Pinto da Costa [0]",
		pos="642,328.5",
		width=1.3889];
	9	 [URL="http://lattes.cnpq.br/6548055244465358",
		color="#17272B",
		fontcolor="#FFFFFF",
		height=0.23611,
		label="Welton Alves de Menezes [0]",
		pos="766,328.5",
		width=1.5556];
	14	 [URL="http://lattes.cnpq.br/1154019717568830",
		color="#17272B",
		fontcolor="#FFFFFF",
		height=0.23611,
		label="Andrei Bourchtein [0]",
		pos="884,328.5",
		width=1.2222];
}
