artigoEmPeriodico	2013		Usando o padrão Dublin Core para definição de metadados de imagens médicas	Revista Eletrônica Fafit/Facic	AIRES, João Paulo ; MATOS, Simone Nasser ; HASEGAWA, F. M.	B4	
artigoEmPeriodico	2013	http://dx.doi.org/10.1007/s13313-013-0250-y	The effect of temperature, leaf wetness and light on development of grapevine rust	Australasian Plant Pathology	ANGELOTTI, FRANCISLENE ; SCAPIN, CLAUDIA R. ; TESSMANN, DAURI J. ; VIDA, JOÃO B. ; Canteri, Marcelo G.	Qualis nao identificado	Australasian Plant Pathology
artigoEmPeriodico	2013	http://dx.doi.org/10.1590/s0100-54052013000400007	Resistência genotípica e monitoramento da favorabilidade para ocorrência da ferrugem alaranjada da cana-de-açúcar	Summa Phytopathologica (Impresso)	ARAÚJO, KELLY LANA ; Canteri, Marcelo Giovanetti ; GILIO, THIAGO ALEXANDRE SANTANA ; NEUBAUER, RAFAEL ALTRÃO ; SANCHES, PAULO BONFIM ; SUMIDA, CIRO HIDEKI ; GIGLIOTI, Éder Antônio	B1	
artigoEmPeriodico	2013		Reação de genótipos de nectarina (Prunus persica var. nucipersica) à ferrugem da folha, ao chumbinho e evolução da desfolha	Revista Ciência Agronômica (UFC. Impresso)	AYUB, R. A.; ASSUNCAO, M. ; Torres, A. L.	B1	
artigoEmPeriodico	2013		Armazenamento e processamento mínimo de rabanete	Acta Scientiarum. Agronomy (Impresso)	AYUB, R. A.; Spinardi, B. ; Gioppo, M	A2	
artigoEmPeriodico	2013	http://dx.doi.org/10.1016/j.geoderma.2013.02.003	Sulfur forms in organic substrates affecting S mineralization in soil	Geoderma (Amsterdam)	BLUM, S. C. ; LEHMANN, J. ; SOLOMON, D. ; CAIRES, E. F. ; ALLEONI, L. R. F.	A1	
artigoEmPeriodico	2013		Evaluation of Developed Software for Calculating Histogram Intersection Distances	Iberoamerican Journal of Applied Computing	BOFF, F. A. ; NAME, M. H. ; FALATE, R.	B4	
artigoEmPeriodico	2013	http://dx.doi.org/10.13140/RG.2.1.1508.1444	Evaluation of Developed Software for Calculating Histogram Intersection Distances	Iberoamerican Journal of Applied Computing	BOFF, F. A. ; NAME, M. H. ; FALATE, R.	B4	
artigoEmPeriodico	2013		Correção da Acidez do Solo em Sistema Plantio Direto	Informações Agronômicas	CAIRES, E. F	Qualis nao identificado	Informações Agronômicas
artigoEmPeriodico	2013	http://dx.doi.org/10.4067/s0718-95162013005000024	Lime and phosphogypsum application and sulfate retention in subtropical soils under no-till system	Journal of soil science and plant nutrition	CHURKA BLUM, S ; CAIRES, E. F ; ALLEONI, L. R. F	Qualis nao identificado	Journal of soil science and plant nutrition
artigoEmPeriodico	2013		DEVELOPMENT OF A MICROCONTROLED IRRADIATION SYSTEM BASED ON LIGHT-EMITTING DIODES (LEDs) MATRIXES FOR PHOTOTHERAPY APPLICATIONS	Iberoamerican Journal of Applied Computing	D. D. A. Carneiro ; R. C. Evangelista ; R. F. T. Gómez ; STEVAN Jr., S. L.	B4	
artigoEmPeriodico	2013	http://dx.doi.org/10.1002/cpe.2910	Evaluation of asynchronous multi-swarm particle optimization on several topologies	Concurrency and Computation	DE CAMPOS, ARION; POZO, AURORA T.R. ; DUARTE, ELIAS P.	A2	
artigoEmPeriodico	2013	http://dx.doi.org/10.1061/(asce)cp.1943-5487.0000212	Supervised Classification of Basaltic Aggregate Particles Based on Texture Properties	Journal of Computing in Civil Engineering	de Gouveia, Lilian Tais ; ARRUDA, G. F. ; de Arruda, Guilherme Ferraz ; Rodrigues, Francisco Aparecido ; SENGER, L. J. ; da Fontoura Costa, Luciano	B1	
artigoEmPeriodico	2013	http://dx.doi.org/10.4238/2013.october.29.4	Comparative proteomic analysis between early developmental stages of the Coffea arabica fruits	Genetics and Molecular Research	ETTO, R. M.; BANDIL, G. B. ; GALVAO, C. W. ; RAMOS, H. J. O. ; Souza, E. M. ; Pedrosa, F. O. ; CHAVES, D. F. S. ; HUERGO, L. ; AYUB, R. A.	A2	
artigoEmPeriodico	2013		Eficiência de fungicidas para o controle da ferrugem-asiática da soja, Phakopsora pachyrhizi, na safra 2012/13: resultados sumarizados dos ensaios cooperativos	Circular Técnica	GODOY, CLAUDIA V	Qualis nao identificado	Circular Técnica
artigoEmPeriodico	2013		Eficiência de fungicidas para o controle da mancha-alvo, Corynespora cassiicola, na safra 2012/13: resultados sumarizados dos ensaios cooperativos	Circular Técnica	GODOY, CLAUDIA V. ; UTIAMADA, C. M. ; MEYER, M. C. ; CAMPOS, H. D. ; PIMENTA, C. B. ; BORGES, E. P. ; SIQUERI, F. V. ; JULIATTI, F. C. ; NUNES JR., J. ; CARNEIRO, L. C. ; SILVA, L. H. C. P. ; SATO, L. N. ; CANTERI, M. G. ; MADALOSSO, M. ; VOLF, M. R. ; MARTINS, M. C. ; BALARDIN, R. S. ; MONTECELLI, T. D. N. ; CARLIN, V. J. ; VENANCIO, Wilson Story	Qualis nao identificado	Circular Técnica
artigoEmPeriodico	2013	http://dx.doi.org/10.1007/s40313-013-0065-7	A Distributed and Wireless Data Acquisition System to Fight Against Sugarcane Orange Rust	Journal of Control, Automation and Electrical Systems	GUEDES, ALEX LEMES ; MOREIRA, MAURÍCIO ; FRANÇA, MARIA BERNADETE DE M. ; FRANÇA, JOSÉ ALEXANDRE ; PIAI, JULIANI CHICO ; AGUIAR E SILVA, MARCELO AUGUSTO ; Canteri, Marcelo Giovanetti	Qualis nao identificado	Journal of Control, Automation and Electrical Systems
artigoEmPeriodico	2013	http://dx.doi.org/10.1007/s11104-012-1413-2	Effects of soil acidity and water stress on corn and soybean performance under a no-till system	Plant and Soil (Dordrecht. Online)	JORIS, HELIO ANTONIO WOOD ; Caires, Eduardo Fávero ; BINI, ANGELO RAFAEL ; SCHARR, DANILO AUGUSTO ; HALISKI, ADRIANO	Qualis nao identificado	Plant and Soil (Dordrecht. Online)
artigoEmPeriodico	2013		Influence of soybean cultivar maturity group on yield and asian soybean rust progress	Tropical Plant Pathology (Impresso)	Koga, Lucimara J. ; CANTERI, M. G. ; Calvo, Éberson S. ; MARTINS, D. C. ; XAVIER, S.A. ; Harada, Arlindo ; Kiihl, Romeu A.S.	B1	
artigoEmPeriodico	2013		DISPOSITIVO PARA ANÁLISE DINÂMICA DA MARCHA HUMANA UTILIZANDO SENSORES INERCIAIS MEMS	Revista de Engenharia e Tecnologia	Lima, J. J. de ; Martins, M. S. R. ; Schleder, J. C. ; Okida, S. ; STEVAN Jr., S. L.	B4	
artigoEmPeriodico	2013		A Mineração de Dados como Ferramenta de Auxílio para Identificação de Perfil de Investidores Baseada na Inteligência de Clientes	Revista de Engenharia e Tecnologia	MACEDO, D. C. ; MATOS, Simone Nasser	B4	
artigoEmPeriodico	2013		Comércio Eletrônico: Identificação do Perfil do E-Consumidor	Revista da FAE	MACEDO, D. C. ; MATOS, Simone Nasser ; KOVALESKI, J. L. ; BETIM, M. T.	B4	
artigoEmPeriodico	2013		New age of Innovation: focus on customer relationship Identification of Students Profile of an Education Network	Espacios (Caracas)	MACEDO, D. C. ; MATOS, Simone Nasser ; REIS, D. R.	B1	
artigoEmPeriodico	2013	http://dx.doi.org/10.5433/1679-0359.2013v34n6p2687	Determinação do tamanho da amostra de papéis hidrossensíveis em experimentos ligados à tecnologia de aplicação	Semina. Ciências Agrárias (Online)	NASCIMENTO, ALEXANDRE BALLAROTTI ; OLIVEIRA, GUSTAVO MIGLIORINI DE ; FONSECA, INÊS CRISTINA DE BATISTA ; ABI SAAB, OTAVIO JORGE GRIGOLI ; Canteri, Marcelo Giovanetti	B1	
artigoEmPeriodico	2013		Controle da ferrugem da folha do trigo (Puccinia triticina) em diferentes momentos de aplicação de fungicida	Arquivos do Instituto Biológico (Online)	OLIVEIRA, GUSTAVO MIGLIORINI DE ; PEREIRA, D. D. ; CAMARGO, L. C. M. ; BALAN, M. G. ; CANTERI, M. G. ; IGARASHI, Seiji ; SAAB, Otavio Jorge Grigoli Abi	B2	
artigoEmPeriodico	2013	http://dx.doi.org/10.1007/s10032-012-0185-9	Handwritten digit segmentation: a comparative study	International Journal on Document Analysis and Recognition (Print)	RIBAS, F. C. ; OLIVEIRA, L. S. ; BRITTO, A. S. ; SABOURIN, R.	Qualis nao identificado	International Journal on Document Analysis and Recognition (Print)
artigoEmPeriodico	2013	http://dx.doi.org/10.1590/s1516-89132013000200013	Ardra profiles of bacteria and archaea in mangrove sediments with different levels of contamination in the estuarine complex of ParanaguÃ¡, Brazil	Brazilian Archives of Biology and Technology (Impresso)	RIBEIRO, CATHERINE GÉRIKAS ; STEFFENS, MARIA BERENICE REYNAUD ; ETTO, R. M. ; GALVÃO, CAROLINA WEIGERT ; MARTINS, C. C. ; MARTINS, CÉSAR DE CASTRO ; PEDROSA, FÁBIO DE OLIVEIRA ; KOLM, HEDDA ELISABETH	B1	
artigoEmPeriodico	2013	http://dx.doi.org/10.4215/RM2013.1227.0012	COMPARAÇÃO ENTRE CLASSIFICAÇÕES COM REDE NEURAL ARTIFICIAL EM DIFERENTES ÁREAS DE ESTUDO	Mercator (Fortaleza. Online)	RIBEIRO, S. R. A	B1	
artigoEmPeriodico	2013		Segmentaçóes Multiresolução em Imagens de Alta Resolução Espacial	Revista Brasileira de Cartografia (Impresso)	RIBEIRO, S. R. A.; CENTENO, J. A. S. ; La SCALEA, R. A.	A2	
artigoEmPeriodico	2013		Análise de uma ferramenta de extração de conhecimento usando critérios de usabilidade	Espacios (Caracas)	ROSAS, D. H. P. ; MATOS, Simone Nasser ; MACEDO, D. C. ; ISHIKAWA, E. C. M.	B1	
artigoEmPeriodico	2013		Detecção e estimativa de área queimada entre o limite do Parque Estadual de Vila Velha ? PR e sua zona de amortecimento mediante sensoriamento remoto	Sociedade e Território	ROZA, W. S. S. ; RIBEIRO, S. R. A.	B3	
artigoEmPeriodico	2013		PROTÓTIPO DE UMA BALANÇA SUSPENSA DIGITAL A SENSOR INDUTIVO	Revista de Engenharia e Tecnologia	Santos, B.A.G. dos ; Rech, A. ; Santos, M. M. D. ; STEVAN Jr., S. L.	B4	
artigoEmPeriodico	2013	http://dx.doi.org/10.1590/S0103-84782013000500007	Cobertura de gotas de pulverização obtida com diferentes pontas e taxas de aplicação na parte aérea da cana-de-açúcar	Ciência Rural (UFSM. Impresso)	SCHNEIDER, JULIANO LUIZ ; OLIVEIRA, GUSTAVO MIGLIORINI DE ; BALAN, RAFAEL ESPERIDIÃO ; Canteri, Marcelo Giovanetti ; SAAB, OTÁVIO JORGE GRIGOLI ABI	A2	
artigoEmPeriodico	2013	http://dx.doi.org/10.1590/s0100-54052013000300001	Haste verde e retenção foliar na cultura da soja	Summa Phytopathologica (Impresso)	SILVA, A. J. ; CANTERI, M. G. ; SILVA, ANDRE LUIS DA	B1	
artigoEmPeriodico	2013	http://dx.doi.org/10.1016/j.eswa.2012.12.055	Network infrastructure design with a multilevel algorithm	Expert Systems with Applications	SILVA, H. A. ; BRITTO JR, A. S. ; OLIVEIRA, Luiz Eduardo Soares de ; KOERICH, Alessandro	A1	
artigoEmPeriodico	2013		PROJECT OF A COMMUNICATION SYSTEM BY VISIBLE LIGHT COMUNICATION (VLC) BASED ON LED LIGHTING	Iberoamerican Journal of Applied Computing	SOUZA, J. J. ; STEVAN Jr., S. L. ; POMPERMAIER, M. A. C. ; MATOS, J. ; Fonseca, Z. P.	B4	
artigoEmPeriodico	2013		Evaluation of JXTA and java for developing message passing parallel programs	Iberoamerican Journal of Applied Computing	SOUZA, M. A. ; SENGER, L. J. ; Campos Junior, A. C. ; Ferrasa, M	B4	
artigoEmPeriodico	2013		Desenvolvimento inicial de cultivares de mirtilo na região de Ponta Grossa (PR)	Ambiência (Online)	Spinardi, B. ; AYUB, R. A.	B3	
artigoEmPeriodico	2013	http://dx.doi.org/10.5433/1679-0359.2013v34n5p2239	Viabilidade de urediniósporos de Puccinia kuehnii e sua germinação influenciada por extratos aquosos de folhas de cana-de-açúcar	Semina. Ciências Agrárias (Online)	TIBOLLA, FABIANA ; SUMIDA, CIRO HIDEKI ; PEITL, DOUGLAS CASSAROTO ; Canteri, Marcelo Giovanetti ; CASTRO, ANA MARIA CONTE	B1	
artigoEmPeriodico	2013		Produção da amora-preta cv. Tupy, em função da intensidade da poda	Semina. Ciências Agrárias (Impresso)	Tullio, L. ; AYUB, R. A.	B1	
artigoEmPeriodico	2013		DEVELOPMENT OF IMAGE SEGMENTATION METHOD THROUGH CONTOUR ALGORITHMS	Iberoamerican Journal of Applied Computing	VALLE, H. P. ; MARUYAMA, T. M. ; NAME, M. H. ; FALATE, R.	B4	
artigoEmPeriodico	2013		Especificação Objeto-Relacional para Rastreabilidade da Agricultura Orgânica	Revista Brasileira de Agroecologia	VAZ, M. C. S. ; VAZ, Maria Salete Marcon Gomes	B2	
artigoEmPeriodico	2013	http://dx.doi.org/10.1590/S1982-56762013005000020	Sensitivity of Corynespora cassiicola from soybean to carbendazim and prothioconazole	Tropical Plant Pathology (Impresso)	Xavier, Sheila A. ; Canteri, Marcelo G. ; BARROS, DAIANE C. M. ; GODOY, CLAUDIA V.	B1	
artigoEmPeriodico	2013	http://dx.doi.org/10.1016/j.eswa.2012.07.074	Fusion of Feature Sets and Classifiers for Facial Expression Recognition	Expert Systems with Applications	ZAVASCHI, T. E. ; BRITTO JR, A. S. ; OLIVEIRA, Luiz Eduardo Soares de ; KOERICH, Alessandro	A1	
trabalhoCompletoEmCongresso	2013		Interacción de la Universidad con la Enseñanza Secundaria Pública ? Despertando para la Ciencia	XII Congresso Iberoamericano de Extensión Universitaria	ALMEIDA, M. M. ; SILVA, N. C. C. ; TOLENTINO, M. C. ; ANDRADE, J. L. ; BONFIM, G. I. ; ZIELINSKI, A. A. F. ; VAZ, M. S. M. G. ; BLUM, S. A.		
trabalhoCompletoEmCongresso	2013		Projetos Novos Talentos da Universidade Estadual de Ponta Grossa - PR	COBENGE 2013 - XLI Congresso Brasileiro de Educação em Engenharia	ALMEIDA, M. M. ; SILVA, N. C. C. ; TOLENTINO, M. C. ; VUROBI JUNIOR, S. ; SOWEK, A. B. ; VAZ, Maria Salete Marcon Gomes ; VAZ, M. C. S. ; SZESZ JUNIOR, A. ; FALATE, R. ; VARGAS, C. L. S.		
trabalhoCompletoEmCongresso	2013		Parking Space Detection using Textural Descriptors	IEEE International Conference on Systems	ALMEIDA, P. R. L. ; OLIVEIRA, Luiz Eduardo Soares de ; BRITTO JR, A. S. ; SILVA JUNIOR, E. J. ; KOERICH, Alessandro		
trabalhoCompletoEmCongresso	2013		Indicadores químicos de qualidade do solo	III Reunião Paranaense de Ciência do Solo	CAIRES, E. F		
trabalhoCompletoEmCongresso	2013		DESENVOLVIMENTO DE UM IDENTIFICADOR DE MOEDAS INDUTIVO	Semana de Eletrônica e Automação	Carneiro, T.T. ; Koslopp, D. ; Santos, M. M. D. ; STEVAN Jr., S. L.		
trabalhoCompletoEmCongresso	2013		Uma Ontologia para a Correção de Dados Agrometereológicos	22o. EAIC - Encontro Anual de Iniciação Científica e 3o. EAITI - Encontro Anual de Iniciação Tecnológica e Inovação	COSTA, J. ; BABA, R. K. ; VAZ, M. S. M. G.		
trabalhoCompletoEmCongresso	2013		DESENVOLVIMENTO DE UM CIRCUITO MICROCONTROLADO A BASE DE LED?S PARA APLICAÇÃO EM FOTOTERAPIA	SEMANA DE ELETRÔNICA E AUTOMAÇÃO	D. D. A. Carneiro ; R. C. Evangelista ; R. F. T. Gómez ; STEVAN Jr., S. L.		
trabalhoCompletoEmCongresso	2013		Desenvolvimento de um circuito microcontrolado à base de LED´s para aplicação em fototerapia	8º Encontro de Engenharia e Tecnologia dos Campos Gerais	D. D. A. Carneiro ; R. F. T. Gómez ; STEVAN Jr., S. L.		
trabalhoCompletoEmCongresso	2013	http://dx.doi.org/10.1109/CEC.2013.6557740	Evaluation of gossip Vs. broadcast as communication strategies for multiple swarms solving MaOPs	2013 IEEE Congress on Evolutionary Computation (CEC)	DE CAMPOS, ARION; POZO, AURORA T. R. ; DUARTE, ELIAS P.		
trabalhoCompletoEmCongresso	2013	http://dx.doi.org/10.1109/BRACIS.2013.50	A Strategy to Solve MaOPs with Multiple Swarms Based on Broadcast Communication	2013 Brazilian Conference on Intelligent Systems (BRACIS)	DE CAMPOS, ARION; POZO, AURORA T.R. ; DUARTE, ELIAS P.		
trabalhoCompletoEmCongresso	2013		Utilização do índice de vegetação para o reconhecimento de áreas degradadas ou recuperadas na mina a céu aberto em São Mateus do Sul - PR - Brasil	Encuentro de Geógrafos de América Latina	HAMULAK, T. M. ; SILVA, J. ; RIBEIRO, S. R. A.		
trabalhoCompletoEmCongresso	2013		Dispositivo Eletrônico para Avaliação Cinética de Marcha Biomecânica	SEMANA DE ELETRÔNICA E AUTOMAÇÃO	Lima, J. J. de ; Martins, M. S. R. ; Okida, S. ; Schleder, J. C. ; STEVAN Jr., S. L.		
trabalhoCompletoEmCongresso	2013		Dispositivo para análise dinâmica da marcha humana utilizando sensores inerciais MEMS	8º Encontro de Engenharia e Tecnologia dos Campos Gerais	Lima, J. J. de ; Martins, M. S. R. ; Okida, S. ; STEVAN Jr., S. L. ; Schleder, J. C.		
trabalhoCompletoEmCongresso	2013		Comparison of the Dimensionality Reduction of Data Using Attribute Selection. In: International Association for Management of Technology	International Association for Management of Technology	MACEDO, D. C. ; MATOS, Simone Nasser ; BORGES, H. B. ; REIS, D. R. ; MATTOS, E. A. S. A.		
trabalhoCompletoEmCongresso	2013		Aplicação do principio de redes de Bragg em sensores baseados em cabo coaxial	8º Encontro de Engenharia e Tecnologia dos Campos Gerais	Mariana Brisky Costa ; Mendes Jr., J. J. A. ; JANZEN, F. C. ; STEVAN Jr., S. L.		
trabalhoCompletoEmCongresso	2013		Ontologia para o Processo de Rastreabilidade de Grãos	22o. EAIC - Encontro Anual de Iniciação Científica e 3o. EAITI - Encontro Anual de Iniciação Tecnológica e Inovação	MARSON, M. A. V. ; DEBTIL, S. J. S. ; SOUZA, Lucélia de ; VAZ, M. S. M. G.		
trabalhoCompletoEmCongresso	2013		Estudo da Integração da tecnologia QR - code com banco de dados do framework RastroGrão	8º Encontro de Engenharia e Tecnologia dos Campos Gerais	MARTINS JUNIOR, H. L. ; WERNER, L. V. ; VAZ, M. C. S. ; VAZ, Maria Salete Marcon Gomes		
trabalhoCompletoEmCongresso	2013		Modelagem de Dados Convencional e Não Convencional para Controle de Doença em Plantas	22o. EAIC - Encontro Anual de Iniciação Científica e 3o. EAITI - Encontro Anual de Iniciação Tecnológica e Inovação	MARTINS, R. O. ; MELLO, N. H. ; VAZ, M. C. S. ; VAZ, M. S. M. G.		
trabalhoCompletoEmCongresso	2013		Uma Ontologia para Determinação de Doenças em Plantas	22o. EAIC - Encontro Anual de Iniciação Científica e 3o. EAITI - Encontro Anual de Iniciação Tecnológica e Inovação	MELLO, N. H. ; RODRIGUES, T. S. ; SOUZA, Lucélia de ; VAZ, M. S. M. G.		
trabalhoCompletoEmCongresso	2013		Perspectivas de Utilização do Sensoriamento Remoto na Agricultura de Precisão	IX Congresso Brasileiro de Agroinformática	MELO, G. A. ; SILVA, S. F. ; GUIMARÃES, A. M.		
trabalhoCompletoEmCongresso	2013		LDR E SENSORES DE LUZ AMBIENTE : FUNCIONAMENTO E APLICAÇÕES	SEMANA DE ELETRÔNICA E AUTOMAÇÃO	Mendes Jr., J. J. A. ; STEVAN Jr., S. L.		
trabalhoCompletoEmCongresso	2013		Comparação entre Sensores de Condutividade do Solo de Baixo Custo e Automatização de Coleta de Dados	IX Congresso Brasileiro de Agroinformática	MONTEIRO JUNIOR, M. ; GUIMARÃES, A. M. ; CELINSKI, V. G.		
trabalhoCompletoEmCongresso	2013		Engenharias em Prática - Processamento de Alimentos	11o. CONEX - Conversando sobre Extensão	OLIVEIRA, J. G. B. ; ALMEIDA, M. M. ; SILVA, N. C. C. ; VAZ, Maria Salete Marcon Gomes		
trabalhoCompletoEmCongresso	2013		Raleio Quimico em Amexeira	XIII Encontro Nacional sobre fruticultura de clima temperado	Pavanello, A. P. ; AYUB, R. A.		
trabalhoCompletoEmCongresso	2013		A Tecnologia RFID Empregada na Rastreabilidade da Cadeia Produtiva de Grãos	22o. EAIC - Encontro Anual de Iniciação Científica e 3o. EAITI - Encontro Anual de Iniciação Tecnológica e Inovação	PETROSKI, L. P. ; VAZ, M. S. M. G. ; VAZ, M. C. S.		
trabalhoCompletoEmCongresso	2013		Aplicação da análise de componentes principais e de agrupamento em dados extraídos automaticamente de imagens de satélite landsat 5 tm	Encuentro de Geógrafos de América Latina	PRICHOA, C. E. ; RIBEIRO, S. R. A.		
trabalhoCompletoEmCongresso	2013		Análise temporo-espacial da cobertura vegetal da área urbana de Ponta Grossa(Brasil)	Encuentro de Geógrafos de América Latina	QUEIROZ, D. A. H. O. ; RIBEIRO, S. R. A.		
trabalhoCompletoEmCongresso	2013		Desenvolvimento de matrizes LED´s para aplicações em fototerapia	8º Encontro de Engenharia e Tecnologia dos Campos Gerais	R. C. Evangelista ; R. F. T. Gómez ; STEVAN Jr., S. L.		
trabalhoCompletoEmCongresso	2013		DESENVOLVIMENTO DE SISTEMAS DE ILUMINAÇÃO UTILIZANDO MATRIZES DE LED´S PARA APLICAÇÕES EM FOTOTERAPIA	SEMANA DE ELETRÔNICA E AUTOMAÇÃO	R. C. Evangelista ; STEVAN Jr., S. L. ; R. F. T. Gómez		
trabalhoCompletoEmCongresso	2013		Organização e Metodologia Aplicada em um Programa de Inclusão Digital para Crianças Carentes de 5-7 Anos	Seminário de Extensão e Inovação	RIBAS, J. H. ; CORDOBA, L. P. ; MATOS, Simone Nasser ; ALMEIDA, Simone		
trabalhoCompletoEmCongresso	2013		Avaliação do desempenho de dois Índices de Vegetação (NDVI e SAVI) por meio de Índice de Qualidade de Imagens	XVI SBSR Simpósio Brasileiro de Sensoriamento Remoto	RODRIGUES, T. S. ; VAZ, Maria Salete Marcon Gomes ; RIBEIRO, S. R. A.		
trabalhoCompletoEmCongresso	2013		Integração de dados orbitais de Sensoriamento Remoto para estimar áreas da Floresta Ombrófila Densa do estado do Paraná	Simpósio Brasileiro de Sensoriamento Remoto	ROZA, W. S. S. ; RIBEIRO, S. R. A.		
trabalhoCompletoEmCongresso	2013		Interface Web para Framework de Rastreabilidade no Processo Produtivo de Grãos	22o. EAIC - Encontro Anual de Iniciação Científica e 3o. EAITI - Encontro Anual de Iniciação Tecnológica e Inovação	SANTANA, P. C. ; VAZ, M. C. S. ; VAZ, M. S. M. G.		
trabalhoCompletoEmCongresso	2013		BALANÇA PENDULAR UTILIZANDO SENSOR INDUTIVO	SEMANA DE ELETRÔNICA E AUTOMAÇÃO	Santos, B.A.G. dos ; Rech, A. ; Santos, M. M. D. ; STEVAN Jr., S. L.		
trabalhoCompletoEmCongresso	2013		BALANÇA PENDULAR BASEADA EM SENSOR CAPACITIVO	SEMANA DE ELETRÔNICA E AUTOMAÇÃO	Santos, B.A.G. dos ; Rech, A. ; Santos, M. M. D. ; STEVAN Jr., S. L.		
trabalhoCompletoEmCongresso	2013		Desenvolvimento de uma balança suspensa digital a sensor indutivo	8º Encontro de Engenharia e Tecnologia dos Campos Gerais	Santos, B.A.G. dos ; Rech, A. ; Santos, M. M. D. ; STEVAN Jr., S. L.		
trabalhoCompletoEmCongresso	2013		VISÃO EXPERIMENTAL DA ENGENHARIA ELETRÔNICA: CONQUISTA DO PÚBLICO, RECONQUISTA DO EGRESSO	SEMANA DE ELETRÔNICA E AUTOMAÇÃO	Santos, C. P. ; Vieira, M. E. M. ; STEVAN Jr., S. L.		
trabalhoCompletoEmCongresso	2013		Aplicação da lógica Fuzzy para identificação das condições de moradias urbanas de Ponta Grossa ? PR	Simpósio Brasileiro de Sensoriamento Remoto	SILVA, A. C. ; RIBEIRO, S. R. A.		
trabalhoCompletoEmCongresso	2013		Comparação entre imagem com e sem correção atmosférica mediante o Image Quality Index	Simpósio Brasileiro de Sensoriamento Remoto - SBSR	SILVA, J. ; HAMULAK, T. M. ; RIBEIRO, S. R. A.		
trabalhoCompletoEmCongresso	2013		Projeto de um sistema de comunicação por luz visível (VLC) baseado em iluminação LED	8º Encontro de Engenharia e Tecnologia dos Campos Gerais	SOUZA, J. J. ; Fonseca, Z. P. ; STEVAN Jr., S. L.		
trabalhoCompletoEmCongresso	2013		DESENVOLVIMENTO DE UM PROTÓTIPO VISANDO COMUNICAÇÃO POR LUZ VISÍVEL (VLC)	Semana de Eletrônica e Automação	SOUZA, J. J. ; STEVAN Jr., S. L. ; Fonseca, Z. P.		
trabalhoCompletoEmCongresso	2013		Análise de Modelos de Simulação para Sistemas Agronômicos	SBIAgro 2013 - IX Congresso Brasileiro de Agroinformática	SZESZ JUNIOR, A. ; VAZ, M. S. M. G. ; AFFONSO, B. P. B. ; SILVA, H. L. P. ; GONCALVES, T. M.		
trabalhoCompletoEmCongresso	2013		Predição da quantidade de matéria orgânica e teor de argila por meio de algoritmos de classificação em um conjunto de dados obtidos pelo método vis-NIRS	IX Congresso Brasileiro de Agroinformática	TEIXEIRA, S. ; GUIMARÃES, A. M.		
trabalhoCompletoEmCongresso	2013		Framework para Rastreabilidade de Grãos com Tecnologia QR Code	SBIAgro 2013 - IX Congresso Brasileiro de Agroinformática	VAZ, M. C. S. ; SANTANA, P. C. ; VAZ, M. S. M. G.		
trabalhoCompletoEmCongresso	2013		Estruturação de um Framework para Rastrear a Produção de Grãos	Conferência Ibero Americana WWW/INTERNET 2013	VAZ, M. C. S. ; SANTANA, P. C. ; VAZ, M. S. M. G.		
trabalhoCompletoEmCongresso	2013		Transformação Educativa no Ensino Médio por Demostrações da Aplicabilidade dos Conteúdos no Curso de Engenharia de Computação	XII Congresso Iberoamericano de Extensión Universitaria	VAZ, M. S. M. G.; VAZ, M. C. S. ; SZESZ JUNIOR, A. ; SILVA, D. M. P. ; POMPERMAIER, M. A. C. ; FALATE, R.		
trabalhoCompletoEmCongresso	2013		A Integração das Engenharias e o Ensino Médio para a Melhoria da Educação	31o. SEURS - Semnário de ExtensãoUniversitária da Região Sul	VAZ, Maria Salete Marcon Gomes; CHINELATTO, A. S. A. ; ALMEIDA, M. M. ; SZESZ JUNIOR, A. ; VAZ, M. C. S. ; CHINELATTO, A. L. ; SILVA, N. C. C. ; VUROBI JUNIOR, S. ; KRUGER, J. A. ; FALATE, R. ; FOLTRAN JÚNIOR, Dierone César		
trabalhoCompletoEmCongresso	2013		Socializaação do Conhecimento das Engenharias para o Ensino Médio	COBENGE 2013 - XLI Congresso Brasileiro de Educação em Engenharia	VAZ, Maria Salete Marcon Gomes; CHINELATTO, A. S. A. ; CHINELATTO, A. L. ; VUROBI JUNIOR, S. ; ALMEIDA, M. M. ; SILVA, N. C. C. ; VAZ, M. C. S. ; SZESZ JUNIOR, A. ; FALATE, R. ; KRUGER, J. A.		
trabalhoCompletoEmCongresso	2013		Análise geral sobre o acelerômetro	SEMANA DE ELETRÔNICA E AUTOMAÇÃO	Vieira, M. E. M. ; STEVAN Jr., S. L.		
trabalhoCompletoEmCongresso	2013		Análise de abordagens para extração de características de sementes usando processamento digital de imagens	IX Congresso Brasileiro de Agroinformática	WIGGERS, K. L. ; VELOSO, L. H. L. ; CALDAS, E. A. ; GUIMARÃES, A. M.		
trabalhoCompletoEmCongresso	2013		Metodos de Custeio Utilizados na Precificação: Um Estudo de Caso nas Micro e Pequenas Empresas da Região de Irati	ENEGEP	ZAHAIKEVITCH, E. V. ; MATOS, Simone Nasser		
resumoExpandidoEmCongresso	2013	Efeito exógeno dos genes receptores FaETR1 e FaERS1 durante a maturação dos frutos de morangueiro cv. Camino Real elicitados por etileno	22º Encontro Anual de Iniciação Científica do Paraná, 2013, Foz do Iguaçu. Anais do V 22º Encontro Anual de Iniciação Científica do Paraná. Cascavel: Unioeste	ALMEIDA, A. T. ; Lopes, P. Z. ; Galvão, C. W. ; AYUB, R. A. ; Inaba, Juliana		
resumoExpandidoEmCongresso	2013	Reconhecimento de uso e ocupação da terra mediante geotecnologias	Congresso Brasileiro de Ciência do Solo, 2013, Florianópolis. Anais do XXXIV Congresso Brasileiro de Ciência do Solo	ANTUNES, D. A. ; RIBEIRO, S. R. A.		
resumoExpandidoEmCongresso	2013	DESENVOLVIMENTO DE SENSORES DE MOLHAMENTO PARA ESTAÇÕES AGROMETEOROLÓGICAS CONCENTRADORAS DE DADOS PARA MONITORAMENTO DE DOENÇAS	22 Encontro Anual de Iniciação Científica, 2013, Foz do Iguaçú. Anais do 22 EAIC. Cascavel: Unioeste	ARAUJO, F. A. ; SUMIDA, CIRO HIDEKI ; CANTERI, M. G.		
resumoExpandidoEmCongresso	2013	CLASSIFICAÇÃO DE SEMENTES DE MILHO QUANTO AO GRAU DE ESBRANQUIÇAMENTO UTILIZANDO PROCESSAMENTO DIGITAL DE IMAGENS	XXII Encontro Anual de Iniciação Científica e III Encontro Anual de Iniciação Tecnológica e Inovação, 2013, Foz do Iguaçu. Anais do XXII Encontro Anual de Iniciação Científica e III Encontro Anual de Iniciação Tecnológica e Inovação	BOFF, F. A. ; FALATE, R.		
resumoExpandidoEmCongresso	2013	ESTUDO DE METODOLOGIAS PARA AQUISIÇÃO DE IMAGENS NA AGRICULTURA	XI ENCONTRO DE PESQUISA DA UEPG, 2013, Ponta Grossa. Anais do XI ENCONTRO DE PESQUISA DA UEPG	CALDAS, E. A. ; MAFRA, A. H. ; FALATE, R.		
resumoExpandidoEmCongresso	2013	Purificação de RNA total dos frutos de morangueiro da cv. Camino Real	XI Encontro de Pesquisa da UEPG, 2013, Ponta Grossa. Anais do XI EPUEPG. Ponta Grossa: EDUEPG	CAMPOS, G. S. ; Etto, R. M. ; ALMEIDA, A. T. ; Inaba, Juliana ; Lopes, P. Z. ; AYUB, R. A.		
resumoExpandidoEmCongresso	2013	REGULAÇÃO DA MATURAÇÃO EM FRUTOS NÃO CLIMATÉRICOS: MORANGO (FRAGARIA L.)	22º Encontro Anual de Iniciação Científica, 2013, Foz do Iguaçu. Anais do 22º Encontro Anual de Iniciação Científica. cascavel: Unioeste	CAMPOS, G. S. ; Etto, R. M. ; Lopes, P. Z. ; ALMEIDA, A. T. ; SANTOS, A. R. S. ; Inaba, Juliana ; AYUB, R. A.		
resumoExpandidoEmCongresso	2013	VALIDAÇÃO E ADEQUAÇÃO DO USO DE PROCESSAMENTO DIGITAL DE IMAGENS NA ANALISE DE DISTRIBUIÇÃO DE SEMENTES DE MILHO	XX EAIC - Encontro Anual de Iniciação Científica, 2013, Foz do Iguaçu. Anais do XX Encontro Anual de Iniciação Científica	CAVASSINI, A. F. ; DIAS, W. C. ; GUIMARÃES, A. M.		
resumoExpandidoEmCongresso	2013	ROVIO - UMA TECNOLOGIA MÓVEL	XXII Encontro Anual de Iniciação Científica e III Encontro Anual de Iniciação Tecnológica e Inovação, 2013, Foz do Iguaçu. Anais do XXII Encontro Anual de Iniciação Científica e III Encontro Anual de Iniciação Tecnológica e Inovação	De Melo, L. G. ; FALATE, R.		
resumoExpandidoEmCongresso	2013	Desenvolvimento de uma central de alarme residencial sem fio	XXII Encontro Anual de Iniciação Científica e III Encontro Anual de Iniciação Tecnológica e Inovação, 2013, Foz do Iguaçu. Anais do XXII Encontro Anual de Iniciação Científica e III Encontro Anual de Iniciação Tecnológica e Inovação	De Vargas, M. F. ; FALATE, R.		
resumoExpandidoEmCongresso	2013	Abordagem para Criação de uma Ontologia para Rastreabilidade na Cadeia Produtiva de Grãos	IX Encontro de Pesquisa e III Simpósio de Pós-Graduação - UEPG, 2013, Ponta Grossa-PR. Anais do IX Encontro de Pesquisa e III Simpósio de Pós-Graduação - UEPG	DEBTIL, S. J. S. ; VAZ, Maria Salete Marcon Gomes ; MARSON, M. A. V.		
resumoExpandidoEmCongresso	2013	Revista em Quadrinhos: Ferramenta de Divulgação do Processo Seletivo Seriado da UEPG	11o. CONEX - Encontro Conversando Sobre Extensão, 2013	EMILIO, A. C. K. ; MATHIAS, Ivo Mario		
resumoExpandidoEmCongresso	2013	Acidez do solo e produtividade de soja influenciada pela calagem e adubação nitrogenada na cultura antecessora de trigo em sistema plantio direto	Encontro Anual de Iniciação Científica das Universidades Estaduais do Paraná, 2013, Foz do Iguaçu. Anais do XXII Encontro Anual de Iniciação Científica das Universidades Estaduais do Paraná. Foz do Iguaçu: Unioeste	FETZER, L. ; HILDEBRANT, M. E. ; MELO, M. H. ; LOURENÇO, B. F. O. ; FRANCA, R. R. ; HALISKI, A. ; CAIRES, E. F.		
resumoExpandidoEmCongresso	2013	Produtividade e nutrição da soja após longo período da aplicação e reaplicação de gesso em plantio direto	Encontro Anual de Iniciação Científica das Universidades Estaduais do Paraná, 2013, Foz do Iguaçu. Anais do XXII Encontro Anual de Iniciação Científica das Universidades Estaduais do Paraná. Foz do Iguaçu: Unioeste	FOGACA, A. M. ; FETZER, L. ; HILDEBRANT, M. E. ; MELO, M. H. ; LOURENÇO, B. F. O. ; BEDRETCHUK, R. P. ; CAIRES, E. F.		
resumoExpandidoEmCongresso	2013	Adubação nitrogenada e potássica na cultura do milho em sistema plantio direto	Apoio ao Uso Balanceado de Potássio na Agricultura Brasileira, 2013, Piracicaba. Apoio ao Uso Balanceado de Potássio na Agricultura Brasileira: Resumos Expandidos e Resumos das Apresentações. Piracicaba: International Potash Institute/EMBRAPA	FORNARI, A. J. ; CAIRES, E. F. ; BINI, A. R.		
resumoExpandidoEmCongresso	2013	Composição química dos frutos da palmeira Juçara durante os períodos de desenvolvimento e maturação	IV Simpósio Brasileiro de Pós-Colheita de Frutas, Hortaliças e Flores, 2013, Ribeirão Preto. Anais do IV Simpósio Brasileiro de Pós-Colheita de Frutas, Hortaliças e Flores. Jaboticabal: FUNEP	FORNAZZARI, I. M. ; REIS, L. ; CHIQUETTO, N. C. ; CHAIMSOHN, P. ; AYUB, R. A.		
resumoExpandidoEmCongresso	2013	Armazenamento refrigerado e em atmosfera modificada de cereja ´Regina´	IV Simpósio Brasileiro de Pós-Colheita de Frutas, Hortaliças e Flores, 2013, Ribeirão Preto. Anais do IV Simpósio Brasileiro de Pós-Colheita de Frutas, Hortaliças e Flores. Jaboticabal: FUNEP	FORNAZZARI, I. M. ; REIS, L. ; KITTEMANN, D. ; NEUWALD, D. A. ; AYUB, R. A.		
resumoExpandidoEmCongresso	2013	Nutrição e produção de trigo e soja após longo período da calagem e da reaplicação superficial de calcário em sistema plantio direto	Encontro Anual de Iniciação Científica das Universidades Estaduais do Paraná, 2013, Foz do Iguaçu. Anais do XXII Encontro Anual de Iniciação Científica das Universidades Estaduais do Paraná. Foz do Iguaçu: Unioeste	FRANCA, R. R. ; FOGACA, A. M. ; FETZER, L. ; HILDEBRANT, M. E. ; MELO, M. H. ; SCHARR, D. A. ; CAIRES, E. F.		
resumoExpandidoEmCongresso	2013	Micropropagação de batata cv. Ágape, utilizando meio de cultura líquido e sólido	XI Encontro de Pesquisa da UEPG, 2013, Ponta Grossa. Anais do XI EPUEPG. Ponta Grossa: EDUEPG	FRANCISCO, G. ; AYUB, R. A.		
resumoExpandidoEmCongresso	2013	USO DE MODELOS ESCONDIDOS MARKOVIANOS E FUNÇÕES DEFINIDAS EM TRECHOS PARA DETECÇÃO DE TRÂNSITOS DE EXOPLANETAS	XXII Encontro Anual de Iniciação Científica, 2013, Foz do Iguaçu. XXII EAIC. Fóz do Iguaçu: Editora da UNIOESTE	GARCIA, A. C. ; ROCHA, J. C. F.		
resumoExpandidoEmCongresso	2013	Utilização de sensoriamento remoto mediante classificação supervisionada de imagens digitais pelo método Support Vector Machine para o reconhecimento de padrões de uso do solo	Congresso Brasileiro de Ciência do Solo, 2013, Florianópolis. Anais do XXXIV Congresso Brasileiro de Ciência do Solo	HAMULAK, T. M. ; RIBEIRO, S. R. A.		
resumoExpandidoEmCongresso	2013	Calagem superficial ou incorporada e estratégias de adubação fosfatada no estabelecimento do sistema plantio direto a partir de campo nativo	Encontro Anual de Iniciação Científica das Universidades Estaduais do Paraná, 2013, Foz do Iguaçu. Anais do XXII Encontro Anual de Iniciação Científica das Universidades Estaduais do Paraná. Foz do Iguaçu: Unioeste	HILDEBRANT, M. E. ; MELO, M. H. ; LOURENÇO, B. F. O. ; FRANCA, R. R. ; FOGACA, A. M. ; SCHARR, D. A. ; CAIRES, E. F.		
resumoExpandidoEmCongresso	2013	ACIONAMENTO DE MOTORES DC COM MICROCONTROLADORES COMO FERRAMENTA AUXILIAR NA CONSTRUÇÃO DE DISPOSITIVOS PARA DEFICIENTES VISUAIS	XXII Encontro Anual de Iniciação Científica e III Encontro Anual de Iniciação Tecnológica e Inovação, 2013, Foz do Iguaçu. Anais do XXII Encontro Anual de Iniciação Científica e III Encontro Anual de Iniciação Tecnológica e Inovação	LASKOSKI, F. F. ; FALATE, R.		
resumoExpandidoEmCongresso	2013	Maturação do Morangueiro cv. Camiño Real tratado com etileno	IV Simpósio Brasileiro de Pós-Colheita de Frutas, Hortaliças e Flores, 2013, Ribeirão Preto. Anais do IV Simpósio Brasileiro de Pós-Colheita de Frutas, Hortaliças e Flores. Jaboticabal: FUNEP	Lopes, P. Z. ; FORNAZZARI, I. M. ; Galvão, C. W. ; AYUB, R. A.		
resumoExpandidoEmCongresso	2013	Alterações químicas do solo e resposta do trigo à calagem superficial e à adubação nitrogenada em plantio direto	Encontro Anual de Iniciação Científica das Universidades Estaduais do Paraná, 2013, Foz do Iguaçu. Anais do XXII Encontro Anual de Iniciação Científica das Universidades Estaduais do Paraná. Foz do Iguaçu: Unioeste	MELO, M. H. ; LOURENÇO, B. F. O. ; FRANCA, R. R. ; FOGACA, A. M. ; FETZER, L. ; BINI, A. R. ; CAIRES, E. F.		
resumoExpandidoEmCongresso	2013	Frutos de Mirtileiro cv. Powderblue armazenados sob refrigeração associada a atmosfera modificada	IV Simpósio Brasileiro de Pós-Colheita de Frutas, Hortaliças e Flores, 2013, Ribeirão Preto. Anais do IV Simpósio Brasileiro de Pós-Colheita de Frutas, Hortaliças e Flores. Jaboticabal: FUNEP	PASQUALINE, A. P. A. ; FORNAZZARI, I. M. ; AYUB, R. A.		
resumoExpandidoEmCongresso	2013	Amadurecimento da pera cv. Cascatense	IV Simpósio Brasileiro de Pós-Colheita de Frutas, Hortaliças e Flores, 2013, Ribeirão Preto. Anais do IV Simpósio Brasileiro de Pós-Colheita de Frutas, Hortaliças e Flores. Jaboticabal: FUNEP	Pavanello, A. P. ; FORNAZZARI, I. M. ; AYUB, R. A.		
resumoExpandidoEmCongresso	2013	Efeito da Inoculação de Azospirillum brasiliense estirpe FP2 em cevada BRS Cauê	22º Encontro Anual de Iniciação Científica, 2013, Foz do Iguaçu. Anais do 22º Encontro Anual de Iniciação Científica. Cascavel: Unioeste	PETRY, V. E. K. ; FURMAM, R. W. ; Galvão, C. W. ; Steffens, M. B. ; AYUB, R. A.		
resumoExpandidoEmCongresso	2013	Germinação in vitro de sementes de Amarilis	XI EPUEPG, 2013, Ponta Grossa. Anais do XI EPUEPG. Ponta Grossa: EDUEPG	Rodrigues, A. M. ; AYUB, R. A.		
resumoExpandidoEmCongresso	2013	Germinação In vitro de sementes de amarilis	22º Encontro Anual de Iniciação Cientifica, 2013, Foz do Iguaçu. Anais do 22º Encontro Anual de Iniciação Cientifica. cascavel: Unioeste	Rodrigues, A. M. ; AYUB, R. A.		
resumoExpandidoEmCongresso	2013	Diferentes técnicas de fusão aplicadas em imagem de alta resolução espacial para a extrair informações de paisagem mediante análise orientada a objetos	VIII Colóquio Brasileiro de Ciências Geodésicas, 2013, Curitiba. Anais do VIII Colóquio Brasileiro de Ciências Geodésicas	ROSA, J. Z. ; RIBEIRO, S. R. A.		
resumoExpandidoEmCongresso	2013	FUNGOS SAPRÓBIOS NO CONTROLE DE Xanthomonas vesicatoria in vitro	22 Encontro Anual de Iniciação Científica, 2013, Foz do Iguaçú. Anais do 22 EAIC. Cascavel: Unioeste	ROSSI, R. ; BALBI-PENA, M. I. ; CANTERI, M. G.		
resumoExpandidoEmCongresso	2013	Espacialização de manguezais no Bioma Mata Atlântica do estado do Paraná mediante imagem Landsat 5 TM	XI ENCONTRO DE PESQUISA DA UEPG, 2013, Ponta Grossa. Anais do Encontro de Pesquisa da Universidade Estadual de Ponta Grossa	ROZA, W. S. S. ; RIBEIRO, S. R. A.		
resumoExpandidoEmCongresso	2013	Escalonamento de aplicações paralelas em sistemas distribuídos P2P	Encontro Anual de Iniciaçãi Científica, 2013, Foz do Iguaçú. 22 EAIC	SALES, L. S. ; SENGER, L. J.		
resumoExpandidoEmCongresso	2013	Purificação de RNA total do fruto de melão (Cucumis melo, L. Grupo Inodoro) em diferentes estágios de desenvolvimento	22º Encontro Anual de Iniciação Cientifica, 2013, Foz do Iguaço. Anais do 22º Encontro Anual de Iniciação Cientifica. Cascavel: Unicentro	SANTOS, A. R. S. ; CAMPOS, G. S. ; ALMEIDA, A. T. ; Lopes, P. Z. ; Galvão, C. W. ; AYUB, R. A. ; Inaba, Juliana		
resumoExpandidoEmCongresso	2013	MÉTODOS DE BUSCA LOCAL NA DETECÇÃO DE OBJETOS EM IMAGENS DE AMBIENTES FECHADOS	XXII Encontro Anual de Iniciação Científica, 2013, Foz do Iguaçu. XXII EAIC. Fóz do Iguaçu: Editora da UNIOESTE	SANTOS, C. A. ; ROCHA, J. C. F.		
resumoExpandidoEmCongresso	2013	USO DO SOFTWARE KEEL PARA ANÁLISE DE DADOS AGRÍCOLAS	XXII EAIC - Encontro Anual de Iniciação Científica, 2013, Foz do Iguaçu. Anais do XXII Encontro Anual de Iniciação Científica	SCHOVEIGERT, I. D. ; SILVA, K. S. ; GUIMARÃES, A. M.		
resumoExpandidoEmCongresso	2013	Estudo dos fatores de desempenho de algoritmos paralelos da metaeurística de recozimento	Encontro Anual de Iniciação Científica, 2013, Foz do Iguaçú. 22 EAIC	SOUZA, A. S. ; SENGER, L. J.		
resumoExpandidoEmCongresso	2013	Estabelecimento de protocolo de assepsia e de cultivo in vitro, utilizando meio de cultura semi sólido, de batata cv. Atalntic	XI Encontro de pesquisa da UEPG, 2013, Ponta Grossa. Anais do XI Encontro de Pesquisa da UEPG. Ponta Grossa: EDUEPG	SOUZA, L. L. ; AYUB, R. A.		
resumoExpandidoEmCongresso	2013	Estabelecimento de protocolo de propagação in vitro de batata cv. Atlantic utilizando meio de cultura semi-sólido	22º Encontro Anual de Iniciação Científica, 2013, Foz do Iguaçu. Anais do 22º Encontro Anual de Iniciação Científica. Cascavel: Unioeste	SOUZA, L. L. ; AYUB, R. A.		
resumoExpandidoEmCongresso	2013	Padrões de Projeto e Modelos de Simulação de Culturas Agrícolas	IX Encontro de Pesquisa e III Simpósio de Pós-Graduação - UEPG, 2013, Ponta Grossa-PR. Anais do IX Encontro de Pesquisa e III Simpósio de Pós-Graduação - UEPG	SZESZ JUNIOR, A. ; VAZ, Maria Salete Marcon Gomes ; SILVA, H. L. P. ; AFFONSO, B. P. B. ; GONCALVES, T. M.		
resumoExpandidoEmCongresso	2013	Framework para Rastreabilidade da Produção de Grãos	IX Encontro de Pesquisa e III Simpósio de Pós-Graduação - UEPG, 2013, Ponta Grossa-PR. Anais do IX Encontro de Pesquisa e III Simpósio de Pós-Graduação - UEPG	VAZ, M. C. S. ; SANTANA, P. C. ; SALLUM, E. E. A. ; MAUKOSKI, W. X. ; SANTOS, H. M. ; VAZ, Maria Salete Marcon Gomes		
resumoExpandidoEmCongresso	2013	VISÃO EXPERIMENTAL DA ENGENHARIA ELETRÔNICA: CONQUISTA DO PÚBLICO E RECONQUISTA DO EGRESSO	11.° CONEX, 2013, Ponta Grossa. 11.° CONEX	Vieira, M. E. M. ; DAL COL, C. C. T. ; Santos, C. P. ; SILVA, E. L. S. ; LEME, M. O. ; STEVAN Jr., S. L.		
resumoExpandidoEmCongresso	2013	Método Cate Nelson: Implementação e Otimização	XXII EAIC - Encontro Anual de Iniciação Científica, 2013, Foz do Iguaçu. Anais do XXII Encontro Anual de Iniciação Científica	VINISKI, A. D. ; SILVA, K. S. ; GUIMARÃES, A. M.		
