9183966565458258
6347649521254709
8228545724792492
5957592516615594
3955075002404059
5546175190471601
3470057849470057
6797147154176722
7555544314457432
8169695589750514
5720775873259528
2485511170055673
5047982773400897
0415403463743473
9495954726195564
2014910053192461
2434304215086857
6676197027377549
1532013895323919
6457056051910603
7972179119298817
1688457940211697
1164514790376503
0842441761706950
1098716793312269
4313094198245410
0060536372418751
3957509768314737
4832053768328182
6269917595992029
1209162360245197
0015378159322253
1727967731491484
2102993901875277
0624178844533924
5619754046183391
6880696447532558
5440698737198108
9658977583910054
2697220528113479
2537878046664424
2022052803781309
9013468036760973
2936532510261157
4925509182122046
6560372925252581
5685434166341583
0396548638928975
2375225023794506
7153484645342792
8793057515599399
6471685744692825
8600401135679947
8855126358190571
4882769728391824
5956828201443687
1248448556190472
7947529909503630
6904980376005290
2192432112438961
7657366066513245
1797480910350918
0477296870365198
1021766076483795
8425914987871151
7133467181826366
5055126579468463
2810994603993810
1181914438856577
5120480868145385
0347558414414633
7947123455502712
5481371420457931
0090587731882455
6083446130017962
6435314467133626
6422134782206494
4294847777331037
0634783821810720
0924449839869593
0102364512482073
8396109344405837
9070019133681187
9286085119193660
0347247939156639
6153245473064736
6022510509247935
9121781943001365
7731602178038070
4617587198467560
5342210125729085
0643529677044142
7388089175059376
3984119110550917
7355071295460523
8366791313777350
6330567610928341
5865167666921866
5464351563900900
5078594632126000
3983675944265911
3635570789343007
8866563560776876
1091109705617885
1920188611669631
0829505317241223
7794068120475468
8176666829955693
7904769201845860
6074603877989583
3504404305495448
8607171759049558
1154609284203571
0869029009696620
7530972371026932
5280016164692028
6840478133476887
4808617954565343
7826353201422874
1700555813793095
6551495322495961
1525547626896453
0359445257491639
1290415542869530
9007114034667637
6159417566510299
7191112729309187
1692971190679647
3499704308301708
1471640782689003
9960211692098473
0910317715812155
9681871511389593
9800065456123753
4629205406682318
4763653183247801
8911872962871812
3052354846579607
4477651183849298
3845889090388481
4903098741447877
8306520887753839
3817150560669223
8407117000158442
6798949648402022
9890896067387424
2462542085835240
6479680657144494
0272708416971499
9184309876399008
1408153452629574
9922522465810292
6295717878686639
5822603574321367
8075243003708201
1414144663149679
8073604981433783
8437035647330384
8290411245922793
5072133224529810
1661935150054196
9460309107496381
2524047521920294
5391641530667017
2780489987125136
6328566564699821
4151969603820945
5406483331494130
6212006974231025
8321926141230075
2608583610949216
4732940408047293
7337140412736712
8558667305506415
9194471940037554
5337976093923686
0784791152952518
3243227641120940
6351034014282018
2473796286357780
6008632392584482
0811795059278835
8290488720257466
3541050909331364
2894314830884675
3565233953503837
4199515840403863
5051407189806802
8306355113101814
9171690007212041
0504332643175649
0564013671524693
5403257195709180
8288593763692015
2763982530162198
0720377129835798
0414927195795995
7375761771468979
8992362063539452
7074462895956109
4254001833729264
3337354311147391
2270170938759712
8355505336840830
9080862012369372
8323271870704785
0672001143396099
4687521701781735
5898123190760096
6800179258779502
8524635545004209
6269525393139517
7738279782371416
3614218552607167
5238483224961665
1095193209251351
3131637447868865
6600213493415343
9357163418869923
1251013053012882
2003881348159909
2817758210035652
1073336028136265
6229846204091964
3493899263715892
1415327946551430
7259546184945513
3395540643067191
2360909881377832
1662857471693160
5234033191054309
5093708045253874
5550241308420441
1208427854093144
9859511150127352
6343371643992248
2233626382921353
6430809426743411
0348916751261683
3472136204676445
4097579744637000
3539237801999914
6646897589665694
1188526909806351
3752846962211460
3819194490760863
3834930747265724
2613403472748975
0517155355307078
0880513801187194
8442535263392473
5137020537633616
2135289981034597
4863318065551221
6207945996145522
0501102305295489
5358209875781772
3557497581433497
8253292050291316
5665214991445603
9724858439532243
8873615531730292
4952602904020942
6120144773798940
4238962623790586
2847910686799549
3736990040561892
1699036954652861
3010717952580020
0993541437761344
5944029357081364
6560169362577144
3881030338868599
9263908851094592
9489962622377259
1400494059246572
9377247028344552
9180718046391058
2224006023152285
7165937202170185
9481463163065936
4809224774259537
8656259486979143
9334929345863620
3850817367861711
9949032159595994
5503005537493445
5806067174457918
5360759362307787
8946398534507416
3438757894858599
6060975162896768
2188104854624069
3302910883039317
7911596105851488
9662588848182807
1247301310025407
2948562630625893
3479302218140583
5111051809858965
5598251337847379
0129242847750050
0257722045660099
9173497049304240
7436135069574190
6361040138396187
6563500937374237
7279178012336732
7467359757638128
7636333978413014
4366472400277640
6639659544951286
5494434934031784
4436295285744827
5692147944205617
7074721369896533
6506973801068764
8756197722397278
0104263969020730
9890672251177770
5694972079639390
3944323379930317
6294757846226802
8721051411194095
4511214562924677
2266103198034845
4839958636560578
1524196108704680
3611338126634016
0740337775560011
4424834389341362
8820303266482347
0524167307905393
6870602740493079
1425794758792967
5526447867561851
1811805573981238
3559735145198924
7657474818138384
3202085229255292
1804557203019414
6631337929308136
6314156306818152
4831398698910191
7814299867942521
5523293886612004
6480379996775174
2022712214478563
8996123438697865
0564778663100780
9784070616942368
3520507900072576
1652522578617700
6156629768083874
7508570906968637
5815701082782172
5819754547246609
5780045962141655
8507504842408344
8392747880455561
9106840210671906
8192060024368582
1808368824068028
9118815178885363
0297506668007756
1058846722790485
2294403751807996
0034802427042185
0691832345393815
8307123720345810
5502409805298861
6799286985008906
9436411671853194
1845452485907152
1841965052260924
2185858940513067
4871648545146852
3717892096896315
7176435560478135
0929607475088739
3629415473382582
5888897744222998
2853724167786086
8989736627689345
2692374476950794
4177790641969116
0430775448955508
9900612496740076
6952840746937361
6692968437800167
2638198464061178
0545745550357393
0136176117453948
3793360023274043
4030595946214028
3948643071576771
1994120313283086
3604174612288215
4037452920080174
1251375044697776
1924221940804109
0851227084319958
6924461969613244
7354209677972222
2815946827655352
5764548461038676
3748948527712591
9154035815097979
2443748341355483
7757984300428347
4553731210869761
5660808663937586
2508563080269176
3884155143293507
8569902360894050
4270832485610925
5865617307557980
1133118124160525
2232282632345945
0865942200462006
2457094001249115
1389825754483128
7578795880165011
5753863085867759
7835111171924136
3979454625416654
0831771396099801
4119856451779881
5266093447141862
4251936710939364
4854832473320818
8149364045680042
1736024844858103
9273720281917978
8441361506900775
3964371281672065
5167675629028279
5355869058801821
5564542891252116
0764980162769193
6518469209294270
9531043022697696
5881767597296521
9836776931160228
7763181437076835
9539463339318237
3945991870627440
8055723542037568
4651685723320152
1494555066863202
7602310105303724
2153014839354888
5222208934938658
6654943686635661
