artigoEmPeriodico	Julián Bravo Castillero	2013	http://dx.doi.org/10.1016/j.compstruct.2012.11.040	Different approaches for calculating the effective elastic properties in composite materials under imperfect contact adherence	Composite Structures	RODRÍGUEZ-RAMOS, REINALDO ; DE MEDEIROS, RICARDO ; GUINOVART-DÍAZ, RAÚL ; Bravo-Castillero, Julián ; OTERO, JOSÉ ANTONIO ; TITA, VOLNEI	Qualis nao identificado	Composite Structures
artigoEmPeriodico	Julián Bravo Castillero	2013	http://dx.doi.org/10.1016/j.ijsolstr.2012.11.001	Semi-analytical method for computing effective properties in elastic composite under imperfect contact	International Journal of Solids and Structures	OTERO, JOSÉ A. ; RODRÍGUEZ-RAMOS, REINALDO ; Bravo-Castillero, Julián ; GUINOVART-DÍAZ, RAÚL ; SABINA, FEDERICO J. ; MONSIVAIS, G.	A2	
artigoEmPeriodico	Julián Bravo Castillero	2013	http://dx.doi.org/10.1016/j.ijsolstr.2013.02.019	Effective elastic properties of a periodic fiber reinforced composite with parallelogram-like arrangement of fibers and imperfect contact between matrix and fibers	International Journal of Solids and Structures	GUINOVART-DÍAZ, R. ; RODRÍGUEZ-RAMOS, R. ; Bravo-Castillero, J. ; LÓPEZ-REALPOZO, J.C. ; SABINA, F.J. ; SEVOSTIANOV, I.	A2	
artigoEmPeriodico	Julián Bravo Castillero	2013	http://dx.doi.org/10.1016/j.ijsolstr.2013.03.021	Overall longitudinal shear elastic modulus of a 1-3 composite with anisotropic constituents	International Journal of Solids and Structures	LÓPEZ-LÓPEZ, EDUARDO ; SABINA, FEDERICO J. ; GUINOVART-DÍAZ, RAÚL ; Bravo-Castillero, Julián ; RODRÍGUEZ-RAMOS, REINALDO	A2	
artigoEmPeriodico	Julián Bravo Castillero	2013	http://dx.doi.org/10.1016/j.mechrescom.2013.04.006	Biomechanic approach of a growing tumor	Mechanics Research Communications	RAMÍREZ-TORRES, ARIEL ; RODRÍGUEZ-RAMOS, REINALDO ; GLÜGE, RAINER ; Bravo-Castillero, Julián ; GUINOVART-DÍAZ, RAÚL ; RODRÍGUEZ-SANCHEZ, ROCÍO	A2	
artigoEmPeriodico	Julián Bravo Castillero	2013	http://dx.doi.org/10.1080/15376494.2011.643276	Plane Magneto-Electro-Elastic Moduli of Fiber Composites with Interphase	Mechanics of Advanced Materials and Structures	GUINOVART-DÍAZ, RAÚL ; RODRÍGUEZ-RAMOS, REINALDO ; Bravo-Castillero, Julián ; SABINA, FEDERICO J. ; MONSIVAIS GALINDO, GUILLERMO ; WANG, YUE-SHENG	Qualis nao identificado	Mechanics of Advanced Materials and Structures
artigoEmPeriodico	Julián Bravo Castillero	2013	http://dx.doi.org/10.1016/j.ijmecsci.2013.03.011	Effective properties of periodic fibrous electro-elastic composites with mechanic imperfect contact condition	International Journal of Mechanical Sciences	RODRÍGUEZ-RAMOS, R. ; GUINOVART-DÍAZ, R. ; LÓPEZ-REALPOZO, J.C ; Bravo-Castillero, J. ; OTERO, J.A. ; SABINA, F.J. ; LEBON, F.	A2	
artigoEmPeriodico	Julián Bravo Castillero	2013	http://dx.doi.org/10.1016/j.elstat.2013.01.014	Effective permittivity of a fiber-reinforced composite with transversely isotropic constituents	Journal of Electrostatics	LÓPEZ-LÓPEZ, EDUARDO ; SABINA, FEDERICO J. ; GUINOVART-DÍAZ, RAÚL ; Bravo-Castillero, Julián ; RODRÍGUEZ-RAMOS, REINALDO	Qualis nao identificado	Journal of Electrostatics
artigoEmPeriodico	Julián Bravo Castillero	2013	http://dx.doi.org/10.1016/j.camwa.2013.08.027	Asymptotic homogenization of periodic thermo-magneto-electro-elastic heterogeneous media	Computers & Mathematics with Applications (1987)	SIXTO-CAMACHO, LÁZARO M. ; Bravo-Castillero, Julian ; BRENNER, RENALD ; GUINOVART-DÍAZ, RAÚL ; MECHKOUR, HOUARI ; RODRÍGUEZ-RAMOS, REINALDO ; SABINA, FEDERICO J.	Qualis nao identificado	Computers & Mathematics with Applications (1987)
artigoEmPeriodico	Julián Bravo Castillero	2013	http://dx.doi.org/10.1115/1.4023475	EFFECTIVE ELECTROMECHANICAL PROPERTIES OF 622 PIEZOELECTRIC MEDIUM WITH UNIDIRECTIONAL CYLINDRICAL HOLES	Journal of Applied Mechanics	AGUIAR, ADAIR ; BRAVO-CASTILLERO, JULIA'N ; RODRI'GUEZ-RAMOS, REINALDO ; DA SILVA, UZIEL PAULO	Qualis nao identificado	Journal of Applied Mechanics
artigoEmPeriodico	Julián Bravo Castillero	2013		11. Acerca de la homogeneización y propiedades efectivas de la ecuación del calor	Visión Electrónica	Bravo-Castillero, J.; GUINOVART-DÍAZ, R. ; LOPEZ-RUIZ, G. ; RODRÍGUEZ-RAMOS, R. ; SABINA, F.J.	Qualis nao identificado	Visión Electrónica
artigoEmPeriodico	Julián Bravo Castillero	2013		Cotas variacionales para coeficientes efectivos en compuestos con contacto imperfecto	Visión Electrónica	LOPEZ-RUIZ, G. ; Bravo-Castillero, J. ; CRUZ, M. E. ; GUINOVART-DÍAZ, R. ; RODRIGUEZ-RAMOS, R	Qualis nao identificado	Visión Electrónica
artigoEmPeriodico	Jonas da Costa Carvalho	2013	http://dx.doi.org/10.5923/j.ajee.20130301.02	A General Lagrangian Approach to Simulate Pollutant Dispersion in Atmosphere for Low-wind Condition	American Journal of Environmental Engineering	CARVALHO, J. C.; VILHENA, M. T. ; DEGRAZIA, G. A. ; SALLET, M.	Qualis nao identificado	American Journal of Environmental Engineering
artigoEmPeriodico	Jonas da Costa Carvalho	2013	http://dx.doi.org/10.5094/apr.2013.019	Derivation of third-order vertical velocity turbulence moment in the convective boundary layer from large eddy simulation data: an application to the dispersion modeling	Atmospheric Pollution Research	MALDANER, S. ; DEGRAZIA, G. A. ; RIZZA, U. ; MOREIRA, V. S. ; ACEVEDO, O. C. ; PUHALES, F. S. ; ALVES, I. P. ; CARVALHO, J. C.	B4	
artigoEmPeriodico	Jonas da Costa Carvalho	2013		Simulação tridimensional da dispersão de poluentes em condições de vento fraco e estáveis (ISSN: 2179-460X)	Ciência e Natura	Silveira, V.C. ; Buske, D. ; Quadros, R. ; CARVALHO, J.C	B2	
artigoEmPeriodico	Jonas da Costa Carvalho	2013		Estudo do impacto das emissões de poluentes na região metropolitana de Porto Alegre ? RS (ISSN: 2179-460X)	Ciência e Natura	SOUZA, L. P. ; ALONSO, M. F. ; CARVALHO, J.C ; Cuchiara, Gustavo C.	B2	
trabalhoCompletoEmCongresso	Jonas da Costa Carvalho	2013		Simulation of pollutant dispersion under low wind conditions in a stable atmospheric boundary layer	22nd International Congress of Mechanical Engineering (COBEM 2013)	Silveira, V.C. ; Buske, D. ; QUADROS, R. S. ; CARVALHO, J.C		
resumoExpandidoEmCongresso	Jonas da Costa Carvalho	2013	Avaliação sazonal da concentração de ozônio e seus precursores na região metropolitana de porto alegre	XXII Congresso de Iniciação Científica da Universidade Federal de Pelotas, 2013, Pelotas. XXII Congresso de Iniciação Científica da Universidade Federal de Pelotas. Pelotas: UFPel	COUTINHO, O. V. ; CARVALHO, J. C.		
resumoExpandidoEmCongresso	Fabrício Pereira Härter	2013	ASSIMILAÇÃO 3DVAR NO WRF E SIMULAÇÃO DE PERFIS VERTICAIS DE TEMPERATURA NO SUL DO BRASIL	Encontro de Pós-Graduação da UFPEL, 2013, Pelotas. XV Encontro de Pós-Graduação da UFPEL	Beck, V.C. ; HÄRTER, F. P. ; Yamasaki, Y.		
resumoExpandidoEmCongresso	Fabrício Pereira Härter	2013	PREVISÃO DE VORTICIDADE NO WRF-3DVAR APLICADO À REGIÃO SUL DO BRASIL	XV Encontro de Pós-Graduação da UFPEL, 2013, Pelotas. Anais do XV Encontro de Pós-Graduação da UFPEL	Beck, V.C. ; HÄRTER, F. P. ; Yamasaki, Y.		
artigoEmPeriodico	Fabio Silva Botelho	2013	http://dx.doi.org/10.1007/s40314-013-0018-6	On the Lagrange multiplier theorem in Banach spaces	Matemática Aplicada e Computacional (Cessou em 1997. Cont. ISSN 1807-0302 Computational & Applied Mathematics)	Botelho, Fabio	B1	Computational & Applied Mathematics
artigoEmPeriodico	Daniela Buske	2013	http://dx.doi.org/10.5923/j.ajee.20130301.07	A First Order Pertubative Analysis of the Advection-Diffusion Equation for Pollutant Dispersion in the Atmospheric Boundary Layer	American Journal of Environmental Engineering	PELLEGRINI, C. ; BUSKE, D. ; BODMANN, B. ; VILHENA, M. T.	Qualis nao identificado	American Journal of Environmental Engineering
artigoEmPeriodico	Daniela Buske	2013	http://dx.doi.org/10.4236/jep.2013.48a1003	An Analytical Air Pollution Model with Time Dependent Eddy Diffusivity	Journal of Environmental Protection (Print)	TIRABASSI, T. ; VILHENA, M. T. ; BUSKE, D. ; DEGRAZIA, G.A.	B3	
artigoEmPeriodico	Daniela Buske	2013	http://dx.doi.org/10.1016/j.atmosres.2013.07.009	A puff model using a three-dimensional analytical solution for the pollutant diffusion process	Atmospheric Research (Print)	da Silva, E.J.G. ; TIRABASSI, T. ; VILHENA, M. T. ; BUSKE, D.	A1	
artigoEmPeriodico	Daniela Buske	2013	http://dx.doi.org/10.4236/jep.2013.48A1008	An Analytical Formulation for Pollutant Dispersion Simulation in the Atmospheric Boundary Layer	Journal of Environmental Protection (Print)	GONÇALVES, GLÊNIO A. ; QUADROS, REGIS S. DE ; BUSKE, DANIELA	B3	
artigoEmPeriodico	Daniela Buske	2013		Simulação tridimensional da dispersão de poluentes em condições de vento fraco e estáveis (ISSN: 2179-460X)	Ciência e Natura	SILVEIRA, V.C. ; BUSKE, D. ; QUADROS, R. S. ; CARVALHO, J.	B2	
artigoEmPeriodico	Daniela Buske	2013		A new puff model applying an exact solution of diffusion equation	Ciência e Natura	da Silva, E.J.G. ; TIRABASSI, T. ; BUSKE, D. ; VILHENA, M. T.	B2	
artigoEmPeriodico	Daniela Buske	2013		Avaliação estocástica do modelo de advecção-difusão de substâncias radioativas liberadas na atmosfera por usinas nucleares	Ciência e Natura	WEYMAR, G. J. ; BODMANN, B. ; VILHENA, M. T. ; BUSKE, D.	B2	
trabalhoCompletoEmCongresso	Daniela Buske	2013		A mathematical model to simulate rocket exhaust clouds in Alcântara launch center	21st ESA Symposium on European Rocket Ballon Programmes and Related Research	MOREIRA, D. M. ; NASCIMENTO, E.S. ; ALBUQUERQUE, T.T. ; FISCH, G. ; Daniela Buske ; QUADROS, R. S.		
trabalhoCompletoEmCongresso	Daniela Buske	2013		Simulation of pollutant dispersion in the atmosphere under unstable conditions using an analytical solution	4th Workshop of Applied Computing for the Management of the Environment and Natural Resources	QUADROS, R. S. ; Goncalves, G.A. ; Daniela Buske ; CONTREIRA, J. ; CEZIMBRA, R.A.S.		
trabalhoCompletoEmCongresso	Daniela Buske	2013		Solution of the puff model for pollutant dispersion in the atmospheric boundary layer by the GILTT method	22nd International Congress of Mechanical Engineering	da Silva, E.J.G. ; VILHENA, M. T. ; TIRABASSI, T. ; Daniela Buske ; QUADROS, R. S.		
trabalhoCompletoEmCongresso	Daniela Buske	2013		Simulation of pollutant dispersion under low wind conditions in a stable atmospheric boundary layer	22nd International Congress of Mechanical Engineering (COBEM 2013)	SILVEIRA, V.C. ; Daniela Buske ; QUADROS, R. S. ; CARVALHO, J.		
trabalhoCompletoEmCongresso	Daniela Buske	2013		An analytical model for radioactive pollutant releasing simulation in the atmospheric boundary layer	International Nuclear Atlantic Conference	WEYMAR, G. J. ; Daniela Buske ; VILHENA, M. T. ; BODMANN, B. ; QUADROS, R. S.		
resumoExpandidoEmCongresso	Daniela Buske	2013	Simulação da dispersão de poluentes na camada limite atmosférica incluindo o efeito da deposição seca no solo	XXII CIC, 2013, Pelotas (RS). CIC UFPel 2013	CONTREIRA, J. ; CEZIMBRA, R.A.S. ; QUADROS, R. S. ; BUSKE, D		
resumoExpandidoEmCongresso	Daniela Buske	2013	Modelo analítico de dispersão de poluentes considerando o efeito de ascensão da pluma	XXII CIC, 2013, Pelotas (RS). CIC UFPel 2013	CEZIMBRA, R.A.S. ; CONTREIRA, J. ; QUADROS, R. S. ; BUSKE, D		
trabalhoCompletoEmCongresso	Claudio Zen Petersen	2013		On a closed form appoach to the fractional neutron point kinetics equations with temperature feedback	International Nuclear Atlantic Conference	SCHRAMM, M. ; PETERSEN, C. Z. ; BODMANN, B. ; ALVIM, A. C. ; VILHENA, M. T.		
artigoEmPeriodico	Welton Alves de Menezes	2013	http://dx.doi.org/10.1016/j.anucene.2012.08.029	Analytical spatial reconstruction scheme for the coarse-mesh solutions generated by the constant spectral nodal method for monoenergetic discrete ordinates transport calculations in X,Y geometry fission chain reacting systems	Annals of Nuclear Energy	MENEZES, WELTON A.; ALVES FILHO, HERMES ; BARROS, RICARDO C. ; MORAES, CAROLINE S. ; DOMINGUEZ, DANY S.	A2	
trabalhoCompletoEmCongresso	Welton Alves de Menezes	2013		THE SPECTRAL GREEN s FUNCTION NODAL METHOD FOR MULTIGROUP SLAB-GEOMETRY FIXED-SOURCE Sn PROBLEMS WITH ANISOTROPIC SCATTERING	International Conference on Mathematics and Computational Methods Applied to Nuclear Science and Engineering	MENEZES, WELTON A.; Hermes A. Filho ; BARROS, RICARDO C.		
artigoEmPeriodico	Valdecir Bottega	2013	http://dx.doi.org/10.1007/s00158-012-0829-x	Integrated topology optimization and optimal control for vibration suppression in structural design	Structural and Multidisciplinary Optimization (Print)	MOLTER, Alexandre ; SILVEIRA, OTÁVIO A. A. ; BOTTEGA, VALDECIR ; FONSECA, JUN S. O.	A2	
resumoExpandidoEmCongresso	Valdecir Bottega	2013	MODELAGEM DA CINEMÁTICA DIRETA E INVERSA DE MANIPULADORES ROBÓTICOS	XXII CIC Congresso de iniciação científica da universidade federal de Pelotas, 2013, Pelotas - RS. XXII CIC Congresso de iniciação científica da universidade federal de Pelotas	Leitzke B. S. ; BOTTEGA, VALDECIR		
artigoEmPeriodico	Rejane Pergher	2013		Resolução analítica da equação de difusão-advecção considerando o termo de contragradiente aplicado à dispersão de poluentes na atmosfera	Ciência e Natura	VENZKE, C. ; COSTA, C. P. ; PERGHER, R.	B2	
trabalhoCompletoEmCongresso	Rejane Pergher	2013		Reprovação em Matemática no Ensino Superior: uma tentativa de reduzir os altos índices	XI ENEM - Encontro Nacional de Educação Matemática	COSTA, C. P. ; PERGHER, R. ; CHIMENDES, L.		
trabalhoCompletoEmCongresso	Rejane Pergher	2013		Relato de Monitoria: Uma Forma de Experiência Docente	XI ENEM - Encontro Nacional de Educação Matemática	SILVEIRA, J. R. ; LEITZKE, B. S. ; COSTA, C. P. ; PERGHER, R.		
trabalhoCompletoEmCongresso	Rejane Pergher	2013		Modelagem matemática de robôs através de transformações lineares	XI ENEM - Encontro Nacional de Educação Matemática	LEITZKE, B. S. ; PERGHER, R.		
trabalhoCompletoEmCongresso	Rejane Pergher	2013		Monitorias nos cursos iniciais de Cálculo: um olhar sobre os resultados a partir de dados estatísticos	VI CIEM - Congresso Internacional de Ensino de Matemática	CHIMENDES, L. ; MOLTER, A. ; COSTA, C. P. ; NACHTIGAL, C. ; PERGHER, R.		
artigoEmPeriodico	Régis Sperotto de Quadros	2013	http://dx.doi.org/10.4236/jep.2013.48A1008	An Analytical Formulation for Pollutant Dispersion Simulation in the Atmospheric Boundary Layer	Journal of Environmental Protection (Print)	GONÇALVES, GLÊNIO A. ; QUADROS, REGIS S. DE ; BUSKE, DANIELA	B3	
artigoEmPeriodico	Régis Sperotto de Quadros	2013		Simulação tridimensional da dispersão de poluentes em condições de vento fraco e estáveis (ISSN: 2179-460X)	Ciência e Natura	SILVEIRA, V.C. ; Buske, D. ; QUADROS, R. S. ; CARVALHO, J.	B2	
trabalhoCompletoEmCongresso	Régis Sperotto de Quadros	2013		Simulation of pollutant dispersion in the atmosphere under unstable conditions using an analytical solution	4th Workshop of Applied Computing for the Management of the Environment and Natural Resources	QUADROS, R. S. ; Goncalves, G.A. ; Daniela Buske ; CONTREIRA, J. ; CEZIMBRA, R.A.S.		
trabalhoCompletoEmCongresso	Régis Sperotto de Quadros	2013		Simulation of pollutant dispersion under low wind conditions in a stable atmospheric boundary layer	22nd International Congress of Mechanical Engineering (COBEM 2013)	SILVEIRA, V.C. ; Daniela Buske ; QUADROS, R. S. ; CARVALHO, J.		
trabalhoCompletoEmCongresso	Régis Sperotto de Quadros	2013		Infiltration in porous media: a heuristic solution of the Richards equation	22nd International Congress of Mechanical Engineering	FURTADO, I. ; BODMANN, B. ; Vilhena, M. T. ; QUADROS, R. S.		
trabalhoCompletoEmCongresso	Régis Sperotto de Quadros	2013		An analytical model for radioactive pollutant releasing simulation in the atmospheric boundary layer	International Nuclear Atlantic Conference	WEYMAR, G. J. ; Daniela Buske ; VILHENA, M. T. ; BODMANN, B. ; QUADROS, R. S.		
trabalhoCompletoEmCongresso	Régis Sperotto de Quadros	2013		A mathematical model to simulate rocket exhaust clouds in Alcântara launch center	21st ESA Symposium on European Rocket Ballon Programmes and Related Research	MOREIRA, D. M. ; NASCIMENTO, E.S. ; ALBUQUERQUE, T.T. ; FISCH, G. ; Daniela Buske ; QUADROS, R. S.		
trabalhoCompletoEmCongresso	Régis Sperotto de Quadros	2013		Solution of the puff model for pollutant dispersion in the atmospheric boundary layer by the GILTT method	22nd International Congress of Mechanical Engineering	da Silva, E.J.G. ; VILHENA, M. T. ; TIRABASSI, T. ; Daniela Buske ; QUADROS, R. S.		
resumoExpandidoEmCongresso	Régis Sperotto de Quadros	2013	Curvas de crescimento aplicado a criação de coelhos	XXII CIC, 2013, Pelotas (RS). CIC UFPel 2013	STULP, C. ; QUADROS, R. S.		
resumoExpandidoEmCongresso	Régis Sperotto de Quadros	2013	Simulação da dispersão de poluentes na camada limite atmosférica incluindo o efeito da deposição seca no solo	XXII CIC, 2013, Pelotas (RS). CIC UFPel 2013	CONTREIRA, J. A. ; CEZIMBRA, R.A.S. ; QUADROS, R. S. ; Buske, D.		
resumoExpandidoEmCongresso	Régis Sperotto de Quadros	2013	Modelo analítico de dispersão de poluentes considerando o efeito de ascensão da pluma	XXII CIC, 2013, Pelotas (RS). CIC UFPel 2013	CEZIMBRA, R.A.S. ; CONTREIRA, J. A. ; QUADROS, R. S. ; Buske, D.		
trabalhoCompletoEmCongresso	Leslie Darien Pérez Fernández	2013		Investigation of Bifurcation Solutions of Plane Problems for a Class of Hyperelastic Laminates	Thirteenth Pan American Congress of Applied Mechanics - PACAM XIII	AGUIAR, A. R. ; Pérez-Fernández, L.D. ; PRADO, E. B. T.		
trabalhoCompletoEmCongresso	Leslie Darien Pérez Fernández	2013		On the Effective Behavior of Periodic Nonlinear Electro-Mechanical Composites	22nd International Congresss of Mechanical Engineering	Pérez-Fernández, L. D		
artigoEmPeriodico	Andrei Bourchtein	2013		On some analytical properties of a general PageRank algorithm	Mathematical and Computer Modelling	BOURCHTEIN, A.; Bourchtein L.	A2	
artigoEmPeriodico	Andrei Bourchtein	2013	http://dx.doi.org/10.1016/j.mcm.2011.06.008	A time splitting scheme for the nonhydrostatic atmospheric model	Mathematical and Computer Modelling	Bourchtein, Andrei; Bourchtein, Ludmila	A2	
artigoEmPeriodico	Alexandre Molter	2013	http://dx.doi.org/10.1007/s00158-012-0829-x	Integrated topology optimization and optimal control for vibration suppression in structural design	Structural and Multidisciplinary Optimization (Print)	MOLTER, Alexandre ; SILVEIRA, OTÁVIO A. A. ; BOTTEGA, VALDECIR ; FONSECA, JUN S. O.	A2	
trabalhoCompletoEmCongresso	Alexandre Molter	2013		Monitorias nos cursos iniciais de Cálculo: um olhar sobre os resultados a partir de dados estatísticos	VI CIEM - Congresso Internacional de Ensino de Matemática	CABRERA, L. C. ; MOLTER, A. ; COSTA, C. P. ; NACHTIGALL, C. ; PERGHER, R.		
