9563262441800275
4251462060780948
6987889322617026
0916000371341513
9680475824447820
2380353135803549
7248665539387069
0795384966803082
6584027399413654
4301368869549226
8144833358892084
3368639921194981
6651553674877930
5908042175225428
0183769717669185
4882534411388609
1012451537739147
5595240454652990
7332474290941919
9467186053414934
1431624909808166
3537552421877247
6438128536915085
0114068322070592
3016121702515974
2519874649699294
3868907891951053
1181660568548980
6141230203546076
0601216568829240
2820404320026694
4887183815429583
0240704222845444
9736380338634162
3480747016837680
9034813334793216
7971248546060586
3409144526144485
5746097026160276
8418902167303547
7523198554051014
0768955882336051
9604327349698525
9401385573887851
8972741938774574
2077765914605005
4481793155075519
9163304064337159
0150924577307031
9338228049065054
0838980469535440
0450948289800595
5436539866679410
9403485451730335
7383219087745486
7075471763804755
6200510011641845
0716900160214092
0834668419587001
2830604665872551
0808991927126468
1526946408801828
8237134558577276
9737631849400470
0205253578419429
5962376450341755
0529000071673226
2329512093960865
4870003562574001
9778700143605069
1812806190521028
7703659740618915
6015126846109661
8769784360922135
9946998235510592
7201695815768762
0408209083350066
2655730779144916
4593730078180894
6798553525958160
8406298928017347
5246371559103159
6956631599534120
6847735001358120
8627441002342823
5334921341667716
8624335739609751
9433655164598909
4327070396737714
3536832270515912
3691843056925531
0527454127463781
7771280806504852
4902886245155081
6841855292424284
7144785045241671
1775441236942704
9908042258225541
6932882950751155
4845909608755004
7570230588831120
3414799692619699
6693921747312552
5667229975496081
5007956737373475
2228539262632042
0319559373628489
1821402316308818
1800610548349937
8563308324482367
5329137047156906
1799399304025487
3844454977315778
8285018770645807
1732909136264562
0277246493795331
7285024279988362
8354177478809467
5401369683892150
4225299693291986
2255266703961082
0266219085047815
1986882876847099
7292032696997201
4232546646621827
0758394542417366
1491235067137917
0212284848420210
5989065193590953
3459331011913021
3606604113019271
8426635710118426
2204585337145443
6503578618806955
2254453960245715
6948945548186089
4485206584533650
2270677706718167
5898101623873773
5985643393743399
5252225129884911
8669754182140698
8805604567695711
8937961078558996
8981185343471853
1473418328157983
9999790170127352
9805377939867715
2450533123359700
5440854176015363
9653853675618723
2153059990664285
0111900440522917
4065824911933203
7024983341494297
5570995348839001
8156854796793004
5969496186215144
6072648709666166
7750214852899188
6884581304753329
9374190168769125
2063152147699555
8321796631800718
3723112145976159
7749117654182776
6669806857054277
9451039062890376
5476118728173549
3022810217328797
4546701843297248
8599699974429280
1015001063418091
7195702087655314
9936803177575628
3740950346967524
2704982579029077
9949772398048843
3981995002595753
8792702083813231
9681055296975664
3295949147368703
1878893089918119
9204792214308511
8108487234297364
9167714430259668
5895227054760475
5320330508972933
0220906938149410
6736470040262841
5222139886054755
2364073937219288
8335138244094635
7007815940337701
6433196120254297
4658516980805508
0468783132293549
2545304722852667
6266547523604644
1309035538142217
7640108116459444
9695542424889786
1017974473479618
4827206212589655
7737476090013576
1448917943336109
4715421022830186
2868490544096872
8937858298738942
7843851790585163
3410912882231783
4870976157316945
2462847535959232
4807254028571537
8699243861996813
8968036415225920
4980816065462524
7257323910817700
7301816691261201
3793156690673506
7617215471808533
5908501708747559
3635253735997010
0470331775549193
8671917257717460
5762548246076451
5616576281329159
5382777943593826
3761585497791105
4804847828228300
9283775492064031
5656425839228803
3433847962770085
5082680809649212
8975165647986863
2620108442217665
5979116269273188
2902317070726772
5093210888872414
9583314331960942
3760619041563045
4632325487404310
1638954311512810
4041789153483476
5715524310768370
1949608716905670
8467580797480867
6141100039435205
4315926595040399
7743497482690176
7020006849708124
0914292768585767
0576035928609651
2830251457782248
5058005005201478
0412131317420357
5650917829552907
1484123191058508
7870111209439581
7030496355590844
0773381053297524
0431688649128529
7813889842648459
7909091619260597
3489006978828435
1740467499247374
2840764849156574
8641259747622403
6727227477861466
8794203070785978
1660511410951811
5148878822357015
8697192216278642
1618673812774317
8215754365980649
7014449073287253
7494072004817841
1095833148260006
7303635607073176
4797834023649260
2551099729266425
5759310687521434
3106507367046275
4274582376583918
7129594865679097
7990024384081908
8298663599011575
7079568320792603
0518540814689250
2509827040271647
4285214258496042
0605896399353600
6844637167959711
3783830638834190
3961207232962745
1618190552189305
7706827408886021
2575676960514838
8877272658065995
3919161245148947
3741207242086712
1841377430327288
9781294708401233
1815784268131348
8358112426847555
2907189124654066
9627317574743825
7140925853660088
0196604032172399
6796266652431827
0258702495067234
9695584243100680
6214153340792319
