8539341671152883
7925449690046513
9931973391211710
4055146648812877
2328238717105962
8338527087554463
6526050617910624
6515725808648467
7564660473747042
1760765397044137
0616539963047807
2198188215129698
4561729191450640
0240551533292579
6866270928240455
3915051035089861
5580004940091667
8680871640499952
3186920393443928
0764511052669622
5348717261204017
6080000618358423
