artigoEmPeriodico	Luísa Andréia Gachet Barbosa	2013	http://dx.doi.org/10.4028/www.scientific.net/AMR.742.231	Studies of Mechanical Properties and Absorption of Lightweight Concrete with Brazilian Expanded Clay	Advanced Materials Research (Online)	GACHET-BARBOSA, L. A.; ANGELIN, A. F. ; LINTZ, Rosa Cristina Cecche	Qualis nao identificado	Advanced Materials Research (Online)
artigoEmPeriodico	Luísa Andréia Gachet Barbosa	2013	http://dx.doi.org/10.4028/www.scientific.net/AMR.742.456	Evaluation of the Behaviour of Mortar with the Addition of Rubber	Advanced Materials Research (Online)	GACHET-BARBOSA, L. A.; FERREIRA, Isabel Kuntz ; LINTZ, Rosa Cristina Cecche ; SEYDELL, M. R. R. ; Ribeiro, L.C.L.J.	Qualis nao identificado	Advanced Materials Research (Online)
artigoEmPeriodico	Luísa Andréia Gachet Barbosa	2013	http://dx.doi.org/10.4028/www.scientific.net/amr.690-693.865	Production of Concrete Blocks with Residues for Civil Construction	Advanced Materials Research (Online)	GACHET-BARBOSA, L. A.; Camargo,M. M. ; LINTZ, Rosa Cristina Cecche ; PIRES,M.S.G.(Marta Siviero Guilherme Pires)	Qualis nao identificado	Advanced Materials Research (Online)
artigoEmPeriodico	Luísa Andréia Gachet Barbosa	2013	http://dx.doi.org/10.4028/www.scientific.net/amr.690-693.829	Concrete Slab Value Stream Mapping of Brazilian Residential Buildings - a Lean Construction Study Case	Advanced Materials Research (Online)	GACHET-BARBOSA, L. A.; FONTANINI, P. S. P. ; MILANO, C. S. ; FUJIMOTO, A. ; LINTZ, Rosa Cristina Cecche ; JACINTHO, A. E. P. G. A. ; Pimentel, L.L.	Qualis nao identificado	Advanced Materials Research (Online)
artigoEmPeriodico	Luísa Andréia Gachet Barbosa	2013	http://dx.doi.org/10.4028/www.scientific.net/amr.756-759.121	Application of Self-Compacting Concrete (SCC) in the Execution of Reservoir of Water	Advanced Materials Research (Online)	GACHET-BARBOSA, L. A.; Galzerano,M. ; BRESSAN, L. T. ; LINTZ, Rosa Cristina Cecche ; Ribeiro, L.C.L.J. ; PIRES, M. S. G. ; JACINTHO, A. E. P. G. A.	Qualis nao identificado	Advanced Materials Research (Online)
artigoEmPeriodico	Luísa Andréia Gachet Barbosa	2013	http://dx.doi.org/10.4028/www.scientific.net/amr.694-697.2942	An Alternative to Paver in Living Areas of Social Interest Housing (SIH)	Advanced Materials Research (Online)	GACHET-BARBOSA, L. A.; FONTANINI, P. S. P. ; LINTZ, Rosa Cristina Cecche ; JACINTHO, A. E. P. G. A. ; PIMENTEL, Lia Lorena	Qualis nao identificado	Advanced Materials Research (Online)
artigoEmPeriodico	Luísa Andréia Gachet Barbosa	2013	http://dx.doi.org/10.4028/www.scientific.net/AMM.368-370.925	Effects of Consumption of Cement in Mechanical Properties of Lightweight Concrete containing Brazilian Expanded Clay	Applied Mechanics and Materials	ANGELIN, A. F. ; Ribeiro, L.C.L.J. ; PIRES, M. S. G. ; JACINTHO, A. E. P. G. A. ; LINTZ, R. C. C. ; GACHET-BARBOSA, L. A.	Qualis nao identificado	Applied Mechanics and Materials
artigoEmPeriodico	Luísa Andréia Gachet Barbosa	2013	http://dx.doi.org/10.4028/www.scientific.net/amm.368-370.441	Implementation of Environmental Management on a Construction Site	Applied Mechanics and Materials	GACHET-BARBOSA, L. A.; VIANA, E. T. ; Ribeiro, L.C.L.J. ; LINTZ, Rosa Cristina Cecche ; PIRES, M. S. G.	Qualis nao identificado	Applied Mechanics and Materials
artigoEmPeriodico	Luísa Andréia Gachet Barbosa	2013	http://dx.doi.org/10.4028/www.scientific.net/amm.368-370.860	Building Blocks Production with Sludge	Applied Mechanics and Materials	GACHET-BARBOSA, L. A.; AFONSO, M. ; FERREIRA, R. ; Ribeiro, L.C.L.J. ; LINTZ, Rosa Cristina Cecche ; PIRES, M. S. G.	Qualis nao identificado	Applied Mechanics and Materials
artigoEmPeriodico	Luísa Andréia Gachet Barbosa	2013	http://dx.doi.org/10.4028/www.scientific.net/AMR.785-786.157	Production of self-compacting concrete using rock breaking waste residues	Advanced Materials Research (Online)	N. F. ; GACHET-BARBOSA, L. A. ; LINTZ, Rosa Cristina Cecche ; SEYDELL, M. R. R.	Qualis nao identificado	Advanced Materials Research (Online)
artigoEmPeriodico	Luísa Andréia Gachet Barbosa	2013	http://dx.doi.org/10.4028/www.scientific.net/AMM.405-408.3119	MANAGEMENT OF GYPSUM IN CONSTRUCTION SITE - CASE STUDY	Applied Mechanics and Materials	VIANA, E. T. ; Ribeiro, L.C.L.J. ; LINTZ, Rosa Cristina Cecche ; GACHET-BARBOSA, L. A. ; PIRES, M. S. G.	Qualis nao identificado	Applied Mechanics and Materials
artigoEmPeriodico	Luísa Andréia Gachet Barbosa	2013	http://dx.doi.org/10.4028/www.scientific.net/AMM.405-408.2699	Mechanical evaluation of concrete containing lightweight aggregates	Applied Mechanics and Materials	ANGELIN, A. F. ; Ribeiro, L.C.L.J. ; PIRES, M. S. G. ; JACINTHO, A. E. P. G. A. ; LINTZ, Rosa Cristina Cecche ; GACHET-BARBOSA, L. A.	Qualis nao identificado	Applied Mechanics and Materials
artigoEmPeriodico	Luísa Andréia Gachet Barbosa	2013	http://dx.doi.org/10.4028/www.scientific.net/amm.467.590	Development of Multimedia Environment for Viewing the State of Stress in a Differential Element	Applied Mechanics and Materials	GACHET-BARBOSA, L. A.; TRAUTWEIN, L. M. ; YAMAMOTO, C. S. ; GASPAR, R.	Qualis nao identificado	Applied Mechanics and Materials
artigoEmPeriodico	Luísa Andréia Gachet Barbosa	2013	http://dx.doi.org/10.4028/www.scientific.net/amm.467.257	Study of Density and Modulus of Elasticity of Lightweight Concrete with Brazilian Aggregate	Applied Mechanics and Materials	ANGELIN, ANDRESSA FERNANDA ; RIBEIRO, LUBIENSKA CRISTINA L.J. ; PIRES, MARTA SIVIERO GUILHERME ; LINTZ, Rosa Cristina Cecche ; TRAUTWEIN, LEANDRO MOUTA ; GACHET-BARBOSA, LUÍSA ANDRÉIA	Qualis nao identificado	Applied Mechanics and Materials
trabalhoCompletoEmCongresso	Luísa Andréia Gachet Barbosa	2013		Efeitos do consumo de cimento nas propriedades mecânicas e absorção do concreto leve contendo argila expandida brasileira	55 Congresso Brasileiro do Concreto	ANGELIN, A. F. ; LINTZ, Rosa Cristina Cecche ; GACHET-BARBOSA, L. A.		
trabalhoCompletoEmCongresso	Luísa Andréia Gachet Barbosa	2013		Contribuição aos Estudos da Resistência do Concreto Auto-Adensável utilizando Argila Expandida	55 Congresso Brasileiro do Concreto	BRESSAN, L. T. ; Galzerano,M. ; GACHET-BARBOSA, L. A. ; LINTZ, Rosa Cristina Cecche		
trabalhoCompletoEmCongresso	Luísa Andréia Gachet Barbosa	2013		Processo de Formação de Educadores em Projeto de Educação Ambiental	Congresso Brasileiro de Engenharia Sanitária e Ambiental	PIRES, M. S. G. ; GACHET-BARBOSA, L. A. ; LINTZ, Rosa Cristina Cecche ; RIBEIRO, LUBIENSKA CRISTINA L.J.		
trabalhoCompletoEmCongresso	Luísa Andréia Gachet Barbosa	2013		Cadeia de suprimentos de mármores e granito na construção civil um estudo de caso de logística reversa	Simpósio Brasileiro de Gestão e Economia na Construção-SIBRAGEC	FONTANINI, P. S. P. ; JACINTHO, A. E. P. G. A. ; PIMENTEL, Lia Lorena ; GACHET-BARBOSA, L. A.		
artigoEmPeriodico	Lubienska Cristina Lucas Jaquiê Ribeiro	2013	http://dx.doi.org/10.4028/www.scientific.net/amm.405-408.3119	Management of Gypsum in Construction Site - Case Study	Applied Mechanics and Materials	VIANA, ERIKA T ; RIBEIRO, LUBIENSKA CRISTINA L.J. ; LINTZ, ROSA CRISTINA CECCHE ; GACHET-BARBOSA, LUISA ANDRÉIA ; PIRES, MARTA SIVIERO GUILHERME	Qualis nao identificado	Applied Mechanics and Materials
artigoEmPeriodico	Lubienska Cristina Lucas Jaquiê Ribeiro	2013	http://dx.doi.org/10.4028/www.scientific.net/amr.756-759.121	Application of Self-Compacting Concrete (SCC) in the Execution of Reservoir of Water	Advanced Materials Research (Online)	GALZERANO, MILLENA BERTOLINI ; BRESSAN, LETÍCIA TORRES ; CECCHE LINTZ, ROSA CRISTINA ; JAQUIÊ RIBEIRO, LUBIENSKA CRISTINA LUCAS ; PIRES, MARTA SIVIERO GUILHERME ; JACINTHO, ANA ELISABETE P.G.A. ; GACHET-BARBOSA, LUÍSA ANDRÉIA	Qualis nao identificado	Advanced Materials Research (Online)
artigoEmPeriodico	Lubienska Cristina Lucas Jaquiê Ribeiro	2013	http://dx.doi.org/10.4028/www.scientific.net/amm.409-410.703	PSO Applied to Reduce the Cost of Energy in Water Supply Networks	Applied Mechanics and Materials	MELO BRENTAN, BRUNO ; LUVIZOTTO JR., EDEVAR ; RIBEIRO, LUBIENSKA CRISTINA L.J.	Qualis nao identificado	Applied Mechanics and Materials
artigoEmPeriodico	Lubienska Cristina Lucas Jaquiê Ribeiro	2013	http://dx.doi.org/10.4028/www.scientific.net/amm.467.253	Interlocking Tactile Concrete Paver with Addition of Steel Fibers	Applied Mechanics and Materials	SILVA, FABIANA MARIA ; SANTOS, VÂNIA REGINA FERREIRA ; RIBEIRO, LUBIENSKA CRISTINA L.J. ; PIRES, MARTA SIVIERO GUILHERME ; LINTZ, ROSA CRISTINA CECCHE ; GACHET-BARBOSA, LUÍSA ANDRÉIA	Qualis nao identificado	Applied Mechanics and Materials
artigoEmPeriodico	Lubienska Cristina Lucas Jaquiê Ribeiro	2013	http://dx.doi.org/10.4028/www.scientific.net/AMM.467.257	Study of Density and Modulus of Elasticity of Lightweight Concrete with Brazilian Aggregate	Applied Mechanics and Materials	ANGELIN, ANDRESSA FERNANDA ; RIBEIRO, LUBIENSKA CRISTINA L.J. ; PIRES, MARTA SIVIERO GUILHERME ; LINTZ, ROSA CRISTINA CECCHE ; TRAUTWEIN, LEANDRO MOUTA ; GACHET-BARBOSA, LUÍSA ANDRÉIA	Qualis nao identificado	Applied Mechanics and Materials
trabalhoCompletoEmCongresso	Lubienska Cristina Lucas Jaquiê Ribeiro	2013		Processo de Formação de Educadores em Projeto de Educação Ambiental	27 Congresso Brasileiro de Engenharia Sanitária e Ambiental	PIRES, M. S. G. ; GACHET-BARBOSA, L. A. ; LINTZ, Rosa Cristina Cecche ; RIBEIRO, LUBIENSKA CRISTINA L.J.		
trabalhoCompletoEmCongresso	Lubienska Cristina Lucas Jaquiê Ribeiro	2013		PSO Aplicada à Redução do Custo de Energia em Redes de Abastecimento de água	XX Simpósio Brasileiro de Recursos Hídricos	BRENTAN, B. M. ; LUVIZOTTO JR, Edevar ; RIBEIRO, L. C. L. J.		
trabalhoCompletoEmCongresso	Lubienska Cristina Lucas Jaquiê Ribeiro	2013		AS SIMULAÇÕES COMPUTACIONAIS COMO FERRAMENTAS PARA O ENSINO DE ENGENHARIA: PROJETO E OPERAÇÃO DE SISTEMAS DE ABASTECIMENTO DE ÁGUA	XII Seminario Iberoamericano en drenaje urbano y redes de abastecimento de agua	BRENTAN, BRUNO M. ; LUVIZOTTO JR, Edevar ; RIBEIRO, L C L J ; ISAAC, R. L.		
artigoEmPeriodico	Leonardo Lorenzo Bravo Roger	2013		A Novel Approach to Suppress the DC Modes in Eigenvalue Problems Using the Finite Element Method	Microwave and Optical Technology Letters (Print)	Goncalves, M. S. ; Arnold, F.J. ; Bravo-Roger,L.L ou ROGER, L.L.B ; SANTOS, T. S.	B1	
artigoEmPeriodico	Leonardo Lorenzo Bravo Roger	2013		A Low-Cost and Simple Arduino-Based Educational Robotics Kit	Cyber Journals: Multidisciplinary Journals in Science and Technology	Luiz A. Junior ; Osvaldo T. Neto ; de Freitas, Marli ; Paulo S. Martins ; Bravo-Roger,L.L ou ROGER, L.L.B ; Fatima A. Guerra	B4	
artigoEmPeriodico	Vitor Rafael Coluci	2013		Ilustração de incertezas em medidas utilizando experimentos de queda livre	Revista Brasileira de Ensino de Física (Online)	Coluci, V. R.; PAULINO, G. ; SOUZA, D. C. ; VASCONCELOS, E. P. R.	A2	
artigoEmPeriodico	Carolina Siqueira Franco Picone	2013	http://dx.doi.org/10.1016/j.carbpol.2013.01.092	Chitosan gellan electrostatic complexes: Influence of preparation conditions and surfactant presence	Carbohydrate Polymers	PICONE, C. S. F.; Cunha, Rosiane L.	A1	
artigoEmPeriodico	Carolina Siqueira Franco Picone	2013	http://dx.doi.org/10.1016/j.colsurfa.2012.11.019	Formation of nano and microstructures by polysorbate-chitosan association	Colloids and Surfaces. A, Physicochemical and Engineering Aspects (Print)	PICONE, C. S. F.; Cunha, Rosiane Lopes	A2	
artigoEmPeriodico	Carolina Siqueira Franco Picone	2013	http://dx.doi.org/10.1016/j.foodres.2013.07.026	Production of hybrid gels from polysorbate and gellan gum	Food Research International	FASOLIN, L. H. ; PICONE, C. S. F. ; CASTRO, R. S. ; CUNHA, R. L.	A2	
trabalhoCompletoEmCongresso	Carmenlucia Santos Giordano Penteado	2013		Characterization of Solid Waste in Mountains: A Case Study in Peru	International Solid Waste Management Congress - ISWA 2013	SANTOS, C.; CATACORA, O. M. R.		
trabalhoCompletoEmCongresso	Carmenlucia Santos Giordano Penteado	2013		Cooperatives of Recyclable Collectors from the Perspective of the Brazilian National Solid Waste Policy: A Case Study	International Solid Waste Management Congress - ISWA 2013	SANTOS, C.; GIMENEZ, C. G.		
resumoExpandidoEmCongresso	Carmenlucia Santos Giordano Penteado	2013	GERENCIAMENTO INTEGRADO DE RESÍDUOS DE CONSTRUÇÃO CIVIL ? ESTUDO DE CASO	III SIMPÓSIO SOBRE RESÍDUOS SÓLIDOS ? III SIRS (2013), 2013, São Carlos - SP. II SIMPÓSIO SOBRE RESÍDUOS SÓLIDOS ? III SIRS (2013)	ROSADO, L. P. ; SANTOS, C.		
artigoEmPeriodico	Antonio Carlos Zambon	2013		A Prática das Cinco Disciplinas nas Organizações e na Sociedade: O diálogo e a gestão participativa como prática para compartilhar conhecimentos	Análise (Jundiaí)	AFFONSO, F. M. R. ; FIRMINO, J. P. R. ; ZAMBON, A. C.	Qualis nao identificado	Análise (Jundiaí)
trabalhoCompletoEmCongresso	Antonio Carlos Zambon	2013		Utilização da System Dynamics para estruturação e simulação do sistema de custos em uma empresa agropastroril produtora de leite	Congresso Internacional de Custos	ZAMBON, A. C.; ZAMBON, N.		
trabalhoCompletoEmCongresso	Antonio Carlos Zambon	2013		Modelos de Sustentabilidade de Empresas de Celulose e Papel baseados no Modelo Orientado à Representação do Pensamento Humano	Encontro Internacional sobre Gestão Empresarial e Meio Ambiente	TOME, I. M. ; ZAMBON, A. C. ; BRESCIANI, L. P.		
trabalhoCompletoEmCongresso	Antonio Carlos Zambon	2013		Modelos de Sustentabilidade de Empresas de Infraestrutura baseados em MORPH	Encontro Internacional sobre Gestão Empresarial e Meio Ambiente	TOME, I. M. ; ZAMBON, A. C. ; BRESCIANI, L. P.		
resumoExpandidoEmCongresso	André Leon Sampaio Gradvohl	2013	Metalinguagem para processamento de alto desempenho em arquiteturas híbridas	Computer on the Beach, 2013, Florianópolis. Computer on the Beach 2013. Florianópolis	GRADVOHL, A. L. S		
resumoExpandidoEmCongresso	André Leon Sampaio Gradvohl	2013	Paralelização do algoritmo k-medoids para agrupamento de sinais fracos	IV Escola Regional de Alto Desempenho de São Paulo, 2013, São Carlos. Anais da IV Escola Regional de Alto Desempenho de São Paulo. São Carlos	TOITO, V. R. N. ; GRADVOHL, A. L. S.		
resumoExpandidoEmCongresso	André Leon Sampaio Gradvohl	2013	Viabilidade da Linguagem Python no Desenvolvimento de Aplicaçõees de Alto Desempenho	IV Escola Regional de Alto Desempenho de São Paulo, 2013, São Carlos. Anais da IV Escola Regional de Alto Desempenho de São Paulo. São Carlos	MORAES, M. B. ; GRADVOHL, A. L. S.		
trabalhoCompletoEmCongresso	Andre Franceschi de Angelis	2013	http://dx.doi.org/10.5540/03.2013.001.01.0182	A simple model for cascading failures in scale-free networks	DINCON 2013 #45; Conferência Brasileira de Dinâmica	PEREIRA, V. H. ; MARTINS, P. S. ; ANGELIS, A. F. DE ; TIMÓTEO, V. S.		
artigoEmPeriodico	Diego Stéfani Teodoro Martinez	2013	http://dx.doi.org/10.1088/1742-6596/429/1/012043	Carbon nanotubes enhanced the lead toxicity on the freshwater fish	Journal of Physics. Conference Series (Print)	MARTINEZ, D S T; Alves, O L ; BARBIERI, E	B2	
artigoEmPeriodico	Diego Stéfani Teodoro Martinez	2013		Inflammatory and hyperalgesic effects of oxidized multi-walled carbon nanotubes in rats	Journal of Nanoscience and Nanotechnology (Print)	PINTO, N. V. ; Andrade, N. F. ; MARTINEZ, D. S. T. ; Alves, O L ; SOUZA FILHO, ANTONIO G. ; MOTA, M. R. L. ; NASCIMENTO, K. S. ; CAVADA, B. S. ; ASSREUY, A. M. S.	A2	
artigoEmPeriodico	Diego Stéfani Teodoro Martinez	2013	http://dx.doi.org/10.5935/0103-5053.20130034	New Hybrid Material Based on Layered Double Hydroxides and Biogenic Silver Nanoparticles: Antimicrobial Activity and Cytotoxic Effect	Journal of the Brazilian Chemical Society (Impresso)	MARCATO, PRISCYLA D. ; PARIZOTTO, NATÁLIA V. ; Martinez, Diego Stéfani T. ; Paula, Amauri J. ; FERREIRA, IASMIN R. ; MELO, PATRÍCIA S. ; DURÁN, NELSON ; Alves, Oswaldo L.	A2	
artigoEmPeriodico	Diego Stéfani Teodoro Martinez	2013		Interação de nanomateriais com biossistemas e a nanotoxicologia: na direção de uma regulamentação	Ciência e Cultura	Martinez, Diego Stéfani T.; Alves, O L	B1	
artigoEmPeriodico	Diego Stéfani Teodoro Martinez	2013	http://dx.doi.org/10.1007/s11051-013-1761-8	Temperature effects on the nitric acid oxidation of industrial grade multiwalled carbon nanotubes	Journal of Nanoparticle Research	Andrade, Nádia F. ; Martinez, Diego Stéfani T. ; Paula, Amauri J. ; SILVEIRA, JOSÉ V. ; Alves, Oswaldo L. ; SOUZA FILHO, ANTONIO G.	A1	
artigoEmPeriodico	Diego Stéfani Teodoro Martinez	2013	http://dx.doi.org/10.1021/am4014693	The influence of protein corona on the transport of molecules into cells by mesoporous silica nanoparticles	ACS Applied Materials & Interfaces (Print)	PAULA, AMAURI JARDIM ; ARAUJO JUNIOR, ROBERTO TEODORO ; Martinez, Diego Stéfani Teodoro ; PAREDES-GAMERO, EDGAR J ; NADER, HELENA B ; DURAN, NELSON ; JUSTO, GISELLE ZENKER ; Alves, Oswaldo Luiz	A1	
artigoEmPeriodico	Cristiano de Mello Gallep	2013	http://dx.doi.org/10.1002/mop.27496	Semiconductor optical amplifier cavity length impact over data erasing/rewriting	Microwave and Optical Technology Letters (Print)	RIBEIRO, Napoleão dos Santos ; GALLEP, Cristiano de Mello ; CONFORTI, Evandro	B1	
artigoEmPeriodico	Cristiano de Mello Gallep	2013	http://dx.doi.org/10.1016/j.jphotobiol.2012.11.005	Acute stress in seedlings detected by ultra-weak photon emission	Journal of Photochemistry and Photobiology. B, Biology	BERTOGNA, E. ; BEZERRA, J. ; CONFORTI, E. ; GALLEP, C.M.	A2	
artigoEmPeriodico	Cristiano de Mello Gallep	2013	http://dx.doi.org/10.1093/aob/mct052	Arabidopsis thaliana root elongation growth is sensitive to lunisolar tidal acceleration and may also be weakly correlated with geomagnetic variations	Annals of Botany (Print)	BARLOW, P. W. ; Fisahn, J. ; Yazdanbakhsh, N. ; MORAES, T. A. ; Khabarova, O. V. ; Gallep, C. M.	A1	
artigoEmPeriodico	Cristiano de Mello Gallep	2013	http://dx.doi.org/10.1109/jlt.2013.2280118	Limits on High Bit Rate Wavelength Reuse Using Ultra Long Semiconductor Optical Amplifier	Journal of Lightwave Technology (Print)	RIBEIRO, NAPOLEAO ; GALLEP, CRISTIANO ; CONFORTI, Evandro	A1	
trabalhoCompletoEmCongresso	Cristiano de Mello Gallep	2013	http://dx.doi.org/10.1109/IMOC.2013.6646415	Chip-on-carrier microwave mount for semiconductor optical amplifier measurements	2013 SBMO/IEEE MTTS International Microwave and Optoelectronics Conference (IMOC)	Figueiredo, R. C. ; RIBEIRO, N. S. ; CONFORTI, E. ; Gallep, C. M.		
trabalhoCompletoEmCongresso	Cristiano de Mello Gallep	2013	http://dx.doi.org/10.1109/IMOC.2013.6646456	Fabry-Perot injection locking based optical multicasting for reach extension of access networks	2013 SBMO/IEEE MTTS International Microwave and Optoelectronics Conference (IMOC)	CHIUCHIARELLI, Andrea ; Gallep, Cristiano M. ; CONFORTI, Evandro		
trabalhoCompletoEmCongresso	Cristiano de Mello Gallep	2013	http://dx.doi.org/10.1109/IMOC.2013.6646406	Simultaneous biophoton measurement of control and fluoride stressed seedlings samples	2013 SBMO/IEEE MTTS International Microwave and Optoelectronics Conference (IMOC)	BERTOGNA, EDUARDO ; CONFORTI, Evandro ; Gallep, Cristiano M.		
trabalhoCompletoEmCongresso	Cristiano de Mello Gallep	2013		Reuso da Portadora Óptica em Altas Taxas com Amplificador Óptico a Semicondutor Ultra Longo	SBrT 2013	RIBEIRO, NAPOLEAO S. ; GALLEP, Cristiano de Mello ; CONFORTI, Evandro		
resumoExpandidoEmCongresso	Cristiano de Mello Gallep	2013	UPE in seedlings	Internacional Summer School in Biophotonics, 2013, Castrop-Rauxel. proceed. of	GALLEP, Cristiano de Mello		
artigoEmPeriodico	Ivan Luiz Marques Ricarte	2013	http://dx.doi.org/10.1370/afm.1565	Number Needed to Benefit From Information (NNBI): Proposal From a Mixed Methods Research Study With Practicing Family Physicians	Annals of Family Medicine	PLUYE, P. ; GRAD, R. M. ; JOHNSON-LAFLEUR, J. ; GRANIKOV, V. ; SHULHA, M. ; MARLOW, B. ; RICARTE, I. L. M.	Qualis nao identificado	Annals of Family Medicine
artigoEmPeriodico	Ivan Luiz Marques Ricarte	2013	http://dx.doi.org/10.1111/hir.12021	The Clinical Relevance of Information Index (CRII): assessing the relevance of health information to the clinical practice	Health Information and Libraries Journal (Print)	GALVAO, M. C. B. ; RICARTE, I. L. M. ; GRAD, R. M. ; PLUYE, P.	Qualis nao identificado	Health Information and Libraries Journal (Print)
artigoEmPeriodico	Ivan Luiz Marques Ricarte	2013	http://dx.doi.org/10.1007/s10115-012-0482-0	Relating ontologies with a fuzzy information model	Knowledge and Information Systems (electronic resource)	LEITE, MARIA ANGELICA ANDRADE ; RICARTE, IVAN LUIZ MARQUES	B1	
trabalhoCompletoEmCongresso	Ivan Luiz Marques Ricarte	2013		Graduação em informática em saúde: aspectos a serem considerados na proposição de novos cursos	Congreso Argentino de Informática y Salud	GALVAO, M. C. B. ; RICARTE, I. L. M.		
trabalhoCompletoEmCongresso	Ivan Luiz Marques Ricarte	2013		A distribuição eletrônica de evidências em saúde permite a criação de novas medidas de relevância informacional	Congreso Argentino de Informática y Salud	RICARTE, I. L. M.; GALVAO, M. C. B. ; GRAD, R. M. ; PLUYE, P.		
resumoExpandidoEmCongresso	Ivan Luiz Marques Ricarte	2013	Estratégias de preservação digital para prontuários eletrônicos de pacientes	Encontro de Alunos e Docentes do DCA, 2013, Campinas. Anais	PICONI, A. C. ; GALVAO, M. C. B. ; RICARTE, I. L. M.		
resumoExpandidoEmCongresso	Ivan Luiz Marques Ricarte	2013	Bridging the gap between electronic health records and the clinical evidence literature	Encontro de Alunos e Docentes do DCA, 2013, Campinas. Anais	BEECK-PEPPER, J. C. ; RICARTE, I. L. M.		
trabalhoCompletoEmCongresso	Celmar Guimarães da Silva	2013		CourseViewer - a prototype for visualizing undergraduate courses and student transcripts	Workshop of Undergraduate Works (WUW) in Conference on Graphics	OLIVEIRA, M. R. ; Mendonça, P. J. C. ; LEARDINE, A. F. G. ; GONCALVES, V. P. ; MEDINA, B. F. ; DA SILVA, C. G.		
trabalhoCompletoEmCongresso	Celmar Guimarães da Silva	2013		Mineração de Dados de Qualidade de Água para Agrupamento de Pontos de Amostragem Usados no Monitoramento de Recursos Hídricos	IV Workshop de Computação Aplicada à Gestão do Meio Ambiente e Recursos Naturais	Bertholdo, L. ; Camolesi Jr., L. ; Umbuzeiro, G. A. ; SILVA, C. G.		
artigoEmPeriodico	Cassiana Maria Reganhan Coneglian	2013		Toxicity assessment of an effluent derived from an inactived uranium mine: the Poços de Calda (Brazil) example	Journal of Brazilian Society of Ecotoxicology	ARTAL, M. C. ; ALMEIDA, G. ; CALOTO, A. O. ; SANTOS, M. A. P. F. ; UMBUZEIRO, G. A. ; REGANHAN-CONEGLIAN, C.M.	B2	Journal of the Brazilian Society of Ecotoxicology
artigoEmPeriodico	Cassiana Maria Reganhan Coneglian	2013	http://dx.doi.org/10.1080/15320383.2013.768206	Potential of <i>Inga sp.</i> ( <i>Inga uruguensis</i> Hook. and Arn.) in the Phytoremediation of Oily Compounds	Soil & Sediment Contamination	PITOMBO, LEONARDO M. ; REGANHAN-CONEGLIAN, CASSIANA M.	B3	
artigoEmPeriodico	Renato Falcão Dantas	2013	http://dx.doi.org/10.1002/jctb.4021	Evaluation of UV/H2O2 on the disinfection and treatment of municipal secondary effluents for water reuse	Journal of Chemical Technology and Biotechnology	Bruno Souza ; Dantas, Renato F ; AGULLO-BARCELO, M. ; LUCENA, F. ; SANS, Carme ; Esplugas, S. ; Marcia Dezotti	A2	Journal of Chemical Technology and Biotechnology (1986)
artigoEmPeriodico	Renato Falcão Dantas	2013	http://dx.doi.org/10.1080/19443994.2013.792148	Degradation of the antibiotic chloramphenicol using photolysis and advanced oxidation process with UVC and solar radiation	Desalination and Water Treatment	da Rocha, Otidene Rossiter Sá ; PINHEIRO, R. B. ; Duarte, Marta Maria Menezes B. ; DANTAS, R.F. ; FERREIRA, A. P. ; Silva, Valdinete Lins da	Qualis nao identificado	Desalination and Water Treatment
artigoEmPeriodico	Renato Falcão Dantas	2013	http://dx.doi.org/10.1002/ceat.201300135	Atrazine Removal in Municipal Secondary Effluents by Fenton and Photo-Fenton Treatments	Chemical Engineering & Technology	DE LUCA, A. ; DANTAS, R. F. ; SIMÕES, A. S. M. ; TOSCANO, I. A. S. ; Lofrano, G. ; CRUZ, A. ; Esplugas, S.	A2	
artigoEmPeriodico	Renato Falcão Dantas	2013	http://dx.doi.org/10.1016/j.cattod.2012.08.035	o-Nitrobenzaldehyde actinometry in the presence of suspended TiO2 for photocatalytic reactors	Catalysis Today (Print)	DE LA CRUZ, NATALIA ; ROMERO, VIOLETTE ; Dantas, Renato F. ; MARCO, PILAR ; BAYARRI, BERNARDÍ ; GIMÉNEZ, JAIME ; ESPLUGAS, Santiago	A1	
artigoEmPeriodico	Renato Falcão Dantas	2013	http://dx.doi.org/10.1016/j.apcatb.2012.10.003	Photolysis and TiO2 photocatalysis of the pharmaceutical propranolol: Solar and artificial light	Applied Catalysis. B, Environmental (Print)	De la Cruz, N. ; DANTAS, R.F. ; Giménez, J. ; Esplugas, S.	A1	
artigoEmPeriodico	Renato Falcão Dantas	2013	http://dx.doi.org/10.1080/19443994.2013.792136	Solar photo-Fenton treatment of petroleum extraction wastewater	Desalination and Water Treatment (Print)	da Rocha, Otidene Rossiter Sá ; DANTAS, R. F. ; DUARTE, M. M. M. B. ; LIMA DUARTE, MÁRCIA MARIA ; da Silva, Valdinete Lins	Qualis nao identificado	Desalination and Water Treatment (Print)
resumoExpandidoEmCongresso	Renato Falcão Dantas	2013	Photodegradation of organophosphorus flame retardants in river water	2013 World congress and exibition. International ozone association and International ultraviolet association, 2013, Las Vegas. 2013 World congress and exibition. International ozone association and International ultraviolet association	Dantas, Renato F.; CRISTALE, J. ; LACORTE, S. ; SANS, Carmen ; ESPLUGAS, Santiago		
resumoExpandidoEmCongresso	Renato Falcão Dantas	2013	Degradation of the antibiotic cephalexin using photolysis and advanced oxidation process with UVC and solar radiation	2013 World congress and exibition. International ozone association and International ultraviolet association, 2013, Las Vegas. 2013 World congress and exibition. International ozone association and International ultraviolet association	Rocha, O. R. S. ; FUJIWARA, Y. ; Dantas, Renato F ; NASCIMENTO JUNIOR, W. J. ; Silva, V. L.		
trabalhoCompletoEmCongresso	Regina Lúcia de Oliveira Moraes	2013		An XML-based Policy Model for Access Control in Web Applications	24th International Conference on Database and Expert Systems Applications - DEXA 2013	BASSO, T. ; ANTUNES, N. ; MORAES, R. ; VIEIRA, M.		
trabalhoCompletoEmCongresso	Regina Lúcia de Oliveira Moraes	2013		Evolutionary Computation Techniques to Assess Losses in Water Supply Networks	7th International Conference on Sustainable Water Resources Management	MAMBRETTI, S. ; Martins, P. ; MORAES, R.		
trabalhoCompletoEmCongresso	Regina Lúcia de Oliveira Moraes	2013		Validation of GPON Networks Using a Fault-Injection Based Approach	7th Brazilian workshop on Systematic and Automated Testing	FADEL, A. C. ; MORAES, R. ; Martins, P. ; MARTINS, E.		
trabalhoCompletoEmCongresso	Regina Lúcia de Oliveira Moraes	2013		A Semi Automated Approach to Assess Web Vulnerability Scanner Tools Effectiveness	Simpósio Brasileiro de Segurança da Informação e de Sistemas Computacionais - SBSeg	BASSO, T. ; MORAES, R. ; JINO, M.		
resumoExpandidoEmCongresso	Regina Lúcia de Oliveira Moraes	2013	Database Modularization applied to System Evolution	Sixth Latin American Symposium on Dependable Computing - LADC 2013, 2013, Rio de Janeiro. Proceedings of The Sixth Latin American Symposium on Dependable Computing - Supplemental Volume. Belo Horizonte: UFMG	GUEDES, G. B. ; BAIOCO, G. B. ; MORAES, R.		
resumoExpandidoEmCongresso	Regina Lúcia de Oliveira Moraes	2013	Automating Software Validation of a GPON Network	IEEE International Symposium on Software Reliability Engineering, 2013, Pasadena, CA. Proceedings of the 24th Symposium on Software Reliability Engineering	FADEL, A. C. ; MORAES, R. ; Martins, P. ; MARTINS, E.		
artigoEmPeriodico	Peterson Bueno de Moraes	2013	http://dx.doi.org/10.1504/IJEP.2013.053174	Electrochemical oxidation of wastewater containing aromatic amines using a flow electrolytic reactor	International Journal of Environment and Pollution	MORAES, PETERSON B.; BERTAZZOLI, Rodnei ; Bidoia, Ederio Dino	B1	
artigoEmPeriodico	Peterson Bueno de Moraes	2013		Textile Effluent Degradation by Photoelectrolytical Process	Environmental Management and Sustainable Development	CARVALHO, Paula da Silva ; de Sousa, Mariana Lopes ; Lopes, Paulo Renato Matos ; Moraes, P. B. ; BIDOIA, E. D.	Qualis nao identificado	Environmental Management and Sustainable Development
artigoEmPeriodico	Peterson Bueno de Moraes	2013		Photo Electrolytic Process in a Simulated Textile Effluent Treatment and Its Cost for Application	Journal of Environment and Ecology	CARVALHO, Paula da Silva ; MORAES, P. B. ; SOUSA, M. L. ; LOPES, P. R. M. ; ANGELIS, Dejanira Franceschi de ; Bidoia, E. D.	Qualis nao identificado	Journal of Environment and Ecology
trabalhoCompletoEmCongresso	Peterson Bueno de Moraes	2013		Preparação de Eletrodos Nanoestruturados, Seleção e Uso para Degradação do Fármaco Amoxicilina por Fotoeletrocatálise	VII Encontro sobre Aplicações Ambientais de Processos Oxidativos Avançados e I Congresso Iberoamericano sobre Processos Oxidativos Avançados	Moraes, P. B.; SOUZA, E. L. ; BERTAZZOLI, R. ; RODRIGUES, C. A.		
artigoEmPeriodico	Paulo Sergio Martins Pedro	2013		A Low-Cost and Simple Arduino-Based Educational Robotics Kit	Cyber Journals: Multidisciplinary Journals in Science and Technology	Luiz A. Junior ; Osvaldo T. Neto ; de Freitas, Marli ; Paulo S. Martins ; Bravo-Roger,L.L ou ROGER, L.L.B ; Fatima A. Guerra	B4	
trabalhoCompletoEmCongresso	Paulo Sergio Martins Pedro	2013	http://dx.doi.org/10.2495/WRM130111	Evolutionary Computation Techniques to Assess Losses in Water Supply Networks	7th International Conference on Sustainable Water Resources Management	MAMBRETTI, S. ; Pedro, P ou Martins, P. ; Moraes, R.		
trabalhoCompletoEmCongresso	Paulo Sergio Martins Pedro	2013		Validation of GPON Networks Using a Fault-Injection Based Approach	7th Brazilian Workshop on Systematic and Automated Software Testing	Pedro, P ou Martins, P.; Regina Lucia de Oliveira Moraes ; MARTINS, E. ; FADEL, A. C.		
trabalhoCompletoEmCongresso	Paulo Sergio Martins Pedro	2013	http://dx.doi.org/10.5540/03.2013.001.01.0182	A Simple Model for Cascading Failures in Scale-Free Networks	DINCON 2013 #45; Conferência Brasileira de Dinâmica	PEREIRA, V. ; Pedro, P ou Martins, P. ; Angelis, A. ; TIMOTEO, V. S.		
artigoEmPeriodico	Patricia Prediger	2013	http://dx.doi.org/10.2174/1385272811317030006	Ionic Liquids and the Heck Coupling Reaction: An Update	Current Organic Chemistry	PREDIGER, PATRICIA; GENISSON, YVES ; ROQUE DUARTE CORREIA, CARLOS	A2	
artigoEmPeriodico	Maurea Nicoletti Flynn	2013		Populaton approach in Ecotoxicology (Stress Ecology)	Journal of the Brazilian Society of Ecotoxicology	FLYNN, M. N.; PEREIRA, W. R. L. S.	B2	
artigoEmPeriodico	Maurea Nicoletti Flynn	2013		Ecological diagnosis from biotic data by Hurst exponent and the R/S analysis adaptation to short time series	Biomatemática (UNICAMP)	FLYNN, M. N.; PEREIRA, W. R. L. S.	B5	
artigoEmPeriodico	Maurea Nicoletti Flynn	2013		Ecological model of competitive interaction among three species of amphipods associated to Bryocladia thrysigera (J. Agardh) and extreme environmental stress efects	Nauplius	FLYNN, M. N.; PEREIRA, W. R. L. S.	B3	
artigoEmPeriodico	Marta Siviero Guilherme Pires	2013	http://dx.doi.org/10.4028/www.scientific.net/AMM.368-370.860	Building Blocks Production with Sludge	Applied Mechanics and Materials	GACHET-BARBOSA, L. A.; AFONSO, M. ; FERREIRA, R. ; Ribeiro, L.C.L.J. ; LINTZ, Rosa Cristina Cecche ; PIRES, M. S. G.	Qualis nao identificado	Applied Mechanics and Materials
trabalhoCompletoEmCongresso	Marta Siviero Guilherme Pires	2013		Microbiological evaluation of different samples of sludge sewage treatment of São Paulo, aiming to agricultural use	VI Simpósio de Microbiologia Aplicada	SILVA, N. B. ; PIRES, M. S. G. ; ANARUMA FILHO, F. ; TONETTI, A. L. ; TONON, D. ; Brota, G.A. ; CORAUCCI FILHO, B.		
trabalhoCompletoEmCongresso	Marta Siviero Guilherme Pires	2013		Aplicação do índice de perigo de lodo de esgoto em amostra acondicionada em bag visando o uso agrícola	27º Congresso Brasileiro de Engenharia Sanitária e Ambiental	SILVA, N. B. ; CORAUCCI FILHO, B. ; PIRES, M. S. G. ; ANARUMA FILHO, F. ; TONETTI, A. L.		
trabalhoCompletoEmCongresso	Marta Siviero Guilherme Pires	2013		Processo de Formação de Educadores em Projeto de Educação Ambiental	27 Congresso Brasileiro de Engenharia Sanitária e Ambiental	PIRES, M. S. G. ; GACHET-BARBOSA, L. A. ; LINTZ, Rosa Cristina Cecche ; RIBEIRO, LUBIENSKA CRISTINA L.J.		
artigoEmPeriodico	Marcos Augusto Francisco Borges	2013		DEVELOPING A SERIOUS GAME FOR CHILDREN WITH HEMOPHILIA	IADIS International Journal on WWWInternet	MATSUNAGA, R. M. ; MATTA, M. A. ; OZELLO, M. C. ; BORGES, M. A. F.	Qualis nao identificado	IADIS International Journal on WWWInternet
trabalhoCompletoEmCongresso	Marcos Augusto Francisco Borges	2013	http://dx.doi.org/10.5753/CBIE.WCBIE.2013.163	Apresentação da integração de um jogo educativo para crianças com hemofilia com um Chatterbot	Worshops do II Congresso Brasileiro de Informática na Educação	MATSUNAGA, ROBERTA M. ; PADULA, LUCAS L. ; PEREIRA, ELENILSON DOS S. ; BORGES, MARCOS A. F.		
trabalhoCompletoEmCongresso	Marcos Augusto Francisco Borges	2013	http://dx.doi.org/10.5753/CBIE.WCBIE.2013.232	Nova Versão Do Jogo Daphnia World: Aprendendo Ecotoxicologia De Forma Construtivista	Worshops do II Congresso Brasileiro de Informática na Educação	SOUZA, ROMULO MESSIAS SILVA ; UMBUZEIRO, GISELA DE ARAGÃO ; BORGES, MARCOS A. F.		
artigoEmPeriodico	Marco Antonio Garcia de Carvalho	2013		BIODUNET: Um sistema web open source para manipulação de clonagem em plasmídeos	Revista SODEBRAS	PALMA, E. C. N. C. ; TAKITA, M. A. ; CARVALHO, M. A. G.	B4	
trabalhoCompletoEmCongresso	Luiz Camolesi Júnior	2013		Mineração de Dados de Qualidade de Água para Agrupamento de Pontos de Amostragem Usados no Monitoramento de Recursos Hídricos	IV Workshop de Computação Aplicada à Gestão do Meio Ambiente e Recursos Naturais (WCAMA - CSBC)	BERTHOLDO, Leonardo ; CAMOLESI Jr., Luiz ; UMBUZEIRO, Gisela de A. ; SILVA, Celmar G. da		
artigoEmPeriodico	Rangel Arthur	2013		AVALIAÇÃO OBJETIVA DE QUALIDADE DE VÍDEO NO PADRÃO H.264 PARA SISTEMAS DE TRANSMISSÃO DE TV DIGITAL	revista ciencia e tecnologia	ARTHUR, R.; TANJI, M. ; Iano, Y. ; Sablon, V.I.B. ; SILVA, A. G. ; BONANI, L. H.	B3	Revista Ciência e Tecnologia
artigoEmPeriodico	Rangel Arthur	2013		Plenoptic image compression comparison between JPEG, JPEG2000 and SPITH	Cyber Journals: Multidisciplinary Journals in Science and Technology	HIGA, R. S. ; LARICO, R. F. ; LEITE, R. B. ; ARTHUR, R. ; IANO, Y.	B4	
artigoEmPeriodico	Rangel Arthur	2013		PERSPECTIVAS DE SOLUÇÕES TECNO-ECONOMICO PARA PROJETOS DE REDE EM BANDA LARGA NA EDUCAÇÃO EAD E PRESENCIAL	Revista EDaPECI: Educação a Distância e Práticas Educativas Comunicacionais e Interculturais	Mesquita, O.S. ; IANO, Y. ; ARTHUR, R.	Qualis nao identificado	Revista EDaPECI: Educação a Distância e Práticas Educativas Comunicacionais e Interculturais
trabalhoCompletoEmCongresso	Rangel Arthur	2013		Detecção automática de sonolência em condutores de veículos utilizando imagens amplas e de baixa resolução	Computer on the Beach	Berri, R. ; SILVA, A. G. ; ARTHUR, R. ; Girardi, E.		
trabalhoCompletoEmCongresso	Rangel Arthur	2013		Perspectivas de soluções tecno-economico para projetos de rede em banda larga para educação EAD e presencial	V SEMINÁRIO NACIONAL DO EDaPECI - Educação	MESQUITA, O. S. ; IANO, YUZO ; ARTHUR, R.		
artigoEmPeriodico	Jaime Portugheis	2013	http://dx.doi.org/10.1016/j.ipl.2013.05.010	Universal homophonic coding scheme using differential encoding and interleaving	Information Processing Letters (Print)	SIMÕES, D.R. ; PORTUGHEIS, J. ; DA ROCHA, V.C.	B1	
artigoEmPeriodico	Jaime Portugheis	2013		EXIT Chart Optimization of Repeat-Accumulate Codes for an N-Frequency T-User Multiple Access Channel with Noise	Journal of Communication and Information Systems (Online)	SHARMA, M. ; PORTUGHEIS, J.	B1	
trabalhoCompletoEmCongresso	Jaime Portugheis	2013	http://dx.doi.org/10.14209/sbrt.2013.95	Algoritmo Para Decodificação e Fusão De Dados Correlacionados Em Redes De Sensores Sem Fio	XXXI Simpósio Brasileiro de Telecomunicações	FERNANDO PUJAICO RIVERA ; JAIME PORTUGHEIS		
trabalhoCompletoEmCongresso	Jaime Portugheis	2013	http://dx.doi.org/10.14209/sbrt.2013.247	Redes de Acesso Múltiplo por Salto em Frequência	XXXI Simpósio Brasileiro de Telecomunicações	MANISH SHARMA ; JAIME PORTUGHEIS ; DANIEL C CUNHA ; GETÚLIO DEUS ; VAGNER VALE NASCIMENTO		
trabalhoCompletoEmCongresso	Ieda Geriberto Hidalgo	2013		A Genetic Algorithm Solution for Optimization of the Power Generation Potential in Hydroelectric Plants	IEEE Congress on Evolutionary Computation	FERNANDES, J. P. T. ; CORREIA, P. B. ; HIDALGO, I. G. ; COLNAGO, G.		
trabalhoCompletoEmCongresso	Ieda Geriberto Hidalgo	2013		A Proposed Global-Local Methodology for Unit Commitment Optimization	35th IAHR World Congress	HIDALGO, I. G.; CORREIA, P. B. ; ARNOULD, F. J. ; ESTRÓCIO, J. P. F. ; Fernandes, J. P. T. ; BARROS, R. S. ; YEH, W-G. W.		
trabalhoCompletoEmCongresso	Eloisa Dezen Kempter	2013	http://dx.doi.org/10.5151/despro-sigradi2013-0055	Diálogos Digitais: Integração Entre Dados Documentais em Sistemas de Informação Baseados no Modelo para Conservação do Patrimônio Arquitetônico	XVII Conference of the Iberoamerican Society of Digital Graphics SIGraDi: Knowledgebased Design	DEZEN-KEMPTER, ELOISA		
trabalhoCompletoEmCongresso	Eloisa Dezen Kempter	2013	http://dx.doi.org/10.5151/despro-sigradi2013-0115	Urbanidade 360º - Explorando Ferramentas Interativas	XVII Conference of the Iberoamerican Society of Digital Graphics SIGraDi: Knowledgebased Design	DEZEN-KEMPTER, ELOISA		
artigoEmPeriodico	Elaine Cristina Catapani Poletti	2013		O Movimento das Estruturas Matemáticas	Revista Brasileira de História da Matemática	MAGOSSI, J. C. ; POLETTI, E. C. C.	B1	
artigoEmPeriodico	Elaine Cristina Catapani Poletti	2013		Modelagem Matemática de Atividade Microbiana	Revista Eletrônica Paulista de Matemática	POLETTI, E. C. C.; RODRIGUES NETO, L. L.	Qualis nao identificado	Revista Eletrônica Paulista de Matemática
artigoEmPeriodico	Elaine Cristina Catapani Poletti	2013		Dispersão de material impactante em meio aquático: Modelo matemático,aproximação numérica e simulação computacional - Reservatório de Salto Grande Americana -SP	Biomatemática (UNICAMP)	PRESTES, M. F. B. ; MEYER, J. F. C. A. ; POLETTI, E. C. C.	B5	
artigoEmPeriodico	Elaine Cristina Catapani Poletti	2013		Modelagem Matemática Da Concentração De Fósforo: Uma Ferramenta Para a Gestão Dos Recursos Hídricos	HOLOS Environment (Online)	MONTOVANI, C. ; POLETTI, E. C. C.	B4	
artigoEmPeriodico	Marcos Sergio Goncalves	2013		A Novel Approach to Suppress the DC Modes in Eigenvalue Problems Using the Finite Element Method	Microwave and Optical Technology Letters (Print)	Goncalves, M. S. ; Arnold, F.J. ; Bravo-Roger,L.L ou ROGER, L.L.B ; SANTOS, T. S.	B1	
trabalhoCompletoEmCongresso	Marcos Sergio Goncalves	2013		Design and Fabrication of Two-dimensional Hexagonal Photonic Crystals with a Linear Waveguide in Erbium Doped GeO2-Bi2O3-PbO-TiO2 Glasses	SPIE Optics + Optoelectronics	AVILA, L. F. ; J. M. P. Almeida ; GONCALVES, M. S. ; M. Nalinc ; CESCATO, L.		
artigoEmPeriodico	Guilherme Palermo Coelho	2013	http://dx.doi.org/10.1016/j.patcog.2012.10.022	Predicting missing values with biclustering: A coherence-based approach	Pattern Recognition	DE FRANÇA, F.O. ; COELHO, G.P. ; VON ZUBEN, F.J.	A1	
trabalhoCompletoEmCongresso	Guilherme Palermo Coelho	2013	http://dx.doi.org/10.1109/BRC.2013.6487494	Music versus motor imagery for BCI systems a study using fMRI and EEG: Preliminary results	2013 ISSNIP Biosignals and Biorobotics Conference: Biosignals and Robotics for Better and Safer Living (BRC)	SORIANO, DIOGO ; SILVA, ELVIS L ; SLENES, GABRIEL F ; LIMA, FABRICIO O ; URIBE, LUISA F S ; COELHO, GUILHERME P ; ROHMER, ERIC ; VENANCIO, THIAGO D ; BELTRAMINI, GUILHERME C ; CAMPOS, BRUNNO M ; ANJOS, CARLOS A S ; SUYAMA, RICARDO ; LI, LI M ; CASTELLANO, GABRIELA ; ATTUX, ROMIS		
trabalhoCompletoEmCongresso	Guilherme Palermo Coelho	2013	http://dx.doi.org/10.1109/CEC.2013.6557580	Identifying overlapping communities in complex networks with multimodal optimization	2013 IEEE Congress on Evolutionary Computation (CEC)	DE FRANCA, FABRICIO OLIVETTI ; COELHO, GUILHERME PALERMO		
artigoEmPeriodico	Gisleiva Cristina dos Santos Ferreira	2013	http://dx.doi.org/10.1590/S1983-41952013000300004	Nonconventional concrete hollow blocks evaluation by destructive and non-destructive testing	Revista IBRACON de Estruturas e Materiais	RODRIGUES, M.S. ; FERREIRA, G.C.S. ; SHIROMA, L. ; BERALDO, A.L.	B2	
trabalhoCompletoEmCongresso	Gisleiva Cristina dos Santos Ferreira	2013		Porcelain waste as a partial Portland cement replacement	ACCTA - International Conference on Advances in Cement and Concrete Technology in Africa	BERALDO, A. L. ; FERREIRA, G. C. S. ; MESQUITA, V. H. L.		
trabalhoCompletoEmCongresso	Gisleiva Cristina dos Santos Ferreira	2013		CARACTERIZAÇÃO MECÂNICA DE ARGAMASSAS DE REJUNTE A PARTIR DO ENSAIO DE ULTRASSOM	X Simposio Brasileiro de Tecnologia de Argamassas	FERREIRA, G. C. S.; Gonçalves, Raquel ; CAMPANHOLI, A. R.		
trabalhoCompletoEmCongresso	Gisleiva Cristina dos Santos Ferreira	2013		DETERMINAÇÃO DE PROPRIEDADES DE SOLO COMPACTADO UTILIZANDO ENSAIOS DE ULTRASSOM	12º Conferência sobre Tecnologia de Equipamentos	FERREIRA, G. C. S.; Gonçalves, Raquel ; HOFFMAN, M. ; SARRO, W. S. ; CAMPANHOLI, A. R.		
trabalhoCompletoEmCongresso	Gisleiva Cristina dos Santos Ferreira	2013		Substituição parcial do cimento Portland por resíduo de porcelana de isoladores elétricos em matrizes cimentícias	ENARC 2013- III ENCONTRO NACIONAL SOBRE APROVEITAMENTO DE RESÍDUOS NA CONSTRUÇÃO CIVIL	FERREIRA, G. C. S.; BERALDO, A. L. ; MESQUITA, V. H. L. ; SHIROMA, L.		
trabalhoCompletoEmCongresso	Gisleiva Cristina dos Santos Ferreira	2013		Adequacy of Standards of Wood Grading Using Ultrasound to the Standard of Structural Design	18th International Nondestructive Testing	FERREIRA, G. C. S.; GONCALVES, R. ; FAVALLI, R.		
resumoExpandidoEmCongresso	Gisele Busichia Baioco	2013	Database Modularization applied to System Evolution	Sixth Latin American Symposium on Dependable Computing - LADC 2013, 2013, Rio de Janeiro. Proceedings of The Sixth Latin American Symposium on Dependable Computing - Supplemental Volume. Belo Horizonte: UFMG	GUEDES, G. B. ; BAIOCO, G. B. ; MORAES, R. L. O.		
artigoEmPeriodico	Gisela de Aragão Umbuzeiro	2013	http://dx.doi.org/10.1016/j.scitotenv.2012.10.019	Chlorine disinfection of dye wastewater: Implications for a commercial azo dye mixture	Science of the Total Environment	VACCHI, FRANCINE INFORÇATO ; ALBUQUERQUE, ANJAINA FERNANDES ; VENDEMIATTI, JOSIANE APARECIDA ; MORALES, DANIEL ALEXANDRE ; ORMOND, ALEXANDRA B. ; FREEMAN, HAROLD S. ; ZOCOLO, GUILHERME JULIÃO ; Zanoni, Maria Valnice Boldrin ; UMBUZEIRO, GISELA	A1	
artigoEmPeriodico	Gisela de Aragão Umbuzeiro	2013	http://dx.doi.org/10.5132/eec.2013.01.005	Toxicity assessment of an effluent derived from an inactivated uranium mine: the Poços de Caldas (Brazil) example	Journal of Brazilian Society of Ecotoxicology	ARTAL, M. C. ; ALMEIDA, G. ; CALOTO, A. O. ; SANTOS, M. A. P. F. ; UMBUZEIRO, G. A. ; REGANHAN-CONEGLIAN, C.M.	B2	Journal of the Brazilian Society of Ecotoxicology
artigoEmPeriodico	Gisela de Aragão Umbuzeiro	2013	http://dx.doi.org/10.4136/1980-993X	Ecotoxicidade de efluentes brutos e tratados gerados por uma fábrica de medicamentos veterinários	Revista Ambiente & Água	MASELLI, B. S. ; LUNA, L. A. V. ; PALMEIRA, J. O. ; BARBOSA, S. ; BEIJO, L. A. ; UMBUZEIRO, G.A. ; KUMMROW, F	B1	
artigoEmPeriodico	Gisela de Aragão Umbuzeiro	2013	http://dx.doi.org/10.1002/etc.2128	The role of silver and vanadium release in the toxicity of silver vanadate nanowires toward <i>Daphnia similis</i>	Environmental Toxicology and Chemistry	ARTAL, MARIANA COLETTY ; HOLTZ, RAPHAEL DIAS ; KUMMROW, Fábio ; ALVES, OSWALDO LUIZ ; Umbuzeiro, Gisela de Aragão	A1	
artigoEmPeriodico	Gisela de Aragão Umbuzeiro	2013	http://dx.doi.org/10.1088/1742-6596/429/1/012030	Violacein/poly(--caprolactone)/chitosan nanoparticles against bovine mastistis: Antibacterial and ecotoxicity evaluation	Journal of Physics. Conference Series (Online)	Berni, E ; MARCATO, P D ; NAKAZATO, G ; KOBAYASHI, R K T ; VACCHI, F I ; UMBUZEIRO, G A ; DURÁN, N	B2	
trabalhoCompletoEmCongresso	Gisela de Aragão Umbuzeiro	2013		Mineração de Dados de Qualidade de Água para Agrupamento de Pontos de Amostragem Usados no Monitoramento de Recursos Hídricos	IV - Workshop de Computação Aplicada à Gestão do Meio Ambiente e Recursos Naturais (WCAMA - CSBC)	BERTHOLDO, Leonardo ; CAMOLESI Jr., Luiz ; UMBUZEIRO, Gisela de A. ; SILVA, Celmar G. da		
trabalhoCompletoEmCongresso	Gisela de Aragão Umbuzeiro	2013	http://dx.doi.org/10.5753/CBIE.WCBIE.2013.232	Nova Versão do Jogo Daphnia World: Aprendendo Ecotoxicologia de Forma Construtivista	II Congresso Brasileiro de Informática na Educação - CBIE 2013	SOUZA, ROMULO MESSIAS SILVA ; UMBUZEIRO, GISELA DE ARAGÃO ; BORGES, MARCOS A. F.		
artigoEmPeriodico	Francisco José Arnold	2013		A Novel Approach to Suppress the DC Modes in Eigenvalue Problems Using the Finite Element Method	Microwave and Optical Technology Letters (Print)	Goncalves, M. S. ; Arnold, F.J. ; Bravo-Roger,L.L ou ROGER, L.L.B ; SANTOS, T. S.	B1	
trabalhoCompletoEmCongresso	Francisco José Arnold	2013		Análise da qualidade de amostras de leite por via ultrassom e regras Fuzzy	Congresso de Matemática Aplicada e Computacional	ALVES, L. B. ; POLETTI, E. C. C. ; ARNOLD, F. J.		
artigoEmPeriodico	Enelton Fagnani	2013		Degradação de cafeína e azul de metileno por processos oxidativos avançados (POA)	HOLOS Environment (Online)	FAGNANI, E.; GUADAGNINI, R. A. ; SILVA, G. A. ; GUIMARÃES, J. R.	B4	
resumoExpandidoEmCongresso	Enelton Fagnani	2013	Biocarvão: uma nova alternativa para remediação de águas contaminadas	XIV Congresso Brasileiro de Geoquímica, 2013, Diamantina-MG. Anais do XIV Congresso Brasileiro de Geoquímica	SENNA, P. R. C. B. ; BORBA, R. P. ; SILVA, W. L. ; FAGNANI, E. ; COSCIONE, A. R. ; CAMARGO, O. A.		
artigoEmPeriodico	Nelma de Mello Silva Oliveira	2013		ANÁLISE MICROBIOLÓGICA DE POLPAS DE AÇAÍ COMERCIALIZADAS NO MUNICÍPIO DE ALFENAS ? MG.	Higiene Alimentar	SOUZA, C. G. ; DANGELO, L. R. B. ; RUFINO, L. R. A. ; CARVALHO, M. ; COELHO, C. S. P. ; FIORINI, J. E. ; OLIVEIRA, N. M. S.	B3	
artigoEmPeriodico	Nelma de Mello Silva Oliveira	2013		Análises físico-químicas e microbiológicas de bebidas lácteas fermentadas comercializada em Alfenas - MG	Higiene Alimentar	Pereira, J.C. ; Alves, R. F. ; Esteves, M. A ; Rufino, L.R.A ; OLIVEIRA, N. M. S.	B3	
artigoEmPeriodico	Nelma de Mello Silva Oliveira	2013		Características microbiológicas e físico-químicas do leite de cabra submetido à pasteurização e ao congelamento, comercializado na cidade de Alfenas-MG	Revista da Universidade Vale do Rio Verde	SOUZA, A. K. ; FIORINI, J. E. ; MORAES, A. L. L. ; OLIVEIRA, N. M. S. ; CLARETO, S. S. ; NASCIMENTO, L.C.	B3	
artigoEmPeriodico	Wislei Riuper Ramos Osorio	2013	http://dx.doi.org/10.1016/j.jallcom.2013.02.050	Mechanical properties of Sn Ag lead-free solder alloys based on the dendritic array and Ag3Sn morphology	Journal of Alloys and Compounds	OSORIO, Wislei Riuper Ramos; LEIVA, DANIEL R. ; Peixoto, Leandro C. ; Garcia, Leonardo R. ; Garcia, Amauri	A1	
artigoEmPeriodico	Wislei Riuper Ramos Osorio	2013	http://dx.doi.org/10.1016/j.jpowsour.2013.03.099	The effects of Ag content and dendrite spacing on the electrochemical behavior of Pb-Ag alloys for Pb-acid battery components	Journal of Power Sources (Print)	Osório, Wislei R.; Peixoto, Leandro C. ; Garcia, Amauri	A1	
artigoEmPeriodico	Wislei Riuper Ramos Osorio	2013	http://dx.doi.org/10.1016/j.jallcom.2013.03.234	Microstructure and mechanical properties of Sn-Bi, Sn-Ag and Sn-Zn lead-free solder alloys	Journal of Alloys and Compounds	Osório, Wislei R.; Peixoto, Leandro C. ; Garcia, Leonardo R. ; MANGELINCK-NOËL, NATHALIE ; Garcia, Amauri	A1	
artigoEmPeriodico	Wislei Riuper Ramos Osorio	2013	http://dx.doi.org/10.1016/j.electacta.2013.04.047	EIS and potentiodynamic polarization studies on immiscible monotectic Al-In alloys	Electrochimica Acta	OSORIO, Wislei Riuper Ramos; Freitas, Emmanuelle S. ; GARCIA, A. ; Garcia, Amauri	A1	
artigoEmPeriodico	Wislei Riuper Ramos Osorio	2013	http://dx.doi.org/10.1016/j.electacta.2013.07.036	EIS parameters and cell spacings of an Al-Bi alloy in NaCl solution	Electrochimica Acta	OSORIO, Wislei Riuper Ramos; Freitas, Emmanuelle S. ; GARCIA, A. ; Garcia, Amauri	A1	
artigoEmPeriodico	Varese Salvador Timoteo	2013	http://dx.doi.org/10.1007/s00601-013-0780-4	Renormalizing N3LO Nucleon-Nucleon Interactions with Multiple Subtractions and Infinite Cutoff: The 3 F 4 −3 H 4 and the 3 G 5− 3 I 5 Coupled Channels	Few-Body Systems	BATISTA, E. F. ; SZPIGEL, S. ; Timóteo, V. S.	B5	
artigoEmPeriodico	Varese Salvador Timoteo	2013	http://dx.doi.org/10.1016/j.physletb.2013.12.038	Implicit vs explicit renormalization and effective interactions	Physics Letters. B (Print)	Ruiz Arriola, E. ; SZPIGEL, S. ; Timóteo, V.S.	A1	
trabalhoCompletoEmCongresso	Varese Salvador Timoteo	2013	http://dx.doi.org/10.1063/1.4795994	Long distance symmetries for nuclear forces and the similarity renormalization group	XII HADRON PHYSICS	SZPIGEL, S. ; TIMO'TEO, V. S. ; ARRIOLA, E. R.		
trabalhoCompletoEmCongresso	Varese Salvador Timoteo	2013	http://dx.doi.org/10.1063/1.4795988	Renormalization of the Brazilian chiral nucleon-nucleon potential	XII HADRON PHYSICS	DA ROCHA, CARLOS A. ; TIMO'TEO, VARESE S.		
trabalhoCompletoEmCongresso	Varese Salvador Timoteo	2013	http://dx.doi.org/10.5540/03.2013.001.01.0182	A simple model for cascading failures in scale-free networks	DINCON 2013 #45; Conferência Brasileira de Dinâmica	PEREIRA, V. H. ; MARTINS, P. S. ; ANGELIS, A. F. DE ; Timóteo, V. S.		
artigoEmPeriodico	Talía Simões dos Santos Ximenes	2013	http://dx.doi.org/10.1002/mop.27256	A novel approach to suppress the DC modes in eigenvalue problems using the finite element method	Microwave and Optical Technology Letters (Print)	GONÇALVES, MARCOS S. ; ARNOLD, FRANCISCO J. ; BRAVO-ROGER, LEONARDO L. ; SANTOS, TALIA S.	B1	
trabalhoCompletoEmCongresso	Simone Andréa Pozza	2013		AVALIAÇÃO QUÍMICA PRELIMINAR DE MP SUSPENSO: O CASO DA FACULDADE DE TECNOLOGIA DA UNICAMP EM LIMEIRA-SP	XXXVI Congresso Brasileiro de Sistemas Particulados - ENEMP	SOUZA, A. F. E. ; Pozza, Simone Andrea		
trabalhoCompletoEmCongresso	Simone Andréa Pozza	2013		CORRELAÇÃO ENTRE INTERNAÇÕES POR PROBLEMAS RESPIRATÓRIOS E A EMISSÃO DE MATERIAL PARTICULADO NA CIDADE DE LIMEIRA ? SP	27o Congresso Brasileiro de Engenharia Sanitária e Ambiental - CBESA	FONSAKA, B. O. ; MARTINS, A. P. ; SOUZA, A. F. E. ; FERNANDES, F. ; Pozza, Simone Andrea		
trabalhoCompletoEmCongresso	Simone Andréa Pozza	2013		INFLUÊNCIA DO VENTO SOBRE A CONCENTRAÇÃO DE MP10 E PTS NA CIDADE DE LIMEIRA-SP	27o Congresso Brasileiro de Engenharia Sanitária e Ambiental - CBESA	FERNANDES, F. ; SOUZA, A. F. E. ; POZZA, S. A.		
trabalhoCompletoEmCongresso	Sandro Tonso	2013		Educação ambiental crítica e epistemologia do Sul	VII Encontro de Pesquisa em Educação Ambiental	CAMARGO, T.D. ; TONSO, S.		
artigoEmPeriodico	Rosa Cristina Cecche Lintz	2013	http://dx.doi.org/10.4028/www.scientific.net/AMR.690-693.865	Production of Concrete Blocks with Residues for Civil Construction	Advanced Materials Research (Online)	GACHET-BARBOSA, L. A.; Camargo,M. M. ; LINTZ, Rosa Cristina Cecche ; PIRES,M.S.G.(Marta Siviero Guilherme Pires)	Qualis nao identificado	Advanced Materials Research (Online)
artigoEmPeriodico	Rosa Cristina Cecche Lintz	2013	http://dx.doi.org/10.4028/www.scientific.net/amr.742.231	Studies of Mechanical Properties and Absorption of Lightweight Concrete with Brazilian Expanded Clay	Advanced Materials Research (Online)	ANGELIN,A.F. ; LINTZ, ROSA CRISTINA CECCHE ; GACHET-BARBOSA, LUISA ANDRÉIA	Qualis nao identificado	Advanced Materials Research (Online)
artigoEmPeriodico	Rosa Cristina Cecche Lintz	2013	http://dx.doi.org/10.4028/www.scientific.net/amr.742.456	Evaluation of the Behaviour of Mortar with the Addition of Rubber	Advanced Materials Research (Online)	FERREIRA, Isabel Kuntz ; GACHET-BARBOSA, LUISA ANDRÉIA ; LINTZ, R. C. C. ; Seydell, Maria Rachel ; Ribeiro, L.C.L.J.	Qualis nao identificado	Advanced Materials Research (Online)
artigoEmPeriodico	Rosa Cristina Cecche Lintz	2013	http://dx.doi.org/10.4028/www.scientific.net/amm.405-408.3119	Management of Gypsum in Construction Site - Case Study	Applied Mechanics and Materials	VIANA, ERIKA T ; RIBEIRO, LUBIENSKA CRISTINA L.J. ; LINTZ, ROSA CRISTINA CECCHE ; GACHET-BARBOSA, LUISA ANDRÉIA ; PIRES, MARTA SIVIERO GUILHERME	Qualis nao identificado	Applied Mechanics and Materials
artigoEmPeriodico	Rosa Cristina Cecche Lintz	2013	http://dx.doi.org/10.4028/www.scientific.net/amm.368-370.860	Building Blocks Production with Sludge	Applied Mechanics and Materials	AFONSO, Mayara ; FERREIRA, R. ; Ribeiro, L.C.L.J. ; LINTZ, ROSA CRISTINA CECCHE ; GACHET-BARBOSA, L. A. ; PIRES, M. S. G.	Qualis nao identificado	Applied Mechanics and Materials
artigoEmPeriodico	Rosa Cristina Cecche Lintz	2013	http://dx.doi.org/10.4028/www.scientific.net/amm.368-370.441	Implementation of Environmental Management on a Construction Site	Applied Mechanics and Materials	VIANA, Erika T. ; Ribeiro, L.C.L.J. ; LINTZ, ROSA CRISTINA CECCHE ; GACHET-BARBOSA, L. A. ; PIRES, M. S. G. ; construction wastes	Qualis nao identificado	Applied Mechanics and Materials
artigoEmPeriodico	Rosa Cristina Cecche Lintz	2013	http://dx.doi.org/10.4028/www.scientific.net/amr.785-786.157	Production of Self-Compacting Concrete Using Rock Breaking Waste Residues	Advanced Materials Research (Online)	NASCIMENTO, FABIO ; GACHET-BARBOSA, LUISA ANDRÉIA ; CECCHE LINTZ, ROSA CRISTINA ; RUSSO SEYDELL, MARIA RACHEL	Qualis nao identificado	Advanced Materials Research (Online)
artigoEmPeriodico	Rosa Cristina Cecche Lintz	2013	http://dx.doi.org/10.4028/www.scientific.net/AMR.694-697.2942	An Alternative to Paver in Living Areas of Social Interest Housing (SIH)	Advanced Materials Research (Online)	FONTANINI, Patricia S. P. ; LINTZ, R. C. C. ; BARBOSA, Luísa Andréia Gachet ; JACINTHO, Ana Elisabete P. G. A. ; PIMENTEL, Lia Lorena	Qualis nao identificado	Advanced Materials Research (Online)
artigoEmPeriodico	Rosa Cristina Cecche Lintz	2013	http://dx.doi.org/10.4028/www.scientific.net/AMR.690-693.829	Concrete Slab Value Stream Mapping of Brazilian Residential Buildings - A Lean Construction Study Case	Advanced Materials Research (Online)	FONTANINI, Patricia S. P. ; MILANO, Caroline S. ; FUJIMOTO, Aparecido ; LINTZ, R. C. C. ; BARBOSA, Luísa Andréia Gachet ; JACINTHO, Ana Elisabete P. G. A. ; PIMENTEL, Lia Lorena	Qualis nao identificado	Advanced Materials Research (Online)
artigoEmPeriodico	Rosa Cristina Cecche Lintz	2013	http://dx.doi.org/10.4028/www.scientific.net/amm.368-370.925	Effects of Consumption of Cement in Mechanical Properties of Lightweight Concrete Containing Brazilian Expanded Clay	Applied Mechanics and Materials	ANGELIN, ANDRESSA FERNANDA ; RIBEIRO, LUBIENSKA CRISTINA L.J. ; PIRES, MARTA SIVIERO GUILHERME ; JACINTHO, Ana Elisabete P. G. A. ; JACINTHO, ANA ELISABETE P.G.A. ; LINTZ, R. C. C. ; GACHET-BARBOSA, LUÍSA ANDRÉIA	Qualis nao identificado	Applied Mechanics and Materials
artigoEmPeriodico	Rosa Cristina Cecche Lintz	2013	http://dx.doi.org/10.4028/www.scientific.net/amm.405-408.2699	Mechanical Evaluation of Concrete Containing Lightweight Aggregates	Applied Mechanics and Materials	ANGELIN, ANDRESSA FERNANDA ; RIBEIRO, LUBIENSKA CRISTINA L.J. ; PIRES, MARTA SIVIERO GUILHERME ; JACINTHO, Ana Elisabete P. G. A. ; JACINTHO, ANA ELISABETE P.G.A. ; LINTZ, R. C. C. ; GACHET-BARBOSA, LUISA ANDRÉIA	Qualis nao identificado	Applied Mechanics and Materials
artigoEmPeriodico	Rosa Cristina Cecche Lintz	2013	http://dx.doi.org/10.4028/www.scientific.net/amr.756-759.121	Application of Self-Compacting Concrete (SCC) in the Execution of Reservoir of Water	Advanced Materials Research (Online)	GALZERANO, MILLENA BERTOLINI ; BRESSAN, LETÍCIA TORRES ; CECCHE LINTZ, ROSA CRISTINA ; JAQUIÊ RIBEIRO, LUBIENSKA CRISTINA LUCAS ; PIRES, Marta Siviero Guilherme ; JACINTHO, ANA ELISABETE P.G.A. ; GACHET-BARBOSA, LUÍSA ANDRÉIA	Qualis nao identificado	Advanced Materials Research (Online)
artigoEmPeriodico	Rosa Cristina Cecche Lintz	2013	http://dx.doi.org/10.4028/www.scientific.net/amm.467.257	Study of Density and Modulus of Elasticity of Lightweight Concrete with Brazilian Aggregate	Applied Mechanics and Materials	ANGELIN, ANDRESSA FERNANDA ; RIBEIRO, LUBIENSKA CRISTINA L.J. ; PIRES, Marta Siviero Guilherme ; LINTZ, ROSA CRISTINA CECCHE ; TRAUTWEIN, LEANDRO MOUTA ; GACHET-BARBOSA, LUÍSA ANDRÉIA	Qualis nao identificado	Applied Mechanics and Materials
artigoEmPeriodico	Rosa Cristina Cecche Lintz	2013	http://dx.doi.org/10.4028/www.scientific.net/amm.467.253	Interlocking Tactile Concrete Paver with Addition of Steel Fibers	Applied Mechanics and Materials	SILVA, FABIANA MARIA ; SANTOS, VÂNIA REGINA FERREIRA ; RIBEIRO, LUBIENSKA CRISTINA L.J. ; PIRES, Marta Siviero Guilherme ; LINTZ, ROSA CRISTINA CECCHE ; GACHET-BARBOSA, LUÍSA ANDRÉIA	Qualis nao identificado	Applied Mechanics and Materials
trabalhoCompletoEmCongresso	Rosa Cristina Cecche Lintz	2013		Efeitos do consumo de cimento nas propriedades mecânicas e absorção do concreto leve contendo argila expandida brasileira	55 Congresso Brasileiro do Concreto	ANGELIN, A. F. ; LINTZ, Rosa Cristina Cecche ; GACHET-BARBOSA, L. A.		
trabalhoCompletoEmCongresso	Rosa Cristina Cecche Lintz	2013		Contribuição aos Estudos da Resistência do Concreto Auto-Adensável utilizando Argila Expandida	55 Congresso Brasileiro do Concreto	BRESSAN, LETÍCIA TORRES ; B.GALZERANO, M. ; LINTZ, R. C. C. ; BARBOSA, Luísa Andréia Gachet		
trabalhoCompletoEmCongresso	Rosa Cristina Cecche Lintz	2013		Processo de Formação de Educadores em Projeto de Educação Ambiental	27 Congresso Brasileiro de Engenharia Sanitária e Ambiental	PIRES, M. S. G. ; GACHET-BARBOSA, L. A. ; LINTZ, Rosa Cristina Cecche ; RIBEIRO, LUBIENSKA CRISTINA L.J.		
trabalhoCompletoEmCongresso	Rosa Cristina Cecche Lintz	2013		Adaptação de edifícios existentes para edifícios inteligentes e sustentáveis - um estudo de caso em um laboratório universitário paulista	SIBRAGEC 2013 - 8 Simpósio Brasileiro de Gestão e Economia da Construção Inovação e Sustentabilidade	MICELI, C. P. ; FONTANINI, Patricia S. P. ; JACINTHO, A. E. P. G. A. ; PIMENTEL, L. L. ; LINTZ, ROSA C. C.		
artigoEmPeriodico	Ronalton Evandro Machado	2013		Modelo Hidrológico SWAT na Determinação das Perdas de Solo na Bacia Hidrográfica do Rio Pardo ? Botucatu/SP	Energia na Agricultura (UNESP. Botucatú. CD-Rom)	LESSA, L. G. F. ; ZIMBACK, C. R. L. ; LIMA, S. L. ; MACHADO, R. E.	B4	
