artigoEmPeriodico	Eriton Rodrigo Botero	2016	http://dx.doi.org/10.1039/c5ra27064b	A new, efficient and recyclable [Ce(L-Pro)] <sub>2</sub> (Oxa) as a heterogeneous catalyst used in Kabachnik-Fields reaction	RSC Advances: an international journal to further the chemical sciences	DA SILVA, CAREN DANIELE GALEANO ; OLIVEIRA, ALINE R ; ROCHA, MARIANA POMPILIO DARBEM ; KATLA, RAMESH ; BOTERO, ERITON ; DA SILVA, ÉRICA CRISTINA ; DOMINGUES, NELSON LUÍS CAMPOS	B2	
artigoEmPeriodico	Eriton Rodrigo Botero	2016	http://dx.doi.org/10.1080/10584587.2016.1190596	A structural evidence of polar clusters in PLZT relaxor ceramics	Integrated Ferroelectrics (Print)	Botero, Eriton Rodrigo; DE AZEVEDO, DOUGLAS HENRIQUE MARCELINO ; Eiras, José AntôNio ; MILTON, FLAVIO PAULO ; Garcia, Ducinei	B1	
artigoEmPeriodico	Eriton Rodrigo Botero	2016	http://dx.doi.org/10.1080/10584587.2016.1195629	Study of the effects of holmium and 2-aminoterephthalate additions on the optical properties of polyvinylidene fluoride	Integrated Ferroelectrics (Print)	FARINELLI, B. C. F. ; SILVA, M. S. ; BOTERO, E. R. ; CARVALHO, C. T. ; CAIRES, A. R. L. ; GUO, R. ; BHALLA, A. S. ; FALCÃO, E. A.	B1	
artigoEmPeriodico	Eliana Janet Sanjinez Argandoña	2016		Chemical composition and food potential of Pachymerus nucleorum larvae parasitizing Acrocomia aculeata kernels	Plos One	VIEIRA, A. A. ; SANJINEZ-ARGANDOÑA, E. J. ; LINZMEIER, A. M. ; CARDOSO, CLÁUDIA ANDRÉA LIMA ; MACEDO, MARIA LÍGIA RODRIGUES	A1	
artigoEmPeriodico	Eliana Janet Sanjinez Argandoña	2016		Food Value of Mealworm Grown on Acrocomia aculeata Pulp Flour	Plos One	VIEIRA, A. A. ; SANJINEZ-ARGANDOÑA, E. J. ; LINZMEIER, A. M. ; CARDOSO, CLÁUDIA ANDRÉA LIMA ; MACEDO, MARIA LÍGIA RODRIGUES	A1	
artigoEmPeriodico	Eliana Janet Sanjinez Argandoña	2016		DESIDRATAÇÃO DA POLPA DE Campomanesia Adamantium Cambess. O. Berg POR LIOFILIZAÇÃO	Interbio	OLIVEIRA, V. S. ; SANJINEZ-ARGANDOÑA, E. J. ; AYD MARY OSHIRO ; CARNEVALI, Thiago de Oliveira ; HONORATO, Claucia Aparecida	Qualis nao identificado	Interbio
artigoEmPeriodico	Eliana Janet Sanjinez Argandoña	2016	http://dx.doi.org/10.1016/j.indcrop.2016.04.055	Influence of pasteurization on antioxidant and in vitro anti-proliferative effects of jambolan (Syzygium cumini (L.) Skeels) fruit pulp	Industrial Crops and Products (Print)	BRANCO, Ivanise Guilherme ; MORAES, IZABEL CRISTINA FREITAS ; ARGANDOÑA, ELIANA JANET SANJINEZ ; MADRONA, GRASIELE SCARAMAL ; DOS SANTOS, CATARINA ; RUIZ, ANA LÚCIA TASCA GÓIS ; DE CARVALHO, JOÃO ERNESTO ; HAMINIUK, CHARLES WINDSON ISIDORO	A2	
artigoEmPeriodico	Eliana Janet Sanjinez Argandoña	2016	http://dx.doi.org/10.1371/journal.pone.0165208	Campomanesia adamantium Peel Extract in Antidiarrheal Activity: The Ability of Inhibition of Heat-Stable Enterotoxin by Polyphenols	Plos One	LESCANO, C.H. ; OLIVEIRA, I. P. ; ZAMINELLI, T. ; BALDIVIA, D. S. ; SILVA, L. R. ; NAPOLITANO, M. ; SILVERIO, C. B. M. ; LINCOPAN, N. ; SANJINEZ-ARGANDOÑA, E. J.	A1	
artigoEmPeriodico	Eliana Janet Sanjinez Argandoña	2016		Antiobesity Effects of Hydroethanolic Extract of Jacaranda decurrens Leaves	Evidence-Based Complementary and Alternative Medicine (Print)	ANTUNES, K. A. ; BALDIVIA, D. S. ; ROCHA, P. S. ; CASAGRANDE, J. C. ; SANJINEZ-ARGANDOÑA, E. J. ; VIEIRA, M. C. ; CARDOSO, C. A. L. ; SANTOS, E. L. ; SOUZA, K. P.	A1	
artigoEmPeriodico	Eliana Janet Sanjinez Argandoña	2016		SUBSTITUTION OF CORNMEAL FOR FLOUR OF SHOOTS AND NONCOMMERCIAL ROOTS OF ARRACACHA (ARRACARIA XANTHORRHIZA BANCROFT) IN THE PROCESSING OF SEMISWEET BISCUITS	BOLETIM CENTRO DE PESQUISA E PROCESSAMENTO DE ALIMENTOS	GASSI, Rosimeire P ; HEREDIA ZÁRATE, N.A. ; SANJINEZ-ARGANDOÑA, E. J. ; TORALES, E. P. ; VIEIRA, M.C. ; SILVA, L.R.	B2	
artigoEmPeriodico	Eliana Janet Sanjinez Argandoña	2016	http://dx.doi.org/10.1016/j.fct.2016.09.018	Oral acute and subchronic toxicity studies of the oil extracted from pequi (Caryocar brasiliense, Camb.) pulp in rats	FOOD AND CHEMICAL TOXICOLOGY	TRAESEL, GISELI KARENINA ; MENEGATI, SARA EMILIA LIMA TOLOUEI ; DOS SANTOS, ARIANY CARVALHO ; CARVALHO SOUZA, ROOSEVELT ISAIAS ; VILLAS BOAS, GUSTAVO ROBERTO ; JUSTI, PRISCILLA NARCISO ; KASSUYA, CANDIDA APARECIDA LEITE ; SANJINEZ ARGANDOÑA, ELIANA JANET ; OESTERREICH, SILVIA APARECIDA	A2	
artigoEmPeriodico	Eliana Janet Sanjinez Argandoña	2016	http://dx.doi.org/10.1111/ijfs.13145	Drying kinetics and quality of uvaia ( <i>Hexachlamys edulis</i> (O. Berg)) powder obtained by foam-mat drying	INTERNATIONAL JOURNAL OF FOOD SCIENCE AND TECHNOLOGY	BRANCO, Ivanise Guilherme ; KIKUCHI, THATYANA TAMMY ; ARGANDOÑA, ELIANA JANET SANJINEZ ; MORAES, IZABEL CRISTINA FREITAS ; HAMINIUK, CHARLES WINDSON ISIDORO	B1	
trabalhoCompletoEmCongresso	Eliana Janet Sanjinez Argandoña	2016	http://dx.doi.org/10.3920/978-90-8686-795-0	Granola com adição de polpa e castanha de bacuri para consumo com iogurte	IV Congreso Internacional de Ingenieria Química	MENDOZA, V. S. ; SANTOS, L. L. ; SILVA, S. R. ; SANJINEZ-ARGANDOÑA, E. J.		
trabalhoCompletoEmCongresso	Eliana Janet Sanjinez Argandoña	2016		Atividade anti-inflamatória e antinociceptiva de polpa microencapsulada de Campomanesia adamantium	IV Congreso Internacional de Ingenieria Química	VISCARDI, D. Z. ; ARRIGO, J. S. ; KASSUYA, C.A.L. ; SANJINEZ-ARGANDOÑA, E. J.		
trabalhoCompletoEmCongresso	Eliana Janet Sanjinez Argandoña	2016		ACEITABILIDADE DE COOKIES FORMULADOS COM FARINHA DE POLPA DE BARU PRÉ-TRATADA COM ÁCIDO ACÉTICO COMERCIAL	ENCONTRO NACIONAL DOS GRUPOS PETS - ECOPET III	FERREIRA, T. H. B. ; ARGANDONA, E. J. S. ; SILVA, S. R. ; MUNHOZ, C. L. ; GONCALVES, E. K. ; ROLON, N. V.		
resumoExpandidoEmCongresso	Eliana Janet Sanjinez Argandoña	2016	Fibra Alimentar e Teor de Carotenoides da Farinha do Albedo Com e Sem Flavedo de Maracujá Doce	II CONGRESSO INTERNACIONAL DE GASTRONOMIA E CIÊNCIA DE ALIMENTOS, 2016, Fortaleza. II CONGRESSO INTERNACIONAL DE GASTRONOMIA E CIÊNCIA DE ALIMENTOS	ORTEGA, N. F. ; DORISBOURE NETO, L. ; BALDIVIA, D. S. ; SANJINEZ-ARGANDOÑA, E. J.		
resumoExpandidoEmCongresso	Eliana Janet Sanjinez Argandoña	2016	Secagem por Atomização de Rosela e Propriedades Físicas e Químicas do Pó	II CONGRESSO INTERNACIONAL DE GASTRONOMIA E CIÊNCIA DE ALIMENTOS, 2016, Fortaleza. II CONGRESSO INTERNACIONAL DE GASTRONOMIA E CIÊNCIA DE ALIMENTOS	DORISBOURE NETO, L. ; ORTEGA, N. F. ; MELO, R. M. ; MARTINS, D. R. S. ; SANJINEZ-ARGANDOÑA, E. J.		
resumoExpandidoEmCongresso	Eliana Janet Sanjinez Argandoña	2016	Estabilidade de Micropartículas de Óleo de Bacuri Obtidas por Coacervação Complexa e Liofilização	II Congresso Internacional de Gastronomia e Ciência de Alimentos, 2016, Fortaleza. II Congresso Internacional de Gastronomia e Ciência de Alimentos	OLIVEIRA, E. F. R. ; SANJINEZ-ARGANDOÑA, E. J.		
resumoExpandidoEmCongresso	Eliana Janet Sanjinez Argandoña	2016	Aceitabilidade e Intenção de Compra de Doce em Massa de Annona squamosa Convencional e Diet	II Congresso Internacional de Gastronomia e Ciência de Alimentos, 2016, Fortaleza. II CIGCA	AVELINO, K. R. S. ; FOLETTO, K. ; MURAKAMI, C. M. ; FILGUEIRAS, C. T. ; SANJINEZ-ARGANDOÑA, E. J.		
resumoExpandidoEmCongresso	Eliana Janet Sanjinez Argandoña	2016	Desenvolvimento de Néctar de guavira (Campomanesia adamantium)	XXV Congresso Brasileiro de Ciência e Tecnologia de Alimentos -CBCTA, 2016, Gramado, RS. Anais do XXV Congresso Brasileiro de Ciência e Tecnologia de Alimentos -CBCTA	SANTOS, A. N. ; BREDA, C. A. ; SANJINEZ-ARGANDOÑA, E. J.		
artigoEmPeriodico	Eduardo José de Arruda	2016	http://dx.doi.org/10.1111/eea.12457	A simple method for immobilising small dipteran insects and its validation for <i>Aedes aegypti</i>	Entomologia Experimentalis et Applicata (Print)	CABRINI, I. ; ANDRADE, C.F.S. ; FERREIRA, M. C. ; ARRUDA, E. J.	A2	
artigoEmPeriodico	Eduardo José de Arruda	2016		Chemical and thermal evaluation of grass mate (ilex Paraguariensis St. Hil.) native progenies, from Kaiowá and Guarani indigenous communities - MS	International Journal of Current Research	BIZ, D.P ; Arruda, E.J. ; COSTA, R.B ; PORTELLA, A. C. F. ; SCHEIDT, G.N	Qualis nao identificado	International Journal of Current Research
artigoEmPeriodico	Anderson Rodrigues Lima Caires	2016	http://dx.doi.org/10.1016/j.energy.2016.04.111	Thermal stability enhancement of biodiesel induced by a synergistic effect between conventional antioxidants and an alternative additive	Energy (Oxford)	ROVEDA, A. C. ; COMIN, M. ; CAIRES, A. R. L. ; FERREIRA, V. S. ; TRINDADE, M. A. G.	A1	
artigoEmPeriodico	Anderson Rodrigues Lima Caires	2016	http://dx.doi.org/10.1016/j.saa.2016.05.033	Quenching of chlorophyll fluorescence induced by silver nanoparticles	Spectrochimica Acta. Part A, Molecular and Biomolecular Spectroscopy (Print)	QUEIROZ, A.M. ; MEZACASA, A.V. ; GRACIANO, D.E. ; FALCO, W.F. ; M'PEKO, J.-C. ; Guimarães, F.E.G. ; LAWSON, T. ; Colbeck, I. ; OLIVEIRA, S.L. ; CAIRES, A.R.L.	A2	
artigoEmPeriodico	Anderson Rodrigues Lima Caires	2016	http://dx.doi.org/10.1080/10584587.2016.1195629	Study of the effects of holmium and 2-aminoterephthalate additions on the optical properties of polyvinylidene fluoride	Integrated Ferroelectrics (Print)	FARINELLI, B. C. F. ; SILVA, M. S. ; BOTERO, E. R. ; CARVALHO, C. T. ; CAIRES, A. R. L. ; GUO, R. ; BHALLA, A. S. ; FALCÃO, E. A.	B1	
artigoEmPeriodico	Anderson Rodrigues Lima Caires	2016	http://dx.doi.org/10.1002/jsfa.8186	Oxidative stability of sesame and flaxseed oils and their effects on morphometric and biochemical parameters in an animal model	JOURNAL OF THE SCIENCE OF FOOD AND AGRICULTURE	FIGUEIREDO, PRISCILA S ; CANDIDO, CAMILA J ; JAQUES, JEANDRE AS ; NUNES, ÂNGELA A ; CAIRES, ANDERSON RL ; MICHELS, FLÁVIO SANTANA ; ALMEIDA, JEESER A ; FILIÚ, WANDER FO ; HIANE, PRISCILA A ; NASCIMENTO, VALTER A ; FRANCO, OCTAVIO L ; GUIMARÃES, RITA CA	A2	
artigoEmPeriodico	Alexeia Barufatti Grisolia	2016	http://dx.doi.org/10.4238/gmr.15017477	Intravarietal polymorphisms reveal possible common ancestor of native Schinus terebinthifolius Raddi populations in Brazil	Genetics and Molecular Research	PINTO, J. V. C. ; CRISPIM, B. A. ; VASCONCELOS, A. A. ; GEELEN, D. ; GRISOLIA, A. B. ; Vieira MC	A2	
artigoEmPeriodico	Alexeia Barufatti Grisolia	2016		Haplogroups identification in mitochondrial DNA of sheep from Mato Grosso do Sul, Brazil.	Archivos de Zootecnia	Oliveira J.A. ; BANARI, A. C. ; CRISPIM, B. A. ; Vargas FMV ; EGITO, A. A. ; Seno LO ; GRISOLIA, A. B.	B2	
artigoEmPeriodico	Alexeia Barufatti Grisolia	2016	http://dx.doi.org/10.1590/0074-02760150400	Novel point mutations in the ERG11 gene in clinical isolates of azole resistant Candida species	Memórias do Instituto Oswaldo Cruz (Online)	Silva D.B.S. ; RODRIGUES, L. M. C. ; Almeida A. A. ; OLIVEIRA, K. M. P. ; GRISOLIA, A. B.	A2	
artigoEmPeriodico	Alexeia Barufatti Grisolia	2016	http://dx.doi.org/10.1590/1678-4685-gmb-2015-0223	Genotoxic and mutagenic effects of polluted surface water in the midwestern region of Brazil using animal and plant bioassays	Genetics and Molecular Biology (online version)	DOURADO, P. L. ; ROCHA, M. P. ; OLIVEIRA, K. M. P. ; RAPOSO JUNIOR, J. L. ; ROVEDA, L. M. ; MARIN-MORALES, M. A. ; CARDOSO, C. A. L. ; GRISOLIA, A. B.	Qualis nao identificado	Genetics and Molecular Biology (online version)
artigoEmPeriodico	Alexeia Barufatti Grisolia	2016	http://dx.doi.org/10.4238/gmr.15017548	Genome wide association study on early puberty in Bos indicus	Genetics and Molecular Research	NASCIMENTO, A.V. ; MATOS, M.C. ; SENO, L.O. ; ROMERO, A.R.S. ; GARCIA, J. F. ; GRISOLIA, A. B.	A2	
artigoEmPeriodico	Alexeia Barufatti Grisolia	2016	http://dx.doi.org/10.1016/j.ram.2015.11.005	Genotype, antifungal susceptibility, and biofilm formation of Trichosporon asahii isolated from the urine of hospitalized patients	Revista Argentina de Microbiología	ALMEIDA, ADRIANA ARAÚJO DE ; CRISPIM, BRUNO DO AMARAL ; GRISOLIA, A. B. ; SVIDZINSKI, T. I. E. ; ORTOLANI, LAIS GONÇALVEZ ; OLIVEIRA, KELLY MARI PIRES DE	Qualis nao identificado	Revista Argentina de Microbiología
artigoEmPeriodico	Alexeia Barufatti Grisolia	2016	http://dx.doi.org/10.1007/s12562-016-0999-3	GENETIC VARIABILITY OF PURE PSEUDOPLATYSTOMA CORRUSCANS AND PSEUDOPLATYSTOMA RETICULATUM INDIVIDUALS IN THE PARANÁ AND PARAGUAY RIVER BASINS	Fisheries Science	VAINI, J. O. ; CRISPIM, B. A. ; Benites C. ; SILVA, D. B. S. ; RUSSO, M. R. ; GRISOLIA, A. B.	B1	
artigoEmPeriodico	Alexeia Barufatti Grisolia	2016		Avaliação de protocolos para extração de DNA Genômico de sangue Bovino	Journal of the Selva Andina Research Society	CRISPIM, B. A. ; Nascimento A.V. ; ROMERO, A. R. S. ; FERNANDES, J. S. ; BANARI, A. C. ; Seno LO ; GRISOLIA, A. B.	B5	
artigoEmPeriodico	Alexeia Barufatti Grisolia	2016	http://dx.doi.org/10.3390/ijerph13101036	Depth and Well Type Related to Groundwater Microbiological Contamination	International Journal of Environmental Research and Public Health	MARAN, N. H. ; CRISPIM, B. A. ; IAHNN, S. R. ; ARAUJO, R. P. ; GRISOLIA, A. B. ; OLIVEIRA, K. M. P.	B1	
artigoEmPeriodico	Alexeia Barufatti Grisolia	2016		Genetic determinants of antifungal resistance in Candida species	African Journal of Biotechnology	SILVA, D. B. S. ; GRISOLIA, A. B. ; OLIVEIRA, K. M. P.	B2	
artigoEmPeriodico	Alexeia Barufatti Grisolia	2016		POLYMORPHISMS IN THE CAST GENE OF SHEEP FROM MATO GROSSO DO SUL, BRAZIL	Revista Colombiana de Ciencia Animal Recia	SANTOS, J. C. G. ; CRISPIM, B. A. ; Seno LO ; VARGAS JUNIOR, F. M. ; GRISOLIA, A. B.	B4	
artigoEmPeriodico	Zefa Valdivina Pereira	2016		GERMINATION AND DESSICATION OF Hancornia speciosa Gomes SEEDS	Bioscience Journal (Online)	DRESCH, D. ; Jeromine, T. ; Scalon, S. P. Q ; MUSSURY, R. M. ; MASETTO, T. E. ; PEREIRA, Z. V.	B1	
artigoEmPeriodico	Zefa Valdivina Pereira	2016	http://dx.doi.org/10.1590/0100-67622016000100003	EVALUATION OF THE POTENTIAL OF SEED RAIN AS AN ALTERNATIVE FOR FOREST RESTORATION IN PERMANENT PRESERVATION AREAS1	Revista Árvore (Online)	SILVA, EMERSON PEREIRA DA ; FIGUEIREDO, FABRICIO GOMES ; FERNANDES, SHALINE SÉFARA LOPES ; PEREIRA, ZEFA VALDIVINA	B1	
artigoEmPeriodico	Zefa Valdivina Pereira	2016	http://dx.doi.org/10.5902/1980509822750	SUBSTRATOS E NÍVEIS DE LUMINOSIDADE NO CRESCIMENTO INICIAL DE MUDAS DE <i>Tocoyena formosa</i> (Cham.	http://dx.doi.org/10.5902/198050987550	BONAMIGO, THALINY ; SCALON, SILVANA DE PAULA QUINTÃO ; PEREIRA, ZEFA VALDIVINA	C	
artigoEmPeriodico	Zefa Valdivina Pereira	2016	http://dx.doi.org/10.1155/2016/9681425	Antioxidant and Hypolipidemic Activity of the Hydroethanolic Extract of <i>Curatella americana</i> L. Leaves	Oxidative Medicine and Cellular Longevity (Print)	LOPES, RAFAEL HENRIQUE OLIVEIRA ; MACORINI, LUIS FERNANDO BENITEZ ; ANTUNES, KATIA ÁVILA ; ESPINDOLA, PRISCILLA PEREIRA DE TOLEDO ; ALFREDO, TAMAEH MONTEIRO ; ROCHA, PAOLA DOS SANTOS DA ; PEREIRA, ZEFA VALDIVINA ; SANTOS, EDSON LUCAS DOS ; DE PICOLI SOUZA, KELY	B1	
artigoEmPeriodico	Zefa Valdivina Pereira	2016		Resgate e conservação da agrobiodiversidade Sul Mato-Grossense	Cadernos de Agroecologia	FERNANDES, A. C. Q. ; LOBTCHENKO, J. C. P. ; BRACHTVOGEL, C. ; LOBTCHENKO, G. ; SANGALLI, A. ; PADOVAN, M. P. ; PEREIRA, ZEFA VALDIVINA	B4	
artigoEmPeriodico	Zefa Valdivina Pereira	2016		Potencial de sistemas agroflorestais biodiversos em processos de restauração ambiental	Cadernos de Agroecologia	PADOVAN, M. P. ; PEREIRA, ZEFA VALDIVINA ; NASCIMENTO, J. S. ; FERNANDES, S. S. L. ; ALVES, J. C.	B4	
artigoEmPeriodico	Zefa Valdivina Pereira	2016		A Agroecologia como Opção para a Produção de Hortaliças na Agricultura Familiar no Município de Ivinhema, Mato Grosso do Sul	Cadernos de Agroecologia	PEDROSA, R. ; PEREIRA, ZEFA VALDIVINA	B4	
artigoEmPeriodico	Zefa Valdivina Pereira	2016		Atualização e Capacitação de Técnicos e Agricultores-Multiplicadores envolvendo Sistemas Agroflorestais em Bases Agroecológicas	Cadernos de Agroecologia	PADOVAN, M. P. ; PEREIRA, Z. V. ; PEZARICO, C. R. ; OTSUBO, A. A.	B4	
artigoEmPeriodico	Zefa Valdivina Pereira	2016		Banco de sementes como indicador ambiental em uma área em processo de restauração florestal localizada em Ivinhema-MS	Cadernos de Agroecologia	COSTA, P. F. ; PEREIRA, Z. V. ; PADOVAN, M. P. ; FERNANDES, S. S. L. ; FROES, C. Q.	B4	
artigoEmPeriodico	Zefa Valdivina Pereira	2016		Desenvolvimento inicial de espécies arbóreas em um Sistema Agroflorestal no Município de Dourados, Estado de Mato Grosso do Sul	Cadernos de Agroecologia	GARCIA, L. T. ; ESTEVES, A. T. ; PEREIRA, Z. V. ; LOBTCHENKO, G. ; VIEIRA, A. P. ; PADOVAN, M. P.	B4	
artigoEmPeriodico	Zefa Valdivina Pereira	2016		Estado da arte de sistemas agroflorestais em bases agroecológicas em Mato Grosso do Sul, região Centro Oeste do Brasil	Cadernos de Agroecologia	PADOVAN, M. P. ; NASCIMENTO, J. S. ; PEREIRA, Z. V. ; ALVES, J. C. ; RAMOS, F. S.	B4	
artigoEmPeriodico	Zefa Valdivina Pereira	2016		Estrutura da vegetação arbustivo-arbórea em diferentes sistemas agroflorestais biodiversos no Território do Vale do Ivinhema, no Estado de Mato Grosso do Sul	Cadernos de Agroecologia	PAULUS, L. A. R. ; PEREIRA, Z. V. ; PADOVAN, M. P. ; MOTTA, I. S. ; LINE, J. D. B. ; LOBTCHENKO, G. ; AMARAL-SILVA, J. ; SILVA, E. P.	B4	
artigoEmPeriodico	Zefa Valdivina Pereira	2016		Grandes Eventos Técnico-Científicos de Agroecologia em Mato Grosso do Sul: Concepções, Realizações e Possíveis Impactos	Cadernos de Agroecologia	PADOVAN, M. P. ; FEIDEN, A. ; KOMORI, O. M. ; MOTTA, I. S. ; PEREIRA, Z. V.	B4	
artigoEmPeriodico	Zefa Valdivina Pereira	2016		Produção e Aporte de serrapilheira em área de restauração ambiental localizada em Ivinhema-MS	Cadernos de Agroecologia	COSTA, P. F. ; PEREIRA, Z. V. ; PADOVAN, M. P. ; FERNANDES, S. S. L. ; FROES, C. Q.	B4	
artigoEmPeriodico	Zefa Valdivina Pereira	2016		Composição da Comunidade das Abelhas Euglossina (Hymenoptera, Apoidea) em Fragmento Vegetacional em Processo de Restauração no Município do Ivinhema (MS)	Cadernos de Agroecologia	LOBTCHENKO, G. ; LOBTCHENKO, J. C. P. ; ALVES JUNIOR, V. V. ; PEREIRA, ZEFA VALDIVINA	B4	
artigoEmPeriodico	Zefa Valdivina Pereira	2016		Diagnóstico socioeconômico e ambiental da comunidade tradicional Bracinho no Pantanal de Paiaguás em Corumbá, estado de Mato Grosso Sul	Cadernos de Agroecologia	CONCEICAO, V. ; NASCIMENTO, J. S. ; PEREIRA, ZEFA VALDIVINA ; AGOSTINHO, P. R. ; PAULUS, L. A. R.	B4	
artigoEmPeriodico	Zefa Valdivina Pereira	2016	http://dx.doi.org/10.1155/2016/7910340	Antioxidant and Antihyperlipidemic Effects of <i>Campomanesia adamantium</i> O. Berg Root	Oxidative Medicine and Cellular Longevity (Print)	ESPINDOLA, PRISCILLA PEREIRA DE TOLEDO ; ROCHA, PAOLA DOS SANTOS DA ; CAROLLO, CARLOS ALEXANDRE ; SCHMITZ, WANDERLEI ONOFRE ; PEREIRA, ZEFA VALDIVINA ; VIEIRA, MARIA DO CARMO ; SANTOS, EDSON LUCAS DOS ; DE PICOLI SOUZA, KELY	B1	
artigoEmPeriodico	Zefa Valdivina Pereira	2016		Potential for recovery of Campomanesia xanthocarpa Mart. ex O. berg seedlings from water deficit.	African Journal of Agricultural Research	BENTO, L. F. ; SCALON, SILVANA DE PAULA QUINTÃO ; DRESCH, DAIANE MUGNOL ; PEREIRA, Z. V.	B1	
artigoEmPeriodico	Zefa Valdivina Pereira	2016		Conservação in situ/on farm das Sementes Crioulas Através do Banco Comunitário de Sementes Crioulas Lucinda Moretti, Município de Juti, MS	Cadernos de Agroecologia	DORCE, L. C. ; LINE, J. D. B. ; DORCE, L. S. ; LOBTCHENKO, J. C. P. ; BRACHTVOGEL, C. ; FAVELA JUNIOR, J. A. ; PEREIRA, ZEFA VALDIVINA	B4	
trabalhoCompletoEmCongresso	Silvia Maria Martelli	2016	http://dx.doi.org/10.1039/9781782620181-00001	Desenvolvimento de cobertura comestível a base de açafrão da terra para queijo tipo mussarela	XI Brazilian Meeting on Chemistry of Food and Beverages V Simpósio de Engenharia e Ciência de Alimentos	DAMBROS, A. ; SOUZA, S. A. ; ZARATE, N. A. H. ; MARTELLI, S. M. ; FAKHOURI, F. M.		
trabalhoCompletoEmCongresso	Silvia Maria Martelli	2016		Avaliação sensorial de goiabas in natura da variedade Pedro sato com coberturas comestíveis de extrato de casca de romã da variedade 'pom wonderful' mantidas sob refrigeração	XI Brazilian Meeting on Chemistry of Food and Beverages V Simpósio de Engenharia e Ciência de Alimentos	FARIA, R. C. ; FAKHOURI, F. M. ; DAMBROS, A. ; KOSCHEVIC, M. T. ; MARTELLI, S. M.		
trabalhoCompletoEmCongresso	Silvia Maria Martelli	2016		Efeito da utilização de coberturas comestíveis a base de proteinas e polissacarídeos em mangas da variedade tommy atkins armazenadas sob refrigeração	XI Brazilian Meeting on Chemistry of Food and Beverages V Simpósio de Engenharia e Ciência de Alimentos	SANTOS, M. ; FARIA, R. C. ; UEDA, K. S. ; KOSCHEVIC, M. T. ; FAKHOURI, F. M. ; MARTELLI, S. M.		
trabalhoCompletoEmCongresso	Silvia Maria Martelli	2016		Estudo da reutilização do resíduo de polimento de porcelanato: uma breve revisão	VII Seminário de Ensino	UMBELINO, D. R. ; MAGAGNIN, D. ; ALBERTON, J. ; CARVALHO, K. D. ; MARTELLI, S. M.		
trabalhoCompletoEmCongresso	Silvia Maria Martelli	2016		Obtenção e caracterização de farinha de cártamo (Carthamus tinctorius L.) e sua aplicação na formulação de pão integral	Brazilian Meeting on Chemistry of Food and Beverages V Simpósio de Engenharia e Ciência de Alimentos	SANTOS, T. S. ; CERQUEIRA, C. C. ; BORGES, M. M. R. ; SANTOS, M. ; KOSCHEVIC, M. T. ; CASARI, A. C. B. ; SOUZA, L. C. F. ; FAKHOURI, F. M. ; MARTELLI, S. M.		
artigoEmPeriodico	Rozanna Marques Muzzi	2016	http://dx.doi.org/10.4238/gmr.15027816	Acrocomia aculeata prevents toxicogenetic damage caused by the antitumor agent cyclophosphamide	Genetics and Molecular Research	MAGOSSO, M.F. ; CARVALHO, P.C. ; SHNEIDER, B.U.C. ; PESSATTO, L.R. ; PESARINI, J.R. ; SILVA, P.V.B. ; CORREA, W.A. ; KASSUYA, C.A.L. ; MUZZI, R.M. ; OLIVEIRA, R.J.	A2	
artigoEmPeriodico	Rodrigo Simões Ribeiro Leite	2016	http://dx.doi.org/10.14393/BJ-v32n4a2016-32992	Production of xylanase by a new strain of Thermoascus aurantiacus: obtainment of enzymatic extract with reduced cellulolytic activity for application in pulp and paper industries	Bioscience Journal (Online)	COSTA, A. C. ; SCALABRINI, R. P. ; SILVESTRE, M. A. ; RODRIGUES, A. ; PAZ, M. F. ; FONSECA, G. G. ; LEITE, R. S. R.	B1	
artigoEmPeriodico	Rodrigo Simões Ribeiro Leite	2016	http://dx.doi.org/10.1155/2016/7323875	Production and Catalytic Properties of Amylases from and by Solid-State Fermentation	The Scientific World Journal	OLIVEIRA, A. P. A. ; SILVESTRE, M. A. ; GARCIA, N. F. L. ; ALVES-PRADO, H. F. ; RODRIGUES, A. ; PAZ, M. F. ; FONSECA, G. G. ; LEITE, R. S. R.	B1	
artigoEmPeriodico	Rodrigo Simões Ribeiro Leite	2016	http://dx.doi.org/10.5897/ajb2015.15025	Production and characterization of β-glucosidase from Gongronella butleri by solid-state fermentation	African Journal of Biotechnology	SANTOS, F.R.S. ; GARCIA, N.F.L. ; PAZ, M. F. ; FONSECA, G.G. ; LEITE, R. S. R.	B2	
artigoEmPeriodico	Rodrigo Simões Ribeiro Leite	2016		Purification and biochemical characterization of an extracellular serine peptidase from Aspergillus terreus	Preparative Biochemistry & Biotechnology	BIAGGIO, RAFAEL TAGE ; SILVA, RONIVALDO RODRIGUES DA ; ROSA, NATHALIA GONSALES DA ; LEITE, R. S. R. ; ARANTES, ELIANE CANDIANI ; CABRAL, TATIANA PEREIRA DE FREITAS ; JULIANO, MARIA A. ; Juliano, Luiz ; CABRAL, H.	Qualis nao identificado	Preparative Biochemistry & Biotechnology
artigoEmPeriodico	Patricia Hatsue Suegama	2016	http://dx.doi.org/10.1016/j.surfcoat.2015.12.049	Influence of the addition of SiO2 nanoparticles to a hybrid coating applied on an AZ31 alloy for early corrosion protection	Surface & Coatings Technology	PERES, R.N. ; CARDOSO, E.S.F. ; Montemor, M.F. ; de MELO, H. G. ; Benedetti, A.V. ; SUEGAMA, P. H.	A2	
artigoEmPeriodico	Patricia Hatsue Suegama	2016	http://dx.doi.org/10.17807/orbital.v8i2.796	Avaliação Eletroquímica do Efeito da Adição de Nanopartículas no Polimento Químico da Liga AA6062T5	Orbital: the Electronic Journal of Chemistry	ARANHA, BRUNA S. D. R. ; FUGIVARA, CECÍLIO SADAO ; BENEDETTI, Assis Vicente ; TEIXEIRA, DILTON GONÇALVES ; SUEGAMA, PATRÍCIA HATSUE	B3	
artigoEmPeriodico	Patricia Hatsue Suegama	2016	http://dx.doi.org/10.1016/j.mineng.2016.03.025	Simulating the main stages of chalcopyrite leaching and bioleaching in ferrous ions solution: An electrochemical impedance study with a modified carbon paste electrode	Minerals Engineering	ARENA, F. A. ; SUEGAMA, P. H. ; BEVILAQUA, D. ; SANTOS, A. L. A. ; FUGIVARA, Cecilio Sadao ; BENEDETTI, Assis Vicente	A2	
trabalhoCompletoEmCongresso	Patricia Hatsue Suegama	2016		Uso da SECM para estudo da corrosão da liga AA2024-T3 soldada por FSW	Intercorr	SUEGAMA, P. H.; de Melo, H.G. ; VIVIER, V.		
trabalhoCompletoEmCongresso	Patricia Hatsue Suegama	2016		Estudo eletroquímico da variação de concentração de nanopartículas de sílica na síntese de revestimentos híbridos siloxanos aplicados sobre aço estanhado	Intercorr 2016	FERREIRA, G. F. T. M. ; de MELO, H. G. ; CRUZ, F. M. L. ; SUEGAMA, P.H.		
trabalhoCompletoEmCongresso	Patricia Hatsue Suegama	2016		Influência da concentração de íons cério (III) e (IV) em filmes híbridos na proteção contra a corrosão da liga de magnésio AZ31	Intercorr 2016	PERES, R.N. ; MONTEMOR, M. F. ; de MELO, H. G. ; BENEDETTI, A. V. ; SUEGAMA, P. H.		
artigoEmPeriodico	Nelson Luís de Campos Domingues	2016	http://dx.doi.org/10.1039/C5RA23233C	Synthesis of α-aminophosphonates using a mesoporous silica catalyst produced from sugarcane bagasse ash	RSC Advances: an international journal to further the chemical sciences	BOZA, ARTHUR FELIPE ; KUPFER, VICENTE LIRA ; OLIVEIRA, ALINE R ; RADOVANOVIC, EDUARDO ; RINALDI, ANDRELSON WELLINGTON ; MENEGUIN, JOZIANE GIMENES ; DOMINGUES, NELSON LUÍS CAMPOS ; MOISES, MURILO PEREIRA ; FÁVARO, SILVIA LUCIANA	B2	
artigoEmPeriodico	Nelson Luís de Campos Domingues	2016	http://dx.doi.org/10.1039/c5ra27064b	A new, efficient and recyclable [Ce(L-Pro)] <sub>2</sub> (Oxa) as a heterogeneous catalyst used in Kabachnik-Fields reaction	RSC Advances: an international journal to further the chemical sciences	DA SILVA, CAREN DANIELE GALEANO ; OLIVEIRA, ALINE R ; ROCHA, MARIANA POMPILIO DARBEM ; KATLA, RAMESH ; BOTERO, ERITON ; DA SILVA, ÉRICA CRISTINA ; DOMINGUES, NELSON LUÍS CAMPOS	B2	
artigoEmPeriodico	Nelson Luís de Campos Domingues	2016	http://dx.doi.org/10.1016/j.tetlet.2016.02.106	Novel multi-component syntheses of pyrimidines using β-CD in aqueous medium	Tetrahedron Letters	RAKHI, CHOWRASIA ; RAMESH, KATLA ; DARBEM, MARIANA P. ; BRANQUINHO, TABATA A. ; OLIVEIRA, A. R. ; MANJARI, PADMA SUNITHA ; DOMINGUES, N. L. C.	A2	
artigoEmPeriodico	Nelson Luís de Campos Domingues	2016	http://dx.doi.org/10.1039/c5ra26324g	A novel and efficient methodology for thio-Michael addition in the synthesis of cis-β-thio-α-aminoacid derivatives using Zn[( <scp>l</scp> )-Pro] <sub>2</sub> as heterogeneous catalyst	RSC Advances	DARBEM, M. P. ; OLIVEIRA, A. R. ; ALBUQUERQUE, T. B. ; DA SILVA, C. D. G. ; KATLA, R. ; DOMINGUES, N. L. C.	B2	
artigoEmPeriodico	Nelson Luís de Campos Domingues	2016	http://dx.doi.org/10.1039/C6RA08335H	β-Cyclodextrin as a recyclable catalyst: aqueous phase one-pot four-component synthesis of polyfunctionalized pyrroles	RSC Advances: an international journal to further the chemical sciences	KONKALA, KARNAKAR ; CHOWRASIA, RAKHI ; MANJARI, PADMA S. ; Domingues, Nelson L. C. ; KATLA, RAMESH	B2	
artigoEmPeriodico	Nelson Luís de Campos Domingues	2016	http://dx.doi.org/10.1002/chin.201621121	ChemInform Abstract: A Novel and Efficient Methodology for Thio-Michael Addition in the Synthesis of cis-β-Thio-α-aminoacid Derivatives Using Zn[(L)-Pro] as Heterogeneous Catalyst.	ChemInform	ROCHA, M. P. D. ; OLIVEIRA, A. R. ; ALBUQUERQUE, T. B. ; DA SILVA, C. D. G. ; KATLA, R. ; DOMINGUES, N. L. C.	Qualis nao identificado	ChemInform
artigoEmPeriodico	Nelson Luís de Campos Domingues	2016	http://dx.doi.org/10.1002/chin.201631192	ChemInform Abstract: Novel Multi-Component Syntheses of Pyrimidines Using β-CD in Aqueous Medium.	ChemInform	RAKHI, CHOWRASIA ; RAMESH, KATLA ; DARBEM, MARIANA P. ; BRANQUINHO, TABATA A. ; DE OLIVEIRA, ALINE RUFINO ; MANJARI, PADMA SUNITHA ; DOMINGUES, NELSON LUIS C.	Qualis nao identificado	ChemInform
artigoEmPeriodico	Nelson Luís de Campos Domingues	2016		One-step Electrochemical Synthesis of Polyaniline/Metallic Oxide Nanoparticle (γ-Fe2O3) Thin Film	International Journal of Electrochemical Science	SILVA, C. T. P. ; KUPFER, V. L. ; SILVA, G. R. ; MOISES, M. P. ; TRINDADE, M. A. G. ; DOMINGUES, N.L.C. ; RINALD, A. W.	A2	
artigoEmPeriodico	Nelson Luís de Campos Domingues	2016	http://dx.doi.org/10.1055/s-0036-1588065	Zinc Di(l-prolinate)-Mediated Synthesis of α-Aminophosphonates under Mild Conditions	Synthesis (Stuttgart)	DE OLIVEIRA, ALINE ; KATLA, RAMESH ; ROCHA, MARIANA ; ALBUQUERQUE, TÁBATA ; DA SILVA, CAREN ; KUPFER, VICENTE ; RINALDI, ANDRELSON ; DOMINGUES, NELSON	A2	
artigoEmPeriodico	Nelson Luís de Campos Domingues	2016		Polyaniline doped folic acid with morphologic like-plates and high crystallinity, synthesis and characterization	International Journal of Innovative Science, Engineering & Technology	KUPFER, V. L. ; SILVA, C. T. P. ; DOMINGUES, N.L.C. ; MOISES, M. P. ; RINALD, A. W.	Qualis nao identificado	International Journal of Innovative Science, Engineering & Technology
artigoEmPeriodico	Nelson Luís de Campos Domingues	2016	http://dx.doi.org/10.1039/c6nj01723a	[Ce( <scp>l</scp> -Pro) <sub>2</sub> ] <sub>2</sub> (Oxa) as a heterogeneous recyclable catalyst: synthesis of pyrazoles under mild reaction conditions	NEW JOURNAL OF CHEMISTRY	KATLA, RAMESH ; CHOWRASIA, RAKHI ; MANJARI, PADMA S. ; DA SILVA, CAREN D. G. ; DOS SANTOS, BEATRIZ F. ; Domingues, Nelson L. C.	A2	
artigoEmPeriodico	Márcia Regina Russo	2016		Orientações para o mercado: criando vantagens competitivas para piscicultores	Comunicação & Mercado - Revista Internacional de Ciências Sociais Aplicadas da UNIGRAN	Dutra, F. M. ; Mauad ; Russo, Márcia Regina ; Schlindwein, Madalena Maria	B5	
artigoEmPeriodico	Márcia Regina Russo	2016	http://dx.doi.org/10.1007/s12562-016-0999-3	Genetic variability of pure Pseudoplatystoma corruscans and Pseudoplatystoma reticulatum individuals in the Paraná and Paraguay River basins	FISHERIES SCIENCE	VAINI, JUSSARA OLIVEIRA ; DO AMARAL CRISPIM, BRUNO ; DOS SANTOS SILVA, DANIELLY BERALDO ; BENITES, CELSO ; RUSSO, MARCIA REGINA ; GRISOLIA, ALEXÉIA BARUFATTI	B1	
artigoEmPeriodico	Lucas Pizzuti	2016	http://dx.doi.org/10.5935/0103-5053.20160166	Ultrasound-Promoted Synthesis of 3-(Thiophen-2-yl)-4,5-dihydro-1 <i>H</i> -pyrazole-1-carboximidamides and Anticancer Activity Evaluation in Leukemia Cell Lines	Journal of the Brazilian Chemical Society (Impresso)	SANTOS, ERIC F. S. DOS ; CURY, NATHÁLIA M. ; NASCIMENTO, TAINARA A. DO ; RAMINELLI, CRISTIANO ; CASAGRANDE, GLEISON A. ; PEREIRA, CLAUDIO M. P. ; SIMIONATTO, EUCLÉSIO ; YUNES, JOSÉ A. ; Pizzuti, Lucas	A2	
artigoEmPeriodico	Kelly Mari Pires de Oliveira	2016	http://dx.doi.org/10.1016/j.ram.2015.11.005	Genotype, antifungal susceptibility, and biofilm formation of Trichosporon asahii isolated from the urine of hospitalized patients	Revista Argentina de Microbiología	ALMEIDA, ADRIANA ARAÚJO DE ; CRISPIM, BRUNO DO AMARAL ; GRISOLIA, ALEXÉIA BARUFATTI ; SVIDZINSKI, T. I. E. ; ORTOLANI, LAIS GONÇALVEZ ; OLIVEIRA, Kelly Mari Pires de	Qualis nao identificado	Revista Argentina de Microbiología
artigoEmPeriodico	Kelly Mari Pires de Oliveira	2016	http://dx.doi.org/10.1590/0074-02760150400	Novel point mutations in the ERG11 gene in clinical isolates of azole resistant Candida species	Memórias do Instituto Oswaldo Cruz (Online)	SILVA, DANIELLY BERALDO DOS SANTOS ; RODRIGUES, LUANA MIRELI CARBONERA ; ALMEIDA, ADRIANA ARAÚJO DE ; OLIVEIRA, KELLY MARI PIRES DE ; GRISOLIA/, ALEXÉIA BARUFATTI	A2	
artigoEmPeriodico	Kelly Mari Pires de Oliveira	2016	http://dx.doi.org/10.1016/j.anifeedsci.2016.02.020	Chitosan improves the chemical composition, microbiological quality, and aerobic stability of sugarcane silage	Animal Feed Science and Technology (Print)	GANDRA, J.R. ; OLIVEIRA, E.R. ; TAKIYA, C.S. ; GOES, R.H.T.B. ; PAIVA, P.G. ; OLIVEIRA, K.M.P. ; GANDRA, E.R.S. ; ORBACH, N.D. ; HARAKI, H.M.C.	A2	
artigoEmPeriodico	Kelly Mari Pires de Oliveira	2016	http://dx.doi.org/10.3390/ijerph13101036	Depth and Well Type Related to Groundwater Microbiological Contamination	International Journal of Environmental Research and Public Health	MARAN, NAYARA ; CRISPIM, BRUNO ; IAHNN, STEPHANIE ; ARAÚJO, RENATA ; GRISOLIA, ALEXEIA ; OLIVEIRA, KELLY	B1	
artigoEmPeriodico	Kelly Mari Pires de Oliveira	2016	http://dx.doi.org/10.1080/09712119.2016.1249874	Inoculation of <i>Lactobacillus buchneri</i> alone or with <i>Bacillus subtilis</i> and total losses, aerobic stability, and microbiological quality of sunflower silage	Journal of Applied Animal Research	GANDRA, JEFFERSON RODRIGUES ; OLIVEIRA, EUCLIDES REUTER ; GANDRA, ERIKA ROSENDO DE SENA ; TAKIYA, CAIO SEITI ; GOES, RAFAEL HENRIQUE TONISSI BUSCHINELI ; OLIVEIRA, KELLY MARI PIRES ; SILVEIRA, KARINA ANDRADE ; ARAKI, HAYNE MAYUME CARIOLANO ; ORBACH, NATYARO DUAN ; VASQUEZ, DALILA NARA	B2	
artigoEmPeriodico	Kelly Mari Pires de Oliveira	2016	http://dx.doi.org/10.5897/ajb2016.15295	Genetic determinants of antifungal resistance in Candida species	African Journal of Biotechnology	DANIELLY, BERALDO DOS SANTOS SILVA ; ALEXÉIA, BARUFATTI GRISOLIA ; KELLY, MARI PIRES DE OLIVEIRA	B2	
artigoEmPeriodico	Kelly Mari Pires de Oliveira	2016	http://dx.doi.org/10.1590/1678-4685-gmb-2015-0223	Genotoxic and mutagenic effects of polluted surface water in the midwestern region of Brazil using animal and plant bioassays	Genetics and Molecular Biology (online version)	DOURADO, PRISCILA LEOCÁDIA ROSA ; ROCHA, MONYQUE PALAGANO DA ; ROVEDA, LIRIANA MARA ; RAPOSO JUNIOR, JORGE LUIZ ; CÂNDIDO, LILIAM SÍLVIA ; CARDOSO, CLAUDIA ANDRÉA LIMA ; MORALES, MARIA APARECIDA MARIN ; OLIVEIRA, KELLY MARI PIRES DE ; GRISOLIA, ALEXEIA BARUFATTI	Qualis nao identificado	Genetics and Molecular Biology (online version)
artigoEmPeriodico	Kelly Cristina da Silva Brabes	2016		Coprodutos de Crambe (Crambe abyssinica Hoechst) na alimentação de ruminantes	Archivos de Zootecnia (Internet)	GOES, R. H. T. B. ; YOSHIHARA, M. M. ; BRABES, K. C. S. ; LANA, R. P.	B3	
artigoEmPeriodico	Kelly Cristina da Silva Brabes	2016	http://dx.doi.org/10.18593/eba.v15i2.8528	REMOÇÃO DE COBRE POR BIOMASSA DE ENTEROCOCCUS FAECALIS E SALMONELLA ENTERICA SOROVAR ENTERITIDIS EM SOLUÇÃO AQUOSA	Evidëncia Interdisciplinar	TEODOSIO, T. K.C. ; BRABES, K. C. S. ; SILVA, F.G. ; PAULA, S. M. ; FORTUNATO, F. M. ; RECH, C. R. ; GOES, R. H. T. B.	Qualis nao identificado	Evidëncia Interdisciplinar
artigoEmPeriodico	Kelly Cristina da Silva Brabes	2016	http://dx.doi.org/10.18593/eba.v16i2.12814	Adesão e formação de biofilme de Escherichia Coli em poli(tereftalato de etileno) e resistência a sanificantes	Evidëncia Interdisciplinar	RECH, C. R. ; BRABES, K. C. S. ; GOES, R. H. T. B. ; ALIATTI, L. N. S. ; SILVA, K. E. ; ORTOLANI, L. G. ; NEGRAO, F. J.	Qualis nao identificado	Evidëncia Interdisciplinar
artigoEmPeriodico	Gustavo Graciano Fonseca	2016	http://dx.doi.org/10.1177/1082013215618519	Predicting bacterial growth in raw, salted and cooked chicken breasts during storage	Food Science and Technology International	GALARZ, L. A. ; FONSECA, G. G. ; PRENTICE, C.	Qualis nao identificado	Food Science and Technology International
artigoEmPeriodico	Gustavo Graciano Fonseca	2016	http://dx.doi.org/10.1556/066.2016.0007	Effect of washing cycles on the quality of surimi-like material obtained from mechanically deboned chicken meat	Acta Alimentaria	CORTEZ-VEGA, W. R. ; FONSECA, G. G. ; ZANETTE, B. ; PRENTICE, C.	Qualis nao identificado	Acta Alimentaria
artigoEmPeriodico	Gustavo Graciano Fonseca	2016	http://dx.doi.org/10.1016/j.fbio.2016.06.003	Quality assessment of Nile tilapia and hybrid sorubim oils during storage at low temperature	Food Bioscience	MENEGAZZO, M. L. ; PETENUCCI, M. E. ; FONSECA, G. G.	Qualis nao identificado	Food Bioscience
artigoEmPeriodico	Gustavo Graciano Fonseca	2016	http://dx.doi.org/10.1590/0103-9016-2015-0196	Growth of Burkholderia sacchari LFM 101 cultivated in glucose, sucrose and glycerol at different temperatures	Scientia Agricola	NASCIMENTO, V. M. ; DA SILVA, L. F. ; GOMEZ, J. G. C. ; FONSECA, G. G.	Qualis nao identificado	Scientia Agricola
artigoEmPeriodico	Gustavo Graciano Fonseca	2016	http://dx.doi.org/10.3856/vol44-issue4-fulltext-3	Alkali process for chitin extraction and chitosan production from Nile tilapia (Oreochromis niloticus) scales	Latin American Journal of Aquatic Research	ALCALDE, L. B. ; FONSECA, G. G.	B1	
artigoEmPeriodico	Gustavo Graciano Fonseca	2016	http://dx.doi.org/10.5897/AJB2015.15025	Production and characterization of β-glucosidase obtained from Gongronella butleri by solid-state fermentation	African Journal of Biotechnology	SANTOS, F. R. S. ; GARCIA, N. F. L. ; DA PAZ, M. F. ; FONSECA, G. G. ; LEITE, R. S. R.	B2	
artigoEmPeriodico	Gustavo Graciano Fonseca	2016	http://dx.doi.org/10.1007/s10068-016-0195-3	Brazilian savannah fruits: characteristics, properties and potential applications	Food Science and Biotechnology (Seoul)	SILVA, C. A. A. ; FONSECA, G. G.	Qualis nao identificado	Food Science and Biotechnology (Seoul)
artigoEmPeriodico	Gustavo Graciano Fonseca	2016	http://dx.doi.org/10.14393/bj-v32n4a2016-32992	Production of xylanase by a new strain of Thermoascus aurantiacus: obtainment of enzymatic extract with reduced cellulolytic activity for application in pulp and paper industries	Bioscience Journal (Online)	COSTA, A. C. ; SCALABRINI, R. P. ; SILVESTRE, M. A. ; RODRIGUES, A. ; DA PAZ, M. F. ; FONSECA, G. G. ; LEITE, R. S. R.	B1	
artigoEmPeriodico	Gustavo Graciano Fonseca	2016	http://dx.doi.org/10.1155/2016/7323875	Production and catalytic properties of amylases from Lichtheimia ramosa and Thermoascus aurantiacus by solid-state fermentation	The Scientific World Journal	DE OLIVEIRA, A. P. A. ; SILVESTRE, M. A. ; GARCIA, N. F. L. ; ALVES-PRADO, H. F. ; RODRIGUES, A. ; DA PAZ, M. F. ; FONSECA, G. G. ; LEITE, R. S. R.	B1	
artigoEmPeriodico	Gleison Antonio Casagrande	2016	http://dx.doi.org/10.5935/0103-5053.20150244	Synthesis and Characterization of Mesoporous Nb <sub>2</sub> O <sub>5</sub> and Its Application for Photocatalytic Degradation of the Herbicide Methylviologen	Journal of the Brazilian Chemical Society (Impresso)	CASTRO, DOUCLASSE C. ; CAVALCANTE, RODRIGO P. ; JORGE, JULIANA ; MARTINES, MARCO A. U. ; OLIVEIRA, LINCOLN C. S. ; CASAGRANDE, GLEISON A. ; MACHULEK JR., AMILCAR	A2	
artigoEmPeriodico	Gleison Antonio Casagrande	2016	http://dx.doi.org/10.1021/acs.jpca.6b08158	Uncommon and Emissive {[Au <sub>2</sub> (C <sub>3</sub> H <sub>6</sub> NS <sub>2</sub> ) <sub>2</sub> ][Au(C <sub>3</sub> H <sub>6</sub> NS <sub>2</sub> ) <sub>2</sub> ] <sub>2</sub> (PF <sub>6</sub> ) <sub>2</sub> }, Mixed Au <sup>+</sup> and	JOURNAL OF PHYSICAL CHEMISTRY A	LANGARO, ANA PAULA ; SOUZA, ANA KELY RUFINO ; MORASSUTI, CLAUDIO YAMAMOTO ; LIMA, SANDRO MARCIO ; CASAGRANDE, GLEISON ANTÔNIO ; DEFLON, VICTOR MARCELO ; NUNES, LUIZ ANTÔNIO DE OLIVEIRA ; DA CUNHA ANDRADE, LUIS HUMBERTO	A2	
