5021896601537759
3873096213254117
6285271271614642
1574189106519399
1924505545963615
6263913436052996
5871450786138209
7281502829497907
9511610526352732
7723002210560216
5471186097313199
6112940247306533
9935874859230938
2050956253344646
7710423406117971
0602366791089542
9087455777039203
6525166008287891
8929335834343644
7753088798534086
2117938152115439
9004717434926361
5348159471916227
1194804661615642
0851790424896872
6353037041684983
9826678072509092
8231237935065420
4733812873841340
2986951409152294
5493911035968207
8635639989103523
9933939386282163
7987513983124155
9737601307590395
9886663456037911
6465632529786995
5953911954107531
4235820262115685
9506359105370351
6309628260124672
2951486088322705
1932903651161090
0456341463142407
8160175045871230
6386590636821784
3463437633598530
9128216674908032
0295736592288682
3425631891607984
8258852785816571
3643412386020068
9678319169756511
7943860183887875
2106823079702838
0141389002346917
1999677051415460
3684061144624450
9614045261808439
5361536023649054
2554895071324526
0889344335751657
4822835396403201
9225824773867864
1669263173728452
3352853600100806
2694433318019995
0199138175010906
7049984394958049
5719489765924800
6494551464509082
1491511220538716
2653808954504335
7824754905853339
8001639462722882
2986600638202040
0533712437656226
1696460650494488
8412639625435897
1173241230581569
6861243621820410
9848837239600832
9265289470863720
4358529691623395
6997012574974495
8393302442560429
7172722968498112
9646044365747124
4613214883790804
8960509340577917
4123134249884188
1203216005509703
5090506811038952
4363386591250890
6583995948000666
4072104328787799
2986913790403614
3223444770647940
8040688415669209
8225369113239800
0743738436315693
8689906419107750
6477056816748957
1984943218762134
4603818882799252
7600718608296628
8995462328389222
8189377978163078
9618155520050229
6433323359526431
6186227990820987
3866448959097785
1026494146689529
9455184501124102
5445635478821037
0936840979336337
5957014871112551
1458869581195037
9390272466109631
1917799730358847
3573832021776235
0601909043407797
1943435717710592
9410182642792577
9723975125785156
8066660068004635
5642583841503466
4924779754338613
4330283027911306
9619899895952076
5006506741939894
2748265956047210
3828444862125744
3679393488838513
0056137103805108
7708361397392579
6176596691478234
2014090231138686
6685620485747756
9192216402913777
8886485096957731
8712052461153621
0039779933104797
2116057094542989
2117283008860446
2571689584242906
7717468576800646
5093103617210826
6845350710072383
7688490681969054
7534595274780129
6240819862328072
5121172520388306
9658157411193877
8690409469949449
1943766816086630
3054920990953723
1592443578418038
1162698189610859
6144037879448935
2150241303883701
3877257390889622
5515724706970208
1309333171077225
0655143237177849
0483198547587173
3817490429933738
8708667852754164
0112830078679808
3426240653398672
0389500361234976
4055812149930289
8801492560768204
2954077742182765
4312580095846016
5358745208694000
6117292818608214
6681100011672621
0209690816085255
8572132339129140
2972292333533764
4028187628948519
8917846767192445
4196104133376187
9255125908754891
9198226187915952
7412133576698491
1786831156933368
8620336784341898
2718339024760598
2146971011383299
6045766440369156
4001560889612017
3757174655007805
1606486131347538
6575240213728426
7779517020145519
7683383967227878
7717527682288851
0917569976936641
3422017375904535
3358750576726754
6718364433910096
4351421914922353
0361994058120484
2701186770270693
3463780553418311
5236828964074565
4821646754239308
4123457022230980
6733823642666709
8678853721350456
9084888915927040
6614534736099599
4506852835379694
4378291522202973
2491891766759477
0958494266308297
7345013396840401
3289227393095505
4516503517228362
1651037520672825
4757939807307809
1666528889436194
0421004911532413
0278249043333310
8685252141596572
7204930940034076
3837295705075553
5218097637460521
0137268060183092
6953830262415282
9788577794623417
0279848656396836
0777127477216804
3142292285628321
7027049700492629
4322824439126066
0971141485464617
4260250499463086
0786639620970719
1873273228834886
7017031102950664
6458576665876588
9252848726754227
5067159010974686
2475571058097556
4193216159815328
6727939252469582
6942766054577651
9021997952686283
2978061229980647
9083515583020131
5892026758339849
8129567709105165
9417286617377998
3933815330085470
0107770482193515
8883247290591042
5190792343758195
3893767923299029
7651318975900322
7055367374287185
7426037066308934
8328548533414301
4335535576284062
0790611574530150
1271310770528318
9191861008607547
5662011229583341
6256521981187454
6176075060369699
3664047635537047
9966072704077985
8009980631592617
0565954364256394
1982840057506665
4368425859788159
6720054910868457
9029908641793009
1054028764485947
2740188682004501
3924551926663241
2432911028406042
4794107935753176
3579570829993136
7160941037664622
2053961346015911
7243757837987821
9663288606931058
7531722640128367
2991207937196951
3731484393165227
6993919715946523
7760768771946708
4691742972293434
7616759244969232
8052545929389304
0149265487546290
6402224694785111
3211661509733025
3938456484474502
7195421007144768
1838745361305716
8354431206198637
3999906343439940
4608525364653692
9690956564589522
1797903781412894
2011734818180394
5417990503233276
8718680749458041
7221866306191176
2598342833914463
8967680931359334
3988154090024894
9966205713012870
0719942185454937
4302400907230914
7324408194397573
2705457149856227
8589035569330518
9335507322219326
8349333127597965
2123218264214406
0405965068667194
3099133453064659
3710615946605113
0132851760055322
2830878145479718
9220155250600700
5246542650831559
7504911408056066
5389004205388528
7180314746679586
2785185585712284
8506898115042528
8567946929078200
5408802267192428
