1502138641299351
8933486815278318
9664517450181586
3849621156092026
6591634765844259
3901112943859155
6193456439313050
5734485352811217
2954974124975239
9841089733114408
1889835702709496
1952937182023132
0766710881380595
5146026894831823
3620084512865554
0972767522303368
9361463429150328
0477653233866226
6726578534593471
8288813274840225
6952076109453197
6412713158883137
7258266163150929
2949452791604297
1067410443144841
0841529365546378
4795833304329411
5303741272174486
9782304752361489
9063837162469343
1434914304135873
2164070286718846
8783652264979787
0330404956176068
9114271184052580
5691479916671207
0796077542730627
2649682752971837
6741026914548492
1544337636877826
3457219624656691
6716935024612433
2996761672324963
5465249419038855
6679069461879682
8098209307634371
5208825389290225
0025397757669178
0782781159741316
3234638489546052
7043427778319136
8722419792895502
8065943259893425
0678240689784500
0633348411744925
9337611912907437
1526943943798897
0375745110240885
4912069169978630
2020489905881170
4054756781423727
5269298101779710
4441832944622649
0499371559634542
9851093795076823
3065499109746618
0786281388331891
1244864273082144
3313361232260092
1567439670328164
0799282373201889
2665316828133413
4836087197996977
2492316971242051
7195981513707548
4562242525067066
1368307471620569
8033308621259895
9274242771803008
3825141200905886
3065825247653561
6666343016612839
0977461820240190
5935862634033333
1317099229049765
8655277884027052
0867916304709303
1430772154904124
8734154544517251
0845486662407480
2653251442521015
9904720659167854
5988455539579567
7170508510503648
9314029648579658
9148354106985023
5739919832448051
3165736954373606
4314291896470987
6751596179638247
8469752874332453
1551165098428375
0414695749945676
2033440491654375
4892345821929149
8539946335852637
9431229866203038
1562357566810393
3964855224223946
7352787554955213
1918102947431644
0147241723612464
8192181995948006
1031286292970130
5160468353414800
2977426952663242
5430743250788435
1428648929960914
4978298159144069
3180050977866785
5684868453274550
2642283981543023
2247824695165393
7692378777904673
2050094723109880
7124735512033113
8285211326914673
7888191553838017
9476240387217710
0281123427918307
7913813209624175
1373735074676560
5414021123677904
4911535975540985
0141526644382006
3341287910165035
0140603292412192
9429712259649346
3434344864605631
3063286948462548
3999244714136372
6866427865359577
2774352404442002
5780605960882815
2440193189134197
9290377958337415
8326803963394077
6303601820315662
9573745078420414
4364303980383808
8947404747661582
3336105307698769
8624647938935556
8764728978783752
3999178670179183
8400994037688251
9393006603341915
0240366481334611
7211347079163537
3628251084411416
8479967495464590
8028103771845084
1268859650338952
4206776395589771
0438768303258021
5262481676487464
0618019784051392
8835175335556370
6703453792017497
4978912302419377
7992589011048146
9055052467152337
2239124958673322
0199598825670421
5727472788265998
6613941431352859
0862910163544421
4467673599736736
2615852310948790
9733825863468286
9510131226367723
4684516083583964
5040549066994395
9033828541812842
2306422105598803
7769547194874833
1104157433492666
6161165744422395
0145449984395405
0873439630646612
8413464882207319
7107831728330169
9067991933812274
3909059819593169
9412354229802414
2655400404187365
7878437620254155
1758306905062349
7635170597670838
6142558410927273
1919476939365880
9620039738297377
8344194525615133
2681764714202916
6760404426360125
5368167403557640
0773938476489625
0746723828973671
0782333764868447
0608610801574202
3049305364755185
7587208482384059
6773795080923981
4891962642648106
4896054241001552
3022893538527155
8286574680214346
7499507695620791
9690116209410158
9438292906838128
1395011101909132
9516359108766806
9629521908430192
5515247461567730
3518240071127311
4521273816691090
6071679698220634
1804113168958443
5337477770035604
9628405562792982
0579862527151543
1426401706315442
3286329883412205
2602693368706804
5352197007462490
1217083860799906
7782263696313205
9097210770224776
9127577198387019
3313228698942279
9770406908381251
0076262147717873
4715497489782023
1250894737326638
4614096538855002
2635230214339489
9591256136167135
0445056847380583
8784194177226750
2919125967043242
8989178759075946
8056075455762617
6801813581350104
8654564549713360
6731656353508097
5523810187385217
0303424888121512
0302011461580302
9983787708956101
5515113064894088
3519989612857544
1608252203113404
1466872737273786
6659754657838630
5880574234582289
5169726739148918
8696345688590441
8091525593128859
8366953938754943
5799445358880614
0476874894078044
4867559397277885
5494459022670775
1594178745652301
6915598677957161
8669778446107111
4547599222509476
3308129552342670
5788034885236304
7599769001608407
5418167513353556
8965627710203749
0914909174927158
2108610009253601
4106501742366900
4781430799596686
8543182790642045
8203775174455802
6041333024387123
5626018595035359
8633775775597854
2690140004644310
6653435398940498
4989251399905728
6375174844597170
1222031296614241
7261961344060120
9745688969683114
3017780711209817
4587299173539062
2448703093928632
0261398635068045
3957046121364560
2643343086905955
2442222113179954
4051715413516360
8964777078079065
2928337977271449
0306766365983082
0852675456496193
3353438117804110
4199550999504047
3295861014314623
6729022084588397
5673401428259684
0224643692268532
9237788190989316
5572966311674460
1454907350838588
4813399912998401
1391205251405727
9576713124661835
3013331555218608
0535860239259102
9873289111461387
0161357943312722
7285935215651168
0449065050711592
0667177097860905
6884752652014503
7907995968521717
9273702863744424
8005271233631373
7733681743453751
6578561643549007
1787052168477889
7119339879822656
3478619290942785
6376119804316926
6195206069434643
5738924685562763
7048562768564976
5138848008740842
9497339561603210
8602778120667424
2191253156772498
7437960869064034
4328895798776289
7810448756307437
9764759048676848
9765661055363149
4300428169390988
6171377086970879
6418711808050575
7988128497801929
9544012170696862
8690476306517703
1420784392366957
7051998554981575
0482551013400931
1609339438630667
6003001459902104
0072105804700303
1264314358130221
0772276875028870
1776178350383685
6402361744624287
8588117212005149
3588808346839803
9287868588025316
7678939270981938
2775721805487513
9442205438741869
2645692355333837
5930601059782342
6685666727183074
1657751485128138
3930103224694130
0362031557270988
5144797474156835
9867098936588976
6903653527541008
0957641516282703
3330385596576917
0349635170206363
6470299151910215
3527197809276361
7401763825809473
2760365106389435
0387264889300859
3656759928090726
5464243969092412
0063119667740811
3521570166594082
7292694995543789
0532534457500744
0765423133125301
1554954938519345
7463531453177857
3435860269541415
5484363129827679
0556459512101837
3840136837604577
5646449640720212
3580230138760350
6056115800707743
7909759511116502
7154170979832540
5898851138882202
8738517383983971
7489426320194892
2703716951709834
6560372925252581
0729250809746519
8391182235603982
1309058279089528
8102993969523532
5545006407615789
0314977130631834
3621433615334969
4497712713563269
4791589931798048
2487554612123446
3368963103216056
6155834182158850
9977099133155219
9284126508113561
1421714746609156
7690535205003366
2888284059115401
4448656240961492
2092542526171253
8265750834533915
6039007393332552
6225536299087624
0638551133292550
8986131359719132
8176774221939118
7508818344636344
0502304950499185
4148145822928884
1780902767520967
1870389730408675
7584415865388877
5993206780402683
1999072996132654
2782262776744934
8742778337409951
7097199666581871
7313863253044500
9371475697752743
2204838386112530
3278315914566734
1198809977746222
6416026825539227
7951573839777190
0648767431075703
6098584227057971
4493510538015086
5513750652702077
7990510248890262
1127775073652502
6932171005996406
9842045866304955
9037349417947599
4617177485933795
7024428296425939
8069461151838819
6740541529985490
0675202049455102
9666011714312528
9244470838368750
5468165374521935
7158804702093583
7648531304990634
1510181944435970
4936583790973623
8462865850328344
7691435842544668
9617352934964079
7085832229021609
0391036221142471
0328320510802936
1030441165416875
4992303457891284
4230309177760883
0074157524720114
8844184831413061
8871521490245734
5291232352923880
7437890505918073
2847901878340953
8631377461639583
3948365997346312
8789832112362433
1912495007276429
4491637152133117
5799700325728628
4485209823374151
1359318719215647
7606159905559544
1038204347679930
5399601756512708
0984985253008832
6822818320533230
6505039023842313
2083738229023148
4475898606860245
5111954268138343
0898459356361957
9413102524215939
9300734296482577
1245060231128858
5967094911448212
9663860620578411
3810578063856112
3232663071892028
6462801566642820
7452085194074257
6205237718663769
7255809491766061
4895449393754370
1205904417327258
5029704662813380
2956577623367895
3614256141054800
1765239890846505
6673221663253301
6306925202374274
6681745756067754
1242029973952667
1818132803779574
4075599230747721
5882024148867913
5180357297508178
4863524769720980
6829166075411185
6154630512714298
1364246301366731
6350408648382719
4036812106816798
5893145382848301
3059520185406581
6739382009609796
2047682207752590
5057429709988793
9126594381315575
9711646725506261
5862054444753494
9571488360812994
4855123625274479
3987413150425325
7796654028353519
3124967856521533
3197567314339012
1310951746056442
0379304660057174
1316388357541014
1776802452676832
4423211276066958
6568615406054840
2714174059462444
0980354526714789
5817549281617240
1345781867765758
4044140234487269
4493251534074515
2317714197108593
2685611774299201
8854891343941445
5219013163859829
3179203995601607
7259019020556162
4724587084058185
3059640410928425
3555343191187669
0345205615498048
1660272156108142
1441035148021341
9733821952821123
9324908747974694
3286484736021635
4845377498539675
5654886463998722
0269185890336505
4126245980112687
4283222687119700
9331105406437396
6681044486435612
2029610058780121
7951181379066003
1156543919228561
7642821457583569
2721383036978223
0637047961935130
0577264623261591
2794787515992360
4523146149039281
3675336131283739
3146861523287567
5415588200464028
8563300741747234
9002458349761723
1840336983035010
2938728391656955
1369155486522090
4462407232591810
6015296351834065
4933326132948063
1750344103498728
4314185263789713
5779405156032697
5417946704251656
7810980300080088
6367898296490223
3499805313903632
1744732999336375
3708867677533851
0472856771871140
0240551533292579
9180383172692142
2413654264944712
6034625575894077
6460447408144781
9724267045258506
1094010925673223
1512717941866097
2825302557451331
0765775965717248
6622056669388049
6495240035306074
6364315440256373
5662236053412043
3752951275341381
3846734154805826
5801731850423324
6593994541517752
2408991231058279
0863235666906811
1785344627828434
0102304704866472
5526157764669757
8384020879567133
4809059416256700
5740730335615254
8206374630458325
3566465649283245
3618880346341951
9326612378477162
0400232298849115
9139864964082175
6493669115018157
0659658820912418
1446664587151293
1352553431031800
4682380099012723
5784860269030800
8284580324684873
4283350686994582
8756015642728760
3979422947508845
4414741541160361
5956779016222823
1168899390311014
4535006890816942
0134821761458628
1512846862093142
8042108246632060
0236607123089481
1083882171718362
1895363475472183
0255706182014993
4232674785241580
5002805060871446
5563005313453351
3424738566927659
0635728154206559
7092237172958550
1001123283546693
5725634441963180
2194275113941232
6897535454515744
3040587602966600
5961787800063233
5545573175433155
3074561832181610
1311370215854355
5554254760869075
9237713158265249
9386531289414122
1071813211114795
6983900937588878
0445175438636547
4938539128668745
8377190526783442
0331228247415761
8976612631694154
6731029375224939
9799870668339275
0889836672240029
2517619300805032
9092587237114334
6514216871020126
4005250095700054
0548722142838024
2930421117873633
1735653164303041
0250677650480495
4753405406672005
8968483294142013
2442370756511218
2893590409825756
7328532865816639
1640275970796898
2275715255949627
1989532473555107
8213451299212366
5240953716240752
8841487917492985
8931042370763809
3166390632199101
3560043866071058
8485518379872133
9611085514156033
2617255329907952
5323656776368573
0339563377891347
4935502090253182
5844387897022362
2349565177200719
8491359374260645
1868960602254610
3258139133769440
7884742100487918
0629632059435640
9706698440837227
5392910272967044
7451071734024975
4815765372448868
4027612512091565
4159064013252958
4461273355568982
9362686215096702
2213128430343323
3464270581374578
9002981704526120
3930398620219166
5914703519900890
6806598641626508
6155406360585316
4343491423219191
2537490017420916
4448540530244733
4131598044295232
9927883804998978
5131787064674647
9385509211797941
6740018257272418
8270014489610530
9823134082736673
7980977818147974
4797934811107085
8439014682889840
5823972396035608
0430023943323514
2207239537360072
0563743266309480
1471432563506193
2934786440085983
1581389831292219
5415221996976886
5142426481528206
6646150187847665
3114375474778667
3746080400449810
0717161560405537
5257430162524075
3537386106760841
8073126093266658
3793156690673506
9244696980224618
1346430944942436
7342921602652362
4117028031225336
7990893363739709
6878718102770367
2688723320639663
7582420301693448
3540463550673812
0851899214244807
0705172159762950
5702075544399664
5383116062143281
6298155369137456
4592425303792522
7874145744664128
5957855817378897
0565578235542197
5696202906486766
2519031892464448
9037224811267705
7225442251603573
4315802970239162
7693622058319106
3832957669189657
6449468825793021
4224364363630813
8814785068757523
2488757427439903
2118998485216523
1756141205043191
8670475877813913
4678882708966641
7458438355734004
8237569228020224
8814217649491828
9028446484827112
6706768152701754
9001670872618645
0245929146291275
3278939683201568
5948084145440897
7203560719574116
0725110104711268
6093034676563479
5734763044971419
5754302161987633
5952317406741185
6298932858686721
3258218450203612
7262655947864771
3684172713645599
8944108785693149
4962820320879891
7156901797351412
8483553158846730
8879121208352932
3430484825332979
8633527780448962
6461150503718878
3818648301509130
6106028407837734
6880555459012956
5624223025744288
2415477503339630
9715273430967528
5512370737274131
2205756429952082
3902020936480943
7355162785040506
2738024830225716
3533932156878384
8692762060973151
3042838611265870
1197177635324558
9960439005371536
5743580027138953
6825021465498839
5080300601214044
1332033502251284
4802548698016081
3551809247862378
5260296071562621
0233214210411228
0217943114953276
5834088144837137
4056353571302859
4672980608834902
6067936254653853
2145948905740507
5995853841982097
2130649789772469
9165440077266302
4419790523552484
2020028225222869
7088671536375473
6352224173110416
3977660018939385
0868909503278328
2506136880977644
6806470150892387
0753562269819908
7208458410000759
7901653289226815
3195210233978887
4996466305283719
1727283700680766
8158732509142272
8090262178406810
3929307982428264
4598453019812221
5430865261816126
1404973981717481
4206076315201982
6785815250220483
2715907749036866
0365419008458104
9139295220021292
3574512153479295
9805728011856880
6462573027770082
9604023787920401
9568041005753425
7043118782881855
2614410109208787
8555938548955913
4034203772545877
2435395922492566
8954835457951326
2279673418741036
3423133876430218
3844823051682851
7752212981363912
0478976365265699
7543542253155919
2202936662347514
7315592936477868
6806722604010480
2990930430477906
5815669435537933
5313392830234233
2638224574415157
7223174055569374
5212730639831062
5221323023423318
1392335366884977
9456163495439873
6517475992705283
0560633898748135
0648492701951615
6260720066461356
2217360454271947
5059730666564752
0816428114978825
5059412040519915
6723362340874632
8402272715765172
0009856764209323
9030707448549156
3844331833780478
3785829743298988
7444988892131455
9245385923268053
1909030751847592
9897358688381968
7615629482671376
1935320535740139
3821425977868488
5411772670884996
6230100393242856
9945965136609657
3944746730129166
8764848120200293
1353100437268465
1231441107075402
1365354305042854
9313245601695093
1054546991930547
3027543246096713
0268732896111424
3860432957201950
9412203866529126
0147181014156799
2995389213386228
6973225121960746
4532335959404787
7521861928465039
7542477918045216
2980425786626151
3546577463374439
0704312140937009
6676176632132637
6108833643450559
9560715515896160
6688041530466410
1455013887760441
9703745652815543
6605119257045083
7078239396682976
2795789784233976
2265756121721735
1435339422167961
0367983209314852
1183201737914250
4053376466214832
8417542717418294
8133514145411759
1966949412209486
6902095526533812
1045203549961256
9342074717900720
7499752464812345
8164403687403639
5521922960404236
8804161658881787
3801901177718984
7180641812440086
1565296529736448
9950879952262717
7645565922415708
0361340386087300
2332051647489024
3246339978224530
0144266771664749
6162141969245215
5941176305014752
4014747126451200
2019624495480547
1706807998648290
2902996587129971
4697588754974290
8068157900374950
7690593698223418
6124706286821773
8275296252934547
4640239376781828
7379413500942378
5719239270509869
3380997404503593
8130520066599912
0475665247783149
2680033246192868
2188154440681419
0818279157994178
2324159515825927
9790542147867959
5044020487332202
0429854069223563
7231137336910240
2436767709775022
1036495926102983
2409146197825116
1096177930077403
8588446364200356
4451111077660870
8653611969517458
8899693603008522
2034960354513605
4115926760183892
8776731558187203
4812262616160331
0107976161469463
3712860425387198
3034565226116594
2403486526459268
1211745530577271
2593730292429522
4639709157123474
9672291905868428
4568109140874315
2305603694791405
8058577659019910
6440720566226268
1916067210895689
6508590684390942
9240174407071419
6290443043524189
3214369697732376
2148634503833075
9102458241218645
2811137518552447
6683966932442327
1595358007418855
1906825541995385
3104488709288770
5329289392481537
9418134959504901
9518178216296481
0190407106880826
0528303491410251
6035933871944679
1152828531273019
4022950700003347
3016363588505209
3967943593612229
1891431290699925
2856098586980132
5792226822929445
9116789156769599
8409117602121422
0316501273540746
2383628271548614
4736160233231094
5364984237364336
0836060253124103
6188087583954899
8466420403941522
1138435899619849
2594483134828388
4455719041642363
8219100400268467
7360159554169232
9742846935030833
6180692278763854
4558182679877289
9081918642785880
0890781105275757
0576253490550915
9139006650391608
1365164019854533
0329680299677101
1476417303065197
1607735201703873
5120226711617568
6564076531735310
7571175285332350
8568885640687850
7216881240439182
9666248952250316
0885876363788236
2126584242026703
1600341825270034
8501956419094089
3836314257022592
0592949496367500
6103027726578536
0783638562449690
6328119050375466
6541957090000783
0743793296062293
7200733421420566
8597052075790062
7548803678916550
7483132144832976
9126339190151859
2951081353357019
1931705823399086
5221411611376051
2318727424326430
5202659839610099
9998509212446471
5100268330307846
5106492431042243
3493008299833153
5895202268828302
6534637358360971
7642043789034070
7688185162095376
9359015204938277
1872412327852457
2770691272825932
8108799877914998
0281964286254768
2203695060210682
3845871587126102
3757366680923759
0426466322841884
2737440276643814
9160636888194537
6257794694839685
6078619143736511
9499240304137351
0502746970020589
7604085247456598
5535357056318761
9929058032069235
2912091370430047
6352083877939941
7146190621509331
0791925989169133
7618571401128973
4484563500611177
9411400439288461
4555607446967138
0672703814158202
7141334078011152
3048153332110327
1516520351069806
8005995150161965
5163213519401067
2516946694670146
8989199088323836
5229442671399164
1190292525097613
5779411613656511
5908699791494075
9168076145089862
4360168226365314
0774150631070441
2699190136695057
2393608002037775
1246776718921674
6779801627283587
2605062132611045
3491513954357544
3230407293699070
6238654594421708
9774751756469078
8739431159426389
6681063682470951
