ID_Lattes|MATRICULA|NOME|CH|mail|LP_1|PROGRAMA_1|CATEG_1|Periodo_Inicio_1|Periodo_Fim_1|Resp_prog|Resp_LP1
K4757494T2|99999|EVERSON DO PRADO BANCZEK|40|UEM@UEM.br|BE|BE|P|2013|2016|BE|BE
K4791875D8|99999|EMERSON MEYER|40|UEM@UEM.br|BE|BE|P|2013|2016||
K4787905Z6|99999|GISELLA MARIA ZANIN|40|UEM@UEM.br|BE|BE|P|2013|2016||
K8469682A1|99999|GILMARA DE OLIVEIRA MACHADO|40|UEM@UEM.br|BE|BE|P|2013|2016||
K4785740H0|99999|CRISTIANE DE CONTI MEDINA|40|UEM@UEM.br|BE|BE|P|2013|2016||
K4184509H5|99999|CESAR DE CASTRO|40|UEM@UEM.br|BE|BE|P|2013|2016||
K4798404U1|99999|CASSIO EGIDIO CAVENAGHI PRETE|40|UEM@UEM.br|BE|BE|P|2013|2016||
K4796229E7|99999|CARLOS ROBERTO SANQUETTA|40|UEM@UEM.br|BE|BE|P|2013|2016||
K4758812E2|99999|CARLOS EDUARDO BORBA|40|UEM@UEM.br|BE|BE|P|2013|2016||
K4786956E0|99999|EDUARDO DI MAURO|40|UEM@UEM.br|BE|BE|P|2013|2016||
K4728669T4|99999|EDSON PEREZ GUERRA|40|UEM@UEM.br|BE|BE|P|2013|2016||
K4728416Z0|99999|EDSON LAURETO|40|UEM@UEM.br|BE|BE|P|2013|2016||
K4230790P8|99999|EDSON ANTONIO DA SILVA|40|UEM@UEM.br|BE|BE|P|2013|2016||
K4805942J6|99999|LUIZ PEREIRA RAMOS|40|UEM@UEM.br|BE|BE|P|2013|2016||
K4307664H8|99999|LUIZ CLAUDIO GARCIA|40|UEM@UEM.br|BE|BE|P|2013|2016||
K4767560Z6|99999|LUCIANO FARINHA WATZLAWICK|40|UEM@UEM.br|BE|BE|P|2013|2016||
K4790436T6|99999|MARCELO REAL PRADO|40|UEM@UEM.br|BE|BE|P|2013|2016||
K4354484T9|99999|MARCELO FERNANDES VIEIRA|40|UEM@UEM.br|BE|BE|P|2013|2016||
K4702480H7|99999|LEANDRO PAIOLA ALBRECHT|40|UEM@UEM.br|BE|BE|P|2013|2016||
K4798765Z4|99999|JULIANO TADEU VILELA DE RESENDE|40|UEM@UEM.br|BE|BE|P|2013|2016||
K4138955Z8|99999|JONATHAN DIETER|40|UEM@UEM.br|BE|BE|P|2013|2016||
K4757950T4|99999|JOEL GUSTAVO TELEKEN|40|UEM@UEM.br|BE|BE|P|2013|2016||
K4700162E9|99999|IRENE DOMENES ZAPPAROLI|40|UEM@UEM.br|BE|BE|P|2013|2016||
K8564857T1|99999|HELTON JOSE ALVES|40|UEM@UEM.br|BE|BE|P|2013|2016||
K4785424P0|99999|GRACIELA INES BOLZON DE MUNIZ|40|UEM@UEM.br|BE|BE|P|2013|2016||
K4773397J9|99999|WALDIR NAGEL SCHIRMER|40|UEM@UEM.br|BE|BE|P|2013|2016||
K4734712U6|99999|TATIANA RODRIGUES DA SILVA BAUMGARTNER|40|UEM@UEM.br|BE|BE|P|2013|2016||
K4784857J0|99999|SANDRA REGINA MASETTO ANTUNES|40|UEM@UEM.br|BE|BE|P|2013|2016||
K4788124Y1|99999|DIVA DE SOUZA ANDRADE|40|UEM@UEM.br|BE|BE|P|2013|2016||
K4780886A6|99999|DIONISIO BORSATO|40|UEM@UEM.br|BE|BE|P|2013|2016||
K4790591P9|99999|CARMEN LUISA BARBOSA GUEDES|40|UEM@UEM.br|BE|BE|P|2013|2016||
K4708739J8|99999|CYNTHIA BEATRIZ FURSTENBERGER|40|UEM@UEM.br|BE|BE|P|2013|2016||
K4435998J6|99999|CAMILA DA SILVA|40|UEM@UEM.br|BE|BE|P|2013|2016||
K4791532E5|99999|AUGUSTO CELSO ANTUNES|40|UEM@UEM.br|BE|BE|P|2013|2016||
K4784057T4|99999|PEDRO HENRIQUE WEIRICH NETO|40|UEM@UEM.br|BE|BE|P|2013|2016||
K4797454T2|99999|PEDRO AUGUSTO ARROYO|40|UEM@UEM.br|BE|BE|P|2013|2016||
K4791070E2|99999|SAMUEL NELSON MELEGARI DE SOUZA|40|UEM@UEM.br|BE|BE|P|2013|2016||
K4720518H6|99999|RICARDO RALISCH|40|UEM@UEM.br|BE|BE|P|2013|2016||
K4727952H1|99999|RICARDO JOSE FERRACIN|40|UEM@UEM.br|BE|BE|P|2013|2016||
K4701775U3|99999|PAULO ROGERIO PINTO RODRIGUES|40|UEM@UEM.br|BE|BE|P|2013|2016||
K4721960Y0|99999|PAULO HENRIQUE CARAMORI|40|UEM@UEM.br|BE|BE|P|2013|2016||
K4780876Z6|99999|NEHEMIAS CURVELO PEREIRA|40|UEM@UEM.br|BE|BE|P|2013|2016||
K4728666U3|99999|MAURO ANTONIO DA SILVA SA RAVAGNANI|40|UEM@UEM.br|BE|BE|P|2013|2016||
K8089984E5|99999|MARIA LUIZA MACHADO FERNANDES|40|UEM@UEM.br|BE|BE|P|2013|2016||
K4780152D1|99999|MARIA ELENA PAYRET ARRUA|40|UEM@UEM.br|BE|BE|P|2013|2016||
K4794720Z1|99999|MARIA DE FÁTIMA GUIMARAES|40|UEM@UEM.br|BE|BE|P|2013|2016||
