6280703103205032
1882302261569108
6247805873454988
5561482457720983
9089252583772519
9892291082782946
4448350387455509
4505221784644374
5854072268825877
7204534064025448
1697965677198993
1288764472574843
8339793010218033
6615103620821876
1409264122407992
0381402687491195
9739061759678313
7999741482353508
4199377950118224
5009735328331739
3756997395982734
7513217329977595
1123705010561141
