strict graph grafo1 {
	graph [bb="0,0,1246.5,341",
		id=grafo1,
		overlap=False
	];
	node [fontsize=8,
		label="\N",
		shape=rectangle,
		style=filled
	];
	0	 [URL="http://lattes.cnpq.br/0969715025616160",
		color="#17272B",
		fontcolor="#FFFFFF",
		height=0.23611,
		label="Virginia Cielo Rech [10]",
		pos="344,332.5",
		width=1.3333];
	3	 [URL="http://lattes.cnpq.br/7784609477475171",
		color="#17272B",
		fontcolor="#FFFFFF",
		height=0.23611,
		label="Sergio Roberto Mortari [4]",
		pos="301,224.5",
		width=1.4306];
	0 -- 3	 [pos="340.91,323.88 332.97,304.32 311.97,252.54 304.06,233.05"];
	4	 [URL="http://lattes.cnpq.br/0953074420467371",
		color="#17272B",
		fontcolor="#FFFFFF",
		height=0.23611,
		label="Rodrigo de Almeida Vaucher [10]",
		pos="63,278.5",
		width=1.75];
	0 -- 4	 [pos="303.44,323.99 250.09,314.12 156.89,296.87 103.55,287"];
	5	 [URL="http://lattes.cnpq.br/9176719594431835",
		color="#17272B",
		fontcolor="#FFFFFF",
		height=0.23611,
		label="Roberto C. Vianna Santos [6]",
		pos="137,224.5",
		width=1.5417];
	0 -- 5	 [pos="306.82,323.97 278.25,317.16 238.47,305.43 207,287.5 180.48,272.39 155.16,246.04 143.58,233.1"];
	6	 [URL="http://lattes.cnpq.br/9315943331569148",
		color="#17272B",
		fontcolor="#FFFFFF",
		height=0.23611,
		label="Renata Platcheck Raffin [9]",
		pos="221,170.5",
		width=1.4583];
	0 -- 6	 [pos="332.47,323.77 311.07,308.85 265.15,273.95 240,233.5 229.06,215.91 224.03,191.58 222.07,179.28"];
	8	 [URL="http://lattes.cnpq.br/2289911377012512",
		color="#17272B",
		fontcolor="#FFFFFF",
		height=0.23611,
		label="Jussane Rossato [13]",
		pos="539,116.5",
		width=1.1667];
	0 -- 8	 [pos="392.08,324.3 448.97,315.28 537.27,299.57 547,287.5 587.06,237.82 553.82,150.95 542.46,125.02"];
	9	 [URL="http://lattes.cnpq.br/7107334055877180",
		color="#17272B",
		fontcolor="#FFFFFF",
		height=0.23611,
		label="Ivana Zanella da Silva [26]",
		pos="426,62.5",
		width=1.4444];
	0 -- 9	 [pos="382.84,323.98 430.19,314.42 504.96,297.9 513,287.5 569.13,214.88 464.54,101.65 434.01,71.235"];
	13	 [URL="http://lattes.cnpq.br/7506509328482102",
		color="#17272B",
		fontcolor="#FFFFFF",
		height=0.23611,
		label="Luis O. de Sousa Bulhões [1]",
		pos="459,8.5",
		width=1.5417];
	0 -- 13	 [pos="392.25,324.64 448.15,316.24 536.47,301.39 567,287.5 607.94,268.87 647,270.48 647,225.5 647,225.5 647,225.5 647,169.5 647,84.21 533.4,\
34.837 482.81,17.079"];
	14	 [URL="http://lattes.cnpq.br/0573570242395130",
		color="#17272B",
		fontcolor="#FFFFFF",
		height=0.23611,
		label="Liana da Silva Fernandes [4]",
		pos="347,170.5",
		width=1.5139];
	0 -- 14	 [pos="346.7,323.89 352.94,305.35 367.34,256.33 361,215.5 358.96,202.35 353.68,187.75 350.22,179.12"];
	3 -- 6	 [pos="289.2,215.83 273.98,205.94 247.7,188.86 232.59,179.04"];
	3 -- 14	 [pos="307.79,215.83 316.48,206 331.47,189.05 340.18,179.2"];
	4 -- 5	 [pos="73.919,269.83 87.91,260 112.02,243.05 126.04,233.2"];
	4 -- 6	 [pos="61.734,269.97 60.033,257.15 58.611,230.95 72,215.5 95.843,187.98 135.97,177.25 168.58,173.25"];
	4 -- 9	 [pos="60.611,269.89 57.258,257.82 52.37,233.8 60,215.5 86.243,152.55 108.36,138.7 169,107.5 234.21,73.951 319.8,65.242 373.87,63.37"];
	5 -- 6	 [pos="149.39,215.83 165.37,205.94 192.96,188.86 208.83,179.04"];
	6 -- 8	 [pos="266.9,161.99 328.48,151.93 436.97,134.18 496.67,124.42"];
	6 -- 9	 [pos="235.74,161.88 273.57,142.32 373.71,90.536 411.39,71.054"];
	6 -- 13	 [pos="206.41,161.97 186.31,150.6 154.17,128.16 169,107.5 198.75,66.05 347,31.65 419.26,17.041"];
	15	 [URL="http://lattes.cnpq.br/3420684025232526",
		color="#17272B",
		fontcolor="#FFFFFF",
		height=0.23611,
		label="Cristiane Luchese [1]",
		pos="221,116.5",
		width=1.1806];
	6 -- 15	 [pos="221,161.83 221,152 221,135.05 221,125.2"];
	8 -- 9	 [pos="522.33,107.83 500.84,97.939 463.72,80.856 442.37,71.035"];
	8 -- 13	 [pos="533.25,107.88 518.49,88.319 479.4,36.536 464.7,17.054"];
	16	 [URL="http://lattes.cnpq.br/8097034095042937",
		color="#17272B",
		fontcolor="#FFFFFF",
		height=0.23611,
		label="Cláudia Lange dos Santos [4]",
		pos="588,8.5",
		width=1.5417];
	8 -- 16	 [pos="542.52,107.88 551.56,88.319 575.5,36.536 584.51,17.054"];
	9 -- 13	 [pos="430.87,53.827 437.11,43.996 447.86,27.051 454.11,17.204"];
	9 -- 16	 [pos="449.56,53.939 480.27,44.08 533.69,26.934 564.42,17.07"];
	11	 [URL="http://lattes.cnpq.br/4461596175399704",
		color="#17272B",
		fontcolor="#FFFFFF",
		height=0.23611,
		label="Eder Maiquel Simão [2]",
		pos="338,8.5",
		width=1.3056];
	9 -- 11	 [pos="413.02,53.827 396.28,43.939 367.37,26.856 350.75,17.035"];
	1	 [URL="http://lattes.cnpq.br/5753973080634017",
		color="#17272B",
		fontcolor="#FFFFFF",
		height=0.23611,
		label="Solange Cristina da Silva [0]",
		pos="465,332.5",
		width=1.5139];
	2	 [URL="http://lattes.cnpq.br/8537174715205717",
		color="#17272B",
		fontcolor="#FFFFFF",
		height=0.23611,
		label="Solange Binotto Fagan [20]",
		pos="452,278.5",
		width=1.4583];
	2 -- 3	 [pos="430.04,269.94 401.41,260.08 351.62,242.93 322.98,233.07"];
	2 -- 6	 [pos="442.74,269.81 426.9,256.99 393.17,231.09 361,215.5 326.15,198.61 283.33,186.27 254.29,179.02"];
	2 -- 8	 [pos="456.2,269.78 470.93,242.69 520.18,152.11 534.85,125.14"];
	2 -- 9	 [pos="451.07,269.88 447.04,236.68 431.01,104.72 426.94,71.249"];
	2 -- 16	 [pos="463.18,269.95 491.23,250.21 564.21,193.86 590,125.5 604.5,87.055 594.62,36.221 590.01,17.155"];
	7	 [URL="http://lattes.cnpq.br/9578592161597332",
		color="#17272B",
		fontcolor="#FFFFFF",
		height=0.23611,
		label="Patrícia Gomes [0]",
		pos="576,332.5",
		width=1.0694];
	10	 [URL="http://lattes.cnpq.br/0865997296771785",
		color="#17272B",
		fontcolor="#FFFFFF",
		height=0.23611,
		label="Giovani Rubert Librelotto [0]",
		pos="688,332.5",
		width=1.5417];
	12	 [URL="http://lattes.cnpq.br/8515173425020878",
		color="#17272B",
		fontcolor="#FFFFFF",
		height=0.23611,
		label="Luiz C. Rodrigues Junior [0]",
		pos="816,332.5",
		width=1.5139];
	17	 [URL="http://lattes.cnpq.br/3376750892363066",
		color="#17272B",
		fontcolor="#FFFFFF",
		height=0.23611,
		label="Carina Rodrigues Boeck [0]",
		pos="942,332.5",
		width=1.4722];
	18	 [URL="http://lattes.cnpq.br/1692497062116657",
		color="#17272B",
		fontcolor="#FFFFFF",
		height=0.23611,
		label="Antonio G. de Souza Filho [0]",
		pos="1070,332.5",
		width=1.5833];
	19	 [URL="http://lattes.cnpq.br/7478810804464054",
		color="#17272B",
		fontcolor="#FFFFFF",
		height=0.23611,
		label="Aline Ferreira Ourique [0]",
		pos="1196,332.5",
		width=1.4028];
}
