strict graph grafo2 {
	graph [bb="0,0,1195.5,401",
		id=grafo2,
		overlap=False
	];
	node [fontsize=8,
		label="\N",
		shape=rectangle,
		style=filled
	];
	0	 [URL="http://lattes.cnpq.br/0969715025616160",
		color="#17272B",
		fontcolor="#FFFFFF",
		height=0.23611,
		label="Virginia Cielo Rech [10]",
		pos="293,392.5",
		width=1.3333];
	3	 [URL="http://lattes.cnpq.br/7784609477475171",
		color="#17272B",
		fontcolor="#FFFFFF",
		height=0.23611,
		label="Sergio Roberto Mortari [4]",
		pos="333,264.5",
		width=1.4306];
	0 -- 3	 [fontsize=8,
		label=1.0,
		lp="321.5,328.5",
		pos="295.38,384 302.48,361.64 323.43,295.64 330.58,273.12"];
	4	 [URL="http://lattes.cnpq.br/0953074420467371",
		color="#17272B",
		fontcolor="#FFFFFF",
		height=0.23611,
		label="Rodrigo de Almeida Vaucher [10]",
		pos="97,328.5",
		width=1.75];
	0 -- 4	 [fontsize=8,
		label=5.0,
		lp="188.5,360.5",
		pos="254.39,384 233.1,379.46 206.33,373.08 183,365.5 157.91,357.34 129.9,344.98 112.87,337.07"];
	5	 [URL="http://lattes.cnpq.br/9176719594431835",
		color="#17272B",
		fontcolor="#FFFFFF",
		height=0.23611,
		label="Roberto C. Vianna Santos [6]",
		pos="169,264.5",
		width=1.5417];
	0 -- 5	 [fontsize=8,
		label=1.0,
		lp="218.5,328.5",
		pos="271,383.91 260.56,379.6 248.36,373.45 239,365.5 206.22,337.64 181.41,291.08 172.54,273"];
	6	 [URL="http://lattes.cnpq.br/9315943331569148",
		color="#17272B",
		fontcolor="#FFFFFF",
		height=0.23611,
		label="Renata Platcheck Raffin [9]",
		pos="256,200.5",
		width=1.4583];
	0 -- 6	 [fontsize=8,
		label=2.0,
		lp="281.5,296.5",
		pos="291.5,383.82 285.53,353.13 263.41,239.55 257.47,209.07"];
	8	 [URL="http://lattes.cnpq.br/2289911377012512",
		color="#17272B",
		fontcolor="#FFFFFF",
		height=0.23611,
		label="Jussane Rossato [13]",
		pos="546,136.5",
		width=1.1667];
	0 -- 8	 [fontsize=8,
		label=1.0,
		lp="587.5,264.5",
		pos="339.11,383.96 420.71,370.31 582,341.77 582,329.5 582,329.5 582,329.5 582,199.5 582,177.34 564.6,156.02 553.99,145.09"];
	9	 [URL="http://lattes.cnpq.br/7107334055877180",
		color="#17272B",
		fontcolor="#FFFFFF",
		height=0.23611,
		label="Ivana Zanella da Silva [26]",
		pos="447,72.5",
		width=1.4444];
	0 -- 9	 [fontsize=8,
		label=2.0,
		lp="664.5,232.5",
		pos="341.2,384.72 344.18,384.31 347.13,383.9 350,383.5 419.05,373.95 659,399.21 659,329.5 659,329.5 659,329.5 659,135.5 659,102.28 561.9,\
85.629 499.13,78.334"];
	13	 [URL="http://lattes.cnpq.br/7506509328482102",
		color="#17272B",
		fontcolor="#FFFFFF",
		height=0.23611,
		label="Luis O. de Sousa Bulhões [1]",
		pos="175,8.5",
		width=1.5417];
	0 -- 13	 [fontsize=8,
		label=1.0,
		lp="5.5,200.5",
		pos="244.95,391.12 161.82,389.15 0,378.96 0,329.5 0,329.5 0,329.5 0,71.5 0,44.586 74.472,26.402 126.25,17.012"];
	14	 [URL="http://lattes.cnpq.br/0573570242395130",
		color="#17272B",
		fontcolor="#FFFFFF",
		height=0.23611,
		label="Liana da Silva Fernandes [4]",
		pos="393,200.5",
		width=1.5139];
	0 -- 14	 [fontsize=8,
		label=3.0,
		lp="400.5,296.5",
		pos="306.43,383.89 328.59,370.49 372.23,340.4 391,301.5 406.17,270.07 398.75,226.35 394.86,209.01"];
	3 -- 6	 [fontsize=8,
		label=2.0,
		lp="305.5,232.5",
		pos="323.56,255.9 308.78,244 280.34,221.1 265.52,209.16"];
	3 -- 14	 [fontsize=8,
		label=1.0,
		lp="372.5,232.5",
		pos="340.36,255.9 351.87,244 374.03,221.1 385.58,209.16"];
	4 -- 5	 [fontsize=8,
		label=6.0,
		lp="143.5,296.5",
		pos="105.83,319.9 119.65,308 146.24,285.1 160.1,273.16"];
	4 -- 6	 [fontsize=8,
		label=3.0,
		lp="98.5,264.5",
		pos="93.736,319.9 88.214,305.74 78.927,274.99 93,255.5 118.05,220.82 166.23,208.05 203.74,203.53"];
	4 -- 9	 [fontsize=8,
		label=1.0,
		lp="126.5,200.5",
		pos="91.492,319.73 88.325,314.77 84.654,308.06 83,301.5 78.002,281.68 75.907,274.67 83,255.5 95.289,222.28 118.06,175.53 204,127.5 263.98,\
93.976 343.19,81.264 394.61,76.444"];
	5 -- 6	 [fontsize=8,
		label=3.0,
		lp="223.5,232.5",
		pos="179.67,255.9 196.37,244 228.49,221.1 245.24,209.16"];
	6 -- 8	 [fontsize=8,
		label=2.0,
		lp="424.5,168.5",
		pos="291.27,191.96 346.97,180.05 454.69,157.02 510.52,145.08"];
	6 -- 9	 [fontsize=8,
		label=2.0,
		lp="370.5,136.5",
		pos="267.38,192 301.27,169.64 401.32,103.64 435.44,81.125"];
	6 -- 13	 [fontsize=8,
		label=1.0,
		lp="195.5,104.5",
		pos="245.85,191.93 233.9,182.44 214.38,165.04 204,145.5 180.33,100.94 175.98,38.492 175.18,17.063"];
	15	 [URL="http://lattes.cnpq.br/3420684025232526",
		color="#17272B",
		fontcolor="#FFFFFF",
		height=0.23611,
		label="Cristiane Luchese [1]",
		pos="256,136.5",
		width=1.1806];
	6 -- 15	 [fontsize=8,
		label=1.0,
		lp="261.5,168.5",
		pos="256,191.9 256,180 256,157.1 256,145.16"];
	8 -- 9	 [fontsize=8,
		label=9.0,
		lp="508.5,104.5",
		pos="533.86,127.9 514.86,116 478.3,93.102 459.24,81.165"];
	8 -- 13	 [fontsize=8,
		label=1.0,
		lp="550.5,72.5",
		pos="546.76,127.99 548.21,109.05 549.05,59.145 521,35.5 510.08,26.291 325.26,16.449 230.33,11.972"];
	16	 [URL="http://lattes.cnpq.br/8097034095042937",
		color="#17272B",
		fontcolor="#FFFFFF",
		height=0.23611,
		label="Cláudia Lange dos Santos [4]",
		pos="582,8.5",
		width=1.5417];
	8 -- 16	 [fontsize=8,
		label=3.0,
		lp="572.5,72.5",
		pos="548.14,128 554.53,105.64 573.39,39.637 579.82,17.125"];
	9 -- 13	 [fontsize=8,
		label=1.0,
		lp="333.5,40.5",
		pos="413.92,63.96 361.68,52.051 260.64,29.021 208.28,17.085"];
	9 -- 16	 [fontsize=8,
		label=1.0,
		lp="528.5,40.5",
		pos="463.55,63.898 489.46,51.998 539.32,29.102 565.31,17.165"];
	11	 [URL="http://lattes.cnpq.br/4461596175399704",
		color="#17272B",
		fontcolor="#FFFFFF",
		height=0.23611,
		label="Eder Maiquel Simão [2]",
		pos="447,8.5",
		width=1.3056];
	9 -- 11	 [fontsize=8,
		label=2.0,
		lp="452.5,40.5",
		pos="447,63.898 447,51.998 447,29.102 447,17.165"];
	1	 [URL="http://lattes.cnpq.br/5753973080634017",
		color="#17272B",
		fontcolor="#FFFFFF",
		height=0.23611,
		label="Solange Cristina da Silva [0]",
		pos="414,392.5",
		width=1.5139];
	2	 [URL="http://lattes.cnpq.br/8537174715205717",
		color="#17272B",
		fontcolor="#FFFFFF",
		height=0.23611,
		label="Solange Binotto Fagan [20]",
		pos="498,328.5",
		width=1.4583];
	2 -- 3	 [fontsize=8,
		label=1.0,
		lp="385.5,296.5",
		pos="445.59,321 424.53,317.12 400.45,311.01 380,301.5 364.53,294.31 349.36,281.3 340.61,273.05"];
	2 -- 6	 [fontsize=8,
		label=1.0,
		lp="451.5,264.5",
		pos="491.61,319.76 475.43,300.73 430.66,251.46 382,227.5 359.26,216.3 331.91,209.92 308.52,206.29"];
	2 -- 8	 [fontsize=8,
		label=4.0,
		lp="538.5,232.5",
		pos="503.04,319.58 506.03,314.57 509.68,307.86 512,301.5 533.09,243.58 542.57,169.12 545.2,145.24"];
	2 -- 9	 [fontsize=8,
		label=17.0,
		lp="482.5,200.5",
		pos="496.47,319.9 488.98,282.59 456.16,119.12 448.57,81.321"];
	2 -- 16	 [fontsize=8,
		label=1.0,
		lp="626.5,168.5",
		pos="550.52,321.54 583.95,314.49 621,299.1 621,265.5 621,265.5 621,265.5 621,71.5 621,49.119 602.57,28.207 591.05,17.323"];
	7	 [URL="http://lattes.cnpq.br/9578592161597332",
		color="#17272B",
		fontcolor="#FFFFFF",
		height=0.23611,
		label="Patrícia Gomes [0]",
		pos="525,392.5",
		width=1.0694];
	10	 [URL="http://lattes.cnpq.br/0865997296771785",
		color="#17272B",
		fontcolor="#FFFFFF",
		height=0.23611,
		label="Giovani Rubert Librelotto [0]",
		pos="637,392.5",
		width=1.5417];
	12	 [URL="http://lattes.cnpq.br/8515173425020878",
		color="#17272B",
		fontcolor="#FFFFFF",
		height=0.23611,
		label="Luiz C. Rodrigues Junior [0]",
		pos="765,392.5",
		width=1.5139];
	17	 [URL="http://lattes.cnpq.br/3376750892363066",
		color="#17272B",
		fontcolor="#FFFFFF",
		height=0.23611,
		label="Carina Rodrigues Boeck [0]",
		pos="891,392.5",
		width=1.4722];
	18	 [URL="http://lattes.cnpq.br/1692497062116657",
		color="#17272B",
		fontcolor="#FFFFFF",
		height=0.23611,
		label="Antonio G. de Souza Filho [0]",
		pos="1019,392.5",
		width=1.5833];
	19	 [URL="http://lattes.cnpq.br/7478810804464054",
		color="#17272B",
		fontcolor="#FFFFFF",
		height=0.23611,
		label="Aline Ferreira Ourique [0]",
		pos="1145,392.5",
		width=1.4028];
}
