artigoEmPeriodico	2014		Social Network Analysis and Participation in Learning Environments to Digital Inclusion Based on Large-Scale Distance Education	International Journal of Distance Education Technologies	Aleksandra do Socorro da Silva ; Silvana Rossy de Brito ; Dalton Lopes Martins ; VIJAYKUMAR, N. L. ; ROCHA, C. A. J. ; COSTA, João Crisóstomo Weyl Albuquerque ; Carlos Renato Lisboa Francês	Qualis nao identificado	International Journal of Distance Education Technologies
artigoEmPeriodico	2014	http://dx.doi.org/10.5935/0100-4042.20140063	Profile of CNPq productivity research fellows in the chemistry area based on the lattes platform.	Química Nova (Impresso)	ALVES, A. D. ; YANASSE, H. H. ; SOMA, N. Y.	A2	
artigoEmPeriodico	2014	http://dx.doi.org/10.1007/s11192-013-1030-8	Benford-s Law and articles of scientific journals: comparison of JCR® and Scopus data	Scientometrics (Online)	ALVES, ALEXANDRE DONIZETI ; Yanasse, Horacio Hideki ; Soma, Nei Yoshihiro	Qualis nao identificado	Scientometrics (Online)
artigoEmPeriodico	2014		Wavelength Assignment Using a Hybrid Evolutionary Computation to Reduce Cross-Layer Modulation	Journal of Microwaves, Optoelectronics and Electromagnetic Applications	André Moacir Lage Miranda ; Fábio de Oliveira Lima ; Helder Roberto de Oliveira Rocha ; VIJAYKUMAR, N. L. ; Carlos Renato Lisboa Francês ; Marcelo Eduardo Vieira Segatto ; COSTA, João Crisóstomo Weyl Albuquerque	Qualis nao identificado	Journal of Microwaves, Optoelectronics and Electromagnetic Applications
artigoEmPeriodico	2014	http://dx.doi.org/10.1504/ijwet.2014.063041	Tool support for generating model-based test cases via web	International Journal of Web Engineering and Technology	ARANTES, ALESSANDRO OLIVEIRA ; JÚNIOR, VALDIVINO ALEXANDRE DE SANTIAGO ; Vijaykumar, Nandamudi Lankalapalli ; SOUZA, ERICA FERREIRA DE	B1	International Journal of Biomedical Engineering and Technology
artigoEmPeriodico	2014		Evaluation of simulated images of MUX camera from CBERS-4 satellite for environmental analysis	Boletim de Ciências Geodésicas (Impresso)	BOGGIONE, G. A. ; PEREIRA, G. ; CARDOZO, F. S. ; FONSECA, L. M. G.	A2	
artigoEmPeriodico	2014	http://dx.doi.org/10.4204/EPTCS.147.10	Transformation of UML Behavioral Diagrams to Support Software Model Checking	Electronic Proceedings in Theoretical Computer Science	BRASIL REBELO DOS SANTOS, LUCIANA ; Alexandre de Santiago, Valdivino ; LANKALAPALLI VIJAYKUMAR, NANDAMUDI	B1	Theoretical Computer Science
artigoEmPeriodico	2014		An analytical framework for distributed coordinated scheduling in IEEE 802.16 wireless mesh networks	Ad Hoc Networks	CESAR, C. A. C. ; CARVALHO, S. V.	Qualis nao identificado	Ad Hoc Networks
artigoEmPeriodico	2014	http://dx.doi.org/10.1016/j.ejor.2013.11.026	The one-dimensional cutting stock problem with usable leftovers - A survey	European Journal of Operational Research	CHERRI, A. C. ; ARENALES, M. N. ; YANASSE, H. H. ; Poldi, K.C. ; VIANNA, A. C. G.	A1	
artigoEmPeriodico	2014		Fields as a Generic Data Type for Big Spatial Data	Lecture Notes in Computer Science	CÂMARA, G. ; EGENHOFER, M. J. ; FERREIRA, K. R. ; ANDRADE, P. R. ; QUEIROZ, G. R. ; SANCHEZ, A. ; JONES, J. ; Vinhas, L.	B1	
artigoEmPeriodico	2014	http://dx.doi.org/10.1016/j.cie.2013.11.009	Production scheduling of assembly fixtures in the aeronautical industry	Computers & Industrial Engineering	DA SILVA, BRUNO JENSEN VIRGINIO ; Morabito, Reinaldo ; YAMASHITA, DENISE SATO ; Yanasse, Horacio Hideki	A2	
artigoEmPeriodico	2014	http://dx.doi.org/10.1002/2014sw001041	Correlation analysis between the occurrence of ionospheric scintillation at the magnetic equator and at the southern peak of the Equatorial Ionization Anomaly	Space Weather (Online)	DE LIMA, G. R. T. ; STEPHANY, S. ; de PAULA, E. R. ; BATISTA, I. S. ; ABDU, M. A. ; REZENDE, L. F. C. ; AQUINO, M. G. S. ; DUTRA, A. P. S.	B1	
artigoEmPeriodico	2014	http://dx.doi.org/10.1088/1748-0221/9/10/p10001	High-Q superconducting niobium cavities for gravitational wave detectors	Journal of Instrumentation	DE PAULA, L A N ; FURTADO, S R ; AGUIAR, O D ; N F OLIVEIRA JR, N F OLIVEIRA JR ; CASTRO, P J ; BARROSO, J J	A1	
artigoEmPeriodico	2014	http://dx.doi.org/10.1088/0004-6256/148/2/25	ORBITAL PERTURBATIONS OF THE GALILEAN SATELLITES DURING PLANETARY ENCOUNTERS	The Astronomical Journal (New York, N.Y.)	DEIENNO, R.; NESVORNY, D. ; VOKROUHLICKÝ, D. ; YOKOYAMA, T.	A2	
artigoEmPeriodico	2014	http://dx.doi.org/10.1111/tgis.12030	An Algebra for Spatiotemporal Data: From Observations to Events	Transactions in GIS (Print)	FERREIRA, K. R.; CÂMARA, G. ; Camara, Gilberto ; Monteiro, Antônio Miguel Vieira	B2	
artigoEmPeriodico	2014	http://dx.doi.org/10.4028/www.scientific.net/amm.706.137	Phase Characterization in Experimental Chaotic Systems	Applied Mechanics and Materials	FOLLMANN, R. ; ROSA, E. ; MACAU, E.E.N. ; PIQUEIRA, J.R.C.	Qualis nao identificado	Applied Mechanics and Materials
artigoEmPeriodico	2014	http://dx.doi.org/10.1109/TNNLS.2014.2345572	Phase Oscillatory Network and Visual Pattern Recognition	IEEE Transactions on Neural Networks and Learning Systems	FOLLMANN, Rosangela ; MACAU, ELBERT E. N. ; ROSA, Epaminondas ; PIQUEIRA, JOSE R. C.	Qualis nao identificado	IEEE Transactions on Neural Networks and Learning Systems
artigoEmPeriodico	2014	http://dx.doi.org/10.1016/j.actatropica.2014.01.015	Spatial modeling of the schistosomiasis mansoni in Minas Gerais State, Brazil using spatial regression	Acta Tropica	FONSECA, F. ; FREITAS, C. ; DUTRA, L. ; GUIMARÃES, R. ; CARVALHO, O.	A1	
artigoEmPeriodico	2014	http://dx.doi.org/10.1140/epjst/e2014-02146-6	Isochronal synchronization in networks and chaos-based TDMA communication	The European Physical Journal. Special Topics	Grzybowski, J. M. V. ; MACAU, E. E. N. ; Yoneyama, T.	B1	
artigoEmPeriodico	2014		Investigation of different topologies of neural networks for data assimilation	Bulletin of South Ural State University, Series Computational Mathematics and Software Engineering	Harter, F. P. ; Campos Velho, H. F.	Qualis nao identificado	Bulletin of South Ural State University, Series Computational Mathematics and Software Engineering
artigoEmPeriodico	2014	http://dx.doi.org/10.1063/1.4898148	Determination of constitutive parameters of homogeneous metamaterial slabs by a novel calibration-independent method	AIP Advances	HASAR, U. C. ; BULDU, G. ; BUTE, M. ; BARROSO, J. J. ; KARACALI, T. ; Ertugrul, M.	C	
artigoEmPeriodico	2014	http://dx.doi.org/10.1063/1.4862047	Microwave method for reference-plane-invariant and thickness-independent permittivity determination of liquid materials	Review of Scientific Instruments	HASAR, U. C. ; KAYA, Y. ; BUTE, M. ; BARROSO, J. J. ; Ertugrul, M.	A2	
artigoEmPeriodico	2014	http://dx.doi.org/10.1080/09205071.2014.896227	Simple procedure for robust and accurate complex permittivity measurements of low-loss materials over a broad frequency band	Journal of Electromagnetic Waves and Applications (Print)	HASAR, U.C. ; BARROSO, J.J. ; KAYA, Y. ; BUTE, M. ; Ertugrul, M.	A2	
artigoEmPeriodico	2014	http://dx.doi.org/10.1016/j.sna.2013.11.032	Attractive method for thickness-independent permittivity measurements of solid dielectric materials	Sensors and Actuators. A, Physical	HASAR, UGUR CEM ; BARROSO, JOAQUIM JOSÉ ; BUTE, MUSA ; KAYA, YUNUS ; KOCADAGISTAN, MUSTAFA ENGIN ; ERTUGRUL, MEHMET	Qualis nao identificado	Sensors and Actuators. A, Physical
artigoEmPeriodico	2014	http://dx.doi.org/10.1007/s00339-014-8303-9	Two-step numerical procedure for complex permittivity retrieval of dielectric materials from reflection measurements	Applied Physics. A, Materials Science & Processing (Print)	HASAR, UGUR CEM ; BARROSO, JOAQUIM JOSÉ ; KAYA, YUNUS ; ERTUGRUL, MEHMET ; BUTE, MUSA ; CATALÁ-CIVERA, JOSÉ M.	B1	
artigoEmPeriodico	2014	http://dx.doi.org/10.1016/j.photonics.2014.12.003	Investigation of transmitted, reflected, and absorbed powers of periodic and aperiodic multilayered structures composed of bi-anisotropic metamaterial slab and conventional material	Photonics and Nanostructures (Print)	HASAR, UGUR CEM ; BARROSO, JOAQUIM JOSÉ ; KAYA, YUNUS ; KARACALI, TEHVIT ; ERTUGRUL, MEHMET	Qualis nao identificado	Photonics and Nanostructures (Print)
artigoEmPeriodico	2014	http://dx.doi.org/10.1364/JOSAB.31.000939	Power analysis of multilayer structures composed of conventional materials and bi-anisotropic metamaterial slabs	Journal of the Optical Society of America. B, Optical Physics	HASAR, UGUR CEM ; BUTE, MUSA ; BARROSO, JOAQUIM J. ; SABAH, CUMALI ; KAYA, YUNUS ; ERTUGRUL, MEHMET	A2	
artigoEmPeriodico	2014		Investigation of Different Topologies of Neural Networks for Data Assimilation	Bulletin of South Ural State University, Series Computational Mathematics and Software Engineering	HÄRTER, F. P. ; Campos Velho, H. F.	Qualis nao identificado	Bulletin of South Ural State University, Series Computational Mathematics and Software Engineering
artigoEmPeriodico	2014		MPCA for flight dynamics parameters determination	Computer Assisted Methods in Engineering and Science	I. Y. Sumida ; Campos Velho, H. F. ; LUZ, E. F. P. DA ; R. V. Cruz ; L. C. S. Goes	Qualis nao identificado	Computer Assisted Methods in Engineering and Science
artigoEmPeriodico	2014	http://dx.doi.org/10.1002/2013JA019398	Advantage of wavelet technique to highlight the observed geomagnetic perturbations linked to the Chilean Tsunami (2010).	Journal of Geophysical Research: Space Physics	KLAUSNER, V. ; MENDES, ODIM ; Domingues, Margarete O. ; PAPA, ANDRES R. R. ; TYLER, ROBERT H. ; FRICK, PETER ; KHERANI, ESFHAN A.	A1	Journal of Geophysical Research
artigoEmPeriodico	2014	http://dx.doi.org/10.1016/j.jastp.2014.01.013	Study of local regularities in solar wind data and ground magnetograms	Journal of Atmospheric and Solar-Terrestrial Physics	KLAUSNER, V. ; OJEDA, A. G. ; DOMINGUES, M. O. ; MENDES, O. ; PAPA, ANDRES R. R.	B1	
artigoEmPeriodico	2014		Towards better user interfaces for sample selection in image classification	South-Eastern European Journal of Earth Observation and Geomatics	KORTING, T.S. ; FONSECA, L. M. G. ; COSTA, W. S.	Qualis nao identificado	South-Eastern European Journal of Earth Observation and Geomatics
artigoEmPeriodico	2014	http://dx.doi.org/10.3390/rs6087580	Improvements in Sample Selection Methods for Image Classification	Remote Sensing	KÖRTING, THALES ; FONSECA, LEILA ; CASTEJON, EMILIANO ; NAMIKAWA, LAERCIO	Qualis nao identificado	Remote Sensing
artigoEmPeriodico	2014		The Fault Diagnosis Inverse Problem with Ant Colony Optimization and Ant Colony Optimization with dispersion	Computers & Mathematics with Applications (1987)	L. C. Echevarria ; Campos Velho, H. F. ; BECCENERI, José Carlos ; Silva Neto, José Antônio da ; O. L. Santiago	Qualis nao identificado	Computers & Mathematics with Applications (1987)
artigoEmPeriodico	2014		An approach to fault diagnosis using meta-heuristics: a new variant of the differential evolution algorithm	Computacion y Sistemas	L. C. Echevarria ; O. L. Santiago ; Silva Neto, Antônio José da ; Campos Velho, H. F.	Qualis nao identificado	Computacion y Sistemas
artigoEmPeriodico	2014	http://dx.doi.org/10.5028/jatm.v6i4.399	A Multidisciplinary Design Optimization Tool for Spacecraft Equipment Layout Conception	Journal of Aerospace Technology and Management (Online)	LAU, VALENTINO ; SOUSA, FABIANO L. DE ; GALSKI, ROBERTO LUIZ ; ROCCO, EVANDRO MARCONI ; BECCENERI, JOSÉ CARLOS ; SANTOS, WALTER ABRAHÃO ; SANDRI, SANDRA APARECIDA	B3	
artigoEmPeriodico	2014		WATER-RELATED DISASTERS IN BRAZIL: PERSPECTIVES AND RECOMMENDATIONS	AMBIENTE & SOCIEDADE (ONLINE)	LONDE, L. R. ; COUTINHO, M. ; GREGORIO, L. T. ; Santos, Leonardo B.L. ; SORIANO, E.	B1	
artigoEmPeriodico	2014	http://dx.doi.org/10.1140/epjst/e2014-02283-x	Advanced computational and experimental techniques in nonlinear dynamics	The European Physical Journal. Special Topics	MACAU, E. E. N.; PANDO LAMBRUSCHINI, C. L.	B1	
artigoEmPeriodico	2014	http://dx.doi.org/10.1007/s40314-014-0181-4	Celestial mechanics: from the errant stars to guidance of spacecrafts	Matemática Aplicada e Computacional (Cessou em 1997. Cont. ISSN 1807-0302 Computational & Applied Mathematics)	MACAU, ELBERT E. N.; DE MELO, CRISTIANO F. ; PRADO, ANTONIO BERTACHINI DE A. ; WINTER, OTHON C.	B1	Computational & Applied Mathematics
artigoEmPeriodico	2014	http://dx.doi.org/10.4236/am.2014.56096	An Alternative Manifold for Cosmology Using Seifert Fibered and Hyperbolic Spaces	Applied Mathematics	MEJIA, M. E. ; ROSA, R. R.	Qualis nao identificado	Applied Mathematics
artigoEmPeriodico	2014	http://dx.doi.org/10.1016/j.eswa.2013.12.013	An evolutionary clustering search for the no-wait flow shop problem with sequence dependent setup times	Expert Systems with Applications	Nagano, Marcelo Seido ; Silva, A. A. ; LORENA, L. A. N.	A1	
artigoEmPeriodico	2014	http://dx.doi.org/10.1109/tgrs.2013.2258351	Nature-Inspired Framework for Hyperspectral Band Selection	IEEE Transactions on Geoscience and Remote Sensing	NAKAMURA, R. Y. M. ; Fonseca, Leila M.G. ; SANTOS, J. A. ; TORRES, R. S. ; YANG, X. S. ; Papa, João P.	A1	
artigoEmPeriodico	2014		FUEL, STRUCTURAL MATERIAL AND COOLANT FOR AN ADVANCED FAST MICRO-REACTOR	JBIS. Journal of the British Interplanetary Society	Nascimento, Jamil Alves do ; Guimarães, Lamartine Nogueira Frutuoso ; Ono, Shizuca	Qualis nao identificado	JBIS. Journal of the British Interplanetary Society
artigoEmPeriodico	2014		An innovative support vector machine based method for contextual image classification	ISPRS Journal of Photogrammetry and Remote Sensing	NEGRI, R. G. ; DUTRA, L. V. ; SANT'ANNA, S. J. S.	A2	
artigoEmPeriodico	2014	http://dx.doi.org/10.1088/0004-6256/148/3/52	EXCITATION OF THE ORBITAL INCLINATION OF IAPETUS DURING PLANETARY ENCOUNTERS	The Astronomical Journal (New York, N.Y.)	NESVORNY, D. ; VOKROUHLICKÝ, D. ; DEIENNO, R. ; WALSH, K. J.	A2	
artigoEmPeriodico	2014	http://dx.doi.org/10.1088/0004-637X/784/1/22	CAPTURE OF IRREGULAR SATELLITES AT JUPITER	Astrophysical Journal (Online)	NESVORNÝ, DAVID ; VOKROUHLICKÝ, DAVID ; DEIENNO, ROGERIO	Qualis nao identificado	Astrophysical Journal (Online)
artigoEmPeriodico	2014	http://dx.doi.org/10.1109/tps.2014.2307921	Characterization of Ceramic Dielectrics for Sub-GHz Applications in Nonlinear Transmission Lines	IEEE Transactions on Plasma Science	NETO, LAURO P. SILVA ; ROSSI, JOSE OSVALDO ; BARROSO, JOAQUIM J. ; SILVA, ATAIDE R.	B1	
artigoEmPeriodico	2014	http://dx.doi.org/10.5194/npg-21-1059-2014	Nonlinear fluctuation analysis for a set of 41 magnetic clouds measured by the Advanced Composition Explorer (ACE) spacecraft	Nonlinear Processes in Geophysics (Online)	OJEDA GONZÁLEZ, A. ; GONZALEZ, W. D. ; MENDES, O. ; DOMINGUES, M. O. ; ROSA, R. R.	B1	Nonlinear Processes in Geophysics
artigoEmPeriodico	2014	http://dx.doi.org/10.5194/npgd-1-583-2014	Conjugate fluctuation analysis for a set of 41 magnetic clouds measured by the ACE spacecraft	Nonlinear Processes in Geophysics Discussions	OJEDA GONZÁLEZ, A. ; GONZALEZ, W. D. ; MENDES, O. ; DOMINGUES, M. O. ; ROSA, R. R.	B1	Nonlinear Processes in Geophysics
artigoEmPeriodico	2014		Daubechies wavelet coefficients: a tool to study interplanetary magnetic field fluctuations	Geofísica Internacional	OJEDA, A. G. ; MENDES, O. ; Domingues, Margarete O. ; MENCONI, V. E.	Qualis nao identificado	Geofísica Internacional
artigoEmPeriodico	2014	http://dx.doi.org/10.1016/j.eswa.2014.03.008	Hybrid heuristics based on column generation with path-relinking for clustering problems	Expert Systems with Applications	Oliveira, R. M. ; LORENA, L. A. N. ; CHAVES, Antonio Augusto ; Mauri, Geraldo R.	A1	
artigoEmPeriodico	2014		Uncertainties formulated as a classification problem applied to chaotic system	Mecánica Computacional	P. L. B. Santos ; SANDRI, S. A. ; Campos Velho, H. F.	B4	
artigoEmPeriodico	2014	http://dx.doi.org/10.4236/iim.2014.65022	An Innovative Approach for Attribute Reduction in Rough Set Theory	Intelligent Information Management	PESSOA, Alex Sandro Aguiar ; Stephany, Stephan	Qualis nao identificado	Intelligent Information Management
artigoEmPeriodico	2014	http://dx.doi.org/10.1016/j.asr.2014.03.017	First results of operational ionospheric dynamics prediction for the Brazilian Space Weather program	Advances in Space Research	PETRY, ADRIANO ; DE SOUZA, JONAS RODRIGUES ; de Campos Velho, Haroldo Fraga ; PEREIRA, ANDRÉ GRAHL ; BAILEY, GRAHAM JOHN	B1	
artigoEmPeriodico	2014	http://dx.doi.org/10.5540/tema.2014.015.01.0047	Identificação do perfil da ionosfera utilizando lógica nebulosa: Parte I	Tendências em Matemática Aplicada e Computacional	Pillat, Valdir Gil ; Guimarães, Lamartine Nogueira Frutuoso	B2	TEMA. Tendências em Matemática Aplicada e Computacional
artigoEmPeriodico	2014	http://dx.doi.org/10.1016/j.ejor.2013.10.021	A Clustering Search Metaheuristic for the Point-Feature Cartographic Label Placement Problem	European Journal of Operational Research	RABELLO, RÔMULO LOUZADA ; MAURI, Geraldo Regis ; RIBEIRO, Glaydston Mattos ; Nogueira Lorena, Luiz Antonio	A1	
artigoEmPeriodico	2014	http://dx.doi.org/10.1109/MCSE.2014.34	Ten Years of SkyServer I: Tracking Web and SQL e-Science Usage	Computing in Science & Engineering (Print)	RADDICK, M. JORDAN ; THAKAR, ANI R. ; SZALAY, ALEXANDER S. ; SANTOS, RAFAEL D.C.	Qualis nao identificado	Computing in Science & Engineering (Print)
artigoEmPeriodico	2014	http://dx.doi.org/10.1109/MCSE.2014.32	Ten Years of SkyServer II: How Astronomers and the Public Have Embraced e-Science	Computing in Science & Engineering (Print)	RADDICK, M. JORDAN ; THAKAR, ANI R. ; SZALAY, ALEXANDER S. ; SANTOS, RAFAEL D.C.	Qualis nao identificado	Computing in Science & Engineering (Print)
artigoEmPeriodico	2014	http://dx.doi.org/10.1016/j.actatropica.2014.04.010	Characterization of the spatial and temporal dynamics of the dengue vector population established in urban areas of Fernando de Noronha, a Brazilian oceanic island	Acta Tropica	REGIS, LÊDA N. ; ACIOLI, RIDELANE VEIGA ; SILVEIRA, JOSÉ CONSTANTINO ; DE MELO-SANTOS, MARIA ALICE VARJAL ; DA CUNHA, MÉRCIA CRISTIANE SANTANA ; SOUZA, FÁTIMA ; BATISTA, CARLOS ALBERTO VIEIRA ; BARBOSA, ROSÂNGELA MARIA RODRIGUES ; DE OLIVEIRA, CLÁUDIA MARIA FONTES ; AYRES, CONSTÂNCIA FLÁVIA JUNQUEIRA ; Monteiro, Antonio Miguel Vieira ; SOUZA, WAYNER VIEIRA	A1	
artigoEmPeriodico	2014	http://dx.doi.org/10.1007/s40314-014-0154-7	Pareto Frontier for the time-energy cost vector to an Earth-Moon transfer orbit using the patched-conic approximation	Matemática Aplicada e Computacional (Cessou em 1997. Cont. ISSN 1807-0302 Computational & Applied Mathematics)	SALAZAR, F. J. T. ; MACAU, E. E. N. ; Winter, O. C.	B1	Computational & Applied Mathematics
artigoEmPeriodico	2014	http://dx.doi.org/10.1016/j.asr.2014.07.018	Zero, Minimum and Maximum Relative Radial Acceleration for Planar Formation Flight Dynamics near Triangular Libration Points in the Earth-Moon System	Advances in Space Research	SALAZAR, F.J.T. ; MASDEMONT, J.J. ; GÓMEZ, G. ; MACAU, E.E. ; WINTER, O.C.	B1	
artigoEmPeriodico	2014		Segmentação de imagens SAR usando abordagem probabilística baseada em distribuição Gama	RBC. Revista Brasileira de Cartografia (Online)	SALDANHA, MARCUS F. S. ; FREITAS, C. C. ; SANT'ANNA, S. J. S.	B1	
artigoEmPeriodico	2014	http://dx.doi.org/10.1016/j.fss.2013.11.011	A method for deriving order compatible fuzzy relations from convex fuzzy partitions	Fuzzy Sets and Systems	SANDRI, S.; BEDE, F. M.	A1	
artigoEmPeriodico	2014		A Formal Verification Tool for UML Behavioural Diagrams	Lecture Notes in Computer Science	BRASIL REBELO DOS SANTOS, LUCIANA ; Eduardo Rohde Eras ; Santiago Júnior, V. A. ; VIJAYKUMAR, N. L.	B1	
artigoEmPeriodico	2014	http://dx.doi.org/10.4028/www.scientific.net/AMR.975.61	Characterization of Multilayer Ferroelectric Ceramic Capacitors in a Wide Frequency Range for RF Applications	Advanced Materials Research (Online)	SILVA NETO, LAURO PAULO ; ROSSI, JOSE O. ; BARROSO, JOAQUIM J.	Qualis nao identificado	Advanced Materials Research (Online)
artigoEmPeriodico	2014		QoS Management in Smart Grids: a Markovian Approach	Journal of Microwaves, Optoelectronics and Electromagnetic Applications	Marcelino Silva da Silva ; Carlos Renato Lisboa Francês ; COSTA, João Crisóstomo Weyl Albuquerque ; CARDOSO, D. L. ; VIJAYKUMAR, N. L. ; Carvalho, S.V.	Qualis nao identificado	Journal of Microwaves, Optoelectronics and Electromagnetic Applications
artigoEmPeriodico	2014	http://dx.doi.org/10.1016/j.patcog.2013.04.001	Speckle reduction in polarimetric SAR imagery with stochastic distances and nonlocal means	Pattern Recognition	TORRES, Leonardo ; SANT'ANNA, SIDNEI J.S. ; Da Costa Freitas, Corina ; FRERY, ALEJANDRO C.	A1	
artigoEmPeriodico	2014	http://dx.doi.org/10.1140/epjst/e2014-02284-9	Adaptive pinning control: A review of the fully decentralized strategy and its extensions	The European Physical Journal. Special Topics	TURCI, L. F. R. ; DE LELLIS, P. ; MACAU, E. E. N. ; DI BERNARDO, M. ; SIMÕES, M. M. R.	B1	
artigoEmPeriodico	2014	http://dx.doi.org/10.1016/j.asoc.2014.02.025	Neural network and fuzzy logic statistical downscaling of atmospheric circulation-type specific weather pattern for rainfall forecasting	Applied Soft Computing (Print)	Valverde, M.C. ; ARAUJO, ERNESTO ; Campos Velho, H.	A2	
artigoEmPeriodico	2014	http://dx.doi.org/10.1063/1.4880835	Synchronization of oscillators in a Kuramoto-type model with generic coupling	Chaos (Woodbury, N.Y.)	VLASOV, VLADIMIR ; MACAU, ELBERT E. N. ; PIKOVSKY, ARKADY	A2	
artigoEmPeriodico	2014	http://dx.doi.org/10.1109/TPS.2014.2361487	Soliton Generation Using Nonlinear Transmission Lines	IEEE Transactions on Plasma Science	YAMASAKI, FERNANDA SAYURI ; NETO, LAURO PAULO SILVA ; ROSSI, JOSE OSVALDO ; Barroso, Joaquim J.	B1	
artigoEmPeriodico	2014		Topology Preserving Mapping for Maritime Anomaly Detection	Lecture Notes in Computer Science	Ying Wu ; Anthony Patterson ; Rafael Duarte Coelho dos Santos ; VIJAYKUMAR, N. L.	B1	
trabalhoCompletoEmCongresso	2014	http://dx.doi.org/10.1109/IVEC.2014.6857644	Electron bunching in stepped electric-field profiles	2014 IEEE International Vacuum Electronics Conference (IVEC)	BARROSO, JOAQUIM J		
trabalhoCompletoEmCongresso	2014	http://dx.doi.org/10.1109/bracis.2014.50	An Object-Based Visual Selection Model Combining Physical Features and Memory	2014 Brazilian Conference on Intelligent Systems (BRACIS)	BENICASA, ALCIDES X. ; Quiles, Marcos G. ; SILVA, THIAGO C. ; Zhao, Liang ; Romero, Roseli A.F.		
trabalhoCompletoEmCongresso	2014		A Hybrid Architecture for Mobile Geographical Data Acquisition and Validation Systems	XV Brazilian Symposium on Geoinformatics	BOGOSSIAN, C. H. ; FERREIRA, Karine Reis ; MONTEIRO, Antonio Miguel Vieira ; Vinhas, Lubia		
trabalhoCompletoEmCongresso	2014	http://dx.doi.org/10.1117/12.2050183	Neural network based visualization of collaborations in a citizen science project	SPIE Sensing Technology + Applications	BROOME, BARBARA D. ; HALL, DAVID L. ; LLINAS, JAMES ; MORAIS, ALESSANDRA M. M. ; Santos, Rafael D. C. ; RADDICK, M. JORDAN		
trabalhoCompletoEmCongresso	2014		Comparação entre estruturas de metamateriais com anéis repartidos e fechados	58o Congresso Brasileiro de Cerâmica	CASTRO, PEDRO J. ; BARROSO, JOAQUIM J. ; LEITE NETO, J P		
trabalhoCompletoEmCongresso	2014		Transmissão em Banda Larga Abaixo do Corte em Guia de Onda de Banda X Carregado por Rede de Anéis Ressonantes Não-Uniformes	MOMAG 2014 (evento conjunto do 16º SBMO ? Simpósio Brasileiro de Microondas e Optoeletrônica e 11º CBMag ? Congresso Brasileiro de Eletromagnetismo)	CASTRO, PEDRO J. ; Barroso, Joaquim J. ; NETO, JOAQUIM P. LEITE		
trabalhoCompletoEmCongresso	2014		Mapping Grasslands Formations and Cultivated Pastures in the Brazilian Cerrado Using Data Mining	The Sixth International Conference on Advanced Geographic Information Systems	COSTA, W. S. ; FONSECA, L. M. G. ; Korting. T.S.		
trabalhoCompletoEmCongresso	2014	http://dx.doi.org/10.1109/igarss.2014.6946781	An application of multiple space nearest neighbor classifier in land cover classification	IGARSS 2014 2014 IEEE International Geoscience and Remote Sensing Symposium	DE TOLEDO MARTINS-BEDE, FLAVIA ; REIS, MARIONE SOUZA ; PANTALEAO, ELIANA ; DUTRA, LUCIANO ; Sandri, Sandra		
trabalhoCompletoEmCongresso	2014		Caracterização de Propriedades Eletromagnéticas de Substratos Magnéticos em Alta Frequência	MOMAG 2014 (evento conjunto do 16º SBMO ? Simpósio Brasileiro de Microondas e Optoeletrônica e 11º CBMag ? Congresso Brasileiro de Eletromagnetismo)	DIAS, P. A. G. ; SILVA NETO, LAURO P. ; ROSSI, JOSE O. ; BARROSO, JOAQUIM J.		
trabalhoCompletoEmCongresso	2014		The Semantic Pixel	XV Brazilian Symposium on Geoinformatics	FONSECA, Frederico ; Davis, Clodoveu A. ; CÂMARA, G.		
trabalhoCompletoEmCongresso	2014		Neural network for data assimilation method applied to shallow water equation	2nd International Symposium on Uncertainty Quantification and Stochastic Modeling (Uncertainties 2014)	FURTADO, Helaine Cristina Moraes ; Cintra, R.S.C. ; Chiwiacowsky, L D ; MACAU, Elbert Einstein Neher		
trabalhoCompletoEmCongresso	2014		Duas Novas Abordagens para o Problema de Rotulação Cartográfica de Pontos: r-separação e p-dispersão	XLVI Simpósio Brasileiro de Pesquisa Operacional	GOMES, SÓSTENES PEREIRA ; RIBEIRO, Glaydston Mattos ; LORENA, L. A. N.		
trabalhoCompletoEmCongresso	2014		Classifying user experience of web applications in real time using client logs	WWW/Internet 2014 - ICWI 2014	GUARINO DE VASCONCELOS, LEANDRO ; SANTOS, R. D. C. ; BALDOCHI, L. A.		
trabalhoCompletoEmCongresso	2014		Iterative estimation for flight dynamic helicopter simulator	Proceedings of the 3rd Conference of Computational Interdisciplinary Science	I. S. Yoshie ; Campos Velho, H. F. ; LUZ, E. F. P. DA ; R. V. Cruz ; L. C. S. Goes		
trabalhoCompletoEmCongresso	2014		MPCA for flight dynamics parameters determination	International Conference on Inverse Problems in Engineering (ICIPE)	I. S. Yoshie ; Campos Velho, H. F. ; LUZ, E. F. P. DA ; R. V. Cruz ; L. C. S. Goes		
trabalhoCompletoEmCongresso	2014		Previsão climática sazonal utilizando redes neurais autoconfigurada por MPCA	Congresso Brasileiro de Meteorologia (CBMet)	J. A. Anochi ; Campos Velho, H. F.		
trabalhoCompletoEmCongresso	2014		Neural networks in the study of climate patterns seasonal	3rd Conference of Computational Interdisciplinary Sciences	J. A. Anochi ; Campos Velho, H. F.		
trabalhoCompletoEmCongresso	2014		Optimization of feedforward neural networks by Multiple Particle Collision Algorithm	IEEE Symposium on Foundations of Computational Intelligence (IEEE SSCI)	J. A. Anochi ; Campos Velho, H. F.		
trabalhoCompletoEmCongresso	2014		Self-configuring two types neural networks by MPCA	2nd International Symposium on Uncertainty Quantification and Stochastic Modeling (Uncertainties 2014)	J. A. Anochi ; Campos Velho, H. F. ; Furtado, Helaine Cristina Morais ; LUZ, E. F. P. DA		
trabalhoCompletoEmCongresso	2014		A new method of dimensionality reduction of hyperspectral images implemented in FPGA	Escola Regional de Alto Desempenho de São Paulo (ERAD-SP)	J. R. G. Braga ; Gomes, V. C. F. ; Shiguemori, E. H. ; Campos Velho, H. F.		
trabalhoCompletoEmCongresso	2014		Analysis of Handover Based on the Use of Femtocells in LTE Networks	2014 International Conference on Wireless Networks (ICWN)	Ketyllen da Costa Silva ; Carlos Patrick Alves de Souza ; André Cunha de Souza Donza ; Carlos Renato Lisboa Francês ; VIJAYKUMAR, N. L.		
trabalhoCompletoEmCongresso	2014		A Framework for Modeling and Simulating Aedes Aegypti and Dengue Fever Dynamics	Winter Simulation Conference	LIMA, T. F. M. ; CARNEIRO, T. ; SILVA, L. ; LANA, R. M. ; CODECO, C. ; REIS, I. ; Maretto, R. V. ; Santos, L. B. L. ; Monteiro, A. M. V. ; Medeiros, L. C. C. ; CODECO, F. C.		
trabalhoCompletoEmCongresso	2014	http://dx.doi.org/10.1109/bracis.2014.44	Clustering Search Applied to Rank Aggregation	2014 Brazilian Conference on Intelligent Systems (BRACIS)	LORENA, LUIZ HENRIQUE NOGUEIRA ; LORENA, ANA CAROLINA ; Lorena, Luiz Antonio Nogueira ; CARVALHO, ANDRE CARLOS PONCE		
trabalhoCompletoEmCongresso	2014		Hybrid Multicriteria Model for Return Channel Selection in IDTV Environment	MOMGA-2014: 16th Brazilian Symposium of Micro-Waves and Optoelectronics and 11th CBMAG - Brazilian Conference of Electromagnetism	Marcos Cesar da Rocha Seruffo ; Santana, A. L. de ; Carlos Renato Lisboa Francês ; VIJAYKUMAR, N. L.		
trabalhoCompletoEmCongresso	2014		Optimization Methods Applied to Nonlinear Signal Interference Models	EngOpt2014-4th International Conference on Engineering Optimization	Marlon da Silva ; Edson Luiz França Senne ; VIJAYKUMAR, N. L.		
trabalhoCompletoEmCongresso	2014		Um Modelo de Simulação aplicado à Extração de Métricas em Redes Sem Fio em Malha	XLVI Simpósio Brasileiro de Pesquisa Operacional	Marlon da Silva ; VIJAYKUMAR, N. L. ; Edson Luiz França Senne ; Cormac Sreenan		
trabalhoCompletoEmCongresso	2014	http://dx.doi.org/10.1109/ijcnn.2014.6889811	A consensus-based semi-supervised growing neural gas	2014 International Joint Conference on Neural Networks (IJCNN)	MAXIMO, VINICIUS R. ; Quiles, Marcos G. ; NASCIMENTO, MARIA C. V.		
trabalhoCompletoEmCongresso	2014		Icon and Geometric Data Visualization with a Self-Organizing Map Grid	The 14th International Conference on Computational Science and Its Applications (ICCSA 2014)	MORAIS, A. M. M. ; QUILES, M. G. ; SANTOS, R. D. C.		
trabalhoCompletoEmCongresso	2014	http://dx.doi.org/10.1109/eScience.2014.11	Data Federation for the Brazilian Weather and Climate Virtual Observatory: First Insights	2014 IEEE 10th International Conference on eScience (eScience)	MORAIS, ALESSANDRA M.M. ; SANTOS, RAFAEL D.C. ; VIJAYKUMAR, NANDAMUDI L.		
trabalhoCompletoEmCongresso	2014		Estudo da aplicação de elementos metamateriais CRRs e SRRs para efeito de miniaturização de um guia de onda	MOMAG 2014 (evento conjunto do 16º SBMO ? Simpósio Brasileiro de Microondas e Optoeletrônica e 11º CBMag ? Congresso Brasileiro de Eletromagnetismo)	NETO, JOAQUIM P. LEITE ; Barroso, Joaquim J. ; CASTRO, PEDRO J.		
trabalhoCompletoEmCongresso	2014	http://dx.doi.org/10.1109/ICCSA.2014.25	Community Detection in Complex Networks Using Coupled Kuramoto Oscillators	2014 14th International Conference on Computational Science and Its Applications (ICCSA)	OLIVEIRA, JOAO ELIAKIN MOTA DE ; Quiles, Marcos G.		
trabalhoCompletoEmCongresso	2014		Uncertainties in dynamic formulated as a classification problem	2nd International Symposium on Uncertainty Quantification and Stochastic Modeling	P. L. B. Santos ; Campos Velho, H. F. ; Sandri, S. A.		
trabalhoCompletoEmCongresso	2014		Neuro-fuzzy approach addressing predictability	3rd Conference of Computational Interdisciplinary Sciences	P. L. B. Santos ; Sandri, S. A. ; Campos Velho, H. F.		
trabalhoCompletoEmCongresso	2014		Databases integration in grid computing applications	3rd Conference of Computational Interdisciplinary Sciences	P. Ruiz ; Campos Velho, H. F. ; R. S. R. Ruiz ; E. Oliveira		
trabalhoCompletoEmCongresso	2014	http://dx.doi.org/10.1109/syscon.2014.6819234	PHM-based Multi-UAV task assignment	2014 8th Annual IEEE Systems Conference (SysCon)	PAIXAO DE MEDEIROS, IVO ; RODRIGUES, LEONARDO RAMOS ; Santos, Rafael ; SHIGUEMORI, ELCIO HIDEITI ; NASCIMENTO JUNIOR, CAIRO LUCIO		
trabalhoCompletoEmCongresso	2014		Um Método Híbrido para o Problema Probabilístico de Localização-alocação de Máxima Cobertura	XLVI Simpósio Brasileiro de Pesquisa Operacional	PEREIRA, Marcos Antonio ; COELHO, L. C. ; LORENA, L. A. N. ; SOUZA, L. C.		
trabalhoCompletoEmCongresso	2014		A Methodology for Generating Time-Varying Complex Networks with Community Structure	The 14th International Conference on Computational Science and Its Applications (ICCSA 2014)	PORTO, S. ; QUILES, M. G.		
trabalhoCompletoEmCongresso	2014		Multi-Particle Collision Algorithm with reflected points	Congresso Nacional de Matemática Aplicada e Computacinal (CNMAC)	R. Hernandez T. ; LUZ, E. F. P. DA ; Campos Velho, H. F.		
trabalhoCompletoEmCongresso	2014		Proposal of a weighted index for segmentation evaluation	2014 IEEE International Geoscience and Remote Sensing Symposium	REIS, M. S. ; PANTALEAO, E. ; SANT´ANNA, S. J. S. ; DUTRA, L. V.		
trabalhoCompletoEmCongresso	2014		Evaluation of SAR-SDNLM filter for change detection classification	2014 IEEE International Geoscience and Remote Sensing Symposium	REIS, M. S. ; TORRES, Leonardo ; SANT´ANNA, S. J. S. ; Freitas, C. C. ; DUTRA, L. V.		
trabalhoCompletoEmCongresso	2014		Data assimilation using reconfigurable computer system	Escola Regional de Alto Desempenho de São Paulo (ERAD-SP)	SAMBATTI, Sabrina Bérgoch Monteiro ; Gomes, V. C. F. ; Campos Velho, H. F. ; CHARÃO, Andrea Schwertner		
trabalhoCompletoEmCongresso	2014		Determining initial condition by FPGA	2nd International Symposium on Uncertainty Quantification and Stochastic Modeling (Uncertainties 2014)	SAMBATTI, Sabrina Bérgoch Monteiro ; Gomes, V. C. F. ; Furtado, Helaine Cristina Morais ; LUZ, E. F. P. DA ; Campos Velho, H. F. ; CHARÃO, Andrea Schwertner		
trabalhoCompletoEmCongresso	2014		Enhanced Bayesian Network for Raster Data (e-BayNeRD)	The Brazilian Symposium on Geoinformatics - GEOINFO	SILVA, A. C. O. ; Mello, M.P. ; Fonseca, Leila M.G.		
trabalhoCompletoEmCongresso	2014	http://dx.doi.org/10.1142/9789814619998_0027	SYNTHETIC APERTURE RADAR EDGE DETECTION WITH CANNY'S PROCEDURE AND A GRAVITATIONAL APPROACH	The 11th International FLINS Conference (FLINS 2014)	SILVA, G. P. ; SANDRI, S. A. ; FRERY, A. C.		
trabalhoCompletoEmCongresso	2014		New developments on reconstruction of high resolution chlorophyll-a vertical profiles	XXXV Congresso Nacional de Matemática Aplicada Computacional (CNMAC-2014)	SOUTO, Roberto Pinto ; DIAS, Pedro Leite da Silva ; de CAMPOS VELHO, Haroldo Fraga ; STEPHANY, S. ; KAMPEL, Milton		
trabalhoCompletoEmCongresso	2014		Estudo de uma Antena Corneta Acoplada a uma Estrutura de Dielétrico Artificial	MOMAG 2014 (evento conjunto do 16º SBMO ? Simpósio Brasileiro de Microondas e Optoeletrônica e 11º CBMag ? Congresso Brasileiro de Eletromagnetismo)	TOMAZ, ANTONIO ; BARROSO, JOAQUIM J.		
trabalhoCompletoEmCongresso	2014		Implementation of a Wire Medium in a X-Band Horn Antenna: Simulation and Experiment	2014 Asia-Pacific Microwave Conference	TOMAZ, ANTONIO ; BARROSO, JOAQUIM J. ; CASTRO, PEDRO J. ; HASAR, U.C. ; ORLANDO, A. J. F.		
trabalhoCompletoEmCongresso	2014		Geração de RF Usando Linhas de Transmissão Não Lineares	MOMAG 2014: 16º SBMO ? Simpósio Brasileiro de Microondas e Optoeletrônica e 11º CBMag ? Congresso Brasileiro de Eletromagnetismo)	YAMASAKI, FERNANDA S. ; ROSSI, JOSÉ O. ; BARROSO, JOAQUIM J. ; SILVA NETO, LAURO P.		
trabalhoCompletoEmCongresso	2014	http://dx.doi.org/10.1109/iv.2014.52	Development of Adaptive Information Visualization Systems with Augmented Reality	2014 18th International Conference on Information Visualisation (IV)	ZORZAL, EZEQUIEL R. ; SOUSA, CELSO A.R. DE ; CARDOSO, ALEXANDRE ; KIRNER, CLAUDIO ; LAMOUNER, EDGARD A. ; Quiles, Marcos G.		
resumoExpandidoEmCongresso	2014	A Hybrid Architecture for Mobile Geographical Data Acquisition and Validation Systems	Brazilian Symposium on Geoinformatics (GeoInfo 2014), 2014, Campos do Jordão, SP. GeoInfo 2014 Proceedings	BOGOSSIAN, C. H. ; FERREIRA, K. R. ; MONTEIRO, A. M. ; VINHAS, L.		
resumoExpandidoEmCongresso	2014	Chlorophyll profile estimation in ocean waters by a set of artificial neural networks	International Conference on Inverse Problems in Engineering (ICIPE), 2014, Crakovia (Polland). Proceedings of the International Conference on Inverse Problems in Engineering (ICIPE). Gliwice (Poland): Institute of Thermal Technology	DALL CORTIVO, F. ; Chalhoub, E. S. ; Campos Velho, H. F. ; Kampel, M.		
resumoExpandidoEmCongresso	2014	A RDF Vocabulary for Spatiotemporal Observation Data Sources	Brazilian Symposium on Geoinformatics (GeoInfo 2014), 2014, Campos do Jordão, SP. GeoInfo 2014 Proceedings	FERREIRA, K. R.; ALMEIDA, D. B. F. C. ; MONTEIRO, A. M.		
resumoExpandidoEmCongresso	2014	Cross-layer Optimization Applied to obtain Time Metric specified to Wireless Mesh Networks	11th International Conference on Operations Research (ICORS 2014), 2014, Havana. Proceedings of ICORS2014	Marlon da Silva ; Edson Luiz França Senne ; VIJAYKUMAR, N. L.		
resumoExpandidoEmCongresso	2014	Automatic analysis, identification, and classification of Equatorial Spread-F in the ionograms	COSMOS - COSPAR Moscow 2014, 2014, Moscow, Ru. Proceedings of COSPAR Moscow 2014. Moscow, Ru: Committee on Space Research	Pillat, Valdir Gil ; Fagundes, Paulo Roberto ; Guimarães, Lamartine Nogueira Frutuoso		
resumoExpandidoEmCongresso	2014	Proposta de um novo modelo para o problema de dimensionamento de lotes em múltiplas plantas não capacitado	XLVI SBPO, 2014, Salvador. Anais do XLVI SBPO	Yanasse, H. H.; NASCIMENTO, M. C. V.		
