9922863822347014
4693848330845067
8867164774240536
7195702087655314
9147853693310634
5123287769635741
6778709983077103
8068157900374950
4111659600080696
6187040703676041
0793627832164040
1014575950191035
1840336983035010
5240243263075069
6187221670775160
5142426481528206
0333390666972274
6535649723011349
1774662996337284
2549014594120288
0654596992211296
5039690360728170
9947781822423028
1161682301970625
2840176439889517
1446664587151293
3368137994024629
3997386421385499
8594179234801599
0096913881679975
