artigoEmPeriodico	Virginia Cielo Rech	2015	http://dx.doi.org/10.1016/j.exppara.2014.12.005	Effect of the treatment with Achyrocline satureioides (free and nanocapsules essential oil) and diminazene aceturate on hematological and biochemical parameters in rats infected by Trypanosoma evansi	Experimental Parasitology	CARMO, G. M. ; VAUCHER, R. A. ; RECH, V. C. ; OLIVEIRA, C. ; SAGRILLO, M. R. ; BOLIGON, A. ; ATHAYDE, M. ; ALVES, M.P. ; FRANCA, R. ; LOPES, S. T. A. ; SCHWERTZ, C. ; MENDES, R. ; MONTEIRO, S. ; SILVA, A. S. ; BALDISSERA, M. D.	A2	
artigoEmPeriodico	Virginia Cielo Rech	2015	http://dx.doi.org/10.1016/j.micpath.2015.01.001	Sulfamethoxazole-trimethoprim associated with resveratrol for the treatment of toxoplasmosis in mice: Influence on the activity of enzymes involved in brain neurotransmission	Microbial Pathogenesis	BOTTARI, N. B. ; BALDISSERA, M. D. ; TONIN, A. ; RECH, V. C. ; NISHIHIRA, V. S. K. ; THOME, G. R. ; SCHETINGER, M. R. C. ; MORSCH, V. M. ; CAMILLO, G. ; VOGEL, F. F. ; TOCHETTO, C. ; FIGHERA, R. ; MACHADO, G. ; STEFANI, L. M. ; SILVA, A. S.	B1	
artigoEmPeriodico	Virginia Cielo Rech	2015	http://dx.doi.org/10.1016/j.exppara.2015.01.015	Relationship between behavioral alterations and activities of adenylate kinase and creatine kinase in brain of rats infected by Trypanosoma evansi	Experimental Parasitology	BALDISSERA, MATHEUS D. ; RECH, VIRGINIA C. ; DA SILVA, ALEKSANDRO S. ; NISHIHIRA, VIVIAN S.K. ; IANISKI, FRANCINE R. ; GRESSLER, LUCAS T. ; GRANDO, THIRSSA H. ; VAUCHER, RODRIGO A. ; SCHWERTZ, CLAITON I. ; MENDES, RICARDO E. ; Monteiro, Silvia G.	A2	
artigoEmPeriodico	Virginia Cielo Rech	2015	http://dx.doi.org/10.1016/j.micpath.2015.07.013	Effects of sulfamethoxazole-trimethoprim associated to resveratrol on its free form and complexed with 2-hydroxypropyl-β-cyclodextrin on cytokines levels of mice infected by Toxoplasma gondii	Microbial Pathogenesis	BOTTARI, NATHIELI B. ; BALDISSERA, MATHEUS D. ; Tonin, Alexandre A. ; RECH, V. C. ; NISHIHIRA, VIVIAN S.K. ; Thomé, Gustavo R. ; CAMILLO, GIOVANA ; VOGEL, FERNANDA F. ; Duarte, Marta M.M.F. ; Schetinger, Maria Rosa C. ; Morsch, Vera M. ; Tochetto, Camila ; FIGHERA, RAFAEL ; DA SILVA, A. S.	B1	
artigoEmPeriodico	Virginia Cielo Rech	2015		RESVERATROL DOES NOT PREVENT THE INHIBITORY EFFECT OF PHENYLALANINE ON PYRUVATE KINASE ACTIVITY IN THE CEREBRAL CORTEX OF MICE	Disciplinarum Scientia. Série Ciências da Saúde	SCHRODER, L. B. ; FRANCESCHI, I. D. ; MEZZOMO, N. J. ; PREVEDELLO, C.P. ; DE OLIVEIRA, L.R. ; WANNMACHER, C. M ; RECH, V. C.	B5	
artigoEmPeriodico	Virginia Cielo Rech	2015	http://dx.doi.org/10.1016/j.prp.2015.09.006	Activity of cholinesterases, pyruvate kinase and adenosine deaminase in rats experimentally infected by Fasciola hepatica: Influences of these enzymes on inflammatory response and pathological findings	Pathology, Research and Practice (Print)	BALDISSERA, MATHEUS D. ; BOTTARI, NATHIELI B. ; MENDES, RICARDO E. ; SCHWERTZ, CLAITON I. ; LUCCA, NEUBER J. ; DALENOGARE, DIESSICA ; BOCHI, GUILHERME V. ; MORESCO, RAFAEL N. ; Morsch, Vera M. ; SCHETINGER, MARIA R.C. ; RECH, VIRGINIA C. ; JAQUES, JEANDRE A. ; DA SILVA, ALEKSANDRO S.	B1	
artigoEmPeriodico	Virginia Cielo Rech	2015		MAQUETE E SIMULAÇÃO COMPUTACIONAL COMO ESTRATÉGIAS DIDÁTICAS NO ENSINO DO MODELO ATÔMICO DE RUTHERFORD	Disciplinarum Scientia. Série Ciências Naturais e Tecnológicas	FACCO, R. M. ; ORENGO, G. ; RECH, V. C.	B3	
artigoEmPeriodico	Virginia Cielo Rech	2015		ATIVIDADE ANTIBIOFILME E CARACTERIZAÇÃO DE LIPOSSOMA CONTENDO ESCINA EM CATETER URINÁRIO	Disciplinarum Scientia. Série Ciências Naturais e Tecnológicas	DUMKE, N. M. ; FERNANDES, L. S. ; SILVA, S. C. M. ; RECH, V. C. ; VAUCHER, R. A. ; RAFFIN, R. P. ; SANTOS, R. C. V. ; GOMES, P.	B3	
artigoEmPeriodico	Virginia Cielo Rech	2015	http://dx.doi.org/10.1016/j.jare.2014.12.001	Blood gas analyses and other components involved in the acid-base metabolism of rats infected by Trypanosoma evansi	Journal of Advanced Research	BALDISSERA, MATHEUS D. ; VAUCHER, RODRIGO A. ; Oliveira, Camila B. ; RECH, V. C. ; SAGRILLO, MICHELE R. ; Stainki, Daniel R. ; França, Raqueli T. ; Machado, Gustavo ; Lopes, Sonia T.A. ; MONTEIRO, S. G. ; STEFANI, LENITA M. ; Da Silva, Aleksandro S.	Qualis nao identificado	Journal of Advanced Research
artigoEmPeriodico	Virginia Cielo Rech	2015	http://dx.doi.org/10.1016/j.parint.2015.07.010	Relationship between pathological findings and enzymes of the energy metabolism in liver of rats infected by Trypanosoma evansi	Parasitology International (Print)	BALDISSERA, MATHEUS D. ; RECH, V. C. ; GRINGS, M. ; KOLLING, JANAÍNA ; DA SILVA, ALEKSANDRO S. ; GRESSLER, LUCAS T. ; SOUZA, CARINE DE F. ; VAUCHER, RODRIGO A. ; SCHWERTZ, CLAITON I. ; MENDES, RICARDO E. ; LEIPNITZ, GUILHIAN ; WYSE, ANGELA T.S. ; STEFANI, LENITA M. ; MONTEIRO, SILVIA G.	A2	
artigoEmPeriodico	Virginia Cielo Rech	2015	http://dx.doi.org/10.1017/S0031182015000220	Enzymatic activities linked to cardiac energy metabolism of Trypanosoma evansi-infected rats and their possible functional correlations to disease pathogenesis	Parasitology (London. Print)	BALDISSERA, M. D. ; RECH, V. C. ; GRINGS, MATEUS ; GRESSLER, LUCAS T. ; VAUCHER, RODRIGO A. ; SCHWERTZ, CLAITON I. ; MENDES, RICARDO E. ; LEIPNITZ, GUILHIAN ; STEFANI, LENITA M. ; MONTEIRO, SILVIA G. ; DA SILVA, ALEKSANDRO S.	A2	
artigoEmPeriodico	Solange Binotto Fagan	2015	http://dx.doi.org/10.1155/2015/380348	Carboxylated Capped Carbon Nanotubes Interacting with Nimesulide Molecules: Applied Electric Fields Effects	Journal of Nanomaterials (Print)	MACHADO DE MENEZES, VIVIAN ; ZANELLA, Ivana ; FAGAN, S.B.	Qualis nao identificado	Journal of Nanomaterials (Print)
artigoEmPeriodico	Solange Binotto Fagan	2015		INTERAÇÃO DA HEMOGLOBINA COM DIÓXIDO DE ENXOFRE E MONÓXIDO DE CARBONO VIA SIMULAÇÃO COMPUTACIONAL	Disciplinarum Scientia. Série Ciências Naturais e Tecnológicas	OLIVEIRA, P. V. ; ZANELLA, Ivana ; FAGAN, S.B.	B3	
artigoEmPeriodico	Solange Binotto Fagan	2015		INTERAÇÃO DE NANOFITAS GRAFENO E SILICENO ARMCHAIR COM BASES DE DNA: UM ESTUDO AB INITIO	Disciplinarum Scientia. Série Ciências Naturais e Tecnológicas	MARTINS, M. ; SIMAO, E. M. ; FLORES, G. F. ; ZANELLA, Ivana ; FAGAN, S.B.	B3	
artigoEmPeriodico	Solange Binotto Fagan	2015		INTERAÇÃO DA β-CICLODEXTRINA COM DIFERENTES METILXANTINAS	Disciplinarum Scientia. Série Ciências Naturais e Tecnológicas	ROGGIA, I. ; TONEL, M. Z. ; RAFFIN, R. ; ZANELLA, Ivana ; FAGAN, S.B.	B3	
artigoEmPeriodico	Solange Binotto Fagan	2015		Adsorção do fármaco nimesulida em nanoestruturas de carbono	Disciplinarum Scientia. Série Ciências Naturais e Tecnológicas	JAURIS, I. ; SCHOPF, P. F. ; SANTOS, C. L. ; FAGAN, S.B. ; ZANELLA, Ivana	B3	
artigoEmPeriodico	Solange Binotto Fagan	2015		Simulação de primeiros princípios de temozolamida interagindo com nanoestruturas	Disciplinarum Scientia. Série Ciências Naturais e Tecnológicas	VENDRAME, L. ; RAFFIN, R. ; FAGAN, S.B. ; ZANELLA, Ivana	B3	
artigoEmPeriodico	Solange Binotto Fagan	2015		Pós de óxido zinco nanoestruturado produzidos pelo método de síntese por combustão em solução utilizando glicina como combustível	Disciplinarum Scientia. Série Ciências Naturais e Tecnológicas	TONEL, M. Z. ; FARIAS, E. S. ; FAGAN, S.B. ; RAFFIN, R. ; MACHADO, Fernando Machado	B3	
artigoEmPeriodico	Solange Binotto Fagan	2015		Adsorção de Alaranjado de Metila em Titanatos Nanoestruturados	Disciplinarum Scientia. Série Ciências Naturais e Tecnológicas	SCHARWZ, Stefanie Camile ; SANCHES, A. C. ; FAGAN, S.B. ; RAFFIN, R. ; BULHOES, L. O. S.	B3	
artigoEmPeriodico	Solange Binotto Fagan	2015		DESENVOLVIMENTO DE NANOPARTÍCULAS CONTENDO MELANINA PARA AUMENTAR A EFICÁCIA DE DEPILAÇÃO ATRAVÉS DE LUZ PULSADA INTENSA	Disciplinarum Scientia. Série Ciências Naturais e Tecnológicas	BARBOSA, G. ; GENRO, C. ; FILIPPI, C. ; CONTRI, R. ; FAGAN, S.B. ; RAFFIN, R.	B3	
artigoEmPeriodico	Solange Binotto Fagan	2015		AVALIAÇÃO DA ATIVIDADE ANTIMICROBIANA DO ÓLEO DE ORÉGANO LIVRE E EM NANOEMULSÕES	Disciplinarum Scientia. Série Ciências Naturais e Tecnológicas	BOLZAN, A. A. ; LOPES, L. Q. ; MARIN, L. S. ; SANTOS, R. C. V. ; RAFFIN, R. ; FAGAN, S.B. ; BULHOES, L. O. S.	B3	
trabalhoCompletoEmCongresso	Solange Binotto Fagan	2015		O Admirável Mundo da Nanociência	6º Congresso Nacional das Escolas Franciscanas	FAGAN, S.B		
trabalhoCompletoEmCongresso	Solange Binotto Fagan	2015		Estudo teórico da interação da beta-ciclodextrina com temozolamida	XIX Simpósio de Ensino	VENDRAME, L. ; RAFFIN, R. ; FAGAN, S.B.		
trabalhoCompletoEmCongresso	Solange Binotto Fagan	2015		Estudo ab initio da interação de nanomateriais de carbono com saxitoxina	XIX Simpósio de Ensino	TONEL, M. Z. ; MONSERRAT, J. M. ; FAGAN, S.B.		
trabalhoCompletoEmCongresso	Solange Binotto Fagan	2015		Adsorção de alaranjado de metila em titanatos nanoestruturados	XIX Simpósio de Ensino	SCHARWZ, Stefanie Camile ; FAGAN, S.B. ; BULHOES, L. O. S. ; RAFFIN, R.		
trabalhoCompletoEmCongresso	Solange Binotto Fagan	2015		Deformação Radial de Nanotubos de Carbono Armchair de diferentes diâmetros	XIX Simpósio de Ensino	LARA, I. V. ; ZANELLA, Ivana ; FAGAN, S.B.		
trabalhoCompletoEmCongresso	Solange Binotto Fagan	2015		Ferramentas de simulação multiagentes no contexto de sistemas nanoparticulados	XIX Simpósio de Ensino	ZAMBERLAN, A. ; KURTZ, G. ; BORDINI, R. ; FAGAN, S.B.		
trabalhoCompletoEmCongresso	Solange Binotto Fagan	2015		Estudo da interação da hemoglobina e cianeto em nitrito de sódio via simulação computacional	XIX Simpósio de Ensino	OLIVEIRA, P. V. ; FAGAN, S.B.		
artigoEmPeriodico	Sergio Roberto Mortari	2015		Influência da Incorporação de Nanotubos de Carbono na Resistência à Compressão de Nanocompósitos Cimentício	Disciplinarum Scientia. Série Ciências Naturais e Tecnológicas	DUART, M. A. ; RODRIGUES, O. E. D. ; CARMO, P. I. O. ; MORTARI, S. R.	B3	
artigoEmPeriodico	Sergio Roberto Mortari	2015		Influência de Ultrasonicação no Diâmetro Médio de Vesículas Lipossomais.	Disciplinarum Scientia. Série Ciências Naturais e Tecnológicas	MOREIRA, M. E. S. ; HERBST Jr C G ; MELLO, P. A. ; OURIQUE, A. F. ; MORTARI, S. R.	B3	
artigoEmPeriodico	Sergio Roberto Mortari	2015		Fotoeletrocatálise da Rodamina 6G em Filmes Finos Nanoestruturados de TiO2	Disciplinarum Scientia. Série Ciências Naturais e Tecnológicas	MARQUES, J. F. Z. ; CARDOSO, G. L. ; MORTARI, S. R. ; BULHOES, L. O. S.	B3	
artigoEmPeriodico	Sergio Roberto Mortari	2015		Monitoramento de Monóxido de Carbono em Estacionamento de Veículos Automotores em Santa Maria - RS	DISCIPLINARUM SCIENTIA. SÉRIE CIÊNCIAS NATURAIS E TECNOLÓGICAS	JOBIM, A. L. ; LOPES, B. C. ; MORTARI, S. R.	B3	
trabalhoCompletoEmCongresso	Sergio Roberto Mortari	0		R.. 		MORTARI, S		
artigoEmPeriodico	Rodrigo de Almeida Vaucher	2015		In vitro repellent effect of tea tree (Melaleuca alternifolia) and andiroba (Carapa guianensis) oils on Haemotobia irritans and Chrysomya megacephala flies.	Tropical Biomedicine	KLAUCH, V. ; PAZINATO, R. ; RADAVELLI, W. M. ; VOLPATO, A. ; STEFANI, L. M. ; SANTOS, R. C. V. ; VAUCHER, Rodrigo de Almeida ; BOLIGON, A. A. ; ATHAYDE, M. L. ; SILVA, A. S.	Qualis nao identificado	Tropical Biomedicine
artigoEmPeriodico	Rodrigo de Almeida Vaucher	2015	http://dx.doi.org/10.1016/j.jare.2014.12.001	Blood gas analyses and other components involved in the acid-base metabolism of rats infected by Trypanosoma evansi	Journal of Advanced Research	BALDISSERA, MATHEUS D. ; VAUCHER, RODRIGO A. ; Oliveira, Camila B. ; RECH, V. C. ; SAGRILLO, MICHELE R. ; Stainki, Daniel R. ; França, Raqueli T. ; Machado, Gustavo ; Lopes, Sonia T.A. ; MONTEIRO, S. G. ; STEFANI, LENITA M. ; Da Silva, Aleksandro S.	Qualis nao identificado	Journal of Advanced Research
artigoEmPeriodico	Rodrigo de Almeida Vaucher	2015		In vitro oxidation of fibrinogen promotes functional alterations and the formation of advanced oxidation protein products, an inflammation mediator	Inflammation	TORBITZ, V. ; BOCHI, G. ; CARVALHO, J. A. ; VAUCHER, Rodrigo de Almeida ; SILVA, J. E. P. ; MORESCO, R. N.	B1	
artigoEmPeriodico	Rodrigo de Almeida Vaucher	2015	http://dx.doi.org/10.1016/j.exppara.2014.12.005	Effect of the treatment with Achyrocline satureioides (free and nanocapsules essential oil) and diminazene aceturate on hematological and biochemical parameters in rats infected by Trypanosoma evansi	Experimental Parasitology	CARMO, G. M. ; BALDISSERA, M. ; VAUCHER, Rodrigo de Almeida ; RECH, V. C. ; OLIVEIRA, C. B. ; SAGRILLO, M. R. ; BOLIGON, A. A. ; ATHAYDE, M. L. ; DUARTE, M. M. M. F. ; FRANCA, R. ; LOPES, S. ; SCHWERTZ, C. ; MENDES, R. ; MONTEIRO, S. G. ; SILVA, A. S.	A2	
artigoEmPeriodico	Rodrigo de Almeida Vaucher	2015		In vitro growth-inhibitory effect of Brazilian plants extracts against Paenibacillus larvae and toxicity in bees	Anais da Academia Brasileira de Ciências (Online)	PIANA, M. ; BRUM, T. F. ; BOLIGON, A. A. ; ALVES, C. F. S. ; FREITAS, R. B. ; NUNES, L. T. ; MOSSMANN, N. ; JANOVIK, V. ; JESUS, R. S. ; VAUCHER, Rodrigo de Almeida ; SANTOS, R. C. V. ; ATHAYDE, M. L.	A1	Anais da Academia Brasileira de Ciências (Impresso)
artigoEmPeriodico	Rodrigo de Almeida Vaucher	2015		Antimicrobial activity of nanostructured Amazonian oils against Paenibacillus species and their toxicity on larvae and adult worker bees	Journal of Asia Pacific Entomology	VAUCHER, Rodrigo de Almeida; Giongo, J.L ; BOLZAN, L. P. ; CORRÊA, M.S ; FAUSTO, V. P. ; ALVES, C. F. S. ; LOPES, L. Q. S. ; BOLIGON, A. A. ; ATHAYDE, M. L. ; MOREIRA, A. P. ; BRANDELLI, Adriano ; RAFFIN, R. P. ; SANTOS, R. C. V.	Qualis nao identificado	Journal of Asia Pacific Entomology
artigoEmPeriodico	Rodrigo de Almeida Vaucher	2015	http://dx.doi.org/10.1016/j.exppara.2015.01.015	Relationship between behavioral alterations and activities of adenylate kinase and creatine kinase in brain of rats infected by Trypanosoma evansi.	Experimental Parasitology	BALDISSERA, MATHEUS D. ; RECH, VIRGINIA C. ; DA SILVA, ALEKSANDRO S. ; NISHIHIRA, VIVIAN S.K. ; IANISKI, FRANCINE R. ; GRESSLER, LUCAS T. ; GRANDO, THIRSSA H. ; VAUCHER, RODRIGO A. ; SCHWERTZ, CLAITON I. ; MENDES, RICARDO E. ; Monteiro, Silvia G.	A2	
artigoEmPeriodico	Rodrigo de Almeida Vaucher	2015		Influence of rosemary, andiroba and copaiba essential oils on different stages of the biological cycle of the tick Rhipicephalus microplus in vitro	The Journal of Essential Oil Research	VOLPATO, A. ; GROSSKOPF, R. K. ; SANTOS, R. C. V. ; VAUCHER, Rodrigo de Almeida ; RAFFIN, R. P. ; BOLIGON, A. A. ; ATHAYDE, M. L. ; STEFANI, L. M. ; SILVA, A. S.	B1	
artigoEmPeriodico	Rodrigo de Almeida Vaucher	2015	http://dx.doi.org/10.1017/S0031182015000220	Enzymatic activities linked to cardiac energy metabolism of Trypanosoma evansi infected rats and their possible functional correlations to disease pathogenesis.	Parasitology (London. Print)	BALDISSERA, M. D. ; RECH, V. C. ; GRINGS, MATEUS ; GRESSLER, LUCAS T. ; VAUCHER, RODRIGO A. ; SCHWERTZ, CLAITON I. ; MENDES, RICARDO E. ; LEIPNITZ, GUILHIAN ; STEFANI, LENITA M. ; MONTEIRO, SILVIA G. ; DA SILVA, ALEKSANDRO S.	A2	
artigoEmPeriodico	Rodrigo de Almeida Vaucher	2015		Circulating double-stranded DNA in plasma of hemodialysis patients and its association with iron stores.	Clinical Laboratory (Heidelberg. 1996)	CICHOTA, L. C. ; BOCHI, G. V. ; TATSCH, E. ; TORBITZ, V. D. ; AGNOL, P. R. D. ; ZANARDO, J. C. ; BARBISAN, F. ; CRUZ, I. B. M. ; VAUCHER, Rodrigo de Almeida ; MORESCO, R. N.	B2	
artigoEmPeriodico	Rodrigo de Almeida Vaucher	2015		Avaliação de diferentes substratos para a formação de biofilmes in vitro de Pseudomonas aeroginosa.	Disciplinarum Scientia. Série Ciências da Saúde	QUATRIN, P. M. ; COMIM, V. M. ; LOPES, L. Q. S. ; GUNDEL, A. ; VAUCHER, Rodrigo de Almeida ; SANTOS, R. C. V.	B5	
artigoEmPeriodico	Rodrigo de Almeida Vaucher	2015		Antimycobacterial, antimicrobial and antifungal activities of Geranium Oil-Ioaded nanocapsules.	International Journal of Pharmacy and Pharmaceutical Sciences	Giongo, J.L ; VAUCHER, Rodrigo de Almeida ; BORIN, D.B (Diego Becker Borin) ; CORRÊA, M.S ; BARBOZA, V. S. ; SANTOS, R. C. V. ; BOLIGON, A. A. ; ATHAYDE, M. L. ; BONEZ, P. C. ; ROSSIE, G. G. ; CAMPOS, M. M. A. ; GOMES, P. ; STEPPE, M.	B4	
artigoEmPeriodico	Rodrigo de Almeida Vaucher	2015	http://dx.doi.org/10.1016/j.parint.2015.07.010	Relationship between pathological findings and enzymes of the energy metabolism in liver of rats infected by Trypanosoma evansi	Parasitology International (Print)	BALDISSERA, MATHEUS D. ; RECH, V. C. ; GRINGS, M. ; KOLLING, JANAÍNA ; DA SILVA, ALEKSANDRO S. ; GRESSLER, LUCAS T. ; SOUZA, CARINE DE F. ; VAUCHER, RODRIGO A. ; SCHWERTZ, CLAITON I. ; MENDES, RICARDO E. ; LEIPNITZ, GUILHIAN ; WYSE, ANGELA T.S. ; STEFANI, LENITA M. ; MONTEIRO, SILVIA G.	A2	
artigoEmPeriodico	Rodrigo de Almeida Vaucher	2015		Avaliação da velocidade de hemossedimentação do analisador automático MicroSed-System® em relação ao método de Westergren e correlação com os valores da Proteína C-Reativa (PCR).	Revista Brasileira de Analises Clinicas	VIANNA, L. F. ; VAUCHER, Rodrigo de Almeida ; ITAQUI, S. R. ; SILVA, J. E. P.	B4	
artigoEmPeriodico	Rodrigo de Almeida Vaucher	2015		Oxidative DNA damage is associated with inflammatory response, insulin resistance and microvascular complications in type 2 diabetes	Mutation Research (Print)	TATSCH, E. ; CARVALHO, J. A. M. ; HAUSEN, B. S. ; BOLLICK, Y. S. ; TORBITZ, V. D. ; DUARTE, T. ; SCOLARI, R. ; DUARTE, M. M. M. F. ; LONDERO, S. W. K. ; VAUCHER, Rodrigo de Almeida ; PREMAOR, M. O. ; COMIM, F. V. ; MORESCO, R. N.	A1	
artigoEmPeriodico	Rodrigo de Almeida Vaucher	2015		Atividade antibiofilme e caracterização de lipossoma contendo escina em cateter urinário	Disciplinarum Scientia. Série Ciências Naturais e Tecnológicas	DUMKE, N. M. ; FERNANDES, L. S. ; SILVA, S. C. M. ; RECH, V. C. ; VAUCHER, Rodrigo de Almeida ; RAFFIN, R. P. ; SANTOS, R. C. V. ; GOMES, P.	B3	
trabalhoCompletoEmCongresso	Rodrigo de Almeida Vaucher	2015		Evaluation of cytotoxicity of geranium oil-loaded nanoemulsions.. In:	1st European Conference on Pharmaceutics Drug Delivery.	Giongo, J.L ; VAUCHER, Rodrigo de Almeida ; OURIQUE, A. F. ; STEFFLER, M. C. R. ; SAGRILLO, M. R. ; GOMES, P. ; STEPPE, M.		
artigoEmPeriodico	Roberto Christ Vianna Santos	2015		Prevalência de resistência constitutiva e indizível a Clindamicina em cocos Gram-positivos isolados de pacientes hospitalizados em Santa Maria	Revista Brasileira de Analises Clinicas	RODRIGUES, Tiago de Castro ; Lopes, Leonardo Quintana Soares ; WINCKLER-NETO, C.H.D.P ; MIYAMOTO, K. N. ; PACHECO, F.M. ; DUARTE, M. M. M. F. ; VIZZOTTO, Bruno Stefanello ; SANTOS, ROBERTO CHRIST	B4	
artigoEmPeriodico	Roberto Christ Vianna Santos	2015		Effectiveness of a desensitizing agent for topical use and home remedy for dentin hypersensitivity	American Journal of Dentistry	ANTONIAZZI, R. P. ; ZANATTA, F. B. ; Santos, Roberto Christ Vianna	A2	Journal of Dentistry
artigoEmPeriodico	Roberto Christ Vianna Santos	2015		In vitro repellent effect of tea tree (Melaleuca alternifolia) and andiroba (Carapa guianensis) oils on Haemotobia irritans and Chrysomya megacephala flies.	Tropical Biomedicine	KLAUCK, V. ; PAZINATO, R. ; Ravelli, WM ; VOLPATO, A. ; STEFANI, L. ; Santos, Roberto Christ Vianna ; VAUCHER, RODRIGO A. ; BOLIGON, ALINE AUGUSTI ; ATHAYDE, MARGARETH LINDE ; da Silva, A, S.	Qualis nao identificado	Tropical Biomedicine
artigoEmPeriodico	Roberto Christ Vianna Santos	2015	http://dx.doi.org/10.1016/j.aspen.2015.01.004	Antimicrobial activity of nanostructured Amazonian oils against Paenibacillus species and their toxicity on larvae and adult worker bees	Journal of Asia Pacific Entomology	de Almeida Vaucher, Rodrigo ; Giongo, Janice Luehring ; BOLZAN, LEANDRO PERGER ; CÔRREA, MARCOS SALDANHA ; FAUSTO, VIVIANE PEDROSO ; Alves, Camilla Filippi dos Santos ; Lopes, Leonardo Quintana Soares ; BOLIGON, ALINE AUGUSTI ; ATHAYDE, MARGARETH LINDE ; MOREIRA, ATTUS PEREIRA ; Brandelli, Adriano ; RAFFIN, RENATA PLATCHEK ; Santos, Roberto Christ Vianna	Qualis nao identificado	Journal of Asia Pacific Entomology
artigoEmPeriodico	Roberto Christ Vianna Santos	2015	http://dx.doi.org/10.1080/10412905.2015.1010045	Influence of rosemary, andiroba and copaiba essential oils on different stages of the biological cycle of the tick <i>Rhipicephalus microplus in vitro</i>	The Journal of Essential Oil Research	VOLPATO, ANDREIA ; GROSSKOPF, RHAYANAK. ; SANTOS, ROBERTOC. ; VAUCHER, RODRIGOA. ; RAFFIN, RENATAP. ; BOLIGON, ALINEA. ; ATHAYDE, MARGARETHL. ; STEFANI, LENITAM. ; DASILVA, ALEKSANDROS.	B1	
artigoEmPeriodico	Roberto Christ Vianna Santos	2015		Molecular Identification of Aeromonas spa isolated from patients with diarrhea at Santa Maria-RS, Brazil	International Journal of Pharmacy and Pharmaceutical Sciences	ROSSATO, A. M. ; PREDIGER, K. ; GOMES, C. N. ; WINCKLER-NETO, C.H.D.P ; PEREIRA, Renata da Silva ; DALLAGASSA, C. B. ; SANTOS, ROBERTO C. V. ; PICHETH, C. M. T. ; VIZZOTTO, Bruno Stefanello	B4	
artigoEmPeriodico	Roberto Christ Vianna Santos	2015	http://dx.doi.org/10.4172/2165-8056.1000118	Fungal infections in honey bees	Fungal Genomics and Biology	Lopes, Leonardo Quintana Soares ; QUATRIN, P. M. ; SOUZA, M. E. ; VAUCHER, R. A. ; SANTOS, ROBERTO C. V.	Qualis nao identificado	Fungal Genomics and Biology
artigoEmPeriodico	Roberto Christ Vianna Santos	2015	http://dx.doi.org/10.1590/0001-3765201520140282	In vitro growth-inhibitory effect of Brazilian plants extracts against Paenibacillus larvae and toxicity in bees	Anais da Academia Brasileira de Ciências (Online)	PIANA, M. ; BRUM, T. F. ; BOLIGON, A. A. ; ALVES, C. F. S. ; FREITAS, R. B. ; NUNES, L. T. ; MOSSMANN, N. ; JANOVIK, V. ; JESUS, R. S. ; VAUCHER, Rodrigo de Almeida ; SANTOS, R. C. V. ; ATHAYDE, M. L.	A1	Anais da Academia Brasileira de Ciências (Impresso)
artigoEmPeriodico	Roberto Christ Vianna Santos	2015	http://dx.doi.org/10.1017/S0022149X15000401	In vitro activity of essential oils of free and nanostructure Melaleuca alternifolia and of trepanned-4-ol on eggs and larvae of Haemonchus contortus	Journal of Helminthology	GRANDO, T. H. ; VAUCHER, R. A. ; MONTEIRO, SILVIA G. ; Santos, Roberto Christ Vianna	B1	
artigoEmPeriodico	Roberto Christ Vianna Santos	2015		Melaleuca alternifolia essential oil against the lesser mealworm (Alphitobious diaperinus) and its possible effect on the soil fauna	Revista Brasileira de Ciência Avícola / Brazilian Journal of Poultry Science	VOLPATO, A. ; LORENZETTI, W. R. ; ZORTEA, T. ; GIOMBELLI, L. ; BARETTA, D. ; Santos, Roberto Christ Vianna ; VAUCHER, R. A. ; RAFFIN, R. P. ; SOUZA, M. E. ; STEFANI, LENITAM. ; BOLIGON, ALINE A. ; ATHAYDE, MARGARETH L. ; da Silva, A, S.	B1	
artigoEmPeriodico	Roberto Christ Vianna Santos	2015		Avaliação de diferentes substratos para a formação de biofilmes in vitro de Pseudomonas aeroginosa.	Disciplinarum Scientia. Série Ciências da Saúde	QUATRIN, P. M. ; Lopes, Leonardo Quintana Soares ; COMIM, V. ; GUNDEL, A. ; VAUCHER, R. A. ; Santos, Roberto Christ Vianna	B5	
artigoEmPeriodico	Roberto Christ Vianna Santos	2015		Eficácia de dois métodos de degermação das mãos	Revista de Cirurgia e Traumatologia Buco-Maxilo-Facial (Online)	DOTTO, Patrícia ; ZUCUNI, C. P. ; ANTES, G. B. ; FERNANDES, M. ; FAVARIN, A. G. ; ZIMMERMAN, B. ; BARBOZA, V. S. ; Santos, Roberto Christ Vianna	B4	Revista de Cirurgia e Traumatologia Buco-Maxilo-Facial (Impresso)
artigoEmPeriodico	Roberto Christ Vianna Santos	2015		Avaliação da atividade antimicrobiana do óleo de orégano livre e em nanoemulsões	Disciplinarum Scientia. Série Ciências Naturais e Tecnológicas	BOLZAN, A. A. ; Lopes, Leonardo Quintana Soares ; MARIN, L. S. ; SANTOS, ROBERTO C. V. ; RAFFIN, R. P. ; FAGAN, S. B. ; BULHOES, L. O. S.	B3	
artigoEmPeriodico	Roberto Christ Vianna Santos	2015		Atividade antibiofilme e caracterização de lipossoma contendo escina em cateter urinário	Disciplinarum Scientia. Série Ciências Naturais e Tecnológicas	DUMKE, N. M. ; FERNANDES, L. ; HOELZEL, Solange Cristina Martins ; RECH, V. C. ; VAUCHER, R. A. ; RAFFIN, R. P. ; SANTOS, ROBERTO C. V. ; GOMES, P.	B3	
artigoEmPeriodico	Roberto Christ Vianna Santos	2015		Antimycobacterial, antimicrobial and antifungal activities of Geranium Oil-Ioaded nanocapsules.	International Journal of Pharmacy and Pharmaceutical Sciences	Giongo, J.L ; VAUCHER, Rodrigo de Almeida ; BORIN, D.B (Diego Becker Borin) ; CORRÊA, M.S ; BARBOZA, V. S. ; SANTOS, R. C. V. ; BOLIGON, A. A. ; ATHAYDE, M. L. ; BONEZ, P. C. ; ROSSIE, G. G. ; CAMPOS, M. M. A. ; GOMES, P. ; STEPPE, M.	B4	
artigoEmPeriodico	Roberto Christ Vianna Santos	2015	http://dx.doi.org/10.1016/j.pdpdt.2015.08.008	Antimicrobial photodynamic effect of phenothiazinic photosensitizers in formulations with ethanol on Pseudomonas aeruginosa biofilms	Photodiagnosis and Photodynamic Therapy (Print)	PROCHNOW, EMILIA PITHAN ; MARTINS, MARITIELI RIGHI ; CAMPAGNOLO, CIBELE BRUNO ; VIANNA, ROBERTO CHRIST ; VILLETTI, MARCOS ANTONIO ; KANTORSKI, KARLA ZANINI	A2	
trabalhoCompletoEmCongresso	Roberto Christ Vianna Santos	2015		Nanotecnologia aplicada ao controle de cupins	XIX SEPE - Simpósio de Ensino	CLERICI, D. J. ; SANTOS, ROBERTO C. V.		
trabalhoCompletoEmCongresso	Roberto Christ Vianna Santos	2015		Produção e avaliação da atividade antimicrobiana de nanotubos de carbono	XIX SEPE - Simpósio de Ensino	LOPES, LEONARDO Q.S. ; QUATRIN, PRISCILLA M. ; SANTOS, R.C.V.		
trabalhoCompletoEmCongresso	Roberto Christ Vianna Santos	2015		Avaliação da citotoxiciadde de nanocápsulas contendo Monolaurato de glicerol	XIX SEPE - Simpósio de Ensino	LOPES, LEONARDO Q.S. ; VAUCHER, R. A. ; SAGRILLO, M. R. ; SANTOS, C. G. ; SANTOS, R.C.V.		
trabalhoCompletoEmCongresso	Roberto Christ Vianna Santos	2015		Desenvolvimento, caracterização e avaliação da atividade antimicrobiana de nanoemulsões de Thymus vulgaris	XIX SEPE - Simpósio de Ensino	BANDEIRA, J. R. ; BOLIGON, A. A. ; OURIQUE, A. F. ; SOUZA, M. E. ; Margareth Linde Athayde ; QUATRIN, P. M. ; VAUCHER, R. A. ; SANTOS, R.C.V.		
trabalhoCompletoEmCongresso	Roberto Christ Vianna Santos	2015		Atividade antimicrobiana de nanopartículas de Melaleuca alternifolia em biofilme dentário	XIX SEPE - Simpósio de Ensino	SOUZA, M. E. ; ANTONIAZZI, R. P. ; MARTINEZ, DIEGO S.T. ; RAFFIN, R. P. ; SANTOS, R.C.V.		
trabalhoCompletoEmCongresso	Roberto Christ Vianna Santos	2015		Atividade antimicrobiana de nanoemulsões contendo óleo de Eucalipto globulus frente a Candida albicans	VII Workshop em Nanociências	QUATRIN, P. M. ; BANDEIRA, J. R. ; OURIQUE, A. F. ; VAUCHER, R. A. ; SANTOS, R.C.V.		
trabalhoCompletoEmCongresso	Roberto Christ Vianna Santos	2015		Citotoxicidade de nanocápsulas contendo Monolaurato de glicerol em macrófagos	VII Workshop em Nanociências	SANTOS, C. G. ; RAMOS, A. P. ; LOPES, LEONARDO Q.S. ; FAGAN, S. B. ; RAFFIN, R. P. ; SAGRILLO, M. R. ; VAUCHER, R. A. ; SANTOS, R.C.V.		
trabalhoCompletoEmCongresso	Roberto Christ Vianna Santos	2015		Efeito antimicrobiano de nanopartículas de Melaleuca alternifolia em biofilme bucal	VII Workshop em Nanociências	SOUZA, M. E. ; FLECK, G. ; MARIN, L. S. ; ANTONIAZZI, R. P. ; MARTINEZ, DIEGO S.T. ; RAFFIN, R. P. ; SANTOS, R.C.V.		
trabalhoCompletoEmCongresso	Roberto Christ Vianna Santos	2015		Desenvolvimento, caracterização e atividade antimicrobiana de nanoemulsões contendo óleo essencial de Capim limão (Cymbopogom citratus	VII Workshop em Nanociências	SOUZA, M. E. ; QUATRIN, P. M. ; ALVES, M. P. ; RAFFIN, R. P. ; FAGAN, S. B. ; SANTOS, R.C.V.		
artigoEmPeriodico	Renata Platcheck Raffin	2015	http://dx.doi.org/10.1002/bmc.3531	Simultaneous separation and sensitive detection of naringin and naringenin in nanoparticles by chromatographic method indicating stability and photodegradation kinetics	BMC. Biomedical Chromatography	CORDENONSI, LETICIA MALGARIM ; BROMBERGER, NATHANY GENRO ; RAFFIN, RENATA PLATCHECK ; SCHERMAN, ELFRIDES EVA	Qualis nao identificado	BMC. Biomedical Chromatography
artigoEmPeriodico	Renata Platcheck Raffin	2015		DESENVOLVIMENTO, CARACTERIZAÇÃO E AVALIAÇÃO DA CITOTOXICIDADE DE NARINGINA E NARINGENINA NANOENCAPSULADAS	Disciplinarum Scientia. Série Ciências Naturais e Tecnológicas	Ferreira, C. F. ; CORDENONSI, L. M. ; GENRO, C. ; Roggia. I. ; BANDEIRA, F. ; RODRIGUES JUNIOR, L. C. ; boeck, c. r. ; Raffin, Renata P	B3	
artigoEmPeriodico	Renata Platcheck Raffin	2015	http://dx.doi.org/10.1016/j.aspen.2015.01.004	Antimicrobial activity of nanostructured Amazonian oils against Paenibacillus species and their toxicity on larvae and adult worker bees	Journal of Asia Pacific Entomology	DE ALMEIDA VAUCHER, RODRIGO ; GIONGO, JANICE LUEHRING ; BOLZAN, LEANDRO PERGER ; CÔRREA, MARCOS SALDANHA ; FAUSTO, VIVIANE PEDROSO ; ALVES, CAMILLA FILIPPI DOS SANTOS ; LOPES, LEONARDO QUINTANA SOARES ; BOLIGON, ALINE AUGUSTI ; ATHAYDE, MARGARETH LINDE ; MOREIRA, ATTUS PEREIRA ; BRANDELLI, ADRIANO ; RAFFIN, RENATA PLATCHEK ; SANTOS, ROBERTO CHRIST VIANNA	Qualis nao identificado	Journal of Asia Pacific Entomology
artigoEmPeriodico	Renata Platcheck Raffin	2015	http://dx.doi.org/10.1080/10412905.2015.1010045	Influence of rosemary, andiroba and copaiba essential oils on different stages of the biological cycle of the tick <i>Rhipicephalus microplus in vitro</i>	The Journal of Essential Oil Research	VOLPATO, ANDREIA ; GROSSKOPF, RHAYANAK. ; SANTOS, ROBERTOC. ; VAUCHER, RODRIGOA. ; RAFFIN, RENATAP. ; BOLIGON, ALINEA. ; ATHAYDE, MARGARETHL. ; STEFANI, LENITAM. ; DASILVA, ALEKSANDROS.	B1	
artigoEmPeriodico	Renata Platcheck Raffin	2015	http://dx.doi.org/10.1016/j.ejps.2015.08.016	Co-encapsulation of imiquimod and copaiba oil in novel nanostructured systems: promising formulations against skin carcinoma	European Journal of Pharmaceutical Sciences	VENTURINI, CRISTINA G. ; BRUINSMANN, FRANCIELE A. ; CONTRI, RENATA V. ; FONSECA, FRANCISCO N. ; FRANK, LUIZA A. ; D?AMORE, CAMILO M. ; Raffin, Renata P. ; BUFFON, ANDRÉIA ; Pohlmann, Adriana R. ; Guterres, Silvia S.	A2	
artigoEmPeriodico	Renata Platcheck Raffin	2015	http://dx.doi.org/10.1017/s0022149x15000401	In vitro activity of essential oils of free and nanostructured Melaleuca alternifolia and of terpinen-4-ol on eggs and larvae of Haemonchus contortus	Journal of Helminthology	GRANDO, T.H. ; DE SÁ, M.F. ; BALDISSERA, M.D. ; OLIVEIRA, C.B. ; DE SOUZA, M.E. ; RAFFIN, R.P. ; SANTOS, R.C.V. ; DOMINGUES, R. ; MINHO, A.P. ; LEAL, M.L.R. ; MONTEIRO, S.G.	B1	
artigoEmPeriodico	Renata Platcheck Raffin	2015		DESENVOLVIMENTO DE NANOPARTÍCULAS CONTENDO MELANINA PARA AUMENTAR A EFICÁCIA DE DEPILAÇÃO ATRAVÉS DE LUZ PULSADA INTENSA	Disciplinarum Scientia. Série Ciências Naturais e Tecnológicas	BARBOSA, G. M. ; GENRO, C. ; Felippi, C. C. ; CONTRI, RENATA V. ; Fagan, Solange B. ; RAFFIN, R. P.	B3	
artigoEmPeriodico	Renata Platcheck Raffin	2015		AVALIAÇÃO DA ATIVIDADE ANTIMICROBIANA DO ÓLEO DE ORÉGANO LIVRE E EM NANOEMULSÕES	Disciplinarum Scientia. Série Ciências Naturais e Tecnológicas	BOLZAN, A. A. ; LOPES, LEONARDO QUINTANA SOARES ; MARIN, L. S. ; SANTOS, R. C. V. ; RAFFIN, R. P. ; Fagan, Solange B. ; BULHOES, L. O. S.	B3	
artigoEmPeriodico	Renata Platcheck Raffin	2015		ATIVIDADE ANTIBIOFILME E CARACTERIZAÇÃO DE LIPOSSOMA CONTENDO ESCINA EM CATETER URINÁRIO	Disciplinarum Scientia. Série Ciências Naturais e Tecnológicas	DUMKE, N. M. ; FERNANDES, L. ; HOELZEL, Solange Cristina Martins ; RECH, V. C. ; VAUCHER, R. A. ; RAFFIN, R. P. ; SANTOS, ROBERTO C. V. ; GOMES, P.	B3	
artigoEmPeriodico	Renata Platcheck Raffin	2015		SIMULAÇÃO DE PRIMEIROS PRINCÍPIOS DE TEMOZOLAMIDA INTERAGINDO COM NANOESTRUTURAS	Disciplinarum Scientia. Série Ciências Naturais e Tecnológicas	VENDRAME, L. ; RAFFIN, R. ; FAGAN, S.B. ; ZANELLA, Ivana	B3	
artigoEmPeriodico	Renata Platcheck Raffin	2015		PÓS DE ÓXIDO DE ZINCO NANOESTRUTURADOS PRODUZIDOS PELO MÉTODO DE SÍNTESE POR COMBUSTÃO EM SOLUÇÃO UTILIZANDO GLICINA COMO COMBUSTÍVEL	Disciplinarum Scientia. Série Ciências Naturais e Tecnológicas	TONEL, M. Z. ; FARIAS, E. S. ; FAGAN, S.B. ; RAFFIN, R. ; MACHADO, Fernando Machado	B3	
artigoEmPeriodico	Renata Platcheck Raffin	2015		INTERAÇÃO DA β-CICLODEXTRINA COM DIFERENTES METILXANTINAS	Disciplinarum Scientia. Série Ciências Naturais e Tecnológicas	Roggia. I. ; TONEL, M. Z. ; RAFFIN, R. P. ; Zanella, I. ; Fagan, Solange B.	B3	
artigoEmPeriodico	Renata Platcheck Raffin	2015		ADSORÇÃO DE ALARANJADO DE METILA EM TITANATOS NANOESTRUTURADOS	Disciplinarum Scientia. Série Ciências Naturais e Tecnológicas	SCHARWZ, Stefanie Camile ; SANCHES, A. C. ; FAGAN, S.B. ; RAFFIN, R. ; BULHOES, L. O. S.	B3	
artigoEmPeriodico	Renata Platcheck Raffin	2015		Uso de blendas poliméricas em nano e microencapsulação	Disciplinarum Scientia. Série Ciências Naturais e Tecnológicas	GENRO, C. ; Roggia. I. ; FERNANDES, Liana da S ; RAFFIN, R. P.	B3	
artigoEmPeriodico	Renata Platcheck Raffin	2015		Melaleuca alternifolia essential oil against the lesser mealworm (Alphitobious diaperinus) and its possible effect on the soil fauna	Revista Brasileira de Ciência Avícola / Brazilian Journal of Poultry Science	VOLPATO, A. ; LORENZETTI, W. R. ; ZORTEA, T. ; GIOMBELLI, L. ; BARETTA, D. ; Santos, Roberto Christ Vianna ; VAUCHER, R. A. ; RAFFIN, R. P. ; SOUZA, M. E. ; STEFANI, LENITAM. ; BOLIGON, ALINE A. ; ATHAYDE, MARGARETH L. ; da Silva, A, S.	B1	
trabalhoCompletoEmCongresso	Renata Platcheck Raffin	2015		ESTABILIDADE E EFICÁCIA CLINICA DE ATIVO NANOESTRUTURADO VERDE COM POTENCIAL CALMANTE E HIDRATANTE POS PEELING	28º Congresso Brasileiro de Cosmetologia	ZIMMERMANN, R. ; BITTENCOURT, M. S. ; Felippi, C. C. ; CONTRI, R. V. ; RAFFIN, R.		
artigoEmPeriodico	Jussane Rossato	2015		ADSORÇÃO DE DIAZEPAM COM ÓXIDO DE GRAFENO: UMA ABORDAGEM DE PRIMEIROS PRINCÍPIOS	Disciplinarum Scientia. Série Ciências Naturais e Tecnológicas	JUNGES, T. A. ; JAURIS, I. M. ; ROSSATO, J.	B3	
artigoEmPeriodico	Jussane Rossato	2015		ADSORÇÃO FÍSICA DO FULERENO COM O 5-FLUORUORACIL: UM ESTUDO TEÓRICO	Disciplinarum Scientia. Série Ciências Naturais e Tecnológicas	GOULART, L. ; TONEL, M. Z. ; ROSSATO, J.	B3	
artigoEmPeriodico	Ivana Zanella da Silva	2015	http://dx.doi.org/10.1155/2015/380348	Carboxylated Capped Carbon Nanotubes Interacting with Nimesulide Molecules: Applied Electric Fields Effects	Journal of Nanomaterials (Print)	MACHADO DE MENEZES, VIVIAN ; ZANELLA, Ivana ; FAGAN, S.B.	Qualis nao identificado	Journal of Nanomaterials (Print)
artigoEmPeriodico	Ivana Zanella da Silva	2015		Interação da hemoglobina com dióxido de enxofre e monóxido de carbono via simulação computacional	Disciplinarum Scientia. Série Ciências Naturais e Tecnológicas	OLIVEIRA, P. V. ; ZANELLA, Ivana ; FAGAN, S.B.	B3	
artigoEmPeriodico	Ivana Zanella da Silva	2015		INTERAÇÃO DA β-CICLODEXTRINA COM DIFERENTES METILXANTINAS	Disciplinarum Scientia. Série Ciências Naturais e Tecnológicas	Roggia. I. ; TONEL, M. Z. ; RAFFIN, R. P. ; Zanella, I. ; Fagan, Solange B.	B3	
artigoEmPeriodico	Ivana Zanella da Silva	2015		Adsorção do fármaco nimesulida em nanoestruturas de carbono	Disciplinarum Scientia. Série Ciências Naturais e Tecnológicas	JAURIS, I. ; SCHOPF, P. F. ; SANTOS, C. L. ; FAGAN, S.B. ; ZANELLA, Ivana	B3	
artigoEmPeriodico	Ivana Zanella da Silva	2015		Simulação de primeiros princípios de temozolamida interagindo com nanoestruturas	Disciplinarum Scientia. Série Ciências Naturais e Tecnológicas	L. O. Vendrame ; RAFFIN, R. P. ; S. B. Fagan ; Ivana Zanella	B3	
artigoEmPeriodico	Ivana Zanella da Silva	2015		Interação de nanofitas grafeno e siliceno armchair com bases de dna: um estudo ab initio	Disciplinarum Scientia. Série Ciências Naturais e Tecnológicas	MARTINS, M. ; SIMAO, E. M. ; FLORES, G. F. ; ZANELLA, Ivana ; FAGAN, S.B.	B3	
trabalhoCompletoEmCongresso	Ivana Zanella da Silva	2015		DEFORMAÇÃO RADIAL DE NANOTUBOS DE CARBONO ARMCHAIR DE DIFERENTES DIÂMETROS: UM ESTUDO DE PRIMEIROS PRINCÍPIOS	XIX Simpósio de Ensino	LARA, I. V. ; ZANELLA, Ivana ; FAGAN, S.B.		
trabalhoCompletoEmCongresso	Ivana Zanella da Silva	2015		C61(COOH)2 INTERAGINDO COM ANTIVIRAL RIBAVIRINA	XIX Simpósio de Ensino	L. O. Vendrame ; Ivana Zanella		
artigoEmPeriodico	Giovani Rubert Librelotto	2015	http://dx.doi.org/10.1504/IJCSE.2015.070997	OntoHealth: a system to process ontologies applied to health pervasive environment	International Journal of Computational Science and Engineering	LIBRELOTTO, Giovani R.; FREITAS, Leandro O. ; FIORIN, ANDRÉ ; MOZZAQUATRO, B. A. ; PASETTO, LEANDRO ; MARTINI, RICARDO G. ; AZEVEDO, RENATO P. DE ; PEREIRA, RAFAEL T.	B1	Journal of Computational Science
artigoEmPeriodico	Giovani Rubert Librelotto	2015		Sistema de Emergência Inteligente Baseado em Conhecimento Ontológico	Revista do CCEI	FUGALI, F. M. ; LONDERO, F. T. ; LIBRELOTTO, Giovani R.	B3	
trabalhoCompletoEmCongresso	Giovani Rubert Librelotto	2015		Especificação de Uma Arquitetura para Migração de Máquinas Virtuais Utilizando Ontologias	ENCOSIS 2015 - Encontro Regional de Computação e Sistemas de Informação	ROHDEN, R. ; STEIN, B. O. ; Librelotto, Giovani		
resumoExpandidoEmCongresso	Giovani Rubert Librelotto	2015	Entering Inflammaging pathways into Ontocancro 3.0	Escola Gaúcha de Bioinformática (EGB 2015), 2015, Porto Alegre, RS. Escola Gaúcha de Bioinformática	FALCADE, L. ; Librelotto, Giovani ; STRINGHINI, R. M.		
resumoExpandidoEmCongresso	Giovani Rubert Librelotto	2015	Generating transcriptional networks through using text mining techniques for Prokaryotic organisms	X-Meeting 2015 - 11th International Conference of th AB3C + Brazilian Symposium of Bioinformatics, 2015, São Paulo, SP. Proceedings X-Meeting 2015	PEREIRA, RAFAEL T. ; COSTA, H. ; CARNEIRO, S. ; Librelotto, Giovani ; ROCHA, M. ; MENDES, R.		
resumoExpandidoEmCongresso	Giovani Rubert Librelotto	2015	Assessing the Antitumor Efficacy of Doxobuvicinloaded Nanoparticles by in Vitro Cell Models	Segundo Congreso Latino-Americano sobre Métodos Alternativos en los Ensayos, la Investigación, la Industria y la Educación (COLAMA 2015), 2015, Varadero. Proceedings of Segundo Congreso Latino-Americano sobre Métodos Alternativos en los Ensayos, la Investigación, la Industria y la Educación (COLAMA 2015)	NOGUEIRA, D. R. ; VINARDELL, P. ; MITJANS, M. ; LIBRELOTTO, Giovani R. ; ROLIM, C. B.		
artigoEmPeriodico	Eder Maiquel Simão	2015	http://dx.doi.org/10.1590/0037-8682-0163-2015	Comparative study of lymphocytes from individuals that were vaccinated and unvaccinated against the pandemic 2009-2011 H1N1 influenza virus in Southern Brazil	Sociedade Brasileira de Medicina Tropical. Revista	FREITAS, D. N. ; ISAIA, H. A. ; GASSEN, R. B. ; HENZEL, A. ; SIMÃO, E. M. ; RODRIGUES JUNIOR, L. C.	Qualis nao identificado	Sociedade Brasileira de Medicina Tropical. Revista
artigoEmPeriodico	Eder Maiquel Simão	2015		Análise da interação proteica na evolução do câncer	Scientia Plena	Rodrigues, L. H. R. ; BUGS, C. A. ; SIMÃO, E. M.	B3	
artigoEmPeriodico	Eder Maiquel Simão	2015		Interação de Nanofitas de Grafeno e Siliceno Armchair com Bases de DNA: Um Estudo Ab Initio	Disciplinarum Scientia. Série Ciências Naturais e Tecnológicas	MARTINS, M. ; SIMAO, E. M. ; FLORES, G. F. ; ZANELLA, Ivana ; FAGAN, S.B.	B3	
artigoEmPeriodico	Eder Maiquel Simão	2015		Biomarcadores em Câncer de Pulmão, Próstata e Mama	Disciplinarum Scientia. Série Ciências Naturais e Tecnológicas	COSTA, R. J. ; BAU, C. E. G. ; RODRIGUES JUNIOR, L. C. ; BUGS, C. A. ; CLAUS, T. V. ; SIMÃO, E. M.	B3	
artigoEmPeriodico	Eder Maiquel Simão	2015		Mapeamento dos genes diferencialmente expressos em vias de estabilidade genômica	Disciplinarum Scientia. Série Ciências Naturais e Tecnológicas	VIEIRA, S. A. G. ; SIMÃO, E. M.	B3	
artigoEmPeriodico	Luis Otavio de Sousa Bulhões	2015		Avaliação da atividade antimicrobiana do óleo de orégano livre e em nanoemulsões	Disciplinarum Scientia. Série Ciências Naturais e Tecnológicas	BOLZAN, A. A. ; LOPES, LEONARDO QUINTANA SOARES ; MARIN, L. S. ; SANTOS, R. C. V. ; RAFFIN, R. P. ; Fagan, Solange B. ; BULHOES, L. O. S.	B3	
artigoEmPeriodico	Luis Otavio de Sousa Bulhões	2015		Desenvolvimento e estabilidade de nanoemulsões contendo o óleo de framboesa	Disciplinarum Scientia. Série Ciências Naturais e Tecnológicas	PINTON, A. P. ; Bulhões, L.O.S.	B3	
artigoEmPeriodico	Luis Otavio de Sousa Bulhões	2015		Adsorção de alaranjado de metila em titanatos nanoestruturados	Disciplinarum Scientia. Série Ciências Naturais e Tecnológicas	SCHARWZ, Stefanie Camile ; SANCHES, A. C. ; FAGAN, S.B. ; RAFFIN, R. ; BULHOES, L. O. S.	B3	
artigoEmPeriodico	Luis Otavio de Sousa Bulhões	2015		Fotoeletrocatálise da rodamina 6G em filmes finos nanoestruturados de TiO2	Disciplinarum Scientia. Série Ciências Naturais e Tecnológicas	MARQUES, J. F. Z. ; CARDOSO, G. L. ; MORTARI, S. R. ; BULHÕES, L. O. S.	B3	
resumoExpandidoEmCongresso	Luis Otavio de Sousa Bulhões	2015	Impedance analysis for medical and electrochemical applications using a simplified method	7º Simpósio de Instrumentação e Imagens Médicas (SIIM) / 6º Simpósio de Processamento de Sinais da UNICAMP, 2015, Campinas SP. Anais do 7º Simpósio de Instrumentação e Imagens Médicas (SIIM) / 6º Simpósio de Processamento de Sinais da UNICAMP	Tambar, R. V. ; BULHÕES, L. O. S.		
resumoExpandidoEmCongresso	Luis Otavio de Sousa Bulhões	2015	Comparativo entre processos de deposição de filmes nanoestruturados em próteses médicas	XIX Simpósio de Ensino, Pesquisa e Extensão - SEPE, 2015, Santa Maria, Rio Grande do Sul. Anais do XIX Simpósio de Ensino, Pesquisa e Extensão - SEPE	SEVERO, V. A. ; Volkmer, T. M. ; CADO, R. G. ; BULHÕES, L. O. S.		
artigoEmPeriodico	Liana da Silva Fernandes	2015		ATIVIDADE ANTIBIOFILME E CARACTERIZAÇÃO DE LIPOSSOMA CONTENDO ESCINA EM CATETER URINÁRIO	Disciplinarum Scientia. Série Ciências Naturais e Tecnológicas	DUMKE, N. M. ; FERNANDES, L. ; HOELZEL, Solange Cristina Martins ; RECH, V. C. ; VAUCHER, R. A. ; RAFFIN, R. P. ; SANTOS, ROBERTO C. V. ; GOMES, P.	B5	
artigoEmPeriodico	Liana da Silva Fernandes	2015		USO DE BLENDAS POLIMÉRICAS EM NANO E MICROENCAPSULAÇÃO	Disciplinarum Scientia. Série Ciências Naturais e Tecnológicas	SANTOS, C. G. ; ROGGIA, I. ; FERNANDES, Liana da S. ; RAFFIN, R. P.	B3	
artigoEmPeriodico	Cristiane Luchese	2015	http://dx.doi.org/10.1590/s1984-82502015000400008	Validation of high performance liquid chromatography method for determination of meloxicam loaded PEGylated nanocapsules	Brazilian Journal of Pharmaceutical Sciences (Online)	Ianiski, F.R ; LAPORTA, L. V. ; RUBIM, A. M. ; LUCHESE, Cristiane	B2	
artigoEmPeriodico	Cristiane Luchese	2015	http://dx.doi.org/10.1039/c5ay02231b	Production and characterization of diphenyl ditelluride-loaded nanocapsules: validation using an analytical method	Analytical Methods (Print)	DA SILVA, FERNANDA D AVILA ; IANISKI, FRANCINE R ; LUCHESE, Cristiane ; NETO, JOSE ; ZENI, Gilson ; LAPORTA, LUCIANE ; RUBIM, ALEXANDRE ; HOELZEL, SOLANGE	B1	
resumoExpandidoEmCongresso	Cristiane Luchese	2015	Avaliação da atividade antioxidante do composto 2,4 difenil-quinolina	XVII Encontro de Pós-graduação, 2015, Pelotas. XVII Encontro de Pós-graduação	SILVA, V. D. G. ; JUCIELE, M. ; STEIN, Andre L ; ZENI, Gilson ; LUCHESE, Cristiane ; WILHELM, ETHEL A.		
resumoExpandidoEmCongresso	Cristiane Luchese	2015	Avaliação da ação central e duração do efeito antinociceptivo de 7-cloro-4(fenilseleno)quinolina em camundongos	XXIV Congresso de Inicicação Científica, 2015, Pelotas. XXIV Congresso de Inicicação Científica	PINZ, M. ; SCHIAVON, A. ; DUARTE, L. F. B. ; ALVES, Diego ; LUCHESE, Cristiane ; WILHELM, ETHEL A.		
resumoExpandidoEmCongresso	Cristiane Luchese	2015	AVALIAÇÃO DA ATIVIDADE ANTIOXIDANTE DE 7-CLORO-2,4-DIFENIL-3- FENILSELENIL-QUINOLINA	XXIV Congresso de Inicicação Científica, 2015, Pelotas. XXIV Congresso de Inicicação Científica	LIMA, A. ; FERREIRA, A. T. ; ROCHA, M. J. ; DUARTE, L. F. B. ; ALVES, Diego ; WILHELM, ETHEL A. ; Luchese, C.		
resumoExpandidoEmCongresso	Cristiane Luchese	2015	AVALIAÇÃO DO EFEITO TIPO-ANSIOLÍTICO DE 7- CLORO - 4 - (FENILSELENO)QUINOLINA EM CAMUNDONGOS	XXIV Congresso de Inicicação Científica, 2015, Pelotas. XXIV Congresso de Inicicação Científica	REIS, A. ; PINZ, M. ; DUARTE, L. F. B. ; ALVES, Diego ; Luchese, C. ; WILHELM, ETHEL A.		
resumoExpandidoEmCongresso	Cristiane Luchese	2015	AVALIAÇÃO DA ATIVIDADE ANTIOXIDANTE DE 6-FENILSELENIL PURINA	XXIV Congresso de Inicicação Científica, 2015, Pelotas. XXIV Congresso de Inicicação Científica	FERREIRA, A. T. ; LIMA, A. ; SILVA, V. D. G. ; DUARTE, L. F. B. ; ALVES, Diego ; WILHELM, ETHEL A. ; Luchese, C.		
artigoEmPeriodico	Cláudia Lange dos Santos	2015		Adsorção do fármaco nimesulida em nanoestruturas de carbono	Disciplinarum Scientia. Série Ciências Naturais e Tecnológicas	JAURIS, I. M. ; SCHOPF, P. F. ; SANTOS, C. L. ; FAGAN, S. B. ; SILVA, I. Z.	B3	
artigoEmPeriodico	Carina Rodrigues Boeck	2015	http://dx.doi.org/10.1016/j.bbr.2014.12.056	Adenosine A1 receptor activation modulates N-methyl-d-aspartate (NMDA) preconditioning phenotype in the brain	Behavioural Brain Research	Constantino, Leandra C. ; PAMPLONA, FABRÍCIO A. ; Matheus, Filipe C. ; Ludka, Fabiana K. ; GOMEZ-SOLER, MARICEL ; Ciruela, Francisco ; BOECK, C. R. ; PREDIGER, RUI D. ; TASCA, C. I.	A1	
artigoEmPeriodico	Carina Rodrigues Boeck	2015		Desenvolvimento, caracterização e avaliaçao da citotoxicidade de naringina e naringenina nanoencapsuladas	Disciplinarum Scientia. Série Ciências Naturais e Tecnológicas	FERREIRA, C. F. ; CORDENONSI, L. M. ; SANTOS, C. G. ; ROGGIA, I. ; SULCZEWSKI, F. B. ; RODRIGUES JUNIOR, L. C. ; BOECK, CARINA C. ; RAFFIN, R. P.	B3	
artigoEmPeriodico	Aline Ferreira Ourique	2015		Tretinoin-loaded lipid-core nanocapsules decrease reactive oxygen species levels and improve bovine embryonic development during in vitro oocyte maturation.	Reproductive Toxicology (Elmsford, N.Y.)	LUCAS, C. ; REMIAO, M. ; KOMNINOU, E. R. ; DOMINGUES, W. B. ; HASS, C. S. ; LEON, P. M. ; CAMPOS, V. F. ; OURIQUE, A. F. ; GUTERRES, S. S. ; POHLMANN, A. R. ; BASSO, A. ; SEIXAS, F. K. ; BECK, R. C. R. ; COLLARES, T.	A2	
artigoEmPeriodico	Aline Ferreira Ourique	2015		Influência de Ultrasonicação no Diâmetro Médio de Vesículas Lipossomais.	Disciplinarum Scientia. Série Ciências Naturais e Tecnológicas	MOREIRA, M. E. S. ; HERBST JUNIOR, C. G. ; MELLO, P. A. ; OURIQUE, A. F. ; MORTARI, S. R.	B3	
trabalhoCompletoEmCongresso	Aline Ferreira Ourique	2015		DESENVOLVIMENTO, CARACTERIZAÇÃO E AVALIAÇÃO DA ATIVIDADE ANTIMICROBIANA DE UMA NANOEMULSAO DE Thymus vulgaris	XIX Simpósio de ensino	BANDEIRA, J. R. ; BOLIGON, A. A. ; OURIQUE, A. F. ; SOUZA, M. E. ; ATHAYDE, M. L. ; QUATRIN, P. ; VAUCHER, R. ; SANTOS, R. C. V.		
