strict digraph grafo3 {
	graph [bb="0,0,1253,721",
		id=grafo3,
		overlap=False
	];
	node [fontsize=8,
		label="\N",
		shape=rectangle,
		style=filled
	];
	0	 [URL="http://lattes.cnpq.br/0891028206544818",
		color="#17272B",
		fontcolor="#FFFFFF",
		height=0.23611,
		label="Adriano De Cezaro [0]",
		pos="553,712.5",
		width=1.25];
	1	 [URL="http://lattes.cnpq.br/2005674046432508",
		color="#17272B",
		fontcolor="#FFFFFF",
		height=0.23611,
		label="Bárbara D. do Amaral Rodriguez [2]",
		pos="683,712.5",
		width=1.8611];
	14	 [URL="http://lattes.cnpq.br/2535324018884724",
		color="#17272B",
		fontcolor="#FFFFFF",
		height=0.23611,
		label="Luiz A. Oliveira Rocha [199]",
		pos="683,648.5",
		width=1.5417];
	1 -> 14	 [arrowhead=normal,
		arrowsize=0.75,
		fontsize=8,
		label=0.22,
		lp="690.5,680.5",
		penwidth=1.16,
		pos="e,683,657.16 683,703.9 683,694.23 683,677.3 683,664.89"];
	15	 [URL="http://lattes.cnpq.br/3761060945802171",
		color="#17272B",
		fontcolor="#FFFFFF",
		height=0.23611,
		label="Liércio André Isoldi [252]",
		pos="504,584.5",
		width=1.4028];
	1 -> 15	 [arrowhead=normal,
		arrowsize=0.75,
		fontsize=8,
		label=0.22,
		lp="584.5,648.5",
		penwidth=1.16,
		pos="e,508.21,593.1 664.93,703.86 634.61,690.44 572.61,660.29 530,621.5 523.07,615.19 516.86,606.76 512.25,599.65"];
	16	 [URL="http://lattes.cnpq.br/1129100746134234",
		color="#17272B",
		fontcolor="#FFFFFF",
		height=0.23611,
		label="Leonardo Ramos Emmendorfer [9]",
		pos="524,136.5",
		width=1.7917];
	1 -> 16	 [arrowhead=normal,
		arrowsize=0.75,
		fontsize=8,
		label=0.33,
		lp="1115.5,424.5",
		penwidth=1.49,
		pos="e,588.45,137.72 745.25,704 863.3,689.56 1108,658.55 1108,649.5 1108,649.5 1108,649.5 1108,199.5 1108,148.58 752.44,139.38 596.19,\
137.79"];
	18	 [URL="http://lattes.cnpq.br/6854950768271660",
		color="#17272B",
		fontcolor="#FFFFFF",
		height=0.23611,
		label="Elizaldo Domingues dos Santos [246]",
		pos="289,456.5",
		width=1.9167];
	1 -> 18	 [arrowhead=normal,
		arrowsize=0.75,
		fontsize=8,
		label=0.22,
		lp="7.5,584.5",
		penwidth=1.16,
		pos="e,219.78,458.74 615.87,704.37 612.87,704.07 609.91,703.78 607,703.5 539.61,696.96 0,717.21 0,649.5 0,649.5 0,649.5 0,519.5 0,476.04 \
126.53,462.95 212.14,459.06"];
	14 -> 15	 [arrowhead=normal,
		arrowsize=0.75,
		fontsize=8,
		label=0.42,
		lp="558.5,616.5",
		penwidth=1.76,
		pos="e,511.58,593.12 627.65,642.34 603.34,638.64 574.95,632.31 551,621.5 538.37,615.8 526,606.11 517.12,598.22"];
	14 -> 16	 [arrowhead=normal,
		arrowsize=0.75,
		fontsize=8,
		label=0.01,
		lp="1021.5,392.5",
		penwidth=0.53,
		pos="e,588.31,139.08 738.32,648.47 833.47,648.63 1018,641.69 1018,585.5 1018,585.5 1018,585.5 1018,487.5 1018,431.47 1014,417.53 1014,\
361.5 1014,361.5 1014,361.5 1014,199.5 1014,157.87 732.01,143.72 595.87,139.32"];
	14 -> 18	 [arrowhead=normal,
		arrowsize=0.75,
		fontsize=8,
		label=0.42,
		lp="184.5,552.5",
		penwidth=1.76,
		pos="e,254.87,465.07 627.33,642.04 616.93,641.12 606.14,640.22 596,639.5 556.6,636.69 275.01,641.58 241,621.5 193.59,593.5 155.32,558.5 \
184,511.5 197.83,488.84 224.53,475.29 247.54,467.43"];
	4	 [URL="http://lattes.cnpq.br/1660157566796755",
		color="#17272B",
		fontcolor="#FFFFFF",
		height=0.23611,
		label="Marcelo Moraes Galarça [7]",
		pos="682,392.5",
		width=1.4861];
	14 -> 4	 [arrowhead=normal,
		arrowsize=0.75,
		fontsize=8,
		label=0.01,
		lp="689.5,520.5",
		penwidth=0.53,
		pos="e,682.03,401.32 682.97,639.9 682.83,604.7 682.25,457.23 682.06,408.91"];
	7	 [URL="http://lattes.cnpq.br/5484986495253646",
		color="#17272B",
		fontcolor="#FFFFFF",
		height=0.23611,
		label="Paulo R. de Freitas Teixeira [5]",
		pos="751,264.5",
		width=1.625];
	14 -> 7	 [arrowhead=normal,
		arrowsize=0.75,
		fontsize=8,
		label=0.01,
		lp="981.5,456.5",
		penwidth=0.53,
		pos="e,809.58,268.74 738.27,646.89 822.92,644.44 975,633.37 975,585.5 975,585.5 975,585.5 975,487.5 975,392.01 970.84,337.21 887,291.5 \
865.77,279.92 840.22,273.43 817.02,269.81"];
	17	 [URL="http://lattes.cnpq.br/5324300115339036",
		color="#17272B",
		fontcolor="#FFFFFF",
		height=0.23611,
		label="Jeferson Avila Souza [65]",
		pos="505,328.5",
		width=1.3889];
	14 -> 17	 [arrowhead=normal,
		arrowsize=0.75,
		fontsize=8,
		label=0.07,
		lp="853.5,488.5",
		penwidth=0.71,
		pos="e,555.01,330.21 738.39,644.22 756.86,640.68 776.42,633.97 791,621.5 859.97,562.5 862.93,500 821,419.5 797.31,374.02 773.96,370.74 \
725,355.5 671.54,338.86 607.74,332.73 562.65,330.55"];
	13	 [URL="http://lattes.cnpq.br/1131858526704034",
		color="#17272B",
		fontcolor="#FFFFFF",
		height=0.23611,
		label="Mauro de Vasconcellos Real [51]",
		pos="255,520.5",
		width=1.7222];
	14 -> 13	 [arrowhead=normal,
		arrowsize=0.75,
		fontsize=8,
		label=0.06,
		lp="359.5,584.5",
		penwidth=0.68,
		pos="e,258.88,529.04 632.14,639.97 602.27,635.27 563.85,628.75 530,621.5 419.11,597.76 377.76,619.8 283,557.5 274.59,551.97 267.63,543.06 \
262.75,535.49"];
	15 -> 14	 [arrowhead=normal,
		arrowsize=0.75,
		fontsize=8,
		label=0.33,
		lp="611.5,616.5",
		penwidth=1.49,
		pos="e,661.05,639.9 525.85,593.07 557.95,604.19 617.93,624.96 653.78,637.38"];
	15 -> 16	 [arrowhead=normal,
		arrowsize=0.75,
		fontsize=8,
		label=0.01,
		lp="33.5,360.5",
		penwidth=0.53,
		pos="e,459.54,144.56 453.45,579.62 409.05,575.71 342.86,568.63 286,557.5 222.41,545.05 26,490.3 26,425.5 26,425.5 26,425.5 26,199.5 26,\
139.85 232.8,170.82 292,163.5 321.98,159.79 395.7,151.59 452.06,145.38"];
	15 -> 18	 [arrowhead=normal,
		arrowsize=0.75,
		fontsize=8,
		label=0.45,
		lp="357.5,520.5",
		penwidth=1.85,
		pos="e,294.35,465.2 453.59,578.16 432.94,574.45 409.39,568.15 390,557.5 350.02,535.54 315.11,493.14 298.8,471.28"];
	15 -> 4	 [arrowhead=normal,
		arrowsize=0.75,
		fontsize=8,
		label=0.01,
		lp="648.5,488.5",
		penwidth=0.53,
		pos="e,678.89,401.03 553.7,575.88 567.42,572.02 581.64,566.22 593,557.5 619.28,537.33 660.38,444.7 675.84,408.28"];
	15 -> 7	 [arrowhead=normal,
		arrowsize=0.75,
		fontsize=8,
		label=0.01,
		lp="809.5,424.5",
		penwidth=0.53,
		pos="e,763.35,273.04 554.62,578.58 603.59,572.29 678.86,558.52 738,529.5 786.72,505.59 802,479.77 802,425.5 802,425.5 802,425.5 802,327.5 \
802,306.47 784.28,288.69 769.73,277.64"];
	15 -> 17	 [arrowhead=normal,
		arrowsize=0.75,
		fontsize=8,
		label=0.09,
		lp="480.5,456.5",
		penwidth=0.77,
		pos="e,502.12,337.08 500.85,575.99 491.51,552.77 465.18,480.01 475,419.5 477.4,404.73 491.5,365.59 499.49,344.11"];
	15 -> 13	 [arrowhead=normal,
		arrowsize=0.75,
		fontsize=8,
		label=0.1,
		lp="349.5,552.5",
		penwidth=0.8,
		pos="e,274.71,529.06 453.56,578.56 421.7,574.65 379.91,568.05 344,557.5 333.3,554.36 331.3,551.77 321,547.5 308.19,542.19 293.87,536.52 \
281.86,531.84"];
	16 -> 1	 [arrowhead=normal,
		arrowsize=0.75,
		fontsize=8,
		label=0.11,
		lp="1153.5,424.5",
		penwidth=0.83,
		pos="e,750.13,704.41 588.51,137.28 747.63,137.59 1146,143.92 1146,199.5 1146,649.5 1146,649.5 1146,649.5 1146,692.92 802.19,699.08 759,\
703.5 758.55,703.55 758.09,703.59 757.63,703.64"];
	16 -> 14	 [arrowhead=normal,
		arrowsize=0.75,
		fontsize=8,
		label=0.19,
		lp="1072.5,392.5",
		penwidth=1.07,
		pos="e,738.25,646.07 588.45,138.28 731.9,140.88 1065,152.02 1065,199.5 1065,585.5 1065,585.5 1065,585.5 1065,616.6 1034.6,612 1005,621.5 \
958.37,636.46 825.54,643.11 745.8,645.82"];
	16 -> 15	 [arrowhead=normal,
		arrowsize=0.75,
		fontsize=8,
		label=0.19,
		lp="936.5,360.5",
		penwidth=1.07,
		pos="e,554.42,582.86 588.62,140.87 702.96,147.69 929,165.49 929,199.5 929,489.5 929,489.5 929,489.5 929,563.74 678.64,579.39 562.23,582.66"];
	16 -> 18	 [arrowhead=normal,
		arrowsize=0.75,
		fontsize=8,
		label=0.3,
		lp="130.5,296.5",
		penwidth=1.4,
		pos="e,239.67,447.95 487.23,145.02 465.49,149.74 437.49,156.28 413,163.5 400.32,167.24 397.55,169.38 385,173.5 358.55,182.18 351.25,182.22 \
325,191.5 219.43,228.83 159.27,219.96 108,319.5 91.312,351.9 87.8,371.17 108,401.5 121.97,422.49 184.47,437.74 232.15,446.58"];
	5	 [URL="http://lattes.cnpq.br/8800859024101679",
		color="#17272B",
		fontcolor="#FFFFFF",
		height=0.23611,
		label="Silvia S. da Costa Botelho [3]",
		pos="355,72.5",
		width=1.5556];
	16 -> 5	 [arrowhead=normal,
		arrowsize=0.75,
		fontsize=8,
		label=0.11,
		lp="417.5,104.5",
		penwidth=0.83,
		pos="e,364.53,81.27 473.41,127.96 453.19,123.93 429.99,118 410,109.5 395.74,103.44 381.13,93.675 370.55,85.845"];
	20	 [URL="http://lattes.cnpq.br/4740997358938163",
		color="#17272B",
		fontcolor="#FFFFFF",
		height=0.23611,
		label="Catia M. d. Santos Machado [10]",
		pos="429,200.5",
		width=1.7083];
	16 -> 20	 [arrowhead=normal,
		arrowsize=0.75,
		fontsize=8,
		label=0.11,
		lp="501.5,168.5",
		penwidth=0.83,
		pos="e,446.9,191.81 515.89,145.29 507.57,153.03 494.03,164.96 481,173.5 472.47,179.09 462.58,184.32 453.73,188.6"];
	18 -> 14	 [arrowhead=normal,
		arrowsize=0.75,
		fontsize=8,
		label=0.34,
		lp="163.5,552.5",
		penwidth=1.52,
		pos="e,627.34,642.02 240.75,465.09 225.59,468.98 209.34,474.8 196,483.5 167.9,501.82 163.34,514.77 156,547.5 146.36,590.5 180.3,607.24 \
222,621.5 300.73,648.42 513,633.69 596,639.5 603.6,640.03 611.57,640.66 619.47,641.34"];
	18 -> 15	 [arrowhead=normal,
		arrowsize=0.75,
		fontsize=8,
		label=0.46,
		lp="399.5,520.5",
		penwidth=1.88,
		pos="e,478.31,575.97 300.47,465.09 316.06,475.44 344.8,494.64 369,511.5 397.74,531.52 402.04,541.1 433,557.5 444.91,563.81 458.69,569.24 \
470.92,573.48"];
	18 -> 16	 [arrowhead=normal,
		arrowsize=0.75,
		fontsize=8,
		label=0.01,
		lp="258.5,296.5",
		penwidth=0.53,
		pos="e,499.66,145.06 280.57,448 269.37,437.17 251,415.97 251,393.5 251,393.5 251,393.5 251,263.5 251,234.66 333.05,204.1 359,191.5 371.21,\
185.57 447.89,161.26 492.29,147.37"];
	18 -> 4	 [arrowhead=normal,
		arrowsize=0.75,
		fontsize=8,
		label=0.01,
		lp="498.5,424.5",
		penwidth=0.53,
		pos="e,628.4,400.2 328.4,447.98 369.05,440.35 434.34,428.4 491,419.5 534.21,412.71 583.09,406.08 620.58,401.21"];
	18 -> 7	 [arrowhead=normal,
		arrowsize=0.75,
		fontsize=8,
		label=0.01,
		lp="331.5,360.5",
		penwidth=0.53,
		pos="e,692.47,265.87 291.68,447.86 302.81,416.16 345.18,296.52 352,291.5 378.1,272.29 578.49,267.27 684.97,265.96"];
	18 -> 17	 [arrowhead=normal,
		arrowsize=0.75,
		fontsize=8,
		label=0.09,
		lp="464.5,392.5",
		penwidth=0.77,
		pos="e,499.5,337.03 332.01,448 351.15,443.84 373.68,437.8 393,429.5 437.9,410.2 477.11,365.53 494.88,343.01"];
	18 -> 13	 [arrowhead=normal,
		arrowsize=0.75,
		fontsize=8,
		label=0.06,
		lp="281.5,488.5",
		penwidth=0.68,
		pos="e,259.17,511.9 284.8,465.16 279.32,475.14 269.65,492.78 262.81,505.25"];
	11	 [URL="http://lattes.cnpq.br/7670196776586335",
		color="#17272B",
		fontcolor="#FFFFFF",
		height=0.23611,
		label="Wiliam Correa Marques [7]",
		pos="170,392.5",
		width=1.4722];
	18 -> 11	 [arrowhead=normal,
		arrowsize=0.75,
		fontsize=8,
		label=0.01,
		lp="194.5,424.5",
		penwidth=0.53,
		pos="e,171.54,401.01 223.99,447.96 210.71,444.06 197.57,438.22 187,429.5 180.5,424.14 176.33,415.72 173.76,408.37"];
	4 -> 14	 [arrowhead=normal,
		arrowsize=0.75,
		fontsize=8,
		label=0.29,
		lp="726.5,520.5",
		penwidth=1.37,
		pos="e,688.38,639.69 690.24,401.32 694.65,406.1 699.65,412.6 702,419.5 730.92,504.52 721.31,535.05 697,621.5 695.88,625.47 694.09,629.51 \
692.15,633.19"];
	4 -> 15	 [arrowhead=normal,
		arrowsize=0.75,
		fontsize=8,
		label=0.29,
		lp="616.5,488.5",
		penwidth=1.37,
		pos="e,540.95,575.99 664.42,401.13 655.89,405.52 646,411.72 639,419.5 617.99,442.85 622.22,455 609,483.5 593.76,516.33 601.59,532.95 \
575,557.5 567.47,564.45 557.92,569.59 548.3,573.36"];
	4 -> 18	 [arrowhead=normal,
		arrowsize=0.75,
		fontsize=8,
		label=0.43,
		lp="564.5,424.5",
		penwidth=1.79,
		pos="e,358.4,448.94 645.97,401.06 596.04,411.54 511.69,429.22 510,429.5 462.34,437.28 408.54,443.66 365.95,448.15"];
	7 -> 14	 [arrowhead=normal,
		arrowsize=0.75,
		fontsize=8,
		label=0.23,
		lp="893.5,456.5",
		penwidth=1.19,
		pos="e,738.53,643.22 809.43,269.98 845.91,276.34 886,291.52 886,327.5 886,425.5 886,425.5 886,425.5 886,518.93 892.28,577.23 810,621.5 \
790.5,631.99 767.23,638.26 745.96,642"];
	7 -> 15	 [arrowhead=normal,
		arrowsize=0.75,
		fontsize=8,
		label=0.33,
		lp="602.5,424.5",
		penwidth=1.49,
		pos="e,511.76,575.71 740.35,273.05 716.47,290.39 657.74,335.3 620,383.5 565.95,452.54 577.06,485.51 527,557.5 524.02,561.79 520.42,566.15 \
516.97,570.05"];
	7 -> 18	 [arrowhead=normal,
		arrowsize=0.75,
		fontsize=8,
		label=0.33,
		lp="410.5,360.5",
		penwidth=1.49,
		pos="e,308.19,447.82 692.6,271.07 616.15,279.16 487.06,295.84 446,319.5 387.44,353.24 395.37,389.35 341,429.5 333.13,435.31 323.78,440.44 \
315.18,444.59"];
	7 -> 17	 [arrowhead=normal,
		arrowsize=0.75,
		fontsize=8,
		label=0.1,
		lp="647.5,296.5",
		penwidth=0.8,
		pos="e,535.16,319.9 720.97,273.07 676.12,284.37 591.66,305.66 542.7,318"];
	17 -> 14	 [arrowhead=normal,
		arrowsize=0.75,
		fontsize=8,
		label=0.21,
		lp="770.5,488.5",
		penwidth=1.13,
		pos="e,693.97,639.95 555.2,333.62 618.2,339.95 720.83,354.51 744,383.5 802.62,456.84 747.43,503.4 721,593.5 717.32,606.04 719.11,610.53 \
712,621.5 708.76,626.49 704.32,631.12 699.89,635.05"];
	17 -> 15	 [arrowhead=normal,
		arrowsize=0.75,
		fontsize=8,
		label=0.37,
		lp="551.5,456.5",
		penwidth=1.61,
		pos="e,506.46,575.95 510.04,337.01 519.71,351.94 540.58,386.74 548,419.5 548.98,423.83 548.62,425.1 548,429.5 544.14,457.04 519.45,535.58 \
508.83,568.59"];
	17 -> 18	 [arrowhead=normal,
		arrowsize=0.75,
		fontsize=8,
		label=0.36,
		lp="425.5,392.5",
		penwidth=1.58,
		pos="e,325.69,447.97 484.04,337.04 472.85,341.55 459.13,347.88 448,355.5 409.09,382.12 412.49,405.35 372,429.5 360.18,436.55 346.26,441.87 \
333.24,445.81"];
	17 -> 7	 [arrowhead=normal,
		arrowsize=0.75,
		fontsize=8,
		label=0.01,
		lp="601.5,296.5",
		penwidth=0.53,
		pos="e,692.54,272.06 520.71,319.91 538.21,311.75 567.53,298.95 594,291.5 623.42,283.22 656.73,277.25 685.07,273.12"];
	19	 [URL="http://lattes.cnpq.br/4984043849101331",
		color="#17272B",
		fontcolor="#FFFFFF",
		height=0.23611,
		label="Diana Francisca Adamatti [7]",
		pos="360,264.5",
		width=1.5417];
	17 -> 19	 [arrowhead=normal,
		arrowsize=0.75,
		fontsize=8,
		label=0.05,
		lp="368.5,296.5",
		penwidth=0.65,
		pos="e,357.71,273.09 454.78,325.01 418.22,322.04 373.09,315.56 361,301.5 356.2,295.91 355.6,287.84 356.36,280.75"];
	13 -> 14	 [arrowhead=normal,
		arrowsize=0.75,
		fontsize=8,
		label=0.22,
		lp="240.5,584.5",
		penwidth=1.16,
		pos="e,627.33,642.06 247.17,529.4 242.97,534.2 238.22,540.7 236,547.5 225.31,580.24 228.27,605.96 259,621.5 292.46,638.42 558.6,636.78 \
596,639.5 603.6,640.05 611.57,640.7 619.47,641.37"];
	13 -> 15	 [arrowhead=normal,
		arrowsize=0.75,
		fontsize=8,
		label=0.48,
		lp="313.5,552.5",
		penwidth=1.94,
		pos="e,453.53,583.5 263.27,529.29 272.77,537.76 289.24,550.95 306,557.5 350.9,575.05 405.43,581.21 445.89,583.17"];
	13 -> 18	 [arrowhead=normal,
		arrowsize=0.75,
		fontsize=8,
		label=0.3,
		lp="261.5,488.5",
		penwidth=1.4,
		pos="e,274.28,465.1 253.42,511.88 252.24,504.27 251.51,492.44 256,483.5 258.76,478 263.29,473.3 268.12,469.47"];
	5 -> 16	 [arrowhead=normal,
		arrowsize=0.75,
		fontsize=8,
		label=0.33,
		lp="462.5,104.5",
		penwidth=1.49,
		pos="e,504.4,127.91 377.07,81.096 391.81,86.208 411.6,93.149 429,99.5 452.11,107.94 478.24,117.87 497.24,125.16"];
	5 -> 19	 [arrowhead=normal,
		arrowsize=0.75,
		fontsize=8,
		label=0.33,
		lp="325.5,168.5",
		penwidth=1.49,
		pos="e,354.58,255.83 347.93,81.175 339.38,91.031 325.45,109.07 320,127.5 306.85,171.96 334.72,224.64 350.36,249.36"];
	6	 [URL="http://lattes.cnpq.br/5895086145314795",
		color="#17272B",
		fontcolor="#FFFFFF",
		height=0.23611,
		label="Sebastião C. Pinheiro Gomes [1]",
		pos="355,8.5",
		width=1.6944];
	5 -> 6	 [arrowhead=normal,
		arrowsize=0.75,
		fontsize=8,
		label=0.33,
		lp="344.5,40.5",
		penwidth=1.49,
		pos="e,347.18,17.199 347.94,63.978 343.88,59.114 339.16,52.417 337,45.5 334.59,37.796 338.02,29.716 342.51,23.167"];
	20 -> 16	 [arrowhead=normal,
		arrowsize=0.75,
		fontsize=8,
		label=0.1,
		lp="471.5,168.5",
		penwidth=0.8,
		pos="e,502.39,145.09 435.44,191.8 442.36,183.91 453.99,171.66 466,163.5 474.95,157.42 485.55,152.19 495.22,148.04"];
	20 -> 19	 [arrowhead=normal,
		arrowsize=0.75,
		fontsize=8,
		label=0.2,
		lp="407.5,232.5",
		penwidth=1.1,
		pos="e,369.71,255.98 421.54,209.15 414.19,216.58 402.58,228.09 392,237.5 386.89,242.05 381.13,246.83 375.92,251.03"];
	12	 [URL="http://lattes.cnpq.br/9208597675311324",
		color="#17272B",
		fontcolor="#FFFFFF",
		height=0.23611,
		label="Viviane L. Dias de Mattos [7]",
		pos="385,136.5",
		width=1.5556];
	20 -> 12	 [arrowhead=normal,
		arrowsize=0.75,
		fontsize=8,
		label=0.7,
		lp="394.5,168.5",
		penwidth=2.6,
		pos="e,384.04,145.28 410.31,191.79 402.43,187.57 393.96,181.54 389,173.5 385.29,167.48 384.06,159.8 383.86,153.08"];
	11 -> 14	 [arrowhead=normal,
		arrowsize=0.75,
		fontsize=8,
		label=0.04,
		lp="149.5,520.5",
		penwidth=0.62,
		pos="e,627.34,641.99 167.54,401.12 161.66,419.72 146.97,469.05 142,511.5 135.74,565.02 141.98,604.16 193,621.5 277.87,650.35 506.56,633.39 \
596,639.5 603.6,640.02 611.58,640.64 619.48,641.31"];
	11 -> 15	 [arrowhead=normal,
		arrowsize=0.75,
		fontsize=8,
		label=0.04,
		lp="424.5,488.5",
		penwidth=0.62,
		pos="e,493.58,575.91 223.27,400.09 264.77,407.04 322.6,420.86 367,447.5 424.69,482.12 421.33,512.12 471,557.5 476.19,562.24 482.14,567.09 \
487.55,571.3"];
	11 -> 18	 [arrowhead=normal,
		arrowsize=0.75,
		fontsize=8,
		label=0.18,
		lp="229.5,424.5",
		penwidth=1.04,
		pos="e,265.46,447.9 179.53,401.12 189.64,408.96 206.29,421.16 222,429.5 233.39,435.54 246.51,440.95 258.1,445.24"];
	11 -> 17	 [arrowhead=normal,
		arrowsize=0.75,
		fontsize=8,
		label=0.04,
		lp="259.5,360.5",
		penwidth=0.62,
		pos="e,454.73,330.09 183.74,383.87 199.65,375.43 226.9,362.13 252,355.5 317.38,338.24 395.07,332.33 446.95,330.36"];
	9	 [URL="http://lattes.cnpq.br/5467937882227675",
		color="#17272B",
		fontcolor="#FFFFFF",
		height=0.23611,
		label="Elisa H. Leão Fernandes [5]",
		pos="170,328.5",
		width=1.4722];
	11 -> 9	 [arrowhead=normal,
		arrowsize=0.75,
		fontsize=8,
		label=0.71,
		lp="158.5,360.5",
		penwidth=2.63,
		pos="e,161.75,337.16 162.17,383.6 157.97,378.8 153.22,372.3 151,365.5 148.47,357.74 152.09,349.65 156.82,343.12"];
	19 -> 18	 [arrowhead=normal,
		arrowsize=0.75,
		fontsize=8,
		label=0.07,
		lp="292.5,360.5",
		penwidth=0.71,
		pos="e,287.56,447.85 339.02,273.15 329.96,277.36 319.89,283.41 313,291.5 276.19,334.74 281.87,408.79 286.41,440.44"];
	19 -> 17	 [arrowhead=normal,
		arrowsize=0.75,
		fontsize=8,
		label=0.5,
		lp="446.5,296.5",
		penwidth=2.0,
		pos="e,487.22,319.9 377.93,273.16 403.66,284.17 451.18,304.49 480.25,316.92"];
	19 -> 5	 [arrowhead=normal,
		arrowsize=0.75,
		fontsize=8,
		label=0.14,
		lp="305.5,168.5",
		penwidth=0.92,
		pos="e,343.52,81.087 350.8,255.91 345.23,251.03 338.21,244.33 333,237.5 313.32,211.74 306.03,204.91 298,173.5 289.37,139.73 303.21,127.48 \
324,99.5 327.77,94.425 332.72,89.705 337.56,85.717"];
	19 -> 20	 [arrowhead=normal,
		arrowsize=0.75,
		fontsize=8,
		label=0.29,
		lp="384.5,232.5",
		penwidth=1.37,
		pos="e,406.18,209.03 362.03,255.74 364.44,247.8 369.17,235.51 377,227.5 383.16,221.2 391.16,216.18 399.04,212.29"];
	6 -> 5	 [arrowhead=normal,
		arrowsize=0.75,
		fontsize=8,
		label=1.0,
		lp="360.5,40.5",
		penwidth=3.5,
		pos="e,355,63.898 355,17.165 355,26.864 355,43.797 355,56.189"];
	12 -> 20	 [arrowhead=normal,
		arrowsize=0.75,
		fontsize=8,
		label=1.0,
		lp="414.5,168.5",
		penwidth=3.5,
		pos="e,423.6,191.9 390.44,145.16 397.59,155.24 410.27,173.11 419.13,185.6"];
	9 -> 11	 [arrowhead=normal,
		arrowsize=0.75,
		fontsize=8,
		label=1.0,
		lp="175.5,360.5",
		penwidth=3.5,
		pos="e,170,383.9 170,337.16 170,346.86 170,363.8 170,376.19"];
	2	 [URL="http://lattes.cnpq.br/4677312523064693",
		color="#17272B",
		fontcolor="#FFFFFF",
		height=0.23611,
		label="Antonio G. Oliveira Goulart [0]",
		pos="827,712.5",
		width=1.6389];
	3	 [URL="http://lattes.cnpq.br/6965119196945931",
		color="#17272B",
		fontcolor="#FFFFFF",
		height=0.23611,
		label="Alessandro de Lima Bicho [0]",
		pos="961,712.5",
		width=1.5694];
	8	 [URL="http://lattes.cnpq.br/1606080164385644",
		color="#17272B",
		fontcolor="#FFFFFF",
		height=0.23611,
		label="Nisia Krusche [0]",
		pos="1072,712.5",
		width=1.0139];
	10	 [URL="http://lattes.cnpq.br/6388431281829634",
		color="#17272B",
		fontcolor="#FFFFFF",
		height=0.23611,
		label="Renato G. de Souza Rodrigues [0]",
		pos="1190,712.5",
		width=1.75];
}
