artigoEmPeriodico	2015	http://dx.doi.org/10.1002/pssb.201552270	A systematic first-principles study of the tungsten trioxide polymorphs	Physica Status Solidi. B, Basic Research	ALVAREZ-QUICENO, JUAN C. ; Dalpian, Gustavo M. ; OSORIO-GUILLÉN, JORGE M.	B1	
artigoEmPeriodico	2015	http://dx.doi.org/10.1039/c4cp05447d	First Principles Characterization of Silicate Sites in Clay Surfaces	PCCP. Physical Chemistry Chemical Physics (Print)	ALVIM, RAPHAEL DA SILVA ; RODRIGUES MIRANDA, CAETANO	A1	
artigoEmPeriodico	2015	http://dx.doi.org/10.1016/j.phpro.2015.12.069	Single Crystal Growth and Magnetic Characterization of RNiSi3 (R = Dy, Ho)	Physics Procedia	ARISTI'ABAL-GIRALDO, DEISY ; ARANTES, FABIANA R. ; COSTA, FANNY N. ; Ferreira, Fabio F. ; RIBEIRO, RAQUEL A. ; AVILA, MARCOS A.	Qualis nao identificado	Physics Procedia
artigoEmPeriodico	2015	http://dx.doi.org/10.1039/c4lc01483a	A flexible lab-on-a-chip for the synthesis and magnetic separation of magnetite decorated with gold nanoparticles	Lab on a Chip (Print)	CABRERA, FLÁVIO C. ; MELO, ANTONIO F. A. A. ; DE SOUZA, JOÃO C. P. ; JOB, ALDO E. ; Crespilho, Frank N.	Qualis nao identificado	Lab on a Chip (Print)
artigoEmPeriodico	2015	http://dx.doi.org/10.1103/physrevb.92.214414	Multiband electronic characterization of the complex intermetallic cage system Y 1 − x Gd x Co. Physical Review	Physical Review. B, Condensed Matter and Materials Physics	CABRERA-BAEZ, M. ; NARANJO-URIBE, A. ; OSORIO-GUILLÉN, J. M. ; RETTORI, C. ; Avila, M. A.	A1	
artigoEmPeriodico	2015	http://dx.doi.org/10.3389/fmolb.2015.00050	Nanostructures for peroxidases	Frontiers in Molecular Biosciences	CARMONA-RIBEIRO, AM OR Carmona-Ribeiro, Ana Maria ; PRIETO, TATIANA ; NANTES, I. L.	Qualis nao identificado	Frontiers in Molecular Biosciences
artigoEmPeriodico	2015	http://dx.doi.org/10.1039/c5nr04499e	Adsorbent 2D and 3D Carbon Matrices With Protected Magnetic Iron Nanoparticles	Nanoscale (Print)	CARREÑO, NEFTALÍ LENIN VILLARREAL ; ESCOTE, MARCIA ; VALENTINI, ANTONINHO ; MCCAFFERTY, LIAM ; STOLOJAN, VLAD ; BELIATIS, MICHAIL J. ; MILLS, CHRISTOPHER ; RHODES, RHYS ; SMITH, CHRIS TOBY GIBB ; SILVA, PROF. S. RAVI P.	A1	
artigoEmPeriodico	2015	http://dx.doi.org/10.1016/j.ceramint.2015.04.082	Evaluation of glass viscosity of dental bioceramics by the SciGlass information system	Ceramics International	CHIMANSKI, AFONSO ; FRANCISCO CESAR, PAULO ; Fredericci, Catia ; NAOYUKI YOSHIMURA, HUMBERTO	A1	
artigoEmPeriodico	2015	http://dx.doi.org/10.1088/1742-6596/617/1/012015	Preliminary evaluation of the encapsulation of new antidiabetic sulphonylhydrazone and antitumor -acylhydrazone derivatives using PLGA nanoparticles	Journal of Physics. Conference Series (Online)	COSTA, F N ; IBIAPINO, A L ; DE FIGUEIREDO, L P ; BARREIRO, E J ; LIMA, L M ; DO AMARAL, D N ; DE CASTRO, C E ; GIACOMELLI, F C ; Ferreira, F F	B2	
artigoEmPeriodico	2015	http://dx.doi.org/10.1039/c5ra02696b	Structural features evolution - from fluids to solid phase - and crystal morphology study of LASSBio 1601: a cyclohexyl-N-acylhydrazone derivative	RSC Advances: an international journal to further the chemical sciences	COSTA, FANNY NASCIMENTO ; DA SILVA, TIAGO FERNANDES ; MIGUEZ, EDUARDO ; BARROSO, REGINA CELY ; BRAZ, DELSON ; BARREIRO, ELIEZER J. ; LIMA, LÍDIA MOREIRA ; PUNZO, FRANCESCO ; Ferreira, Fabio Furlan	B2	
artigoEmPeriodico	2015	http://dx.doi.org/10.1177/0892705715604678	Degradation process of low molar mass poly(ethylene terephthalate)/organically modified montmorillonite nanocomposites: Effect on structure, rheological, and thermal behavior	Journal of Thermoplastic Composite Materials	CRUZ, S. A.; ARISTEIA, J. L. ; FITARONI, LAYS B. ; CHIARETTI, D. V. ; Kaneko, M.	Qualis nao identificado	Journal of Thermoplastic Composite Materials
artigoEmPeriodico	2015	http://dx.doi.org/10.1016/j.matchemphys.2014.10.015	Effect of bombarding steel with Xe+ ions on the surface nanostructure and on pulsed plasma nitriding process	Materials Chemistry and Physics	CUCATTI, S. A. S. ; Ochoa, E. ; MORALES, M. ; DROPPA Jr, R. ; Garcia, J. ; Pinto, H. C. ; ZAGONEL, L. F. ; WISNIVESKY, D. ; FIGUEROA, C. A. ; ALVAREZ, F.	A1	
artigoEmPeriodico	2015	http://dx.doi.org/10.1063/1.4913824	Electron collisions with phenol: Total, integral, differential, and momentum transfer cross sections and the role of multichannel coupling effects on the elastic channel	The Journal of Chemical Physics	da Costa, Romarly F. ; de Oliveira, Eliane M. ; BETTEGA, MÁRCIO H. F. ; Varella, Márcio T. do N. ; JONES, DARRYL B. ; BRUNGER, MICHAEL J. ; BLANCO, FRANCISCO ; COLMENARES, RAFAEL ; LIMÃO-VIEIRA, PAULO ; GARCÍA, GUSTAVO ; Lima, Marco A. P.	A1	
artigoEmPeriodico	2015	http://dx.doi.org/10.1140/epjd/e2015-60192-6	Recent advances in the application of the Schwinger multichannel method with pseudopotentials to electron-molecule collisions	The European Physical Journal. D, Atomic, Molecular and Optical Physics (Print)	da Costa, Romarly F. ; Varella, Márcio T. do N. ; BETTEGA, MÁRCIO H. F. ; Lima, Marco A. P.	Qualis nao identificado	The European Physical Journal. D, Atomic, Molecular and Optical Physics (Print)
artigoEmPeriodico	2015	http://dx.doi.org/10.1016/j.jmbbm.2014.11.007	Effect of fiber addition on slow crack growth of a dental porcelain	Journal of the Mechanical Behavior of Biomedical Materials (Print)	DE ARAÚJO, MAICO DUTRA ; MIRANDA, RANULFO BENEDITO DE PAULA ; Fredericci, Catia ; Yoshimura, Humberto Naoyuki ; CESAR, Paulo Francisco	A1	
artigoEmPeriodico	2015	http://dx.doi.org/10.1021/acsami.5b00187	Synergy between Polyaniline and OMt Clay Mineral in Langmuir-Blodgett Films for the Simultaneous Detection of Traces of Metal Ions	ACS Applied Materials & Interfaces (Print)	DE BARROS, ANERISE ; Ferreira, Mariselma ; CONSTANTINO, CARLOS JOSÉ LEOPOLDO ; BORTOLETO, JOSÉ ROBERTO RIBEIRO ; FERREIRA, MARYSTELA	A1	
artigoEmPeriodico	2015	http://dx.doi.org/10.1149/06801.0497ecst	Evaluation of Gadolinium Doped Barium Zirconate Electrolyte for Solid Oxide Fuel Cell	ECS Transactions	DE FLORIO, D. Z	B3	
artigoEmPeriodico	2015	http://dx.doi.org/10.1088/0953-8984/27/32/325101	Molecular dynamics studies of aqueous silica nanoparticle dispersions: salt effects on the double layer formation	Journal of Physics. Condensed Matter (Print)	DE LARA, LUCAS S ; RIGO, VAGNER A ; MICHELON, MATEUS F ; METIN, CIGDEM O ; NGUYEN, QUOC P ; MIRANDA, CAETANO R	A2	
artigoEmPeriodico	2015	http://dx.doi.org/10.1140/epjb/e2015-60543-1	The stability and interfacial properties of functionalized silica nanoparticles dispersed in brine studied by molecular dynamics	The European Physical Journal. B, Condensed Matter Physics (Print)	de Lara, Lucas S. ; RIGO, VAGNER A. ; Miranda, Caetano R.	B1	
artigoEmPeriodico	2015	http://dx.doi.org/10.1590/1516-1439.004915	The Role of Carbon Black on Devulcanization of Natural Rubber by Microwaves	Materials Research	de Sousa, F. D. B. ; SCURACCHIO, C. H.	Qualis nao identificado	Materials Research
artigoEmPeriodico	2015	http://dx.doi.org/10.1016/j.matdes.2015.09.095	Influence of injection temperature and pressure on the microstructure, mechanical and corrosion properties of a AlSiCu alloy processed by HPDC	Materials & Design	DOS SANTOS, SILVANO LEAL ; ANTUNES, RENATO ALTOBELLI ; SANTOS, SYDNEY FERREIRA	A2	
artigoEmPeriodico	2015	http://dx.doi.org/10.1016/j.jpowsour.2014.10.072	Small-angle X-ray and neutron scattering study of Nafion-SiO2 hybrid membranes prepared in different solvent media	Journal of Power Sources (Print)	DRESCH, M.A. ; MATOS, B.R. ; FONSECA, F.C. ; SANTIAGO, E.I. ; CARMO, M. ; LANFREDI, A.J.C. ; BALOG, S.	A1	
artigoEmPeriodico	2015	http://dx.doi.org/10.1016/j.matchemphys.2015.02.036	Effect of cold rolling on the hydrogen absorption and desorption kinetics of Zircaloy-4	Materials Chemistry and Physics	DUPIM, I. S. ; MOREIRA, J. M. L. ; Huot J. ; Santos, S.F.	A1	
artigoEmPeriodico	2015	http://dx.doi.org/10.3390/met5042021	Effect of Cold Rolling on the Hydrogen Desorption Behavior of Binary Metal Hydride Powders under Microwave Irradiation	METALS-BASEL	DUPIM, I. S. ; SANTOS, S. F. ; Huot J.	Qualis nao identificado	METALS-BASEL
artigoEmPeriodico	2015	http://dx.doi.org/10.11606/issn.2357-8041.clrd.2015.83957	Proposta de tratamento para hipersensibilidade dentinária à base de biovidro em diferentes veículos. Estudo morfológico in vitro	Clinical and Laboratorial Research in Denstistry	ELMADJIAN, T. ; LOPEZ, T. ; Roger Borges ; MARCHI, JULIANA ; MARQUES, M. M.	Qualis nao identificado	Clinical and Laboratorial Research in Denstistry
artigoEmPeriodico	2015	http://dx.doi.org/10.1016/j.tox.2015.02.004	Cytotoxicity of phenothiazine derivatives associated with mitochondrial dysfunction: A structure-activity investigation	Toxicology (Amsterdam)	FARIA, P. A. ; BETTANIN, FERNANDA ; CUNHA, RODRIGO L. O. R. ; PAREDES-GAMERO, E. J. ; HOMEM-DE-MELLO, P. ; NANTES, ISELI LOURENÇO ; RODRIGUES, T.	A2	
artigoEmPeriodico	2015	http://dx.doi.org/10.1103/PhysRevApplied.3.034003	Capacitive DNA Detection Driven by Electronic Charge Fluctuations in a Graphene Nanopore	Physical Review Applied	FELICIANO, GUSTAVO T. ; SANZ-NAVARRO, CARLOS ; COUTINHO-NETO, MAURICIO DOMINGUES ; ORDEJÓN, PABLO ; SCHEICHER, RALPH H. ; Rocha, Alexandre Reily	Qualis nao identificado	Physical Review Applied
artigoEmPeriodico	2015	http://dx.doi.org/10.1590/1516-1439.015715	Effect of Processing on Microstructure and Corrosion Mitigating Properties of Hydrotalcite Coatings on AA 6061 Alloy	Materials Research	FERNANDES, STELA MARIA DE CARVALHO ; CORREA, OLANDIR VERCINO ; SOUZA, JOSÉ ANTONIO BATISTA DE ; ANTUNES, RENATO ALTOBELLI ; LIMA, NELSON BATISTA DE ; RAMANATHAN, LALGUDI VENKATARAMAN	Qualis nao identificado	Materials Research
artigoEmPeriodico	2015	http://dx.doi.org/10.1063/1.4932603	Electronic excitation of furfural as probed by high-resolution vacuum ultraviolet spectroscopy, electron energy loss spectroscopy, and ab initio calculations	The Journal of Chemical Physics	FERREIRA DA SILVA, F. ; LANGE, E. ; LIMÃO-VIEIRA, P. ; JONES, N. C. ; HOFFMANN, S. V. ; HUBIN-FRANSKIN, M.-J. ; DELWICHE, J. ; BRUNGER, M. J. ; NEVES, R. F. C. ; Lopes, M. C. A. ; de Oliveira, E. M. ; da Costa, R. F. ; Varella, M. T. do N. ; Bettega, M. H. F. ; BLANCO, F. ; GARCÍA, G. ; Lima, M. A. P. ; JONES, D. B.	A1	
artigoEmPeriodico	2015	http://dx.doi.org/10.1371/journal.pone.0136554	Intermediate Tyrosyl Radical and Amyloid Structure in Peroxide-Activated Cytoglobin	Plos One	FERREIRA, Juliana Conrado ; MARCONDES, M. F. ; ICIMOTO, M. Y. ; CARDOSO, T. H. S. ; Tofanello, A ; PESSOTO, F. S. ; MIRANDA, E. G. A. ; PRIETO, Tatiana ; NASCIMENTO, O. R. ; OLIVEIRA, V. ; NANTES, I. L.	A1	
artigoEmPeriodico	2015	http://dx.doi.org/10.1039/c5cp01055a	Relaxation dynamics of deeply supercooled confined water in <scp>l,l</scp> -diphenylalanine micro/nanotubes	PCCP. Physical Chemistry Chemical Physics (Print)	FERREIRA, P. M. G. L. ; ISHIKAWA, M. S. ; KOGIKOSKI, S. ; ALVES, W. A. ; Martinho, H.	A1	
artigoEmPeriodico	2015	http://dx.doi.org/10.1021/ed500809n	A New Approach toward Cyanotype Photography Using Tris-(oxalato)ferrate(III): An Integrated Experiment	Journal of Chemical Education	FIORITO, PABLO ALEJANDRO ; POLO, ANDRÉ SARTO	A2	
artigoEmPeriodico	2015		Devulcanization of ground tire rubber: Physical and chemical changes after different microwave exposure times	Express Polymer Letters	GARCIA, PAMELA SIERRA ; de Sousa, F. D. B. ; LIMA, J. A. ; CRUZ, SANDRA ANDREA ; SCURACCHIO, C. H.	Qualis nao identificado	Express Polymer Letters
artigoEmPeriodico	2015	http://dx.doi.org/10.1021/bi501409d	Cytochrome <i>c</i> Reacts with Cholesterol Hydroperoxides To Produce Lipid- and Protein-Derived Radicals	Biochemistry	GENARO-MATTOS, T. ; QUEIROZ, R. ; CUNHA, D. ; APPOLINARIO, P. ; MASCIO, Paolo Di ; NANTES, I. L. ; OHARA, A. ; Miyamoto, S.	Qualis nao identificado	Biochemistry
artigoEmPeriodico	2015	http://dx.doi.org/10.1016/j.polymer.2015.03.026	Styrenic block copolymer-based nanocomposites: Implications of nanostructuration and nanofiller tailored dispersion on the dielectric properties	Polymer (Guildford)	Helal, E. ; DEMARQUETTE, Nicole Raymonde ; Amurin, L. G. ; DAVID, E. ; Carastan, D.J. ; FRECHETTE, M.	A1	
artigoEmPeriodico	2015	http://dx.doi.org/10.1590/1516-1439.353214	Study of the Influence of the Hydration Level on the Electromechanical Behavior of Nafion Based Ionomeric Polymer-metal Composites Actuators	Materials Research	Hirano, L. A. ; ACERBI, L. W. ; KIKUCHI, K. ; TSUCHITANI, S. ; SCURACCHIO, C. H.	Qualis nao identificado	Materials Research
artigoEmPeriodico	2015		Simulações Moleculares: uma área naturalmente interdisciplinar	Interciente	HOMEM-DE-MELLO, P. ; LIMA, A. N. ; AONO, C. M. ; E. B. Costa ; PHILOT, E. A. ; LIANDRA-SALVADOR, E. ; BETTANIN, F. ; HONORIO, K. M. ; SCOTT, L. P. B. ; Miotto, Ronei	Qualis nao identificado	Interciente
artigoEmPeriodico	2015	http://dx.doi.org/10.1002/celc.201402339	Glucose Biochip Based on Flexible Carbon Fiber Electrodes: In Vivo Diabetes Evaluation in Rats	CHEMELECTROCHEM	Iost, Rodrigo M. ; SALES, FERNANDA C. P. F. ; Martins, Marccus V. A. ; ALMEIDA, MARIA C. ; Crespilho, Frank N.	Qualis nao identificado	CHEMELECTROCHEM
artigoEmPeriodico	2015	http://dx.doi.org/10.1103/physreve.91.032709	Unusual specific heat of almost dry L-cysteine and L-cystine amino acids	Physical Review. E, Statistical, Nonlinear, and Soft Matter Physics (Print)	ISHIKAWA, M. S. ; LIMA, T. A. ; FERREIRA, F. F. ; Martinho, H. S.	A1	
artigoEmPeriodico	2015	http://dx.doi.org/10.1016/j.vacuum.2015.07.016	Properties of aluminum oxide thin film obtained by metal plasma immersion ion implantation and deposition after zirconium-based pretreatment	Vacuum (Oxford)	DOS SANTOS, DEMETRIO JACKSON ; TAVARES, LARA BASILIO ; ANTUNES, RENATO ALTOBELLI ; DROPPA, ROOSEVELT ; DA SILVA, TIAGO FIORINI ; SALVADORI, MARIA CECILIA	Qualis nao identificado	Vacuum (Oxford)
artigoEmPeriodico	2015	http://dx.doi.org/10.1063/1.4906434	Metal-insulator transition in Nd1−xEuxNiO3: Entropy change and electronic delocalization	Journal of Applied Physics	Jardim, R. F. ; Barbeta, V B ; ANDRADE, S. ; Escote, M. T. ; CORDERO, F. ; TORIKACHVILI, M. S.	A2	
artigoEmPeriodico	2015	http://dx.doi.org/10.1063/1.4936631	Excitation of vibrational quanta in furfural by intermediate-energy electrons	The Journal of Chemical Physics	JONES, D. B. ; NEVES, R. F. C. ; Lopes, M. C. A. ; da Costa, R. F. ; Varella, M. T. do N. ; Bettega, M. H. F. ; Lima, M. A. P. ; GARCÍA, G. ; BLANCO, F. ; BRUNGER, M. J.	A1	
artigoEmPeriodico	2015	http://dx.doi.org/10.1039/c5tc01641j	Comparison of local distortions in Ba 8 Ga 16 X 30 =Si, Sn) an EXAFS study	J MATER CHEM C	KEIBER, TREVOR ; NAST, PATRICK ; BRIDGES, F ; MEDLING, SCOTT ; TOSHIRO, TAKABATAKE ; Suekuni, Koichiro ; Avila, Marcos A.	Qualis nao identificado	J MATER CHEM C
artigoEmPeriodico	2015	http://dx.doi.org/10.1039/c5cp04967a	Anion states and fragmentation of 2-chloroadenine upon low-energy electron collisions	PCCP. Physical Chemistry Chemical Physics (Print)	KOSSOSKI, F. ; KOPYRA, J. ; Varella, M. T. do N.	A1	
artigoEmPeriodico	2015	http://dx.doi.org/10.1039/C5CP01475A	Negative ion states of 5-bromouracil and 5-iodouracil	PCCP. Physical Chemistry Chemical Physics (Print)	KOSSOSKI, F. ; Varella, M. T. do N.	A1	
artigoEmPeriodico	2015	http://dx.doi.org/10.1016/j.colsurfa.2014.12.045	Potential applications of cyclodextrins in enhanced oil recovery	Colloids and Surfaces. A, Physicochemical and Engineering Aspects (Print)	LARA, LUCAS STORI DE ; VOLTATONI, THIAGO ; RODRIGUES, MANUELLA CARAMELO ; MIRANDA, CAETANO RODRIGUES ; BROCHSZTAIN, SERGIO	A2	
artigoEmPeriodico	2015	http://dx.doi.org/10.1016/j.jlumin.2015.02.010	Spectroscopic properties of tellurite glasses co-doped with Er3+ and Yb3+	Journal of Luminescence	LEAL, J.J. ; NARRO-GARCÍA, R. ; DESIRENA, H. ; Marconi, J.D. ; RODRÍGUEZ, E. ; LINGANNA, K. ; DE LA ROSA, E.	A2	
artigoEmPeriodico	2015	http://dx.doi.org/10.1016/j.synthmet.2015.02.006	Polyaniline-Pt and Polypyrrole-Pt Nanocomposites: Effect of supporting type and morphology on the Nanoparticles Size and Distribution	Synthetic Metals	LEMOS, H. G. ; SANTOS, S. F. ; VENANCIO, E. C.	A2	
artigoEmPeriodico	2015	http://dx.doi.org/10.1103/PhysRevB.92.134102	Atomistic pathways of the pressure-induced densification of quartz	Physical Review. B, Condensed Matter and Materials Physics	Liang, Yunfeng ; Miranda, Caetano R. ; Scandolo, Sandro	A1	
artigoEmPeriodico	2015	http://dx.doi.org/10.1002/jbm.b.33532	Bioactive Glass plus Laser Phototherapy as promise candidates for dentine hypersensitivity treatment.	Journal of Biomedical Materials Research. Part B, Applied Biomaterials	LOPEZ, T. ; DINIZ, I. ; FERREIRA, L. S. ; MARCHI, JULIANA ; Roger Borges ; de CARA, S. ; COUTO, R. ; MARQUES, M. M.	A2	
artigoEmPeriodico	2015	http://dx.doi.org/10.4028/www.scientific.net/kem.668.54	Effect of Fiber and Starch Incorporation in Biodegradation of PLA-TPS-Cotton Composites	Key Engineering Materials (Online)	MACEDO, J. R. N. ; ROSA, D. S.	B2	Key Engineering Materials
artigoEmPeriodico	2015	http://dx.doi.org/10.1016/j.electacta.2015.07.123	Nickel-N,N?-bis(salicylidene)-1,3-propanediamine (Ni-Salpn) film-modified electrodes. Influence of electrodeposition conditions and of electrode material on electrochemical behaviour in aqueous solution	Electrochimica Acta	MARTIN, CIBELY S. ; GOUVEIA-CARIDADE, CARLA ; Crespilho, Frank N. ; CONSTANTINO, CARLOS J.L. ; BRETT, CHRISTOPHER M.A.	A1	
artigoEmPeriodico	2015	http://dx.doi.org/10.1038/srep12425	Parallel damage in mitochondrial and lysosomal compartments promotes efficient cell death with autophagy: The case of the pentacyclic triterpenoids	Scientific Reports	MARTINS, WALESKA K. ; COSTA, ÉRICO T. ; CRUZ, MÁRIO C. ; STOLF, BEATRIZ S. ; Miotto, Ronei ; CORDEIRO, RODRIGO M. ; Baptista, Maurício S.	Qualis nao identificado	Scientific Reports
artigoEmPeriodico	2015	http://dx.doi.org/10.1002/polb.23704	<i>dc</i> Proton conductivity at low-frequency in Nafion conductivity spectrum probed by time-resolved SAXS measurements and impedance spectroscopy	Journal of Polymer Science. Part B, Polymer Physics	MATOS, BRUNO R. ; SANTIAGO, ELISABETE I. ; FERNANDO Q. REY, JOSE ; SCURACCHIO, CARLOS H. ; MANTOVANI, GERSON L. ; HIRANO, LAOS A. ; FONSECA, FABIO C.	A2	
artigoEmPeriodico	2015	http://dx.doi.org/10.5935/0103-5053.20150208	Effects of Methyl-Substituted Phenanthrolines on the Performance of Ruthenium(II) Dye-Sensitizers	Journal of the Brazilian Chemical Society (Impresso)	MÜLLER, ANDRESSA V. ; MENDONÇA, POLIANA S. ; PARANT, STÉPHANE ; DUCHANOIS, THIBAUT ; GROS, PHILIPPE C. ; BELEY, MARC ; Polo, André S.	A2	
artigoEmPeriodico	2015	http://dx.doi.org/10.1364/JOSAB.32.00OCT1	Optical cooling and trapping: introduction	Journal of the Optical Society of America B	Neves, Antonio A. R.; JONES, PHILIP H. ; LUO, LE ; Maragò, Onofrio M.	Qualis nao identificado	Journal of the Optical Society of America B
artigoEmPeriodico	2015	http://dx.doi.org/10.1016/j.jqsrt.2015.03.019	Photonic nanojets in optical tweezers	Journal of Quantitative Spectroscopy & Radiative Transfer	Neves, Antonio Alvaro Ranha	A2	
artigoEmPeriodico	2015	http://dx.doi.org/10.1364/OE.23.009917	Focus issue introduction: optical cooling and trapping	Optics Express	Neves, Antonio Alvaro Ranha; JONES, P. H. ; LUO, L. ; MARAGO, O. M.	A1	
artigoEmPeriodico	2015	http://dx.doi.org/10.1063/1.4913825	Differential cross sections for electron impact excitation of the electronic bands of phenol	The Journal of Chemical Physics	NEVES, R. F. C. ; JONES, D. B. ; Lopes, M. C. A. ; NIXON, K. L. ; DA SILVA, G. B. ; DUQUE, H. V. ; de Oliveira, E. M. ; da Costa, R. F. ; Varella, M. T. do N. ; Bettega, M. H. F. ; Lima, M. A. P. ; RATNAVELU, K. ; GARCÍA, G. ; BRUNGER, M. J.	A1	
artigoEmPeriodico	2015	http://dx.doi.org/10.1063/1.4921038	Intermediate energy electron impact excitation of composite vibrational modes in phenol	The Journal of Chemical Physics	NEVES, R. F. C. ; JONES, D. B. ; Lopes, M. C. A. ; NIXON, K. L. ; de Oliveira, E. M. ; da Costa, R. F. ; Varella, M. T. do N. ; Bettega, M. H. F. ; Lima, M. A. P. ; DA SILVA, G. B. ; BRUNGER, M. J.	A1	
artigoEmPeriodico	2015	http://dx.doi.org/10.1103/physrevapplied.3.024009	DFT+U Simulation of the Ti4O7-TiO2 Interface	Physical Review Applied	PADILHA, A.'C.'M. ; ROCHA, A.'R. ; DALPIAN, G.'M.	Qualis nao identificado	Physical Review Applied
artigoEmPeriodico	2015	http://dx.doi.org/10.4028/www.scientific.net/kem.668.28	Preparation of Polypropylene Composites with High Levels of Coir Short Fiber for Use in Products by Injection	Key Engineering Materials (Online)	PASSATORE, C. R. ; LEÃO, Alcides Lopes ; ROSA, D. S.	B2	Key Engineering Materials
artigoEmPeriodico	2015	http://dx.doi.org/10.18362/bjta.v4.i4.231	CARACTERIZAÇÃO EM ESTÁDO SÓLIDO DE MEDICAMENTOS GENÉRICO, SIMILAR E REFERÊNCIA DO CLORIDRATO DE PROPRANOLOL.	Brazilian Journal of Thermal Analysis	PEREIRA SATO, JULIANA ALVES ; Ferreira, Fabio Furlan	B5	
artigoEmPeriodico	2015	http://dx.doi.org/10.1021/jp510182u	First principles investigation of transition metal dichalcogenide nanotubes for Li and Mg ion battery applications	Journal of Physical Chemistry. C	PEREIRA, ALINE OLIMPIO ; Miranda, Caetano R.	A1	
artigoEmPeriodico	2015	http://dx.doi.org/10.1155/2015/394367	Thiosemicarbazone p -Substituted Acetophenone Derivatives Promote the Loss of Mitochondrial - ψ , GSH Depletion, and Death in K562 Cells	Oxidative Medicine and Cellular Longevity (Print)	PESSOTO, F. S. ; YOKOMIZO, C. H. ; PRIETO, Tatiana ; FERNANDES, C. S. ; SILVA, A. P. ; KAISER, C. ; BASSO, E. ; NANTES, I. L.	B1	
artigoEmPeriodico	2015	http://dx.doi.org/10.1590/1516-1439.311514	Characterization of Fibers from Pineapple's Crown, Rice Husks and Cotton Textile Residues	Materials Research	PRADO, K. S. ; Spinacé, M.A.S.	Qualis nao identificado	Materials Research
artigoEmPeriodico	2015	http://dx.doi.org/10.1038/srep17560	Theoretical assessment of feasibility to sequence DNA through interlayer electronic tunneling transport at aligned nanopores in bilayer graphene	Scientific Reports	PRASONGKIT, JARIYANEE ; FELICIANO, GUSTAVO T. ; Rocha, Alexandre R. ; HE, YUHUI ; OSOTCHAN, TANAKORN ; AHUJA, RAJEEV ; SCHEICHER, RALPH H.	Qualis nao identificado	Scientific Reports
artigoEmPeriodico	2015	http://dx.doi.org/10.1021/acssuschemeng.5b00639	Biological Oxidative Mechanisms for Degradation of Poly(lactic acid) Blended with Thermoplastic Starch	ACS SUSTAIN CHEM ENG	RODRIGUES, CARLOS ANDRE ; TOFANELLO, ARYANE ; NANTES, ISELI LOURENÇO ; Rosa, Derval S.	Qualis nao identificado	ACS SUSTAIN CHEM ENG
artigoEmPeriodico	2015	http://dx.doi.org/10.5935/0103-5053.20150151	Rietveld Method in the Analysis of Polymorphism in Mebendazole Tablets Acquired in Brazil's Drugstores	Journal of the Brazilian Chemical Society (Impresso)	SALVI, SIMONE T. B. ; ANTONIO, SELMA G. ; Ferreira, Fabio F. ; PAIVA-SANTOS, CARLOS O.	A2	
artigoEmPeriodico	2015	http://dx.doi.org/10.1364/boe.6.002830	Rapid and noninvasive technique to assess the metabolomics profile of bovine embryos produced in vitro by Raman spectroscopy	Biomedical Optics Express	SANTOS, E. C. ; Martinho, H. S. ; ANNES, K. ; LEITE, R. F. ; Milazzotto, M. P.	B1	
artigoEmPeriodico	2015	http://dx.doi.org/10.1103/physreve.91.063310	Molecular model for hydrated biological tissues	Physical Review. E, Statistical, Nonlinear, and Soft Matter Physics (Print)	SATO, ERIKA TIEMI ; ROCHA, ALEXANDRE REILY ; de Carvalho, Luis Felipe das Chagas e Silva ; Almeida, Janete Dias ; Martinho, Herculano	A1	
artigoEmPeriodico	2015	http://dx.doi.org/10.1002/pssc.201400312	Electronic structure of YbNi X 3 ( X =Si, Ge) studied by hard X-ray photoemission spectroscopy. Physica Status Solidi	Physica Status Solidi. C, Current Topics in Solid State Physics (Print)	SATO, HITOSHI ; UTSUMI, YUKI ; KODAMA, JUNICHI ; NAGATA, HEISUKE ; Avila, Marcos A. ; Ribeiro, Raquel A. ; Umeo, Kazunori ; Takabatake, Toshiro ; MIMURA, KOJIRO ; MOTONAMI, SATORU ; ANZAI, HIROAKI ; UEDA, SHIGENORI ; SHIMADA, KENYA ; NAMATAME, HIROFUMI ; TANIGUCHI, MASAKI	B2	
artigoEmPeriodico	2015	http://dx.doi.org/10.3390/molecules20023067	Novel Orally Active Analgesic and Anti-Inflammatory Cyclohexyl-N-Acylhydrazone Derivatives	Molecules (Basel. Online)	SILVA, TIAGO FERNANDES ; BISPO JÚNIOR, WALFRIDO ; ALEXANDRE-MOREIRA, MAGNA SUZANA ; COSTA, FANNY NASCIMENTO ; MONTEIRO, CARLOS ; Furlan Ferreira, Fabio ; BARROSO, REGINA CELY RODRIGUES ; NOËL, FRANÇOIS ; SUDO, ROBERTO TAKASHI ; ZAPATA-SUDO, GISELE ; LIMA, LÍDIA MOREIRA ; BARREIRO, ELIEZER	A2	
artigoEmPeriodico	2015	http://dx.doi.org/10.1590/0104-1428.1747	Blends of ground tire rubber devulcanized by microwaves/HDPE - Part A: influence of devulcanization process	Polímeros (São Carlos. Online)	SOUSA, FABIULA DANIELLI BASTOS DE ; GOUVEIA, JÚLIA ROCHA ; CAMARGO FILHO, PEDRO MARIO FRANCO DE ; VIDOTTI, SUEL ERIC ; Scuracchio, Carlos Henrique ; AMURIN, LEICE GONÇALVES ; VALERA, TICIANE SANCHES	Qualis nao identificado	Polímeros (São Carlos. Online)
artigoEmPeriodico	2015	http://dx.doi.org/10.1590/0104-1428.1955	Blends of ground tire rubber devulcanized by microwaves/HDPE - Part B: influence of clay addition	Polímeros (São Carlos. Online)	SOUSA, FABIULA DANIELLI BASTOS DE ; GOUVEIA, JÚLIA ROCHA ; CAMARGO FILHO, PEDRO MÁRIO FRANCO DE ; VIDOTTI, SUEL ERIC ; Scuracchio, Carlos Henrique ; AMURIN, LEICE GONÇALVES ; VALERA, TICIANE SANCHES	Qualis nao identificado	Polímeros (São Carlos. Online)
artigoEmPeriodico	2015	http://dx.doi.org/10.1177/0892705715598358	Biocomposite of a multilayer film scrap and curaua fibers: Preparation and environmental degradation	Journal of Thermoplastic Composite Materials	SPINACE, M. A.; DE PAOLI, M.-A.	Qualis nao identificado	Journal of Thermoplastic Composite Materials
artigoEmPeriodico	2015	http://dx.doi.org/10.1016/j.molstruc.2015.02.019	Synthesis, characterization, in silico approach and in vitro antiproliferative activity of RPF151, a benzodioxole sulfonamide analogue designed from capsaicin scaffold	Journal of Molecular Structure (Print)	TAVARES, MAURÍCIO T. ; PASQUALOTO, KERLY F.M. ; VAN DE STREEK, JACCO ; FERREIRA, ADILSON K. ; AZEVEDO, RICARDO A. ; DAMIÃO, MARIANA C.F.C.B. ; RODRIGUES, CECILIA P. ; DE-SÁ-JÚNIOR, PAULO L. ; BARBUTO, JOSÉ A.M. ; PARISE-FILHO, ROBERTO ; Ferreira, Fabio F.	A2	
artigoEmPeriodico	2015	http://dx.doi.org/10.1590/1516-1439.266514	Effect of Low Temperature Nitriding of 100Cr6 Substrates on TiN Coatings Deposited by IBAD	Materials Research (São Carlos. Impresso)	VALES, SANDRA DOS SANTOS ; BECERRA, ERIKA ABIGAIL OCHOA ; BRITO, PEDRO PAIVA ; DROPPA JUNIOR, ROOSEVELT ; GARCIA, JOSE LUIS ; ALVAREZ, FERNANDO ; PINTO, HAROLDO CAVALCANTI	B1	
artigoEmPeriodico	2015	http://dx.doi.org/10.1021/jp5122596	Elucidating the Optical Properties of Novel Hetero-Layered Materials Based on MoTe -InN for Photovoltaic Applications	Journal of Physical Chemistry. C	VILLEGAS, CESAR E.P. ; Rocha, Alexandre Reily	A1	
artigoEmPeriodico	2015	http://dx.doi.org/10.1039/c5ta05537g	Effect of chemical redox on Gd-doped ceria mass diffusion	Journal of Materials Chemistry A	W. NI, D. ; de Florio, D. Z. ; MARANI, D. ; KAISER, A. ; TINTI, V. B. ; ESPOSITO, V.	Qualis nao identificado	Journal of Materials Chemistry A
artigoEmPeriodico	2015	http://dx.doi.org/10.1021/tx5005166	Effects of trichlorotelluro-dypnones on mitochondrial bioenergetics and its relation to the reactivity with protein thiols	Chemical Research in Toxicology	YOKOMIZO, CESAR H. ; PESSOTO, FELIPE S. ; PRIETO, Tatiana ; CUNHA, RODRIGO L. O. R. ; NANTES, ISELI LOURENÇO	A1	
artigoEmPeriodico	2015	http://dx.doi.org/10.1016/j.dental.2015.06.015	Systematic approach to preparing ceramic-glass composites with high translucency for dental restorations	Dental Materials	Yoshimura, Humberto N.; CHIMANSKI, AFONSO ; Cesar, Paulo F.	A1	
artigoEmPeriodico	2015	http://dx.doi.org/10.1166/jnn.2014.8253	LaNiO<SUB>3</SUB> Nanotubes Produced Using a Template-Assisted Method	Journal of Nanoscience and Nanotechnology (Print)	ZENATTI, A. ; REY, J. F. QUEIRUGA ; LANFREDI, A. C. ; LEITE, E. R. ; LONGO, E. ; ESCOTE, M. T.	A2	
trabalhoCompletoEmCongresso	2015		Efeito do tratamento de solubilização sobre a resistência à corrosão do aço inoxidável UNS S43000	Conferência sobre Tecnologia de Equipamentos	ANTUNES, R. A.; Lima, F.X.		
trabalhoCompletoEmCongresso	2015		Efeito do potencial de filmes anódicos sobre a resistência à corrosão do aço API 5L X80	Conferência sobre Tecnologia de Equipamentos	ANTUNES, R. A.; OLIVEIRA, M. C. L. ; Oliveira, L.A.		
trabalhoCompletoEmCongresso	2015		Efeito da temperatura sobre a resistência à corrosão da liga de zircônio M5 em solução de hidróxido de lítio	Conferência sobre Tecnologia de Equipamentos	ANTUNES, R. A.; OLIVEIRA, M. C. L. ; Souza, J.A.B		
trabalhoCompletoEmCongresso	2015		Comparação do efeito da concentração de cloreto sobre a resistência à corrosão por pite do aço inoxidável duplex UNS S31803 e do aço inoxidável austenítico AISI 304	Conferência sobre Tecnologia de Equipamentos	ANTUNES, R. A.; Souza, J.S.		
trabalhoCompletoEmCongresso	2015		Estudo do efeito de diferentes ciclos de tratamento térmico sobre a resistência à corrosão do aço AISI 4140	Conferência sobre Tecnologia de Equipamentos	Antunes, R.A.; Ambrosi, L.F.G. ; OLIVEIRA, M. C. L.		
trabalhoCompletoEmCongresso	2015		Single Crystal Growth and Magnetic Characterization of RNiSi3 (R = Dy, Ho)	International Conference on Magnetism (ICM 2015)	ARISTIZABAL, D. ; ARANTES, F. R. ; COSTA, F. N. ; FERREIRA, F. F. ; RIBEIRO, R. A. ; AVILA, M A		
trabalhoCompletoEmCongresso	2015		Desenvolvimento e caracterização de hidroxiapatita contendo prata via precipitação e imersão	4th workshop de biomateriais	BOSSU, M. F. ; SANTOS JR, A. R. ; PEREIRA, R. F. ; SCATOLINI, A. M. ; PUGINE, S. M. P. ; MARCHI, JULIANA ; VERCIK, L. L. C. O. ; Eliana Cristina da Silva Rigo		
trabalhoCompletoEmCongresso	2015		AVALIAÇÃO DO TRATAMENTO ALCALINO EM FIBRAS DE ALGODÃO	13o Congresso Brasileiro de Polimeros	CARMONA, V. N. ; TRINDADE, J. ; ROSA, D. S.		
trabalhoCompletoEmCongresso	2015	http://dx.doi.org/10.1007/b97071	Self-assembled complexes of multibranched gold nanoparticles with porphyrins used in photodynamic therapy Spectral and structural characterization	2nd International Conference on Advances in Bio-Informatics and Environmental Engineering (ICABEE)	CASARES, Juliana ; MIRANDA, E. G. A. ; Tofanello, A ; CASTRO, C. E. ; GIACOMELLI, F. C. ; ZUNIGA, A. ; NANTES, I. L.		
trabalhoCompletoEmCongresso	2015		Devitrificação de vidros do sistema SiO2-B2O3-Al2O3-La2O3-TiO2 durante processamento de compósitos cerâmicos infiltrados com vidro	59 Congresso Brasileiro de Cerâmica	CHIMANSKI, A. ; JORDAO, A. M. ; CESAR, P. F. ; YOSHIMURA, H. N.		
trabalhoCompletoEmCongresso	2015		Estudo do efeito de tratamentos térmicos sobre a resistência à corrosão da liga de alumínio 7075	Conferência sobre Tecnologia de Equipamentos	Correa O.V. ; Filgueiras, D.R. ; ANTUNES, R. A.		
trabalhoCompletoEmCongresso	2015		Efeito da temperatura de recozimento sobre a resistência à corrosão de revestimentos de Ni-W-P obtidos por deposição química	Conferência sobre Tecnologia de Equipamentos	Correa O.V. ; LIMA, N. B. ; Ett, B. ; OLIVEIRA, M. C. L. ; Antunes, R.A.		
trabalhoCompletoEmCongresso	2015		ESTUDO DO EFEITO DO TEOR DE TUNGSTÊNIO SOBRE A RESISTÊNCIA À CORROSÃO DE FILMES DE Ni-W-P OBTIDOS POR DEPOSIÇÃO QUÍMICA	Encontro e exposição brasileira de tratamentos de superfície	Ett, B. ; ETT, G. ; ETT, V. ; ANTUNES, R. A.		
trabalhoCompletoEmCongresso	2015		AVALIAÇÃO DO DESEMPENHO DE COMPOSTOS ORGANICOS E INORGANICOSS OBTIDOS DA RECICLAGEM EM USINAS DE COMPOSTAGEM E SUA APLICAÇÃO EM FILMES AGRICOLAS DE BLENDAS DE PBAT MAIS PLA	13o Congresso Brasileiro de Polimeros	HARADA, J. ; ROSA, D. S.		
trabalhoCompletoEmCongresso	2015		Avaliação do perfil de dissolução de biocerâmicas para reconstituição de tecido ósseo	59º Congresso Brasileiro de Cerâmica	K.C. Kai ; Roger Borges ; CALIPO, D. ; MARCHI, JULIANA		
trabalhoCompletoEmCongresso	2015		COMPÓSITOS PLA-AMIDO-ALGODÃO COM MAIOR DURABILIDADE	13o Congresso Brasileiro de Polímeros	MACEDO, J. R. N. ; ROSA, D. S.		
trabalhoCompletoEmCongresso	2015		DEGRADATION OF PLA-STARCH MIXTURES REINFORCED WITH NATURAL COTTON FIBER	XI Simposio Argentino de Polímeros - SAP	MACEDO, J. R. N. ; Rosa, D.S.		
trabalhoCompletoEmCongresso	2015		EFFECT OF NANOCLAY ON VISCOELASTICITY PROPERTIES BEHAVIOUR OF PLA/MMT COMPOSITES	XI Simposio Argentino de Polímeros - SAP	MACEDO, J. R. N. ; Rosa, D.S. ; GARCIA, M. P. ; SCURACCHIO, C. H. ; FELISBERTI, M. I.		
trabalhoCompletoEmCongresso	2015		Avaliação das propriedades mecânicas de Y-TZP após deposição superficial de hidroxiapatita	59º Congresso Brasileiro de Cerâmica	MIRANDA, R.P.B. ; USSUI, V. ; CESAR, P. F. ; JR., W.G.M. ; MARCHI, JULIANA		
trabalhoCompletoEmCongresso	2015	http://dx.doi.org/10.1364/FIO.2015.FTu3B.4	Characterization of Tellurite Fiber Samples Doped with Erbium and Ytterbium for Broadband Amplification	Frontiers in Optics	MONTES, THISIEN G. ; MARCONI, JORGE D. ; CHILLCCE, ENVER F. ; BARBOSA, LUIZ C. ; BORDONALLI, ALDARIO C.		
trabalhoCompletoEmCongresso	2015		EFFECT OF DIFFERENT CHEMICAL TREATMENTS FOR PLA-COTTON COMPOSITES DEGRADATION	XI Simposio Argentino de Polímeros - SAP	NUNES, M. R. ; MACEDO, J. R. N. ; CARMONA, V. N. ; Rosa, D.S.		
trabalhoCompletoEmCongresso	2015		AVALIAÇÃO DO TRATAMENTO ÁCIDO EM FIBRAS DE ALGODÃO	13o Congresso Brasileiro de Polímeroso Congresso	NUNES, M. R. ; TRINDADE, J. A. ; CARMONA, V. N. ; MACEDO, J. R. N. ; ROSA, D. S.		
trabalhoCompletoEmCongresso	2015		Conformação por gelcasting de blocos porosos e monolíticos de b-TCP sintetizado por precipitação via umida	59º Congresso Brasileiro de Cerâmica	ORTEGA, F. S. ; MORIYA, R. H. ; BERALDO, R. G. ; MARCHI, JULIANA		
trabalhoCompletoEmCongresso	2015	http://dx.doi.org/10.4043/26241-MS	Exploring the Potentialities of Nanoscience to Enhanced Oil Recovery Process: A Multiscale Computational Approach	OTC Brasil	PEREIRA, A. O. ; MIRANDA, C. R.		
trabalhoCompletoEmCongresso	2015		Tecnologias de reciclagem de resíduos de polímeros no Brasil e no mundo	13 Congresso Brasileiro de Polímeros	PRADO, K. S. ; PAULO, L. S. ; MALFATTI, M. G. ; Spinacé, M.A.S.		
trabalhoCompletoEmCongresso	2015		ANÁLISE DE SORÇÃO DE MISTURAS DE POLI(ÁCIDO LÁCTICO) COM AMIDO TERMOPLÁSTICO	13o Congresso Brasileiro de Polímeros	SALGUERO, L. ; REZENDE, M. L. ; ROSA, D. S.		
trabalhoCompletoEmCongresso	2015		Avaliação in vitro de cerâmicas de hidroxiapatita dopadas com prata	59º Congresso Brasileiro de Cerâmica	SANTOS JR, A. R. ; BOSSU, M. F. ; PEREIRA, R. F. ; SCATOLINI, A. M. ; PUGINE, S. M. P. ; MARCHI, JULIANA ; Eliana Cristina da Silva Rigo		
trabalhoCompletoEmCongresso	2015	http://dx.doi.org/10.1016/B978-0-08-096532-1.00205-3	CARACTERÍSTICAS TÉRMICAS E MORFOLÓGICAS DE LIGNINAS KRAFT	13° Congresso Brasileiro de Polímeros	SANTOS, L. T. ; DOS SANTOS, D. J. ; ROSA, D. S.		
trabalhoCompletoEmCongresso	2015		Compósitos biodegradáveis de amido termoplástico com celulose bacteriana	13 Congresso Brasileiro de Polímeros	SANTOS, T. A. ; Spinacé, M.A.S.		
trabalhoCompletoEmCongresso	2015		COMPORTAMENTO MECÂNICO DE POLIURETANO OBTIDO DE FONTE NATURAL RENOVÁVEL: ÓLEO DE MAMONA E LIGNINA	13° Congresso Brasileiro de Polímeros	SILVA, N. S. ; DOS SANTOS, D. J.		
trabalhoCompletoEmCongresso	2015		CRISTAIS DE CELULOSE OBTIDOS DA RECICLAGEM DE RESÍDUO DA INDUSTRIA PAPELEIRA E SUA APLICAÇÃO EM FILMES DE ECOFLEX	13o Congresso Brasileiro de Polímeros	SOUZA, A. G. ; Rosa, D.S.		
trabalhoCompletoEmCongresso	2015	http://dx.doi.org/10.20906/CPS/COB-2015-056	INVESTIGATION ON THE EFFECT OF ANNEALING TEMPERATURE ON THE INTERGRANULAR CORROSION SUSCEPTIBILITY OF AISI 409 FERRITIC STAINLESS STEEL	23rd International Congress of Mechanical Engineering	Souza, J.S. ; Sayeg, I. J. ; ANTUNES, R. A.		
trabalhoCompletoEmCongresso	2015		Green and rapid synthesis of biocompatible gold and silver nanoparticles using fruit juices, green tea and coffee A comparative and systematic study	2nd International Conference on Advances in Bio-Informatics and Environmental Engineering (ICABEE)	Tofanello, A ; MIRANDA, E. G. A. ; CASARES, Juliana ; CASTRO, C. E. ; GIACOMELLI, F. C. ; ZUNIGA, A. ; NANTES, I. L.		
trabalhoCompletoEmCongresso	2015		THERMOSTRUCTURAL STUDY OF COTTON FIBERS IN SEVERAL TREATMENTS	XI Simposio Argentino de Polímeros - SAP	TRINDADE, J. A. ; MACEDO, J. R. N. ; Rosa, D.S.		
trabalhoCompletoEmCongresso	2015		ESTUDO TERMOESTRUTURAL DE FIBRAS DE ALGODÃO TRATADAS PARA USO COMO REFORÇO POLIMÉRICO	13o Congresso Brasileiro de Polimeros	TRINDADE, J. A. ; RODRIGUES, M. ; CARMONA, V. N. ; ROSA, D. S.		
trabalhoCompletoEmCongresso	2015		Desenvolvimento de compósito de WC com matriz de intermetálico Fe3Al pelo processo sps (spark plasma sintering)	59 Congresso Brasileiro de Cerâmica	YBARRA, L. A. C. ; CHIMANSKI, A. ; GAMA, S. ; SILVA, R. A. G. ; MACHADO, I. F. ; YOSHIMURA, H. N.		
trabalhoCompletoEmCongresso	2015		Avaliação da transformação mecanoquímica e hidrotérmica em um pó de alumina moído a úmido por análise térmica e microscopia eletrônica de transmissão	59 Congresso Brasileiro de Cerâmica	YOSHIMURA, H. N.; LIMA, M. B. ; SANTOS, S. F. ; ORTEGA, F. S.		
resumoExpandidoEmCongresso	2015	Asphaltene Interaction with Calcite Surface: A First Principles Study	Goldschmidt 2015, 2015, Praga. Goldschmidt 2015	ALVIM, RAPHAEL DA SILVA ; Headen T ; BOEK, E. ; MIRANDA, C. R.		
resumoExpandidoEmCongresso	2015	Effect of nanoclay on viscoelastic properties behavior of PLA/MMT composites	XI Simposio Argentino de Polimeros, 2015, Santa Fé, Argentina. XI Simposio Argentino de Polimeros	MACEDO, J. R. N. ; ROSA, D. S. ; GARCIA, M. P. ; SCURACCHIO, C. H. ; FELISBERTI, M. I.		
resumoExpandidoEmCongresso	2015	Elucidating the optical properties of MoTe2/InN heterostructures for photovoltaic applications	March Meeting of the American Physical Society, 2015, San Antonio. Proceedings of the March Meeting of the American Physical Society. College Park: American Physical Society	Rocha, A.R.; Villegas, C. E. P		
resumoExpandidoEmCongresso	2015	Estudo termoanalítico do fármaco maleato de enalapril	VII Simpósio de Análise Térmica, 2015, Bauru/SP. Livro de resumos - VII Simpósio de Análise Térmica	Sato, J. A. P. ; Ferreira, Fabio Furlan		
resumoExpandidoEmCongresso	2015	Caracterização em estado sólido de medicamentos genérico, similar e referência do cloridrato de propranolol	VII Simpósio de Análise Térmica, 2015, Bauru/SP. Livro de resumos - VII Simpósio de Análise Térmica	Sato, J. A. P. ; Ferreira, Fabio Furlan		
