0.0 0.0 0.0 0.0 0.0 0.0 0.0 0.0 0.0 0.0 0.0 0.0 0.0 0.0 0.0 0.0 0.0 0.0 3.0 0.0 
0.0 0.0 0.0 0.0 0.0 0.0 0.0 0.0 0.0 0.0 0.0 0.0 0.0 0.0 0.0 0.0 0.0 0.0 0.0 0.0 
0.0 0.0 0.0 0.0 1.0 0.0 0.0 0.0 0.0 0.0 0.0 0.0 0.0 1.5 0.0 0.0 0.0 0.0 1.5 1.0 
0.0 0.0 0.0 0.0 0.0 0.0 1.0 0.0 0.0 1.0 0.0 0.0 1.0 0.0 0.0 0.0 0.0 0.0 0.0 0.0 
0.0 0.0 1.0 0.0 0.0 0.0 0.0 0.0 0.0 0.0 0.0 0.0 0.0 0.0 0.0 0.0 0.0 0.0 0.0 0.0 
0.0 0.0 0.0 0.0 0.0 0.0 0.0 1.5 1.5 0.0 0.0 0.333333333333 2.33333333333 0.0 4.0 0.333333333333 0.0 0.0 0.0 0.0 
0.0 0.0 0.0 1.0 0.0 0.0 0.0 0.0 0.0 2.25 0.0 1.25 1.25 0.0 0.0 0.25 0.0 0.0 0.0 0.0 
0.0 0.0 0.0 0.0 0.0 1.5 0.0 0.0 0.5 0.0 0.0 5.0 0.0 5.0 0.0 0.0 0.0 0.0 1.5 0.5 
0.0 0.0 0.0 0.0 0.0 1.5 0.0 0.5 0.0 0.0 0.0 1.0 0.0 0.0 0.0 0.0 0.333333333333 2.33333333333 0.0 0.333333333333 
0.0 0.0 0.0 1.0 0.0 0.0 2.25 0.0 0.0 0.0 0.0 0.25 0.25 0.0 0.0 0.25 0.0 0.0 0.0 0.0 
0.0 0.0 0.0 0.0 0.0 0.0 0.0 0.0 0.0 0.0 0.0 0.0 0.0 0.0 0.0 0.0 0.0 0.0 0.0 0.0 
0.0 0.0 0.0 0.0 0.0 0.333333333333 1.25 5.0 1.0 0.25 0.0 0.0 1.08333333333 0.0 0.0 1.08333333333 0.0 0.0 2.0 0.0 
0.0 0.0 0.0 1.0 0.0 2.33333333333 1.25 0.0 0.0 0.25 0.0 1.08333333333 0.0 1.0 9.0 1.08333333333 0.0 0.0 0.0 0.0 
0.0 0.0 1.5 0.0 0.0 0.0 0.0 5.0 0.0 0.0 0.0 0.0 1.0 0.0 0.0 0.0 3.0 0.0 1.5 0.0 
0.0 0.0 0.0 0.0 0.0 4.0 0.0 0.0 0.0 0.0 0.0 0.0 9.0 0.0 0.0 0.0 0.0 0.0 0.0 0.0 
0.0 0.0 0.0 0.0 0.0 0.333333333333 0.25 0.0 0.0 0.25 0.0 1.08333333333 1.08333333333 0.0 0.0 0.0 0.0 0.0 0.0 0.0 
0.0 0.0 0.0 0.0 0.0 0.0 0.0 0.0 0.333333333333 0.0 0.0 0.0 0.0 3.0 0.0 0.0 0.0 0.333333333333 0.0 0.333333333333 
0.0 0.0 0.0 0.0 0.0 0.0 0.0 0.0 2.33333333333 0.0 0.0 0.0 0.0 0.0 0.0 0.0 0.333333333333 0.0 0.0 0.333333333333 
3.0 0.0 1.5 0.0 0.0 0.0 0.0 1.5 0.0 0.0 0.0 2.0 0.0 1.5 0.0 0.0 0.0 0.0 0.0 0.5 
0.0 0.0 1.0 0.0 0.0 0.0 0.0 0.5 0.333333333333 0.0 0.0 0.0 0.0 0.0 0.0 0.0 0.333333333333 0.333333333333 0.5 0.0 
