artigoEmPeriodico	Luísa Andréia Gachet Barbosa	2014	http://dx.doi.org/10.4028/www.scientific.net/AMM.467.253	Interlocking Tactile Concrete Paver with Addition of Steel Fibers	Applied Mechanics and Materials	Silva, F.M. ; SANTOS, V. R. F. ; Ribeiro, L.C.L.J. ; PIRES, M. S. G. ; LINTZ, Rosa Cristina Cecche ; GACHET-BARBOSA, L. A.	Qualis nao identificado	Applied Mechanics and Materials
artigoEmPeriodico	Luísa Andréia Gachet Barbosa	2014	http://dx.doi.org/10.4028/www.scientific.net/AMR.905.325	Assembly of a wetland on a laboratory scale for post-treatment of domestic wastewater	Advanced Materials Research (Online)	MOURÃO, J. R. ; FREITAS, R. ; RIBEIRO, LUBIENSKA CRISTINA L.J. ; LINTZ, Rosa Cristina Cecche ; GACHET-BARBOSA, L. A. ; PIRES, M. S. G. ; DRAGONI, G. S.	Qualis nao identificado	Advanced Materials Research (Online)
artigoEmPeriodico	Luísa Andréia Gachet Barbosa	2014	http://dx.doi.org/10.4028/www.scientific.net/AMR.905.306	Contribution from the Use of Alternative Materials in Concrete for Accessibility on Sidewalks	Advanced Materials Research (Online)	SANTOS, V. R. F. ; Silva, F.M. ; RIBEIRO, LUBIENSKA CRISTINA L.J. ; PIRES, M. S. G. ; LINTZ, Rosa Cristina Cecche ; GACHET-BARBOSA, L. A.	Qualis nao identificado	Advanced Materials Research (Online)
artigoEmPeriodico	Luísa Andréia Gachet Barbosa	2014	http://dx.doi.org/10.1002/fam.2288	Analysis of composite steel and concrete columns at high temperatures	Fire and Materials	JACINTHO, Ana Elisabete P. G. A. ; SILVA, VALDIR P. ; REQUENA, JOÃO A. V. ; LINTZ, ROSA C. C. ; GACHET-BARBOSA, LUISA A. ; PIMENTEL, LIA L.	Qualis nao identificado	Fire and Materials
trabalhoCompletoEmCongresso	Luísa Andréia Gachet Barbosa	2014		Análise da massa específica e resistência mecânica do concreto leve estrutural modificado com sílica ativa	56 Congresso Brasileiro do Concreto	ANGELIN, ANDRESSA FERNANDA ; LINTZ, R. C. C. ; GACHET-BARBOSA, L. A.		
trabalhoCompletoEmCongresso	Luísa Andréia Gachet Barbosa	2014		O uso de materiais alternativos na produção de pisos táteis de concreto	56 Congresso Brasileiro do Concreto	Silva, F.M. ; SANTOS, V. R. F. ; PERALTA, B. L. ; LINTZ, R. C. C. ; GACHET-BARBOSA, L. A.		
artigoEmPeriodico	Luis Augusto Angelotti Meira	2014	http://dx.doi.org/10.1109/tcbb.2014.2321150	acc-Motif: Accelerated Network Motif Detection	IEEE/ACM Transactions on Computational Biology and Bioinformatics (Print)	MEIRA, L.A.A.; MAXIMO, V.R. ; FAZENDA, A.L. ; DA CONCEICAO, A.F.	B1	
artigoEmPeriodico	Luis Augusto Angelotti Meira	2014	http://dx.doi.org/10.1007/s10107-014-0821-x	A systematic approach to bound factor-revealing LPs and its application to the metric and squared metric facility location problems	Mathematical Programming	FERNANDES, CRISTINA G. ; Meira, Luis A. A. ; Miyazawa, Flávio K. ; PEDROSA, LEHILTON L. C.	A1	
artigoEmPeriodico	Lubienska Cristina Lucas Jaquiê Ribeiro	2014	http://dx.doi.org/10.4028/www.scientific.net/amr.905.306	Contribution from the Use of Alternative Materials in Concrete for Accessibility on Sidewalks	Advanced Materials Research (Online)	SANTOS, VÂNIA REGINA FERREIRA ; SILVA, FABIANA MARIA ; RIBEIRO, LUBIENSKA CRISTINA L.J. ; PIRES, MARTA SIVIERO GUILHERME ; LINTZ, ROSA CRISTINA CECCHE ; GACHET-BARBOSA, LUISA ANDRÉIA	Qualis nao identificado	Advanced Materials Research (Online)
artigoEmPeriodico	Lubienska Cristina Lucas Jaquiê Ribeiro	2014	http://dx.doi.org/10.4028/www.scientific.net/amr.905.325	Assembly of a Wetland on a Laboratory Scale for Post-Treatment of Domestic Wastewater	Advanced Materials Research (Online)	MOURÃO, JADE R. ; FREITAS, RAQUEL ; DRAGONI SOBRINHO, Geraldo ; RIBEIRO, LUBIENSKA CRISTINA L.J. ; LINTZ, ROSA CRISTINA CECCHE ; GACHET-BARBOSA, LUÍSA ANDRÉIA ; PIRES, MARTA SIVIERO GUILHERME	Qualis nao identificado	Advanced Materials Research (Online)
artigoEmPeriodico	Lubienska Cristina Lucas Jaquiê Ribeiro	2014	http://dx.doi.org/10.4236/jwarp.2014.615132	Synthetic Reconstruction of Water Demand Time Series for Real Time Demand Forecasting	Journal of Water Resource and Protection	BRENTAN, B. M. ; RIBEIRO, L. C. L. J. ; LUVIZOTTO, EDEVAR ; MENDONÇA, DANILO C. ; GUIDI, JOSÉ M.	B2	
artigoEmPeriodico	Leonardo Lorenzo Bravo Roger	2014		Electric Impedance of Piezoelectric Ceramics under Acoustic Loads	ECTI Transactions on Electrical Eng. / Electronics and Communications	Arnold, F.J. ; Goncalves, M. S. ; Bravo-Roger,L.L ou ROGER, L.L.B ; MUHLEN, S. S.	Qualis nao identificado	ECTI Transactions on Electrical Eng. / Electronics and Communications
artigoEmPeriodico	Leonardo Lorenzo Bravo Roger	2014		USANDO A PLATAFORMA ARDUINO PARA CRIAÇÃO DE KIT PEDAGÓGICO BASEADO EM OFICINAS DE ROBÓTICA PARA INTRODUÇÃO À ENGENHARIA NO ENSINO MÉDIO	Perspectivas da Ciência e Tecnologia	FABRI JUNIOR, L. A. ; GUERRA, F. ; TORREZAN NETO, O. ; HERNANDEZ, M. F. G. ; BRAVO-ROGER, LEONARDO L.	B3	
trabalhoCompletoEmCongresso	Leonardo Lorenzo Bravo Roger	2014	http://dx.doi.org/10.1109/BrasilRFID.2014.7128952	Numerical determination of frequency guard band resonances for Chipless RFID Tags	2014 IEEE Brasil RFID	SANTOS-SOUZA, GILBERTO T. ; ALVES, ANDREIA AP. DE C. ; BRAVO-ROGER, LEONARDO L. ; HERNANDEZ-FIGUEROA, HUGO E.		
trabalhoCompletoEmCongresso	Leonardo Lorenzo Bravo Roger	2014		LNA Practical Design Method for RFID Readers	2014 IEEE Brasil RFID	ALVES, A. A. C. ; SOUZA, G. T. S. ; Bravo-Roger,L.L ou ROGER, L.L.B ; FIGUEROA, Hugo Hernandez		
artigoEmPeriodico	Jose Geraldo Pena de Andrade	2014	http://dx.doi.org/10.1088/1755-1315/22/4/042016	Analysis of Pumped Storage Plants (PSP) viability associated with other types of intermittent renewable energy	IOP Conference Series: Earth and Environmental Science	ANDRADE, J G P; BARBOSA, P S F ; LUVIZOTTO, E ; ZUCULIN, S ; PINTO, MARRC ; FILHO, G L TIAGO	B5	IOP Conference Series. Earth and Environmental Science (Online)
artigoEmPeriodico	Vitor Rafael Coluci	2014	http://dx.doi.org/10.1021/jp409501g	Noncovalent Interaction with Graphene Oxide: The Crucial Role of Oxidative Debris	Journal of Physical Chemistry. C. (Online)	Coluci, Vitor R.; MARTINEZ, DIEGO STÉFANI T. ; HONÓRIO, JAQUELINE G. ; DE FARIA, ANDRÉIA F. ; MORALES, DANIEL A. ; Skaf, Munir S. ; ALVES, OSWALDO L. ; UMBUZEIRO, GISELA A.	B1	
artigoEmPeriodico	Carolina Siqueira Franco Picone	2014	http://dx.doi.org/10.1016/j.tibtech.2014.02.002	Microbial advanced biofuels production: overcoming emulsification challenges for large-scale operation	Trends in Biotechnology (Regular ed.)	HEERES, A. S. ; PICONE, C. S. F. ; van der WIELEN, L. A. M. ; CUNHA, R. L. ; CUELLAR, M. C.	Qualis nao identificado	Trends in Biotechnology (Regular ed.)
trabalhoCompletoEmCongresso	Carmenlucia Santos Giordano Penteado	2014		USE OF LADLE FURNACE SLAG AS A PARTIAL SUBSTITUTE OF PORTLAND CEMENT IN MORTARS	ISWA 2014 Solid Waste World Congress	SANTOS, C.; FERNANDEZ, C. L.		
trabalhoCompletoEmCongresso	Carmenlucia Santos Giordano Penteado	2014		Integrated Management of Construction and Demolition Waste: a case study in the City of Limeira, Brazil	ISWA 2014 Solid Waste World Congress	ROSADO, L. P. ; SANTOS, C. ; POZZA, S.A.		
artigoEmPeriodico	Antonio Carlos Zambon	2014		Inteligência Competitiva: percepções de valor no sector da bijuteria	Revista Portuguesa e Brasileira de Gestão (Lisboa)	ZAMBON, A. C.; ANUNCIACAO, P. F.	B1	
trabalhoCompletoEmCongresso	Antonio Carlos Zambon	2014		Mental models analysis based on fuzzy rules for collaborative decision-making	The Twenty-Sixth International Conference on Software Engineering Knowledge Engineering (SEKE 2014)	GARCIA-NUNES, P. I. ; SILVA, A. E. A. ; ZAMBON, A. C. ; BAIOCO, G. B.		
artigoEmPeriodico	André Leon Sampaio Gradvohl	2014	http://dx.doi.org/10.4304/jetwi.6.2.174-179	Comparing Distributed Online Stream Processing Systems Considering Fault Tolerance Issues	Journal of Emerging Technologies in Web Intelligence	GRADVOHL, ANDRÉ LEON SAMPAIO; SENGER, HERMES ; ARANTES, LUCIANA ; SENS, PIERRE	Qualis nao identificado	Journal of Emerging Technologies in Web Intelligence
artigoEmPeriodico	André Leon Sampaio Gradvohl	2014	http://dx.doi.org/10.1109/TLA.2014.6894015	Metalanguage for high-performance computing on hybrid architectures	Revista IEEE América Latina	GRADVOHL, ANDRÉ LEON SAMPAIO	B1	
artigoEmPeriodico	André Leon Sampaio Gradvohl	2014	http://dx.doi.org/10.5335/rbca.2014.4072	Gaspra - software for astronomical image processing in high-performance computing clusters	Revista Brasileira de Computação Aplicada	ANDRIJAUSKAS, FABIO ; GRADVOHL, ANDRÉ LEON SAMPAIO	B4	
artigoEmPeriodico	Andre Franceschi de Angelis	2014	http://dx.doi.org/10.1061/(asce)wr.1943-5452.0000258	Efficiency Curves for Hydroelectric Generating Units	Journal of Water Resources Planning and Management	ANGELIS, Andre Franceschi de; HIDALGO, I. G. ; ANDRADE, J. G. P.	A2	
artigoEmPeriodico	Edson Luiz Ursini	2014		Testing an IP-based Multimedia Gateway	INFOCOMP (UFLA. Impresso)	DIORIO, R. F. ; TIMOTEO, V. S. ; URSINI, E. L.	B3	
artigoEmPeriodico	Edson Luiz Ursini	2014		n-Steps ahead software reliability prediction using the Kalman filter	Applied Mathematics and Computation	URSINI, E. L.; Martins, P. ; MORAES, R. L. O. ; Timóteo, V. S.	A2	
resumoExpandidoEmCongresso	Edson Luiz Ursini	2014	An IP VPN Network Designand DimensioningApproachUsing Analytical-Simulation Models with Incremental Validation	Winter Simulation Conference - WSC, 2014, Savannah, GA, USA. Proceedings of the WSC	URSINI, E. L.; Martins, P. ; Timóteo, V. S. ; SANTOS, V. F.		
artigoEmPeriodico	Diego Stéfani Teodoro Martinez	2014	http://dx.doi.org/10.1016/j.colsurfb.2013.08.006	Anti-adhesion and antibacterial activity of silver nanoparticles supported on graphene oxide sheets	Colloids and Surfaces. B, Biointerfaces (Print)	de Faria, Andreia Fonseca ; Martinez, Diego Stéfani Teodoro ; MEIRA, STELA MARIS MEISTER ; DE MORAES, ANA CAROLINA MAZARIN ; BRANDELLI, ADRIANO ; FILHO, ANTONIO GOMES SOUZA ; Alves, Oswaldo Luiz	A1	
artigoEmPeriodico	Diego Stéfani Teodoro Martinez	2014	http://dx.doi.org/10.1021/am405594q	Topography-driven bionano-interactions on colloidal silica nanoparticles	ACS Applied Materials & Interfaces (Print)	Paula, Amauri J. ; SILVEIRA, CAMILA P. ; Martinez, Diego Stéfani T. ; SOUZA FILHO, ANTONIO G. ; ROMERO, FABIAN V. ; FONSECA, LEANDRO C. ; TASIC, LJUBICA ; Alves, Oswaldo L. ; DURÁN, NELSON	A1	
artigoEmPeriodico	Diego Stéfani Teodoro Martinez	2014	http://dx.doi.org/10.1007/s11051-013-2110-7	Eco-friendly decoration of graphene oxide with biogenic silver nanoparticles: antibacterial and antibiofilm activity	Journal of Nanoparticle Research	Faria, Andreia Fonseca ; MORAES, ANA CAROLINA MAZARIN ; MARCATO, PRISCYLA DANIELY ; Martinez, Diego Stéfani Teodoro ; DURÁN, NELSON ; FILHO, ANTÔNIO GOMES SOUZA ; BRANDELLI, ADRIANO ; Alves, Oswaldo Luiz	A1	
artigoEmPeriodico	Diego Stéfani Teodoro Martinez	2014	http://dx.doi.org/10.1080/17458080.2014.888788	Lipopolysaccharide influences on the toxicity of oxidised multiwalled carbon nanotubes to murine splenocytes <i>in vitro</i>	Journal of Experimental Nanoscience	BARBOSA, G.M. ; FAGAN, S.B. ; MARTINEZ, D.S.T. ; ALVES, O.L. ; RODRIGUES JUNIOR, L.C.	Qualis nao identificado	Journal of Experimental Nanoscience
artigoEmPeriodico	Diego Stéfani Teodoro Martinez	2014	http://dx.doi.org/10.1016/j.procbio.2014.04.006	Exploring the use of biosurfactants from Bacillus subtilis in bionanotechnology: A potential dispersing agent for carbon nanotube ecotoxicological studies	Process Biochemistry (1991)	Martinez, Diego Stéfani T.; FARIA, ANDRÉIA F. ; BERNI, ELIAS ; SOUZA FILHO, ANTONIO G. ; ALMEIDA, GILBERTO ; CALOTO-OLIVEIRA, ADRIA ; GROSSMAN, MATTHEW J. ; DURRANT, LUCIA R. ; UMBUZEIRO, GISELA A. ; Alves, Oswaldo L.	A2	
artigoEmPeriodico	Diego Stéfani Teodoro Martinez	2014	http://dx.doi.org/10.1021/jp409501g	Noncovalent Interaction with Graphene Oxide: The Crucial Role of Oxidative Debris	Journal of Physical Chemistry. C. (Online)	COLUCI, VITOR R. ; Martinez, Diego Stéfani T. ; HONÓRIO, JAQUELINE G. ; DE FARIA, ANDRÉIA F. ; MORALES, DANIEL A. ; SKAF, MUNIR S. ; Alves, Oswaldo L. ; UMBUZEIRO, GISELA A.	A1	
artigoEmPeriodico	Cristiano de Mello Gallep	2014	http://dx.doi.org/10.4161/psb.28671	Lunisolar tidal synchronism with biophoton emission during intercontinental wheat-seedling germination tests	Plant Signalling & Behavior (Online)	GALLEP, Cristiano de Mello; Moraes, Thiago Alexandre ; #268 ; Cifra, Michal ; KATSUMATA, M. ; BARLOW, P. W.	Qualis nao identificado	Plant Signalling & Behavior (Online)
artigoEmPeriodico	Cristiano de Mello Gallep	2014	http://dx.doi.org/10.1002/bio.2658	Ultraweak, spontaneous photon emission in seedlings: toxicological and chronobiological applications	Luminescence (Chichester, England Print)	de Mello Gallep, Cristiano	Qualis nao identificado	Luminescence (Chichester, England Print)
artigoEmPeriodico	Cristiano de Mello Gallep	2014	http://dx.doi.org/10.1016/j.optcom.2014.09.069	Bias current influence on semiconductor optical amplifier's equivalent circuit	Optics Communications (Print)	FIGUEIREDO, RAFAEL C. ; Ribeiro, Napoleão S. ; Gallep, Cristiano M. ; Conforti, Evandro	A2	
artigoEmPeriodico	Cristiano de Mello Gallep	2014	http://dx.doi.org/10.1109/jlt.2014.2372893	Hundred-Picoseconds Electro-Optical Switching with Semiconductor Optical Amplifiers using Multi-Impulse Step Injection Current	Journal of Lightwave Technology (Print)	FIGUEIREDO, RAFAEL C. ; RIBEIRO, NAPOLEAO S. ; RIBEIRO, ANTONIO M. O. ; Gallep, Cristiano M. ; Conforti, Evandro	A1	
trabalhoCompletoEmCongresso	Cristiano de Mello Gallep	2014		Germination vigour versus delayed luminescence of coffee seeds ? preliminary series	PHOTOPTICS 2014 - 2nd Int. Conf. Photonics	Gallep, Cristiano M.; Amaral, E. M. ; Alonco, G. C. ; MALUF, Miriam Perez ; Padilha, L.		
trabalhoCompletoEmCongresso	Cristiano de Mello Gallep	2014		Análise da Conversão Eletro-Óptica Harmônica de um Amplificador Óptico a Semicondutor	MOMAG 2014	Figueiredo, R. C. ; Ribeiro, Napoleão S. ; Conforti, Evandro ; Gallep, Cristiano M. ; TOAZZA, Adriano L		
trabalhoCompletoEmCongresso	Cristiano de Mello Gallep	2014		Extensor de alcance para redes ópticas de acesso WDM	MOMAG 2014	CHIUCHIARELLI, Andrea ; GALLEP, C.M. ; CONFORTI, E.		
trabalhoCompletoEmCongresso	Cristiano de Mello Gallep	2014	http://dx.doi.org/10.1364/LAOP.2014.LTh1C.3	Speed and Noise Limits of Semiconductor Optical Amplifier Space Switches and Wavelength-Reuse Schemes	Latin America Optics and Photonics Conference	Conforti, Evandro ; RIBEIRO, NAPOLEAO S. ; Gallep, Cristiano M.		
artigoEmPeriodico	Cassiana Carolina Montagner Raimundo	2014	http://dx.doi.org/10.1039/c4em00058g	Caffeine as an indicator of estrogenic activity in source waters	Environmental Science: Processes & Impacts	MONTAGNER, CASSIANA CAROLINA; UMBUZEIRO, GISELA DE ARAGÃO ; PASQUINI, C ; JARDIM, WILSON F	Qualis nao identificado	Environmental Science: Processes & Impacts
artigoEmPeriodico	Cassiana Carolina Montagner Raimundo	2014	http://dx.doi.org/10.1039/c4ay00782d	Trace analysis of pesticides and an assessment of their occurrence in Brazilian surface and drinking waters	Analytical Methods (Print)	MONTAGNER, CASSIANA CAROLINA; VIDAL, CRISTIANE ; ACAYABA, RAPHAEL D'ANNA ; JARDIM, WILSON F ; JARDIM, ISABEL CRISTINA ; UMBUZEIRO, GISELA DE ARAGÃO	B1	
artigoEmPeriodico	Cassiana Carolina Montagner Raimundo	2014	http://dx.doi.org/10.1007/s11356-013-2063-5	Occurrence and potential risk of triclosan in freshwaters of São Paulo, Brazil-the need for regulatory actions	Environmental Science and Pollution Research International	Montagner, Cassiana C.; Jardim, Wilson F. ; OHE, PETER C. ; Umbuzeiro, Gisela A.	A2	
artigoEmPeriodico	José Carlos Magossi	2014	http://dx.doi.org/10.3390/e16094892	On Shannon-s Formula and Hartley-s Rule: Beyond the Mathematical Coincidence	Entropy (Basel. Online)	RIOUL, O. ; MAGOSSI, José Carlos	B2	
artigoEmPeriodico	Ivan Luiz Marques Ricarte	2014		Physician Assessments of the Value of Therapeutic Information Delivered via Email	Canadian Family Physician	GRAD, R. M. ; PLUYE, P. ; REPCHINSKY, C. ; JOVAISAS, B. ; MARLOW, B. ; RICARTE, I. L. M. ; GALVAO, M. C. B. ; BONAR, J. ; SHULHA, M.	Qualis nao identificado	Canadian Family Physician
artigoEmPeriodico	Ivan Luiz Marques Ricarte	2014	http://dx.doi.org/10.2196/resprot.2908	Development and Content Validation of the Information Assessment Method for Patients and Consumers	JMIR Research Protocols	PLUYE, P. ; GRANIKOV, V. ; BARTLETT, G. ; GRAD, R. M. ; TANG, D. L. ; JOHNSON-LAFLEUR, J. ; SHULHA, M. ; GALVAO, M. C. B. ; RICARTE, I. L. M. ; STEPHENSON, R. ; SHOHET, L. ; HUTSUL, J. ; REPCHINSKY, C. ; ROSENBERG, E. ; BURNAND, B. ; LEGARE, F. ; DUNIKOWSKI, L. ; MURRAY, S. ; BORUFF, J. ; FRATI, F. ; KLODA, L. ; MACAULAY, A. ; LAGARDE, F. ; DORAY, G.	Qualis nao identificado	JMIR Research Protocols
trabalhoCompletoEmCongresso	Ivan Luiz Marques Ricarte	2014		Avaliação do S-RES de um Hospital Universitário Baseada no Processo de Certificação SBIS/CFM	XIV Congresso Brasileiro de Informática em Saúde	VIRGINIO JUNIOR, L. A. ; RICARTE, I. L. M. ; SOUZA, J. P. ; AZEVEDO-MARQUES, P. M.		
resumoExpandidoEmCongresso	Ivan Luiz Marques Ricarte	2014	Ontologia de Metadados para a Preservação de Prontuário Eletrônico do Paciente	Encontro de Alunos e Docentes do DCA, 2014, Campinas. Anais	PICONI, A. C. ; GALVAO, M. C. B. ; RICARTE, I. L. M.		
resumoExpandidoEmCongresso	Ivan Luiz Marques Ricarte	2014	Avaliação de Atributos para Disseminar Evidências a Profissionais da Saúde	Encontro de Alunos e Docentes do DCA, 2014, Campinas. Anais	FARIA, N. C. B. ; RICARTE, I. L. M.		
resumoExpandidoEmCongresso	Ivan Luiz Marques Ricarte	2014	Creating an ontology to integrate clinical evidence databases	Encontro de Alunos e Docentes do DCA, 2014, Campinas. Anais	BEECK-PEPPER, J. C. ; RICARTE, I. L. M.		
resumoExpandidoEmCongresso	Ivan Luiz Marques Ricarte	2014	Gestão do Conhecimento no Desenvolvimento Ágil de Software: Técnicas que promovem a criação do conhecimento organizacional	Encontro de Alunos e Docentes do DCA, 2014, Campinas. Anais	SAKAI, E. ; RICARTE, I. L. M.		
artigoEmPeriodico	Celmar Guimarães da Silva	2014	http://dx.doi.org/10.1504/ijesd.2014.064965	Data mining techniques for water ecotoxicity classification for application on water resources management	International Journal of Environment and Sustainable Development	Bertholdo, L. ; SILVA, C. G. ; Umbuzeiro, G. A. ; Camolesi Jr., L.	B2	
artigoEmPeriodico	Celmar Guimarães da Silva	2014	http://dx.doi.org/10.1186/1678-4804-20-3	PQR sort: using PQR trees for binary matrix reorganization	Journal of The Brazilian Computer Society (Online)	DA SILVA, CELMAR; DE MELO, MARIVALDO ; DE PAULA E SILVA, FELIPI ; MEIDANIS, JOÃO	B2	
trabalhoCompletoEmCongresso	Celmar Guimarães da Silva	2014		PQR tree based methods for crossing reduction in layered directed acyclic graphs	Workshop of Thesis and Dissertations of SIBGRAPI - Conference on Graphics	MARCHETE FILHO, J. R. ; SILVA, C. G.		
artigoEmPeriodico	Cassiana Maria Reganhan Coneglian	2014	http://dx.doi.org/10.1007/s11270-014-2222-4	CO2 Production of Soil Microbiota in the Presence of Ametryne and Biofertilizer	Water, Air and Soil Pollution (Print)	RÉGO, A. P. J. ; REGANHAN-CONEGLIAN, C. M. ; MONTAGNOLLI, R. N. ; BIDOIA, E. D.	A1	
artigoEmPeriodico	Renato Falcão Dantas	2014	http://dx.doi.org/10.1016/j.cej.2014.04.066	Removal of EDDS and copper from waters by TiO2 photocatalysis under simulated UV-solar conditions	Chemical Engineering Journal (1996)	SATYRO, SUÉLLEN ; MAROTTA, RAFFAELE ; CLARIZIA, LAURA ; DI SOMMA, ILARIA ; VITIELLO, GIUSEPPE ; DEZOTTI, MARCIA ; PINTO, GABRIELE ; Dantas, Renato F. ; ANDREOZZI, ROBERTO	A1	
artigoEmPeriodico	Renato Falcão Dantas	2014	http://dx.doi.org/10.1016/j.cej.2013.10.025	Photochemical oxidation of municipal secondary effluents at low H2O2 dosage: Study of hydroxyl radical scavenging and process performance	Chemical Engineering Journal (1996)	SOUZA, BRUNO S. ; Dantas, Renato F. ; CRUZ, ANGEL ; SANS, Carme ; ESPLUGAS, Santiago ; DEZOTTI, MÁRCIA	A1	
artigoEmPeriodico	Renato Falcão Dantas	2014	http://dx.doi.org/10.1016/j.watres.2014.05.033	Assessment of iron chelates efficiency for photo-Fenton at neutral pH	Water Research (Oxford)	de Luca, Antonella ; Dantas, Renato F. ; ESPLUGAS, Santiago	A1	
artigoEmPeriodico	Renato Falcão Dantas	2014	http://dx.doi.org/10.1016/j.cattod.2014.09.030	Synthesis and characterization of B-doped TiO2 and their performance for the degradation of metoprolol	Catalysis Today (Print)	CAVALCANTE, R. P. ; DANTAS, R. F. ; BAYARRI, BERNARDÍ ; GONZALES, Oscar ; Giménez, J. ; Esplugas, S. ; MACHULEK, AMILCAR	A1	
artigoEmPeriodico	Renato Falcão Dantas	2014	http://dx.doi.org/10.5419/bjpg2014-0008	OIL SLUDGE TREATMENT BY SOLAR TIO2-PHOTOCATALYSIS TO REMOVE POLYCYCLIC AROMATIC HYDROCARBONS (PAH)	BRAZILIAN JOURNAL OF PETROLEUM AND GAS	Rocha, O. R. S. ; DUARTE, M. M. M. B. ; DANTAS, R. F. ; DUARTE, M. M. L. ; SILVA, Valdinete Lins da	Qualis nao identificado	BRAZILIAN JOURNAL OF PETROLEUM AND GAS
trabalhoCompletoEmCongresso	Renato Falcão Dantas	2014		OZONE/H2O2 ACTION ON THE DEGRADATION OF SULPHAMETHOXAZOLE	Ozone and related oxidants: Advanced in science and technology	MARTINS, R. C. ; Dantas, Renato F. ; SANS, Carmen ; ESPLUGAS, Santiago ; FERREIRA, R. M. Q.		
artigoEmPeriodico	Regina Lúcia de Oliveira Moraes	2014	http://dx.doi.org/10.1016/j.amc.2014.07.018	n-Steps ahead software reliability prediction using the Kalman filter	Applied Mathematics and Computation	URSINI, EDSON L. ; MARTINS, PAULO S. ; MORAES, Regina L. ; TIMÓTEO, VARESE S.	A2	
artigoEmPeriodico	Regina Lúcia de Oliveira Moraes	2014		Developing a Serios Games for Children with Hemophilia	Journal of Health Informatics	MATSUNAGA, R. M. ; MORAES, R. L. ; BORGES, M. A. F. ; MATTA, M. A. P. ; OZELO, M. C.	B2	
trabalhoCompletoEmCongresso	Regina Lúcia de Oliveira Moraes	2014		UML-Based Modeling of Robustness Testing	15th IEEE International Symposium on High Assurance Systems Engineering	MORAES, R.; WAESELYNCK, H. ; GUIOCHET, J.		
trabalhoCompletoEmCongresso	Regina Lúcia de Oliveira Moraes	2014		Development of a Serious Game for Children with Hemophilia	IEEE 3rd International Conference on Serious Games and Applications for Health	MATSUNAGA, R. M. ; MORAES, R. ; BORGES, M. A. F. ; MATTA, M. A. P. ; OZELO, M. C. ; CORREA, C. L. P.		
trabalhoCompletoEmCongresso	Regina Lúcia de Oliveira Moraes	2014		A Test Process Model to Evaluate Performance Impact of Privacy Protection Solution	﻿XV Workshop de Testes e Tolerância a Falhas (WTF 2014)	MELLO, V. ; BASSO, T. ; MORAES, R.		
trabalhoCompletoEmCongresso	Regina Lúcia de Oliveira Moraes	2014	http://dx.doi.org/10.2495/UW140121	Dealing with uncertainties in losses assessment in water supply networks: preliminary results	URBAN WATER 2014	BECCIU, G. ; MAMBRETTI, S. ; MARTINS, P. S. ; MORAES, R. L.		
artigoEmPeriodico	Peterson Bueno de Moraes	2014	http://dx.doi.org/10.1007/s11356-014-3738-2	Electrochemical oxidation of landfill leachate in a flow reactor: optimization using response surface methodology	Environmental Science and Pollution Research International	SILVEIRA, JEFFERSON E. ; ZAZO, JUAN A. ; PLIEGO, GEMA ; BIDÓIA, EDÉRIO D. ; MORAES, PETERSON B.	A2	
artigoEmPeriodico	Paulo Sergio Martins Pedro	2014		USANDO A PLATAFORMA ARDUINO PARA CRIAÇÃO DE KIT PEDAGÓGICO BASEADO EM OFICINAS DE ROBÓTICA PARA INTRODUÇÃO À ENGENHARIA NO ENSINO MÉDIO.	Perspectivas em Ciências Tecnológicas	FABRI JUNIOR, L. A. ; GUERRA, F. A. ; Neto, Osvaldo T. ; HERNANDEZ, M. F. G. ; Pedro, P ou Martins, P. ; BRAVO, L. L. R.	Qualis nao identificado	Perspectivas em Ciências Tecnológicas
artigoEmPeriodico	Paulo Sergio Martins Pedro	2014	http://dx.doi.org/10.1080/19648189.2014.988295	Evolutionary optimization for water losses recognition in water supply networks	European Journal of Environmental and Civil Engineering	MAMBRETTI, S. ; BECCIU, G. ; Pedro, P ou Martins, P.	Qualis nao identificado	European Journal of Environmental and Civil Engineering
artigoEmPeriodico	Paulo Sergio Martins Pedro	2014	http://dx.doi.org/10.1016/j.amc.2014.07.018	n-Steps Ahead Software Reliability Prediction Using the Kalman Filter	Applied Mathematics and Computation	Ursini, E. L. ; Pedro, P ou Martins, P. ; Regina Lucia de Oliveira Moraes ; TIMOTEO, V. S.	A2	
trabalhoCompletoEmCongresso	Paulo Sergio Martins Pedro	2014	http://dx.doi.org/10.1109/ssiai.2014.6806052	Image segmentation through combined methods: Watershed transform, unsupervised distance learning and Normalized Cut	2014 IEEE Southwest Symposium on Image Analysis and Interpretation (SSIAI)	PINTO, TIAGO W. ; DE CARVALHO, MARCO A. G. ; PEDRONETTE, DANIEL C. G. ; Martins, Paulo S.		
trabalhoCompletoEmCongresso	Paulo Sergio Martins Pedro	2014	http://dx.doi.org/10.2495/UW140121	Dealing with uncertainties in losses assessment in water supply networks: preliminary results	URBAN WATER 2014	BECCIU, G. ; MAMBRETTI, S. ; Pedro, P ou Martins, P. ; Regina Lucia de Oliveira Moraes		
artigoEmPeriodico	Patricia Prediger	2014	http://dx.doi.org/10.1016/j.tet.2013.10.014	Construction of 3-arylpropylamines using Heck arylations. The total synthesis of cinacalcet hydrochloride, alverine, and tolpropamine	Tetrahedron (Oxford. Print)	PREDIGER, PATRÍCIA; DA SILVA, ALLAN RIBEIRO ; Correia, Carlos Roque Duarte	A1	
artigoEmPeriodico	Marta Siviero Guilherme Pires	2014	http://dx.doi.org/10.14295/transportes.v22i2.728	Viabilidade técnica e ambiental de misturas de solo com areia descartada de fundição	Transportes (Rio de Janeiro)	FERREIRA, GISLEIVA CRISTINA DOS SANTOS ; DOMINGUES, LUCIENE GACHET FERRARI ; TEIXEIRA, IVONEI ; Pires, Marta Guilherme Siviero	B2	
trabalhoCompletoEmCongresso	Marta Siviero Guilherme Pires	2014		AVALIAÇÃO DE PARÂMETROS QUÍMICOS, FÍSICOS, BIOLÓGICOS E ECOTOXICOLÓGICOS DE LODO ?IN NATURA? E COMPOSTADO COM DIFERENTES SUBSTRATOS VEGETAIS, VISANDO UTILIZAÇÃO AGRÍCOLA	XII Simpósio Italo Brasileiro de Engenharia Sanitária e Ambiental	SILVA, N. B. ; Marta Guilherme Siviero Pires ; TONON, D. ; ANARUMA FILHO, F. ; CORAUCCI FILHO, B.		
trabalhoCompletoEmCongresso	Maria Aparecida Carvalho de Medeiros	2014		Oxidative degradation of atrazine and simazine with hydrogen peroxide catalyzed by iron and ruthenium metalloporphyrins using GCMS/MS analysis	IBSA Water Workshop held at Birchwood Hotel and Conference Centre in Johannesburg	MEDEIROS, M. A. C.; TAGLIAFERRO, K. A. R. ; OLIVEIRA, M. A. B.		
trabalhoCompletoEmCongresso	Maria Aparecida Carvalho de Medeiros	2014		The Status of the IBSA Brazil, South Africa and India water activities, progress, successes, challenges. The Brazil part	IBSA Water Workshop held at Birchwood Hotel and Conference Centre in Johannesburg	MEDEIROS, M. A. C		
trabalhoCompletoEmCongresso	Maria Aparecida Carvalho de Medeiros	2014		Comparison of the analyses of s-triazine herbicides degradation by comprehensive two dimensional gas chromatography?time-of-flight mass spectrometry with GC-MS/MS	The Second International Conference on Emerging Technologies for Clean Water	MEDEIROS, M. A. C.; OLIVEIRA, M. A. B. ; TAGLIAFERRO, K. A. R. ; NGILA, J. C. ; MSAGATI, T.		
trabalhoCompletoEmCongresso	Marco Antonio Garcia de Carvalho	2014	http://dx.doi.org/10.5220/0004858207080712	Graph Cut and Image Segmentation using Mean Cut by Means of an Agglomerative Algorithm	International Conference on Computer Vision Theory and Applications	CHIBA, E. A. ; CARVALHO, M. A. G. ; Costa, A. L.		
trabalhoCompletoEmCongresso	Marco Antonio Garcia de Carvalho	2014	http://dx.doi.org/10.1109/SSIAI.2014.6806052	Image segmentation through combined methods: Watershed transform, unsupervised distance learning and Normalized Cut	2014 IEEE Southwest Symposium on Image Analysis and Interpretation (SSIAI)	PINTO, TIAGO W. ; DE CARVALHO, MARCO A. G. ; PEDRONETTE, DANIEL C. G. ; MARTINS, PAULO S.		
artigoEmPeriodico	Luiz Camolesi Júnior	2014	http://dx.doi.org/10.1504/ijesd.2014.064965	Data mining techniques for water ecotoxicity classification for application on water resources management	International Journal of Environment and Sustainable Development	BERTHOLDO, Leonardo ; SILVA, Celmar G. da ; UMBUZEIRO, Gisela de A. ; CAMOLESI Jr., Luiz	B2	
trabalhoCompletoEmCongresso	Luiz Camolesi Júnior	2014	http://dx.doi.org/10.1109/icpr.2014.539	Evaluation of Time Series Distance Functions in the Task of Detecting Remote Phenology Patterns	2014 22nd International Conference on Pattern Recognition (ICPR)	CONTI, José Carlos ; FARIAL, Fábio A. ; ALMEIDA, Jurandy ; ALBERTON, Bruna ; MORELLATO, Leonor P. C. ; Camolesi, Luiz ; TORRES, Ricardo da S.		
trabalhoCompletoEmCongresso	Luiz Camolesi Júnior	2014		Avaliação de ambientes virtuais de aprendizagem por meio da colaboração, da cooperação e da aprendizagem	Moodle Moot Brasil 2014	FORBECK, Vera Lúcia A. ; CAMOLESI Jr., Luiz		
artigoEmPeriodico	Rangel Arthur	2014	http://dx.doi.org/10.1007/s13319-013-0005-0	Employing Light Field Cameras in Surveillance: An Analysis of Light Field Cameras in a Surveillance Scenario	3D Research	HIGA, ROGÉRIO SEIJI ; IANO, YUZO ; LEITE, RICARDO BARROSO ; CHAVEZ, ROGER FREDY LARICO ; ARTHUR, RANGEL	Qualis nao identificado	3D Research
artigoEmPeriodico	Rangel Arthur	2014	http://dx.doi.org/10.1136/bjophthalmol-2013-304100	Reliability and validity of digital assessment of perifoveal capillary network measurement using high-resolution imaging	British Journal of Ophthalmology	LOPES DE FARIA, J. M. ; ANDREAZZI DUARTE, D. ; LARICO CHAVEZ, R. F. ; ARTHUR, A. M. ; ARTHUR, R. ; Iano, Y.	A2	
trabalhoCompletoEmCongresso	Rangel Arthur	2014		Um Sistema Simples para Medição de Impedância Elétrica de Transdutores Piezelétricos	XX Congresso Brasileiro de Automática	ARNOLD, F. J. ; XIMENES, R. L. ; ARTHUR, R. ; SANTOS, T. S.		
trabalhoCompletoEmCongresso	Rangel Arthur	2014		A Pattern Recognition System for Detecting Use of Mobile Phones While Driving	9th International Joint Conference on Computer Vision	Berri, R. ; SILVA, A. G. ; Girardi, E. ; ARTHUR, R.		
trabalhoCompletoEmCongresso	Ana Estela Antunes da Silva	2014		Mental models analysis based on fuzzy rules for collaborative decision-making	The Twenty-Sixth International Conference on Software Engineering Knowledge Engineering (SEKE 2014)	GARCIA-NUNES, P. I. ; SILVA, A. E. A. ; ZAMBON, A. C. ; BAIOCO, G. B.		
artigoEmPeriodico	Jaime Portugheis	2014	http://dx.doi.org/10.1109/lcomm.2014.2377237	Optimal Rate for Joint Source-Channel Coding of Correlated Sources Over Orthogonal Channels	IEEE Communications Letters (Print)	PUJAICO RIVERA, FERNANDO ; PORTUGHEIS, JAIME	A2	
trabalhoCompletoEmCongresso	Jaime Portugheis	2014	http://dx.doi.org/10.1109/LATINCOM.2014.7041866	Symbol-flipping decoding of nonbinary LDPC codes over BI-AWGN channels	2014 6th IEEE LatinAmerican Conference on Communications (LATINCOM)	DOS SANTOS, LAILSON F. ; PORTUGHEIS, JAIME ; DE ALMEIDA, CELSO		
artigoEmPeriodico	Ieda Geriberto Hidalgo	2014	http://dx.doi.org/10.1061/(ASCE)WR.1943-5452.0000258	Efficiency Curves for Hydroelectric Generating Units	Journal of Water Resources Planning and Management	Hidalgo, Ieda G.; Fontane, Darrell G. ; LOPES, JOÃO E. G. ; ANDRADE, JOSÉ G. P. ; DE ANGELIS, ANDRÉ F.	A2	
artigoEmPeriodico	Ieda Geriberto Hidalgo	2014	http://dx.doi.org/10.1061/(asce)wr.1943-5452.0000444	Hybrid Model for Short-Term Scheduling of Hydropower Systems	Journal of Water Resources Planning and Management	Hidalgo, Ieda G.; CORREIA, PAULO B. ; ARNOLD, FRANCISCO J. ; ESTRÓCIO, JOÃO PAULO F. ; DE BARROS, REGIANE S. ; FERNANDES, JÉSSICA P. T. ; YEH, WILLIAM W.-G.	A2	
trabalhoCompletoEmCongresso	Eloisa Dezen Kempter	2014		SISTEMA DE INFORMAÇÃO BASEADO NO MODELO APLICADO À PRESERVAÇÃO E GESTÃO DO PATRIMÔNIO HISTÓRICO CONSTRUÍDO DA INDUSTRIALIZAÇÃO	XII CONGRESSO INTERNACIONAL DE REABILITAÇÃO DO PATRIMÔNIO ARQUITETÔNICO E EDIFICADO	KEMPTER, E. D.; BUENO, C. ; OLIVEIRA, A. ; CARNEIRO, R. ; PEREIRA, R.		
artigoEmPeriodico	Marcos Sergio Goncalves	2014		Electrical Impedance of Piezoelectric Ceramics under Acoustic Loads	ECTI Transactions on Electrical Eng. / Electronics and Communications	Arnold, F.J. ; Goncalves, M. S. ; Bravo-Roger,L.L ou ROGER, L.L.B ; MUHLEN, S. S.	Qualis nao identificado	ECTI Transactions on Electrical Eng. / Electronics and Communications
artigoEmPeriodico	Guilherme Palermo Coelho	2014	http://dx.doi.org/10.1016/j.sigpro.2013.09.004	A Michigan-like immune-inspired framework for performing independent component analysis over Galois fields of prime order	Signal Processing (Print)	SILVA, D. G. ; NADALIN, E. Z. ; COELHO, G. P. ; DUARTE, L. T. ; SUYAMA, R. ; ATTUX, R. R. F. ; VON ZUBEN, F. J. ; MONTALVAO, J.	B1	IET Signal Processing (Print)
artigoEmPeriodico	Gisleiva Cristina dos Santos Ferreira	2014	http://dx.doi.org/10.14295/transportes.v22i2.728	Viabilidade técnica e ambiental de misturas de solo com areia descartada de fundição	Transportes (Rio de Janeiro)	FERREIRA, GISLEIVA CRISTINA DOS SANTOS ; DOMINGUES, LUCIENE GACHET FERRARI ; TEIXEIRA, IVONEI ; Pires, Marta Guilherme Siviero	B2	
trabalhoCompletoEmCongresso	Gisleiva Cristina dos Santos Ferreira	2014		Bedding mortar with waste foundry sand (WFS)	4th International Conference on Industrial and Hazardous Waste Management	FERREIRA, G.C.S.; BUENO, G. M. ; DOMINGUES, L. G. F.		
trabalhoCompletoEmCongresso	Gisleiva Cristina dos Santos Ferreira	2014		Management Application of waste foundry sand (WFS) in solid waste landfills	4th International Conference on Industrial and Hazardous Waste Management	DOMINGUES, L. G. F. ; FERREIRA, G.C.S.		
trabalhoCompletoEmCongresso	Gisleiva Cristina dos Santos Ferreira	2014		DESEMPENHO MECÂNICO DE ARGAMASSAS DE ASSENTAMENTO A PARTIR DO ENSAIO DE ULTRASSOM	18 Congresso Nacional de Ensaios Não destrutivos e de Inspeção	FERREIRA, G.C.S.; BUENO, G. M. ; GALLETTO, ADRIANA		
trabalhoCompletoEmCongresso	Gisleiva Cristina dos Santos Ferreira	2014		INFLUÊNCIA DAS CAMADAS DE COMPACTAÇÃO EM INSPEÇÕES DE PAINÉIS MONOLÍTICOS DE SOLO-CIMENTO POR ULTRASSOM	18 Congresso Nacional de Ensaios Não destrutivos e de Inspeção	FERREIRA, G.C.S.; SARRO, W. S. ; HOFFMAN, M. ; GONCALVES, R.		
trabalhoCompletoEmCongresso	Gisleiva Cristina dos Santos Ferreira	2014		MANIFESTAÇÕES PATOLÓGICAS EM ESTAÇÃO DE TRATAMENTO DE ESGOTO (ETE) - ESTUDO DE CASO	Iº Encontro Luso-Brasileiro de Degradação em Estruturas de Concreto Armado	FERREIRA, G. C. S.; GALLETTO, ADRIANA ; ANDRELLO, J. M.		
trabalhoCompletoEmCongresso	Gisleiva Cristina dos Santos Ferreira	2014		Compósito de cimento Portland com adição de resíduos de isoladores de porcelana e de Pinus	CLB-MCS 2014 Congresso Luso-Brasileiro de Materiais de Construção Sustentáveis	BERALDO, A.L. ; SHIROMA, L. ; FERREIRA, G. C. S.		
trabalhoCompletoEmCongresso	Gisleiva Cristina dos Santos Ferreira	2014		Impactos técnico-econômicos e organizacionais do uso de materiais de descarte de uma empresa distribuidora de energia elétrica	4 Congresso Internacional de Tecnologia para o Meio Ambiente	PATINO, M. T. O. ; SHIROMA, L. ; FERREIRA, G.C.S. ; BERALDO, A.L. ; ZATTERA, A.		
trabalhoCompletoEmCongresso	Gisele Busichia Baioco	2014		Mental models analysis based on fuzzy rules for collaborative decision-making	The Twenty-Sixth International Conference on Software Engineering Knowledge Engineering (SEKE 2014)	GARCIA-NUNES, P. I. ; SILVA, A. E. A. ; ZAMBON, A. C. ; BAIOCO, G. B.		
artigoEmPeriodico	Gisela de Aragão Umbuzeiro	2014	http://dx.doi.org/10.1007/s11356-013-2063-5	Occurrence and potential risk of Triclosan in freshwaters of São Paulo, Brazil - the need for regulatory actions	Environmental Science and Pollution Research International	Montagner, C.C. ; Jardim, Wilson F. ; Ohe, P. von der ; UMBUZEIRO, GISELA ARAGÃO	A2	
artigoEmPeriodico	Gisela de Aragão Umbuzeiro	2014	http://dx.doi.org/10.1504/ijesd.2014.064965	Data Mining Techniques for Water Ecotoxicity Classification for Application on Water Resources Management	International Journal of Environment and Sustainable Development	BERTHOLDO, Leonardo ; SILVA, Celmar G. da ; UMBUZEIRO, Gisela de A. ; CAMOLESI Jr., Luiz	B2	
artigoEmPeriodico	Gisela de Aragão Umbuzeiro	2014	http://dx.doi.org/10.4025/actascianimsci.v36i1.21853	Qualidade de água para dessedentação de animais - comparação entre diferentes regulamentações.	Acta Scientiarum. Zootechny	CAMPOS, S. V. ; de Souza Nascimento, Elizabeth ; UMBUZEIRO, G.A.	Qualis nao identificado	Acta Scientiarum. Zootechny
artigoEmPeriodico	Gisela de Aragão Umbuzeiro	2014	http://dx.doi.org/10.5935/0100-4042.20140143	THE CHEMISTRY AND TOXICITY OF HAIR DYES	Química Nova (Impresso)	Bessegato, G. ; Alexandrino, R. ; Boldrin, T. ; Danielle Palma de Oliveira ; Umbuzeiro, Gisela A. ; ZANONI, M. V. B.	A2	
artigoEmPeriodico	Gisela de Aragão Umbuzeiro	2014	http://dx.doi.org/10.1016/j.procbio.2014.04.006	Exploring the use of biosurfactants from Bacillus subtilis in bionanotechnology: a potential dispersing agent for carbon nanotube ecotoxicological studies	Process Biochemistry (1991)	Martinez, Diego Stéfani T.; FARIA, ANDRÉIA F. ; BERNI, ELIAS ; SOUZA FILHO, ANTONIO G. ; ALMEIDA, GILBERTO ; CALOTO-OLIVEIRA, ADRIA ; GROSSMAN, MATTHEW J. ; DURRANT, LUCIA R. ; UMBUZEIRO, GISELA A. ; Alves, Oswaldo L.	A2	
artigoEmPeriodico	Gisela de Aragão Umbuzeiro	2014	http://dx.doi.org/10.1039/C4EM00058G	Caffeine as an indicator of estrogenic activity in source waters	Environmental Science: Processes & Impacts	MONTAGNER, CASSIANA CAROLINA; UMBUZEIRO, GISELA DE ARAGÃO ; PASQUINI, C ; JARDIM, WILSON F	Qualis nao identificado	Environmental Science: Processes & Impacts
artigoEmPeriodico	Gisela de Aragão Umbuzeiro	2014	http://dx.doi.org/10.1016/j.jhazmat.2014.05.047	Aquatic toxicity of dyes before and after photo-Fenton treatment	Journal of Hazardous Materials (Print)	LUNA, L. A. V. ; SILVA, T. H. ; Nogueira, R.F.P. ; KUMMROW, Fabio ; Umbuzeiro, Gisela A.	A1	
artigoEmPeriodico	Gisela de Aragão Umbuzeiro	2014	http://dx.doi.org/10.1016/j.toxlet.2014.06.013	Nanomolar levels of PAHs in extracts from urban air induce MAPK signaling in HepG2 cells Toxicology Letters	Toxicology Letters	JARVIS, I. ; Bergvall, C. ; Morales, D.A. ; Kummrow, F. ; UMBUZEIRO, G DE A ; Westerholm, R. ; Stenius, U. ; Dreij. K.	A1	
artigoEmPeriodico	Gisela de Aragão Umbuzeiro	2014	http://dx.doi.org/10.1002/em.21861	Sensitivity of salmonella YG5161 for detecting PAH-associated mutagenicity in air particulate matter	Environmental and Molecular Mutagenesis (Print)	Umbuzeiro, Gisela A.; KUMMROW, Fábio ; MORALES, DANIEL ALEXANDRE ; ALVES, DEBORA KRISTINA M. ; LIM, HWANMI ; JARVIS, IAN W.H. ; BERGVALL, CHRISTOFFER ; WESTERHOLM, ROGER ; STENIUS, ULLA ; DREIJ, KRISTIAN	A2	
artigoEmPeriodico	Gisela de Aragão Umbuzeiro	2014		Sewage sludge hazard index based on bioassays: strategic tool for the decision-making process on sludge agricultural use	RevInter	MATTA, M.E.M. ; UMBUZEIRO, G.A.	B5	
artigoEmPeriodico	Gisela de Aragão Umbuzeiro	2014	http://dx.doi.org/10.1021/jp409501g	Noncovalent Interaction with Graphene Oxide: The Crucial Role of Oxidative Debris	Journal of Physical Chemistry. C. (Online)	COLUCI, VITOR R. ; MARTINEZ, DIEGO STÉFANI T. ; HONÓRIO, JAQUELINE G. ; DE FARIA, ANDRÉIA F. ; MORALES, DANIEL A. ; SKAF, MUNIR S. ; ALVES, OSWALDO L. ; Umbuzeiro, Gisela A.	A1	
artigoEmPeriodico	Gisela de Aragão Umbuzeiro	2014	http://dx.doi.org/10.1016/j.fct.2014.03.025	Assessment of the breakdown products of solar/UV induced photolytic degradation of food dye tartrazine	Food and Chemical Toxicology	DOS SANTOS, TUANE CRISTINA ; ZOCOLO, GUILHERME JULIÃO ; MORALES, DANIEL ALEXANDRE ; Umbuzeiro, Gisela de Aragão ; Zanoni, Maria Valnice Boldrin	A2	
artigoEmPeriodico	Gisela de Aragão Umbuzeiro	2014	http://dx.doi.org/10.1186/s12302-014-0022-5	Effects of a textile azo dye on mortality, regeneration, and reproductive performance of the planarian, Girardia tigrina	Environmental Sciences Europe	RIBEIRO, ALYSON ROGÉRIO ; de Aragão Umbuzeiro, Gisela	Qualis nao identificado	Environmental Sciences Europe
artigoEmPeriodico	Gisela de Aragão Umbuzeiro	2014	http://dx.doi.org/10.1039/c4ay00782d	Trace analysis of pesticides and an assessment of their occurrence in Brazilian surface and drinking waters	Analytical Methods (Print)	Montagner, Cassiana Carolina ; VIDAL, CRISTIANE ; ACAYABA, RAPHAEL D'ANNA ; JARDIM, WILSON F ; JARDIM, ISABEL CRISTINA ; Umbuzeiro, Gisela de Aragão	B1	
artigoEmPeriodico	Gisela de Aragão Umbuzeiro	2014	http://dx.doi.org/10.1007/s10646-014-1348-x	CYP-dependent induction of glutathione S-transferase in Daphnia similis exposed to a disperse azo dye'	ECOTOXICOLOGY	HU, T. H. ; DAFRE, A. L. ; Umbuzeiro, Gisela A ; FRANCISCON, E.	A2	
artigoEmPeriodico	Gisela de Aragão Umbuzeiro	2014	http://dx.doi.org/10.1016/j.scitotenv.2014.05.143	The SOLUTIONS project: Challenges and responses for present and future emerging pollutants in land and water resources management	SCIENCE OF THE TOTAL ENVIRONMENT	BRACK, WERNER ALTENBURGER, ROLF SCHÜÜRMANN, GERRIT KRAUSS, MARTIN LÓPEZ HERRÁEZ, DAVID VAN GILS, JOS SLOBODNIK, JAROSLAV MUNTHE, JOHN GAWLIK, BERND MANFRED VAN WEZEL, ANNEMARIE SCHRIKS, MERIJN HOLLENDER, JULIANE TOLLEFSEN, KNUT ERIK MEKENYAN, OVANES DIMITROV, SABY BUNKE, DIRK COUSINS, IAN POSTHUMA, LEO VAN DEN BRINK, PAUL J	A1	
artigoEmPeriodico	Francisco José Arnold	2014		Amplificadores com transistores bipolares na configuração Darlington para pequenos sinais	Latin - American Journal of Physics Education	ARNOLD, F. J.; ALBANO, R. S. ; SANTOS, T. S.	B1	
artigoEmPeriodico	Francisco José Arnold	2014	http://dx.doi.org/10.1061/(asce)wr.1943-5452.0000444	Hybrid Model for the Short-Term Scheduling of Hydropower Systems	Journal of Water Resources Planning and Management	Hidalgo, Ieda G.; CORREIA, PAULO B. ; ARNOLD, FRANCISCO J. ; ESTRÓCIO, JOÃO PAULO F. ; DE BARROS, REGIANE S. ; FERNANDES, JÉSSICA P. T. ; YEH, WILLIAM W.-G.	A2	
artigoEmPeriodico	Francisco José Arnold	2014		Electrical Impedance of Piezoelectric Ceramics under Acoustic Loads	ECTI Transactions on Electrical Eng. / Electronics and Communications	Arnold, F.J. ; Goncalves, M. S. ; Bravo-Roger,L.L ou ROGER, L.L.B ; MUHLEN, S. S.	Qualis nao identificado	ECTI Transactions on Electrical Eng. / Electronics and Communications
trabalhoCompletoEmCongresso	Francisco José Arnold	2014		Um Sistema Simples para Medição de Impedância Elétrica de Transdutores Piezelétricos	XX Congresso Brasileiro de Automática	ARNOLD, F. J.; XIMENES, R. L. ; ARTHUR, RANGEL ; SANTOS, T. S.		
artigoEmPeriodico	Nelma de Mello Silva Oliveira	2014		Atividade Antimicrobiana da Uncaria Tomentosa (Willd) D. C.	Revista de Ciências Farmacêuticas Básica e Aplicada	SÁ, D. S. ; RIBEIRO, G. E. ; RUFINO, L. R. A. ; OLIVEIRA, N. M. S. ; FIORINI, J. E.	B2	
artigoEmPeriodico	Nelma de Mello Silva Oliveira	2014	http://dx.doi.org/10.1186/1472-6882-14-121	Nongenotoxic effects and a reduction of the DXR-induced genotoxic effects of Helianthus annuus Linne (sunflower) seeds revealed by micronucleus assays in mouse bone marrow	BMC Complementary and Alternative Medicine (Online)	Boriollo, M. ; Souza, L.S. ; Resende, M.R. ; Silva, T.A. ; OLIVEIRA, N. M. S. ; Resck, M.C.C. ; Dias, C.T.S. ; Fiorini, J.E.	A2	
artigoEmPeriodico	Nelma de Mello Silva Oliveira	2014		Avaliação da Atividade Antimicrobiana de Morus Nigra	Higiene Alimentar	SANTOS, L. A. ; RUFINO, L. R. A. ; OLIVEIRA, N. M. S. ; FIORINI, J. E.	B3	
artigoEmPeriodico	Nelma de Mello Silva Oliveira	2014		Atividade biológica do extrato hidroalcoólico de Bauhinia forficata Link sobre Herpetomonas samuelpessoai (Galvão.) Roitman	Revista Brasileira de Plantas Medicinais (Impresso)	Pereira, A.C.S. ; Ribeiro, G.E. ; Rufino, L.R.A. ; Boriollo, M. ; Nogueira, D.A. ; OLIVEIRA, N. M. S. ; Fiorini, J.E.	B1	
artigoEmPeriodico	Nelma de Mello Silva Oliveira	2014		Evaluation of the mutagenicity and antimutagenicity of Ziziphus joazeiro Mart. barks by micronucleus assay	Genetics and Molecular Biology (Impresso)	Boriollo, M. ; Resende, M.R. ; Souza, L.S. ; Públio, J.Y. ; Silva, T.A. ; Dias, C.T.S. ; OLIVEIRA, N. M. S. ; Fiorini, J.E.	B1	
artigoEmPeriodico	Nelma de Mello Silva Oliveira	2014	http://dx.doi.org/10.1590/fst.2014.0036	The influence of peeling and type of drying on chemical and sensorial analysis of organic coffee	Ciência e Tecnologia de Alimentos (Online)	FERNANDES, MARIA DE FÁTIMA CAIXETA ; SILVA, ADRIANO BORTOLOTTI DA ; Oliveira, Nelma de Mello Silva ; MIRANDA, JOSÉ MESSIAS	B1	
artigoEmPeriodico	Nelma de Mello Silva Oliveira	2014		CONTAMINAÇÃO DO LEITE POR BACTÉRIAS PSICROTRÓFICAS.	Higiene Alimentar	MENEZES, JS ; RUFINO, L. R. A. ; OLIVEIRA, N. M. S. ; FIORINI, J. E.	B3	
artigoEmPeriodico	Wislei Riuper Ramos Osorio	2014	http://dx.doi.org/10.1016/j.corsci.2013.11.010	Electrochemical behavior of a lead-free Sn?Cu solder alloy in NaCl solution	Corrosion Science	OSORIO, Wislei Riuper ; Freitas, Emmanuelle S. ; Spinelli, J.E. ; Garcia, A.	A1	
artigoEmPeriodico	Wislei Riuper Ramos Osorio	2014	http://dx.doi.org/10.1007/s11665-013-0741-6	Corrosion Performance Based on the Microstructural Array of Al-Based Monotectic Alloys in a NaCl Solution	Journal of Materials Engineering and Performance	Osório, Wislei R.; Freitas, Emmanuelle S. ; Garcia, Amauri	Qualis nao identificado	Journal of Materials Engineering and Performance
artigoEmPeriodico	Wislei Riuper Ramos Osorio	2014	http://dx.doi.org/10.1016/j.microrel.2014.02.014	Mechanical and corrosion resistances of a Sn-0.7wt.%Cu lead-free solder alloy	Microelectronics and Reliability	Freitas, Emmanuelle S. ; Osório, Wislei R. ; SPINELLI, José E. ; Garcia, Amauri	Qualis nao identificado	Microelectronics and Reliability
artigoEmPeriodico	Wislei Riuper Ramos Osorio	2014	http://dx.doi.org/10.5006/1293	Electrochemical Impedance Spectroscopy and Potentiodynamic Polarization Studies Affected by the Microstructure Array of a Monotectic Al-Pb Alloy in a NaCl Solution	Corrosion (Houston, Tex.)	OSORIO, Wislei Riuper Ramos; Freitas, Emmanuelle S. ; GARCIA, A.	Qualis nao identificado	Corrosion (Houston, Tex.)
artigoEmPeriodico	Wislei Riuper Ramos Osorio	2014	http://dx.doi.org/10.1016/j.jpowsour.2014.07.166	Mechanical performance and microstructure array of as-cast lead-silver and lead-bismuth alloys	Journal of Power Sources (Print)	OSORIO, Wislei Riuper Ramos; BORTOLOZO, AUSDINIR D. ; Peixoto, Leandro C. ; Garcia, Amauri	A1	
artigoEmPeriodico	Wislei Riuper Ramos Osorio	2014		Correlação entre Microestrutura, Resistências Mecânica e à Corrosão da Liga de Soldagem Livre de Chumbo Sn-0,7%Cu	Tecnologia em Metalurgia, Materiais e Mineração	SPINELLI, J. E. ; CHEUNG, N. ; OSORIO, Wislei Riuper Ramos ; FREITAS, E. S. ; Garcia, Amauri	B3	Tecnologia em Metalurgia Materiais e Mineração
artigoEmPeriodico	Wislei Riuper Ramos Osorio	2014		A Influência da Microestrutura sobre a Resistência à Corrosão da liga ZA27	Sinergia (IFSP. Online)	SANTOS, G. A. ; OSORIO, Wislei Riuper Ramos ; MOURA NETO, C. ; GARCIA, A.	B4	
artigoEmPeriodico	Varese Salvador Timoteo	2014	http://dx.doi.org/10.1007/s00601-014-0811-9	Implicit Versus Explicit Renormalization of the NN Force: An S-Wave Toy Model	Few-Body Systems	ARRIOLA, E. RUIZ ; SZPIGEL, S. ; Timóteo, V. S.	B5	
artigoEmPeriodico	Varese Salvador Timoteo	2014	http://dx.doi.org/10.1007/s00601-014-0858-7	Fixed Points of the Similarity Renormalization Group and the Nuclear Many-Body Problem	Few-Body Systems	Ruiz Arriola, E. ; SZPIGEL, S. ; Timóteo, V. S.	B5	
artigoEmPeriodico	Varese Salvador Timoteo	2014	http://dx.doi.org/10.1016/j.amc.2014.07.018	n-Steps Ahead Software Reliability Prediction Using the Kalman Filter	Applied Mathematics and Computation	Ursini, E. L. ; Pedro, P ou Martins, P. ; Regina Lucia de Oliveira Moraes ; TIMOTEO, V. S.	A2	
artigoEmPeriodico	Varese Salvador Timoteo	2014	http://dx.doi.org/10.3303/CET1439134	Numerical Methods for the Evaluation of Pollutant Dispersion Based on Advection-diffusion Equation	Chemical Engineering Transactions	PEREIRA, M. F. ; POZZA, S. A. ; Timóteo, V. S.	B2	
artigoEmPeriodico	Varese Salvador Timoteo	2014		Testing an IP-based multimedia gateway	INFOCOMP (UFLA. Impresso)	DIORIO, R. F. ; Timóteo, V. S. ; URSINI, E. L.	B3	
artigoEmPeriodico	Varese Salvador Timoteo	2014	http://dx.doi.org/10.1364/JOSAB.31.002677	Nonlinear light-induced absorption in Bi_2TeO_5 photorefractive crystals	Journal of the Optical Society of America. B, Optical Physics	Oliveira, I. ; CAPOVILLA, D. A. ; Timóteo, V.S. ; CARVALHO, J. F. ; FREJLICH, J.	A2	
artigoEmPeriodico	Varese Salvador Timoteo	2014	http://dx.doi.org/10.1016/j.physletb.2014.06.032	The infrared limit of the SRG evolution and Levinson's theorem	Physics Letters. B (Print)	ARRIOLA, E. RUIZ ; SZPIGEL, S. ; Timóteo, V.S.	A1	
trabalhoCompletoEmCongresso	Varese Salvador Timoteo	2014	http://dx.doi.org/10.1063/1.4901795	Peripheral NN scattering from subtractive renormalization of chiral interactions	XXXVI BRAZILIAN WORKSHOP ON NUCLEAR PHYSICS	BATISTA, E. F. ; SZPIGEL, S. ; Timóteo, V. S.		
trabalhoCompletoEmCongresso	Varese Salvador Timoteo	2014		An IP VPN network design and dimensioning approach using analytical simulation models woth incremental validation	2014 Winter Simulation Conference	URSINI, E. L. ; MARTINS, P. ; Timóteo, V S ; SANTOS, V. F.		
artigoEmPeriodico	Talía Simões dos Santos Ximenes	2014		Amplificadores com transistores bipolares na configuração Darlington para pequenos sinais	Latin - American Journal of Physics Education	ARNOLD, FRANCISCO J. ; ALBANO, R. S. ; SANTOS, TALIA S.	B1	
trabalhoCompletoEmCongresso	Talía Simões dos Santos Ximenes	2014		Um Sistema Simples para Medição de Impedância Elétrica de Transdutores Piezelétricos	XX Congresso Brasileiro de Automática	ARNOLD, FRANCISCO J. ; XIMENES, R. L. ; ARTHUR, R. ; SANTOS, TALIA S.		
artigoEmPeriodico	Simone Andréa Pozza	2014	http://dx.doi.org/10.3303/CET1439134	Numerical Methods for the Evaluation of Pollutant Dispersion Based on Advection-diffusion Equation	Chemical Engineering Transactions	PEREIRA, M. F. ; POZZA, S. A. ; TIMOTEO, V. S.	B2	
trabalhoCompletoEmCongresso	Simone Andréa Pozza	2014		Integrated Management of Construction and Demolition Waste: a case study in the City of Limeira, Brazil	ISWA 2014 ? Solid Waste World Congress	ROSADO, L. P. ; Penteado , C. S. G. ; POZZA, S. A.		
artigoEmPeriodico	Rosa Cristina Cecche Lintz	2014	http://dx.doi.org/10.4028/www.scientific.net/amr.905.325	Assembly of a Wetland on a Laboratory Scale for Post-Treatment of Domestic Wastewater	Advanced Materials Research (Online)	MOURÃO, JADE R. ; FREITAS, RAQUEL ; DRAGONI SOBRINHO, GERALDO ; RIBEIRO, LUBIENSKA CRISTINA L.J. ; LINTZ, ROSA CRISTINA CECCHE ; GACHET-BARBOSA, LUÍSA ANDRÉIA ; PIRES, Marta Siviero Guilherme	Qualis nao identificado	Advanced Materials Research (Online)
artigoEmPeriodico	Rosa Cristina Cecche Lintz	2014	http://dx.doi.org/10.4028/www.scientific.net/amr.905.306	Contribution from the Use of Alternative Materials in Concrete for Accessibility on Sidewalks	Advanced Materials Research (Online)	SANTOS, VÂNIA REGINA FERREIRA ; SILVA, FABIANA MARIA ; RIBEIRO, LUBIENSKA CRISTINA L.J. ; PIRES, Marta Siviero Guilherme ; LINTZ, ROSA CRISTINA CECCHE ; GACHET-BARBOSA, LUISA ANDRÉIA	Qualis nao identificado	Advanced Materials Research (Online)
artigoEmPeriodico	Rosa Cristina Cecche Lintz	2014	http://dx.doi.org/10.1002/fam.2288	Analysis of composite steel and concrete columns at high temperatures	Fire and Materials	JACINTHO, Ana Elisabete P. G. A. ; SILVA, Valdir P. ; REQUENA, JOÃO A. V. ; LINTZ, ROSA C. C. ; GACHET-BARBOSA, LUISA A. ; PIMENTEL, LIA L.	Qualis nao identificado	Fire and Materials
trabalhoCompletoEmCongresso	Rosa Cristina Cecche Lintz	2014		Análise da massa específica e resistência mecânica do concreto leve estrutural modificado com sílica ativa	56º Congresso Brasileiro do Concreto	ANGELIN, ANDRESSA FERNANDA ; LINTZ, R. C. C. ; GACHET-BARBOSA, L. A.		
trabalhoCompletoEmCongresso	Rosa Cristina Cecche Lintz	2014		O uso de materiais alternativos na produção de pisos táteis de concreto	56 Congresso Brasileiro do Concreto	SILVA, FABIANA MARIA ; SANTOS, VÂNIA REGINA FERREIRA ; PERALTA, B. L. ; LINTZ, R. C. C. ; GACHET-BARBOSA, L. A.		
artigoEmPeriodico	Ronalton Evandro Machado	2014		Spatial distribution of sediment and water yield, applying geostatistical tools	Journal of Environmental Science and Water Resources	LESSA, L. G. F. ; SILVA, A. F. ; ZIMBACK, C. R. L. ; MACHADO, R. E. ; LIMA, S. L.	Qualis nao identificado	Journal of Environmental Science and Water Resources
artigoEmPeriodico	Ronalton Evandro Machado	2014		Espacialização dos Sedimentos Produzidos na Parte Inicial da Bacia Hidrográfica do Rio Pardo ? Botucatu/SP	Geociências (São Paulo. Online)	LESSA, L. G. F. ; SILVA, A. F. ; MACHADO, R. E. ; ZIMBACK, C. R. L.	B2	
