strict graph grafo1 {
	graph [bb="0,0,2800.5,125",
		id=grafo1,
		overlap=False
	];
	node [fontsize=8,
		label="\N",
		shape=rectangle,
		style=filled
	];
	0	 [URL="http://lattes.cnpq.br/1836363748488436",
		color="#17272B",
		fontcolor="#FFFFFF",
		height=0.23611,
		label="Alexandre da Costa Sena [2]",
		pos="100.5,116.5",
		width=1.5];
	21	 [URL="http://lattes.cnpq.br/4869894816851795",
		color="#17272B",
		fontcolor="#FFFFFF",
		height=0.23611,
		label="Leandro A. Justen Marzulo [2]",
		pos="57.5,62.5",
		width=1.5972];
	0 -- 21	 [pos="94.155,107.83 86.025,97.996 72.013,81.051 63.871,71.204"];
	26	 [URL="http://lattes.cnpq.br/6348480289055660",
		color="#17272B",
		fontcolor="#FFFFFF",
		height=0.23611,
		label="Maria C. Stelling de Castro [2]",
		pos="100.5,8.5",
		width=1.6111];
	0 -- 26	 [pos="106.68,107.66 115.06,96.068 128.43,73.569 123.5,53.5 120.13,39.772 111.64,25.575 105.97,17.144"];
	21 -- 26	 [pos="63.845,53.827 71.975,43.996 85.987,27.051 94.129,17.204"];
	1	 [URL="http://lattes.cnpq.br/9781797634377318",
		color="#17272B",
		fontcolor="#FFFFFF",
		height=0.23611,
		label="Fabiano Souza de Oliveira [0]",
		pos="229.5,116.5",
		width=1.5694];
	2	 [URL="http://lattes.cnpq.br/7657422977567514",
		color="#17272B",
		fontcolor="#FFFFFF",
		height=0.23611,
		label="Frederico A. de Oliveira Cruz [2]",
		pos="366.5,116.5",
		width=1.7222];
	3	 [URL="http://lattes.cnpq.br/6107034183202542",
		color="#17272B",
		fontcolor="#FFFFFF",
		height=0.23611,
		label="Celia M. Cortez Silva [3]",
		pos="366.5,62.5",
		width=1.3611];
	2 -- 3	 [pos="366.5,107.83 366.5,97.996 366.5,81.051 366.5,71.204"];
	10	 [URL="http://lattes.cnpq.br/5258150848273682",
		color="#17272B",
		fontcolor="#FFFFFF",
		height=0.23611,
		label="Roseli Suzi Wedemann [1]",
		pos="366.5,8.5",
		width=1.4306];
	3 -- 10	 [pos="366.5,53.827 366.5,43.996 366.5,27.051 366.5,17.204"];
	4	 [URL="http://lattes.cnpq.br/3909390599449995",
		color="#17272B",
		fontcolor="#FFFFFF",
		height=0.23611,
		label="Carlos F. F. de Barros e Vasconcellos [0]",
		pos="521.5,116.5",
		width=2.0694];
	5	 [URL="http://lattes.cnpq.br/4299545465339581",
		color="#17272B",
		fontcolor="#FFFFFF",
		height=0.23611,
		label="Antonio C. de Moura Santos [0]",
		pos="674.5,116.5",
		width=1.6667];
	6	 [URL="http://lattes.cnpq.br/",
		color="#17272B",
		fontcolor="#FFFFFF",
		height=0.23611,
		label="[Nome-nao-identificado] [0]",
		pos="806.5,116.5",
		width=1.4861];
	7	 [URL="http://lattes.cnpq.br/0403732822984772",
		color="#17272B",
		fontcolor="#FFFFFF",
		height=0.23611,
		label="Alexandre Sztajnberg [0]",
		pos="926.5,116.5",
		width=1.3472];
	8	 [URL="http://lattes.cnpq.br/4754635406522430",
		color="#17272B",
		fontcolor="#FFFFFF",
		height=0.23611,
		label="Jerrylee D. Yoshii Silva [0]",
		pos="1045.5,116.5",
		width=1.4583];
	9	 [URL="http://lattes.cnpq.br/7535348349141535",
		color="#17272B",
		fontcolor="#FFFFFF",
		height=0.23611,
		label="Vera M. Benjamim Werneck [1]",
		pos="1176.5,116.5",
		width=1.6806];
	14	 [URL="http://lattes.cnpq.br/1706605645478326",
		color="#17272B",
		fontcolor="#FFFFFF",
		height=0.23611,
		label="Ana L. de C. Leite Duboc [1]",
		pos="1176.5,62.5",
		width=1.5417];
	9 -- 14	 [pos="1176.5,107.83 1176.5,97.996 1176.5,81.051 1176.5,71.204"];
	11	 [URL="http://lattes.cnpq.br/1829333800490851",
		color="#17272B",
		fontcolor="#FFFFFF",
		height=0.23611,
		label="Rosa M. E. Moreira da Costa [1]",
		pos="1366.5,116.5",
		width=1.6806];
	17	 [URL="http://lattes.cnpq.br/9164335773757265",
		color="#17272B",
		fontcolor="#FFFFFF",
		height=0.23611,
		label="Regina Serrão Lanzillotti [1]",
		pos="1304.5,62.5",
		width=1.5139];
	11 -- 17	 [pos="1357.4,107.83 1345.6,97.996 1325.4,81.051 1313.7,71.204"];
	20	 [URL="http://lattes.cnpq.br/0556459512101837",
		color="#17272B",
		fontcolor="#FFFFFF",
		height=0.23611,
		label="Luis A. Vidal de Carvalho [1]",
		pos="1345.5,8.5",
		width=1.5556];
	11 -- 20	 [pos="1367.8,107.73 1369.6,95.861 1372,72.569 1367.5,53.5 1364.3,39.868 1356.2,25.645 1350.7,17.182"];
	17 -- 20	 [pos="1310.5,53.827 1318.3,43.996 1331.7,27.051 1339.4,17.204"];
	12	 [URL="http://lattes.cnpq.br/5413422509570085",
		color="#17272B",
		fontcolor="#FFFFFF",
		height=0.23611,
		label="Paulo E. Duarte Pinto [2]",
		pos="1494.5,116.5",
		width=1.3611];
	29	 [URL="http://lattes.cnpq.br/4657870977403568",
		color="#17272B",
		fontcolor="#FFFFFF",
		height=0.23611,
		label="Guilherme L. Abelha Mota [2]",
		pos="1494.5,62.5",
		width=1.5972];
	12 -- 29	 [pos="1494.5,107.83 1494.5,97.996 1494.5,81.051 1494.5,71.204"];
	13	 [URL="http://lattes.cnpq.br/1734587740129156",
		color="#17272B",
		fontcolor="#FFFFFF",
		height=0.23611,
		label="Augusto C. de Castro Barbosa [4]",
		pos="1624.5,116.5",
		width=1.7361];
	27	 [URL="http://lattes.cnpq.br/7992727935310462",
		color="#17272B",
		fontcolor="#FFFFFF",
		height=0.23611,
		label="Marcus V. Tovar Costa [4]",
		pos="1624.5,62.5",
		width=1.4306];
	13 -- 27	 [pos="1624.5,107.83 1624.5,97.996 1624.5,81.051 1624.5,71.204"];
	15	 [URL="http://lattes.cnpq.br/8300604408079168",
		color="#17272B",
		fontcolor="#FFFFFF",
		height=0.23611,
		label="Ricardo Carvalho de Barros [0]",
		pos="1763.5,116.5",
		width=1.625];
	16	 [URL="http://lattes.cnpq.br/3413049864861519",
		color="#17272B",
		fontcolor="#FFFFFF",
		height=0.23611,
		label="Rosa M. Videira de Figueiredo [0]",
		pos="1903.5,116.5",
		width=1.7639];
	18	 [URL="http://lattes.cnpq.br/2324159515825927",
		color="#17272B",
		fontcolor="#FFFFFF",
		height=0.23611,
		label="Raul Jose Donangelo [0]",
		pos="2033.5,116.5",
		width=1.3333];
	19	 [URL="http://lattes.cnpq.br/8180092714037435",
		color="#17272B",
		fontcolor="#FFFFFF",
		height=0.23611,
		label="Patrícia Nunes da Silva [0]",
		pos="2151.5,116.5",
		width=1.4306];
	22	 [URL="http://lattes.cnpq.br/7074540262731419",
		color="#17272B",
		fontcolor="#FFFFFF",
		height=0.23611,
		label="Neide d. Santos Souza [0]",
		pos="2271.5,116.5",
		width=1.3889];
	23	 [URL="http://lattes.cnpq.br/0662797102623056",
		color="#17272B",
		fontcolor="#FFFFFF",
		height=0.23611,
		label="Sheila R. Murgel Veloso [0]",
		pos="2393.5,116.5",
		width=1.4861];
	24	 [URL="http://lattes.cnpq.br/3383864003678045",
		color="#17272B",
		fontcolor="#FFFFFF",
		height=0.23611,
		label="Cristiane de Faria Oliveira [0]",
		pos="2521.5,116.5",
		width=1.5694];
	25	 [URL="http://lattes.cnpq.br/4468191018994448",
		color="#17272B",
		fontcolor="#FFFFFF",
		height=0.23611,
		label="Maria H. de P. Leite Mello [0]",
		pos="2653.5,116.5",
		width=1.5833];
	28	 [URL="http://lattes.cnpq.br/3965328361563422",
		color="#17272B",
		fontcolor="#FFFFFF",
		height=0.23611,
		label="Luerbio Faria [0]",
		pos="2764.5,116.5",
		width=1];
}
