7190093645944939
0638753019968577
4564992768227618
6124438404236960
2627794239193071
9185423277265324
2275934290822911
7418226363698003
0584659067739940
1120717096542450
4428619604317270
0880711229395980
6969332020300393
8105229313862598
4013157257201505
3182642260929550
7226534838995252
2272891249419710
7993400533351806
0962173505075635
4766107848140138
2126687770271963
2308920362072312
6602249498239668
0148772831660645
3619997420728528
1909017271555916
0015378159322253
3550894740038437
8770932409623222
4352455115855508
2661861743716165
2220420259489559
9909161945012741
6722971389089535
7046131809246694
0295506221070571
5466529668858350
5075385290771564
1216712773575109
7834194247765889
3420690544547669
7951863941276941
4489954406277812
1636373663183349
2212662417127762
4712989817231486
3158341266410026
2043932840117404
6932374710759278
9577818173126430
5083918866418533
3944258239162952
4843971927214892
7546444652268849
7985065366684340
2770084256076947
4919000962986524
5032798411839817
0695899382782312
0639637610432974
1526528881898399
8046559694932152
5789030390204196
1266474278832242
2774866987202071
3539564256173485
6003247552331322
5574503654378556
1371199678541174
6771850042273077
1823576448844020
6175295879117217
5070346890071886
7868033399535810
2711486822172560
2467394580725091
3255040726501428
8820534055173546
7668408182342869
3262681213088048
6573466767454891
6631881774273533
3175194904738511
6681639843182010
2276430158083078
5662863685960286
6369468949669634
7159565872629284
8694093853463411
6902447552462633
2133600722417387
2624125420058016
5020814110812915
1624170908229894
9319101798473279
8014085667361687
9326229714266047
5950200049357054
8705743403564888
1084519171830211
2581007740973216
4979799552470346
1981766033363088
4294633568715113
9692559732312274
9281050029028833
1504112757894745
7035786437457970
2435628775717990
6017450090135342
4228155729592540
8016966342199659
3766511422208153
1616290203113993
5447383602768120
3029847608889509
7731274767187515
2305500880087819
4882179099838383
0893555521162697
5814772040547639
3867444040813929
8790862654889675
5651876222094577
4912531045259756
0456362733215959
9955213489372696
4974122990012680
4529955433186464
4035550723836348
2811842051269959
2644166008298381
6636225506526453
6196472456142388
0769100440096482
7344840931992674
9410131123052228
9866783492776295
9666765153602114
9612785323050469
4242504164852380
3246680879144916
5056134287897528
5362439763849977
5736078976141563
0010928663153208
2368962514758134
7885794552229645
3847368568763497
2541074388406255
7353800201695627
7275659448602867
6022845026534146
2408215374283146
6797626371757728
2826902802008724
5868404476028697
1901493718203318
7713027891641002
7958981811677995
4109261310326480
4087752487104746
1512055728451785
5157079034428441
5689531677234222
8347081803216649
1135208524808276
6535935543411682
3799725944186822
2922056618285138
2943287133656834
5923633404677522
7405381363849124
8007906392514363
2556310911718238
1740734674821323
3903368049919554
1042018203108549
4250012911307629
6567035871534530
6550914415733724
7843431495560049
2021488454855419
0616559257754860
6838853493819560
8410918406891537
4045818083957064
4240755341639061
1041912413436694
4743367964787153
0432748166449374
2862549106363740
8649496845123124
2066437909843122
1204848228722615
2896619680929421
1725213417971743
2854108646154112
4848892103911600
8431584770558180
1368334568714375
9809779659334120
5208991845209190
6606590329311722
5441472452762252
1205346518685330
8607355012542219
8105888183135616
3974514973110569
0270620011252068
6088333860819216
5344016559946139
8586145669395690
3231136952004946
6406636354691261
0462469314872691
0048790978449306
0675463122519948
7596618418367922
9674487573382405
5256148719596390
1651697263384906
4632339075272625
6439123387110220
0037657888703116
6961915917073396
2887634773333017
4742833301655917
8651113987192195
3150001206848095
1600304547313342
4844762887048042
0300957415364593
6293063915211565
8239776856549739
0999690266159052
6230394706150406
8265885406314576
2101020723017576
4915768538262734
8358353153311586
0431862748743320
9410492328952653
7991579451050534
2174141390493749
3191660561681975
7551329554735199
8335398347568062
1257464125778276
7513317490448679
3128239332035756
2774153845330978
9659815736637320
6931130951121387
5616247653440658
1844103661944409
7033900990167196
9648780312388696
8957464138326923
7368734489213131
4237805077299667
8258904116646095
0913722892000412
5131879592402813
6519278460438212
1583056435968700
4639254277028449
9145294901002507
9343693519691187
8177310233792946
9043756142884852
6847130520485874
4340252293287467
9916659035419971
3439422352600230
3652567343476254
8592848467890718
2506902397204906
4774659568459124
1767196615552654
9124990820286406
8633767916729460
6970166653258204
6495360636674195
7245862293227645
9823633269260289
3793685880483910
1098285550013751
8234002385119811
9357237196432997
0778050625171023
0243936233595019
7624403294944006
2664701896506145
5283484726498475
4445534055001103
7020740903072447
1384884805593624
2294403751807996
6549138819299875
1345483949673622
9599726799047515
1295374978983959
2585761446990156
8229335826782199
2032747376938690
0000793038362058
8216650544421653
6961750200041849
6286949963773913
9921805438187043
8011185109152996
1478432731177753
6663409656695779
7073988901255796
9956834926002472
4619779231164354
8381190297515139
2330512152218476
6721770998874546
9181524134984137
1886637680938249
0140379499804626
2228588490742610
5476335643097785
5635095022213229
4196064047953730
8409359105453734
2714225619188769
5901332854582438
6246893426746803
1427818607285375
7374810692623774
4984241119348770
0560088049234256
2185251150141240
8991400827739661
8952886297485009
6437469093514221
6618203635409551
4210080039913734
6013394303815901
4549824090579244
6371428602495029
6420218716837083
2815946827655352
3967266929672774
0094710114025569
0434732066476668
6855997370033919
7584962183660586
0844031752708353
2065001055059037
7514178774795860
4787861539900038
9324045728137911
5613026506538994
3494876013708167
9348298754881680
5084161927220609
2330521328160037
4908859274201573
8224658682910588
3045852349057252
1680105835487679
5115240716985666
9131912033951650
7499692835204617
5662759715119284
8238451312475074
8671782571748625
3938826959726045
2772090163558696
5978684124962276
4442105583996723
3476177132200018
9577349393433041
4240421546504397
0684318770321413
3285565504069750
6910508438554107
6107882775604201
9943249087963801
5427307767880158
6380923718767667
6091643712340626
9855620975994927
0928008451837043
