strict graph grafo1 {
	graph [bb="0,0,1821.5,71",
		id=grafo1,
		overlap=False
	];
	node [fontsize=8,
		label="\N",
		shape=rectangle,
		style=filled
	];
	0	 [URL="http://lattes.cnpq.br/0777127477216804",
		color="#17272B",
		fontcolor="#FFFFFF",
		height=0.23611,
		label="Sergio Roclaw Basbaum [0]",
		pos="53.5,62.5",
		width=1.4861];
	1	 [URL="http://lattes.cnpq.br/8066660068004635",
		color="#17272B",
		fontcolor="#FFFFFF",
		height=0.23611,
		label="Pollyana Ferrari Teixeira [0]",
		pos="179.5,62.5",
		width=1.5];
	2	 [URL="http://lattes.cnpq.br/8678853721350456",
		color="#17272B",
		fontcolor="#FFFFFF",
		height=0.23611,
		label="Sônia M. de Macedo Allegretti [0]",
		pos="315.5,62.5",
		width=1.7639];
	3	 [URL="http://lattes.cnpq.br/6971552310197488",
		color="#17272B",
		fontcolor="#FFFFFF",
		height=0.23611,
		label="Nuno A. C. Pereira da Silva [0]",
		pos="455.5,62.5",
		width=1.625];
	4	 [URL="http://lattes.cnpq.br/6861243621820410",
		color="#17272B",
		fontcolor="#FFFFFF",
		height=0.23611,
		label="Nelson Brissac Peixoto [0]",
		pos="583.5,62.5",
		width=1.4167];
	5	 [URL="http://lattes.cnpq.br/8886485096957731",
		color="#17272B",
		fontcolor="#FFFFFF",
		height=0.23611,
		label="Maria L. Santaella Braga [0]",
		pos="706.5,62.5",
		width=1.5];
	6	 [URL="http://lattes.cnpq.br/9966205713012870",
		color="#17272B",
		fontcolor="#FFFFFF",
		height=0.23611,
		label="Marcus V. Fainer Bastos [0]",
		pos="832.5,62.5",
		width=1.4861];
	7	 [URL="http://lattes.cnpq.br/9933939386282163",
		color="#17272B",
		fontcolor="#FFFFFF",
		height=0.23611,
		label="Luís Carlos Petry [1]",
		pos="946.5,62.5",
		width=1.1667];
	11	 [URL="http://lattes.cnpq.br/1054028764485947",
		color="#17272B",
		fontcolor="#FFFFFF",
		height=0.23611,
		label="Daniel Couto Gatti [1]",
		pos="946.5,8.5",
		width=1.2361];
	7 -- 11	 [pos="946.5,53.827 946.5,43.996 946.5,27.051 946.5,17.204"];
	8	 [URL="http://lattes.cnpq.br/9511610526352732",
		color="#17272B",
		fontcolor="#FFFFFF",
		height=0.23611,
		label="João A. Mattar Neto [0]",
		pos="1053.5,62.5",
		width=1.2917];
	9	 [URL="http://lattes.cnpq.br/1696460650494488",
		color="#17272B",
		fontcolor="#FFFFFF",
		height=0.23611,
		label="Italo Santiago Vega [0]",
		pos="1163.5,62.5",
		width=1.2639];
	10	 [URL="http://lattes.cnpq.br/6263913436052996",
		color="#17272B",
		fontcolor="#FFFFFF",
		height=0.23611,
		label="Hermes Renato Hildebrand [0]",
		pos="1284.5,62.5",
		width=1.5972];
	12	 [URL="http://lattes.cnpq.br/6583995948000666",
		color="#17272B",
		fontcolor="#FFFFFF",
		height=0.23611,
		label="Claudio Fernando Andre [0]",
		pos="1413.5,62.5",
		width=1.4861];
	13	 [URL="http://lattes.cnpq.br/2150241303883701",
		color="#17272B",
		fontcolor="#FFFFFF",
		height=0.23611,
		label="Ana M. Di Grado Hessel [0]",
		pos="1539.5,62.5",
		width=1.5];
	14	 [URL="http://lattes.cnpq.br/7221866306191176",
		color="#17272B",
		fontcolor="#FFFFFF",
		height=0.23611,
		label="Winfried Maximilian Noth [0]",
		pos="1668.5,62.5",
		width=1.5833];
	15	 [URL="http://lattes.cnpq.br/1491511220538716",
		color="#17272B",
		fontcolor="#FFFFFF",
		height=0.23611,
		label="Demi Getschko [0]",
		pos="1782.5,62.5",
		width=1.0833];
}
