artigoEmPeriodico	2016		Public Administration and the tragedy of commons in the information age: e-Government observatory to promote collective action.	Democracia Digital e Governo Eletrônico	AIRES JOSÉ ROVER. Public Administration and the tragedy of commons in the information age: e-Government observatory to promote collective action	B5	
artigoEmPeriodico	2016		Hipervídeo na educação de surdos: design e desenvolvimento de protótipo	Revista Educaonline	ALMEIDA, P. R. A. ; ULBRICHT, V. ; FADEL, L. M.	B3	
artigoEmPeriodico	2016		Estratégia organizacional y ciclo de gestión del conocimiento: el modelo de bukowitz y williams en práctica	Espacios (Caracas)	ALVAREZ, A. M. O. ; LASSO, A. L. ; STEIL, A. V.	B1	
artigoEmPeriodico	2016		MODELAGEM NO PROCESSO DE CLASSIFICAÇÃO E ARMAZENAMENTO DE INFORMAÇÃO: UMA AÇÃO POR MEIO DO CONHECIMENTO	UNIVERSO PM	ALVES, P. ; GOMES JR, W. V. ; WILLERDING, I. A. V. ; LAPOLLI, É. M.	Qualis nao identificado	UNIVERSO PM
artigoEmPeriodico	2016	http://dx.doi.org/10.3991/ijoe.v12i04.5095	Merging a Remote Microscope and Virtual Worlds: Teaching Kingdom Plantae on Basic Education	international journal of online engineering (IJOE)	ANTONIO, CAROLINE PORTO ; LIMA, JOÃO PAULO ; ALVES, JOÃO BOSCO ; SILVA, JUAREZ BENTO ; SIMÃO, JOSÉ PEDRO	B4	International Journal of Online Engineering
artigoEmPeriodico	2016	http://dx.doi.org/10.5539/par.v5n2p70	Public Administration and Lawsuit?s Resolution: A Case Study and Trends in Brazilian Judiciary	Public Administration Research	ARAUJO, THIAGO SOUZA ; ORSATTO, SILVIO DAGOBERTO ; ROVER, AIRES JOSE ; DANDOLINI, GERTRUDES A.	Qualis nao identificado	Public Administration Research
artigoEmPeriodico	2016	http://dx.doi.org/10.1590/1414-462x201600020195	Sintomas depressivos em adolescentes em situação de vulnerabilidade social	Cadernos Saúde Coletiva	BARBOSA, D. G. ; ANDRADE, R. D. ; TEIXEIRA, Clarissa Stefani ; FILHO NETO, M. G. ; PEREIRA, Érico Felden	B3	Cadernos Saúde Coletiva (UFRJ)
artigoEmPeriodico	2016		Integração no Ensino de Arquitetura e Urbanismo: Experiências com ateliês Verticais	Revista Projetar	Batistello, P. ; Balzan, K. L. ; Pereira, Alice T. Cybis	Qualis nao identificado	Revista Projetar
artigoEmPeriodico	2016		Assessment of postures and manual handling of loads at Southern Brazilian Foundries	Revista Facultad de Ingeniería Universidad de Antioquia	Batiz, E. C. ; Santos, A. J. ; Hurtado, A.L.B. ; MACEDO, M. ; Mafra. E.	B1	
artigoEmPeriodico	2016		AVALIAÇÃO DE BIBLIOTECAS UNIVERSITÁRIAS: NORMAS E PADRÕES	Pesquisa Brasileira em Ciência da Informação e Biblioteconomia	BEM, R. M. de ; DANDOLINI, G. A. ; COELHO, C. C. de S. R. ; DUTRA, S. K. W.	Qualis nao identificado	Pesquisa Brasileira em Ciência da Informação e Biblioteconomia
artigoEmPeriodico	2016		Pessoas Cegas e Representacao Espacial: Uma Revisao Sistemática de Literatura	Ergodesign & HCI	BERG, H. ; FLORES, A. ; FADEL, L. M. ; ULBRICHT, V.	Qualis nao identificado	Ergodesign & HCI
artigoEmPeriodico	2016		O programa de extensão como fomento do conhecimento para o bolsista na ITCEES	Espacios (Caracas)	BOTELHO, L. ; MINETTO, C. ; GAUTHIER, F. A. O. ; MACEDO, M. ; BRAUN, J. C. A. ; SANTOS, F. E. ; SILVA, E. D.	B1	
artigoEmPeriodico	2016	http://dx.doi.org/10.14521/P2237-5163.2016.0003.0001	MODELO DE DESENVOLVIMENTO GERENCIAL E DE LIDERANÇA ? GAIA	Revista Produção em Foco	DE LIRA ROEDEL BOTELHO, LOUISE ; ELIS DOS SANTOS, FERNANDA ; VIDAL NOGUEIRA, SANDRA ; ALVARO OSTUNI, FERNANDO ; MACEDO, MARCELO	Qualis nao identificado	Revista Produção em Foco
artigoEmPeriodico	2016		Contribuições das comunidades de prática para o processo de autoavaliação em uma instituição de educação superior do segmento privado	Revista Gestao Universitaria na America Latina - GUAL	BUCHELE, G. T. ; SOUZA, João Artur de ; TODESCAT, M. ; COELHO, M. D. ; SABINO, M. M. F. L. ; FRANCISCO, T. H. A.	B3	
artigoEmPeriodico	2016	http://dx.doi.org/10.1590/1982-7849rac2016140054	Desaprendizagem Organizacional: Um Estudo de Campo na Universidade Federal de Santa Catarina	RAC. Revista de Administração Contemporânea (Online)	BUCHELE, G. T. ; Teza, P. ; MULLER, I. R. F. ; SOUZA, João Artur de	B1	
artigoEmPeriodico	2016		Aprendizagem baseada em projetos: uma experiência em sala de aula para compartilhamento e criação do conhecimento no processo de desenvolvimento de projetos de software	COMPETÊNCIA - REVISTA DA EDUCAÇÃO SUPERIOR DO SENAC-RS	CAMPOS, A. ; MACHADO, G. B. ; RADO, G. J. V. ; TODESCO, J. L.	Qualis nao identificado	COMPETÊNCIA - REVISTA DA EDUCAÇÃO SUPERIOR DO SENAC-RS
artigoEmPeriodico	2016		Metodologia para Elaboração de Matriz Curricular: Integração e Transversalidade	Poiesis	CATAPAN, A. H.; KASSICK, C. N. ; OTERO, W. R. I.	B3	
artigoEmPeriodico	2016	http://dx.doi.org/10.17265/2161-6248/2015.02.008	Management and Instructional Design: Building Intersections	US-China Education Review B	CATAPAN, A. H.; Silva, A. R.	B1	Us-China Education Review
artigoEmPeriodico	2016		Contribuciones de Eliseo Verón a los estudios sobre televisión en Brasil	Chasqui. Revista latinoamericana da comunicación	CAVENAGHI, Beatriz. ; BALDESSAR, M. J. ; FONTINHA, C.	Qualis nao identificado	Chasqui. Revista latinoamericana da comunicación
artigoEmPeriodico	2016	http://dx.doi.org/10.1109/tla.2016.7795829	A model for sentiment analysis based on ontology and cases	Revista IEEE América Latina	CECI, FLAVIO ; LEOPOLDO GONCALVES, ALEXANDRE ; WEBER, ROSINA	B1	
artigoEmPeriodico	2016		Resíduos alimentares - Impactos, possíveis usos e legislação	Espacios (Caracas)	COELHO, D. C. J. ; Gouvea, C. K. ; Hurtado, A.L.B. ; MACEDO, M.	B1	
artigoEmPeriodico	2016		Evolução das variáveis teórico-empíricas interdisciplinares associadas ao design no contexto do desenvolvimento de interfaces para ambientes virtuais de aprendizagem	Infodesign (SBDI. Online)	CONTI, L. M. ; FREIRE, P. S. ; BILESSIMO, S. M. S. ; SILVA, S. M.	B2	
artigoEmPeriodico	2016		Aprendizaje Organizacional: producción científica sobre el aprendizaje organizacional en los países de América	Revista Internacional de Economía y Gestión de las Organizaciones	CORDOVA, J. R. ; MAHAUAD, M. D. ; FIALHO, F. A. P.	Qualis nao identificado	Revista Internacional de Economía y Gestión de las Organizaciones
artigoEmPeriodico	2016		EaD NA FORMAÇÃO E CAPACITAÇÃO DE SERVIDORES PÚBLICOS E DA SEGURANÇA PÚBLICA ? REFLEXÕES	CRIAR EDUCAÇÃO REVISTA DO PROGRAMA DE PÓS-GRADUAÇÃO EM EDUCAÇÃO UNESC	DALLIGNA, S. M. ; SPANHOL, F. J. ; SOUZA, M. V.	Qualis nao identificado	CRIAR EDUCAÇÃO REVISTA DO PROGRAMA DE PÓS-GRADUAÇÃO EM EDUCAÇÃO UNESC
artigoEmPeriodico	2016		Aprender a crescer: como as micro e pequenas empresas de Santa Satarina podem enfrentar os desafios do crescimento	Navus Revista de Gestão e Tecnologia	DAVILA, G. A. ; NORTH, K. ; VARVAKIS, G. ; SILVA, J. A.	B5	
artigoEmPeriodico	2016	http://dx.doi.org/10.1108/LM-01-2016-0005	Knowledge management framework to the university libraries	Library Management	DE BEM, ROBERTA MORAES ; COELHO, CHRISTIANNE COELHO DE SOUZA REINISC ; DANDOLINI, GERTRUDES APARECIDA	Qualis nao identificado	Library Management
artigoEmPeriodico	2016		O USO DAS TECNOLOGIAS DA INFORMAÇÃO E COMUNICAÇÃO DIGITAL COMO MEDIAÇÃO PEDAGÓGICA: A EXPERIÊNCIA DE DOIS PROGRAMAS DE PÓS-GRADUAÇÃO	CRIAR EDUCAÇÃO REVISTA DO PROGRAMA DE PÓS-GRADUAÇÃO EM EDUCAÇÃO UNESC	DIANA, J. B. ; Simon, Rangel Machado ; SPANHOL, FERNANDO JOSÉ ; Souza, Márcio Vieira de	Qualis nao identificado	CRIAR EDUCAÇÃO REVISTA DO PROGRAMA DE PÓS-GRADUAÇÃO EM EDUCAÇÃO UNESC
artigoEmPeriodico	2016		Ferramentas do design thinking para a inovação em modelo de negócio	Ciências & Cognição (UFRJ)	DOROW, P. F. ; FRANZONI, C. ; TORQUATO, M. ; FIALHO, F. A. P.	B2	
artigoEmPeriodico	2016	http://dx.doi.org/10.12660/joscmv9n1p94-109	SPECIAL ISSUE | The Leadership Process During an Organizational Crisis	JOSCM. JOURNAL OF OPERATIONS AND SUPPLY CHAIN MANAGEMENT	DOS SANTOS, RODRIGO ANTÔNIO SILVEIRA ; BANDEIRA-DE-MELLO, R. ; CUNHA, C. J. C. A.	Qualis nao identificado	JOSCM. JOURNAL OF OPERATIONS AND SUPPLY CHAIN MANAGEMENT
artigoEmPeriodico	2016		Bilingual learning environment to support a community of practice.	La Revista TEKNOS	Elisa Maria Pivetta ; SAITO, D. S. ; ULBRICHT, V. R. ; ALMEIDA, A. M. P.	Qualis nao identificado	La Revista TEKNOS
artigoEmPeriodico	2016		Aprendizagem organizacional em bibliotecas acadêmicas: uma revisão sistemática	Perspectivas em Ciência da Informação (Impresso)	FAQUETI, M. F. ; ALVES, João Bosco da Mota ; STEIL, A. V.	A2	
artigoEmPeriodico	2016		The use of LMS to support PBL practices: A systematic review	Journal of Research & Method in Education	FARIAS, G. F. ; SPANHOL, FERNANDO JOSÉ ; Souza, Márcio Vieira de	Qualis nao identificado	Journal of Research & Method in Education
artigoEmPeriodico	2016		Fatores Influenciadores na Implantação em Larga Escala dos Tablets Educacionais no Brasil	RENOTE. REVISTA NOVAS TECNOLOGIAS NA EDUCAÇÃO	FARIAS, GIOVANNI ; SPANHOL, FERNANDO JOSÉ	B3	
artigoEmPeriodico	2016		Método PBL em Rede: Um Estudo de Caso	REVISTA TECNOLOGIAS NA EDUCAÇÃO	FARIAS, GIOVANNI ; SPANHOL, FERNANDO JOSÉ ; SOUZA, M. V.	B3	
artigoEmPeriodico	2016	http://dx.doi.org/10.19132/1808-5245223.84-109	Recuperação da informação e a consulta à base de dados no processo de busca do Mecanismo Online para Referências	Em Questão (UFRGS. Impresso)	FELISBERTO, PROXÉRIO MANOEL ; MARCELINO, RODERVAL ; Gonçalves, Alexandre Leopoldo ; ALVES, JOÃO BOSCO DA MOTA	B1	
artigoEmPeriodico	2016	http://dx.doi.org/10.19132/1808-5245223.84-109	RecuperaÃ§Ã£o da informaÃ§Ã£o e a consulta Ã  base de dados no processo de busca do Mecanismo Online para ReferÃªncias	Em Questão (UFRGS. Impresso)	FELISBERTO, PROXÉRIO MANOEL ; MARCELINO, RODERVAL ; GONÇALVES, ALEXANDRE LEOPOLDO ; ALVES, JOÃO BOSCO DA MOTA	B1	
artigoEmPeriodico	2016		Knowledge Waste	Navus Revista de Gestão e Tecnologia	FERENHOF, H. A. ; DURST, SUSANNE ; SELIG, PAULO MAURÍCIO	B5	
artigoEmPeriodico	2016		Knowledge Waste	Navus Revista de Gestão e Tecnologia	FERENHOF, H. A. ; DURST, SUSANNE ; SELIG, PAULO MAURÍCIO	B5	
artigoEmPeriodico	2016		Cidades Humanas, Inteligentes e Sustentáveis	VIA Revista	FIALHO, F. A. P	Qualis nao identificado	VIA Revista
artigoEmPeriodico	2016		The Four Dimensions of Knowledge: Cognitive, Connectionist, Autopoietic and Integral. Advancing the Understanding Learning	IOSR Journal of Environmental Science, Toxicology and Food Technology (IOSR-JESTFT)	FIALHO, F. A. P.; MACHADO, A. B. ; MOUSSA, D. F.	Qualis nao identificado	IOSR Journal of Environmental Science, Toxicology and Food Technology (IOSR-JESTFT)
artigoEmPeriodico	2016		Editorial	Revista Memorare	FIALHO, FRANCISCO ANTONIO PEREIRA	Qualis nao identificado	Revista Memorare
artigoEmPeriodico	2016		O FENÔMENO DA PRECOGNIÇÃO SOB O PONTO DE VISTA DO CONHECIMENTO E DE SUAS MÍDIAS	Revista Memorare	FIGUEIRA, J. P. S. ; CUNHA, C. J. C. de A. ; FIALHO, FRANCISCO ANTONIO PEREIRA	Qualis nao identificado	Revista Memorare
artigoEmPeriodico	2016		?VERBI ? O IDIOMA DO CAOS?: LÍNGUAS, LINGUAGENS E A PSIQUE JUNGUIANA EM CENA	Revista Memorare	FIGUEIRA, J. P. S. ; HADDAD, L. N. ; NASPOLINI, M. ; FIALHO, FRANCISCO ANTONIO PEREIRA	Qualis nao identificado	Revista Memorare
artigoEmPeriodico	2016		O fluxo da produção e da informação no design de moda: uma análise aplicada em pequenas empresas de confecção da grande Florianópolis ? Santa Catarina	Perspectivas em Gestao & Conhecimiento	FINARDI, C. ; SILVA, E. L. ; VARVAKIS, G.	B1	
artigoEmPeriodico	2016		O Compartilhamento do Conhecimento para a Acessibilidade e Inclusão do Surdo: o teatro como mídia	Revista Educaonline	Fossari C. L. ; FOSSARI, I. M. ; ULBRICHT, Vania R. ; VANZIN, Tarcisio.	B3	
artigoEmPeriodico	2016		Processo de Implantação da Universidade Corporativa em Rede (UCR)	Espacios (Caracas)	FREIRE, P. S. ; DANDOLINI, G. A. ; SOUZA, João Artur de ; SILVA, S. M.	B1	
artigoEmPeriodico	2016		Universidade Corporativa em Rede: Considerações Iniciais para um Novo Modelo de Educação Corporativa	Espacios (Caracas)	FREIRE, P. S. ; DANDOLINI, G. A. ; SOUZA, J. A. ; TRIERWEILLE, A. C. ; SILVA, S. M. ; SELL, D. ; PACHECO, Roberto Carlos dos Santos ; TODESCO, José Leomar ; STEIL, A. V.	B1	
artigoEmPeriodico	2016		Estratégia de compartilhamento do conhecimento: um estudo de caso no Tribunal Regional Eleitoral de Santa Catarina	Espacios (Caracas)	FREITAS FILHO, F. L. ; BERTONCINI, I. ; VARVAKIS, G. ; SANTOS, N.	B1	
artigoEmPeriodico	2016		Ontology for Performance Measurement Indicators' Comparison	International Journal of Digital Information and Wireless Communications	FREITAS JUNIOR, V. ; Uren, Victoria ; BREWSTER, C. ; GONÇALVES, A. L.	Qualis nao identificado	International Journal of Digital Information and Wireless Communications
artigoEmPeriodico	2016		The Socio-Cultural Approach to Software Engineering and its Application to Modeling a Virtual Learning Environment	Communications in Computer and Information Science (Print)	GLUZ, J. C. ; VICCARI, R. M. ; PASSERINO, Liliana M.	Qualis nao identificado	Communications in Computer and Information Science (Print)
artigoEmPeriodico	2016		Tipologia na construção de personas	Tríades em Revista	GONÇALVES, Berenice Santos ; FIALHO, F. A. P. ; RODRIGUES, B. C. M. ; DICK, M. E.	B4	
artigoEmPeriodico	2016		Evaluation of pro-environmental behavior and environmental teaching	Espacios (Caracas)	GOUVÊA, C. A. K. ; NOVAK, A. ; HURTADO, A. L. B. ; MACEDO, M.	B1	
artigoEmPeriodico	2016		Capacidade empreendedora na UNILUX	REA. Revista Eletrônica de Administração (Franca. Online)	GRAMKOW, F. B. ; PANISSON, C. ; KRACIK, M. S. ; FRANZONI, A. M. B.	B5	
artigoEmPeriodico	2016	http://dx.doi.org/10.20946/rad.v18i3.25287	Metodologias de Gestão de Projetos de Inovação: Uma Análise Bibliométrica sobre a Produção Científica Relacionada	REVISTA ADMINISTRAÇÃO EM DIÁLOGO - RAD	GUERRA, SARAH DE REZENDE ; BILESSIMO, SIMONE MEISTER SOMMER ; Freire, Patricia de Sá ; GRUBER, VILSON ; SILVA, SOLANGE MARIA DA	B2	
artigoEmPeriodico	2016		O capital intelectual como criação de valor em incubadora de empresas: análise bibliométrica e estudo de caso	Revista Mundi Engenharia, Tecnologia e Gestão	INOMATA, D. O. ; MACHADO, E. ; FOLLMAN, N. ; VARVAKIS, G.	Qualis nao identificado	Revista Mundi Engenharia, Tecnologia e Gestão
artigoEmPeriodico	2016		Modelo conceitual para criação, aplicação e avaliação de jogos educativos digitais	RENOTE. REVISTA NOVAS TECNOLOGIAS NA EDUCAÇÃO	JAPPUR, R. F. ; SPANHOL, F. J. ; FORCELINI, F. A.	B3	
artigoEmPeriodico	2016		A Educação Profissional Técnica de Nível Médio na modalidade EaD: Realizações e Perspectivas da Rede e-Tec Brasil	Poiesis	KASSICK, C. N. ; CATAPAN, ARACI HACK	B3	
artigoEmPeriodico	2016		Gestão de portfólio de projetos como suporte a tomada de decisões de investimento em iniciativas de corporate venture capital	Navus Revista de Gestão e Tecnologia	LARA, A. P. ; CARNEIRO, M. R. ; DANDOLINI, G. A. ; SOUZA, João Artur de	B5	
artigoEmPeriodico	2016		Grafite: Mídia e Conhecimento em Interlocução Psicanalítica	Razón y Palabra	LIMA, T. A. A. ; SCHMIEGELOW, S. S. ; SOUSA, J. G. N. ; Perassi, R.	B1	
artigoEmPeriodico	2016		The Four Dimensions of Knowledge: Cognitive, Connectionist, Autopoietic and Integral. Advancing the Understanding Learning.	IOSR Journal of Humanities and Social Science (IOSR-JHSS)	MACHADO, A. B. ; FIALHO, F. A. P. ; MOUSSA, D. F.	Qualis nao identificado	IOSR Journal of Humanities and Social Science (IOSR-JHSS)
artigoEmPeriodico	2016		Bibliometria sobre concepção de habitats de inovação	Navus Revista de Gestão e Tecnologia	MACHADO, A. B. ; SILVA, A. R. L. da ; CATAPAN, A. H.	B5	
artigoEmPeriodico	2016		Comunicando digitalmente na Educação a Distância	Paidéi@ (Santos)	MACHADO, A. B. ; SILVA, A. R. L. da ; CATAPAN, A. H.	Qualis nao identificado	Paidéi@ (Santos)
artigoEmPeriodico	2016		A codificação do Código de Trânsito Brasileiro para o sistema de representação de ultrapassagem de acordo com a segunda tricotomia da análise semiótica de Peirce.	Revista da Universidade Vale do Rio Verde	MACHADO, A. B. ; TRUPPEL FILHO, J. O. ; LOPES, L. D. ; Perassi, R.	B3	
artigoEmPeriodico	2016	http://dx.doi.org/10.5892/ruvrd.v14i2.2976	AS QUATRO DIMENSÕES DO CONHECIMENTO: cognitivista, conexionista, autopoetico e integral - Avançando na compreensão sobre a aprendizagem	Revista da Universidade Vale do Rio Verde	MACHADO, ANDREIA DE BEM ; FIALHO, FRANCISCO ANTONIO	B3	
artigoEmPeriodico	2016	http://dx.doi.org/10.5585/iji.v4i1.71	Análise da influência do capital estrutural no sucesso de startups incubadas: uma pesquisa com 21 empreendedores	International Journal of Innovation	MACHADO, E. ; SELIG, P. M. ; FOLLMANN, N ; CASAROTTO FILHO, N.	A2	International Journal of Innovation and Sustainable Development
artigoEmPeriodico	2016		O triplo desafio da inovatividade: o impacto do preconceito	e-Revista LOGO	MANHAES, M. C. ; VARVAKIS, G. ; VANZIN, Tarcisio.	C	
artigoEmPeriodico	2016		Um estudo de qualidade de serviço em ambientes SDN	Revista Junior de Iniciação Científica em Ciências Exatas e Engenharia	MARTINS, D. ; SILVA, Madalena Pereira da ; DANTAS, M. A. R.	C	
artigoEmPeriodico	2016		Análise da produção científica sobre os temas accountabilitye e-government. Democracia Digital e Governo Eletrônico	Democracia Digital e Governo Eletrônico	MARTINS, P. P. ; SANTOS, V. ; SELL, D. ; BASTOS, R. C.	B5	
artigoEmPeriodico	2016		A SALA DE AULA INVERTIDA COMO MODELO PARA APRENDIZAGEM COLABORATIVA: FERRAMENTAS E POSSIBILIDADES NA EDUCAÇÃO SUPERIOR	CRIAR EDUCAÇÃO REVISTA DO PROGRAMA DE PÓS-GRADUAÇÃO EM EDUCAÇÃO UNESC	Mazon, Marcelo ; SOUZA, M. V. ; SPANHOL, F. J.	Qualis nao identificado	CRIAR EDUCAÇÃO REVISTA DO PROGRAMA DE PÓS-GRADUAÇÃO EM EDUCAÇÃO UNESC
artigoEmPeriodico	2016		Análise das Representações Gráficas da Teoria da Atividade em Periódicos Internacionais	Infodesign (SBDI. Online)	Mazzarotto, Marco André ; ULBRICHT, V. R. ; CARLA G. SPINILLO	B2	
artigoEmPeriodico	2016		Reflexões sobre o momento atual da ciência	Razón y Palabra	MEDEIROS, D. O. ; FIALHO, F. A. P.	B1	
artigoEmPeriodico	2016		Ontologia da linguagem e matriz de conhecimento em sistemas hipermídias adaptativos	Revista Memorare	MELLO, B. E. ; Todesco, José Leomar	Qualis nao identificado	Revista Memorare
artigoEmPeriodico	2016	http://dx.doi.org/10.1166/asl.2016.7976	Usability Analysis of Multimodal Interface Human-Computer Interaction Based on Artificial Voice	ADVANCED SCIENCE LETTERS	MELO, LEONARDO ROZA ; OLIVEIRA, ALINE CRISTINA ANTONELI DE ; FAGUNDES, PRISCILA BASTO ; BALDESSAR, MARIA JOSÉ ; SCHMITZ, LUCIANA	B1	
artigoEmPeriodico	2016	http://dx.doi.org/10.1109/RITA.2016.2554038	Learning Object Metadata Mapping With Learning Styles as a Strategy for Improving Usability of Educational Resource Repositories	IEEE-RITA	MENDEZ, NESTOR D. DUQUE ; MORALES, VALENTINA TABARES ; VICARI, ROSA M.	B2	
artigoEmPeriodico	2016		Acessibilidade em Portais de Governo Eletrônico do Poder Judiciário	Infodesign (SBDI. Online)	MEZZAROBA, M. P. ; ALMEIDA, T. C. ; ULBRICHT, Vania Ribas ; Vanzin, Tarcisio ; FADEL, L.	B2	
artigoEmPeriodico	2016		CULTURA E IDENTIDADE: A INTELIGÊNCIA ASTUCIOSA E OS MITOS	Revista Memorare	MOUSSA, D. F. ; FIALHO, FRANCISCO ANTONIO PEREIRA	Qualis nao identificado	Revista Memorare
artigoEmPeriodico	2016		A ADOÇÃO DO LIVRO DIDÁTICO ELETRÔNICO PARA DISPOSITIVOS MÓVEIS NA EDUCAÇÃO SUPERIOR A DISTÂNCIA: MOTIVAÇÕES, DIFICULDADES E ESTRATÉGIAS DE CONTORNO	RENOTE. Revista Novas Tecnologias na Educação	MULBERT, A. L. ; PEREIRA, A. T. C.	B3	
artigoEmPeriodico	2016		A memória humana como objeto de pesquisa: Uma lacuna do conhecimento interdisciplinar a ser explorada	Revista Memorare	MULLER, J. M. ; FIALHO, F. A. P. ; FREIRE, P. S.	Qualis nao identificado	Revista Memorare
artigoEmPeriodico	2016		A MEMÓRIA HUMANA COMO OBJETO DE PESQUISA: UMA LACUNA DO CONHECIMENTO INTERDISCIPLINAR A SER EXPLORADA	Revista Memorare	MULLER, J. M. ; FREIRE, P. S. ; FIALHO, FRANCISCO ANTONIO PEREIRA	Qualis nao identificado	Revista Memorare
artigoEmPeriodico	2016		ANTROPOLOGIA E ADMINISTRAÇÃO: UM DIÁLOGO POSSÍVEL A PARTIR DO CAPITAL DE INOVAÇÃO SOCIAL	Revista Memorare	NEVES, M. L. C. ; FIALHO, FRANCISCO ANTONIO PEREIRA	Qualis nao identificado	Revista Memorare
artigoEmPeriodico	2016		Sustentabilidade e Educação Ambiental na concepção da Enciclica Laudato SI'	Mix Sustentável	NEVES, M. L. C. ; Perassi, R. ; FIALHO, F. A. P.	Qualis nao identificado	Mix Sustentável
artigoEmPeriodico	2016	http://dx.doi.org/10.21723/riaee.v11.n4.8151	Integração Tecnológica na educação básica pública brasileira: uma análise sobre a evolução temporal e a interdisciplinaridade do tema	REVISTA IBERO-AMERICANA DE ESTUDOS EM EDUCAÇÃO	NICOLETE, PRISCILA CADORIN ; BILESSIMO, SIMONE MEISTER SOMMER ; FREIRE, PATRICIA DE SA ; SILVA, JUAREZ BENTO DA ; CRISTIANO, MARTA ADRIANA DA SILVA	B1	
artigoEmPeriodico	2016		La PYME dinámica: estrategias para competir en tiempos turbulentos	Economía Industrial	NORTH, K. ; VARVAKIS, G.	Qualis nao identificado	Economía Industrial
artigoEmPeriodico	2016	http://dx.doi.org/10.4236/ce.2016.73053	Focal Group Technique: Overcoming Normality Standards While Comprehending Inclusive Learning	Creative Education	OBREGON, ROSANE DE F. A. ; Vanzin, Tarcisio ; ULBRICHT, VÂNIA R.	B1	
artigoEmPeriodico	2016		Segurança alimentar e mudanças climáticas em Santa Catarina: Perspectivas futuras	Espacios (Caracas)	OLIVEIRA, J. H. K. ; ANTONIO, F. R. ; GOUVÊA, C. A. K. ; MACEDO, M.	B1	
artigoEmPeriodico	2016		LEARNING MANAGEMENT SYSTEMS (LMS) AND E-LEARNING MANAGEMENT: AN INTEGRATIVE REVIEW AND RESEARCH AGENDA	Revista de Gestão da Tecnologia e Sistemas de Informação (Online)	OLIVEIRA, P. C. ; CUNHA, CRISTIANO JOSÉ CASTRO DE ALMEIDA ; NAKAYAMA, M. K.	B1	
artigoEmPeriodico	2016		A gestão de serviços de tecnologia da informação no contexto de educação a distância: um estudo empírico	Revista Brasileira de Informática na Educação - RBIE	OLIVEIRA, P. C. ; TORRES, M. K. L. ; NUNES, C. S. ; NAKAYAMA, M. K.	B1	Revista Brasileira de Informática na Educação
artigoEmPeriodico	2016		Reflexões sobre moda e sociedade em tempos de consumo ecológico	Competência - Revista da Educação Superior do Senac-RS	OURIQUES, D. ; Perassi, R.	Qualis nao identificado	Competência - Revista da Educação Superior do Senac-RS
artigoEmPeriodico	2016	http://dx.doi.org/10.1016/j.ecoleng.2016.06.036	Is mangrove planting insufficient for benthic macrofaunal recovery when environmental stress is persistent?	Ecological Engineering	PAGLIOSA, PAULO R. ; OORTMAN, MARIANA S. ; ROVAI, ANDRÉ S. ; SORIANO-SIERRA, EDUARDO J.	A2	
artigoEmPeriodico	2016		Práticas de gestão do conhecimento: Estudo de Caso do Pré-Fórum de Práticas Docentes da Estácio de Santa Catarina	Espacios (Caracas)	PANISSON, C. ; KRACIK, M. S. ; RIZZATTI, G. ; FRANZONI, A. M. B.	B1	
artigoEmPeriodico	2016	http://dx.doi.org/10.5195/biblios.2016.283	Inovação em serviços de informação: uma análise bibliométrica da produção científica	Biblios (Lima)	PASSOS, KETRY GORETE FARIAS DOS ; PINTRO, SIRLENE ; FRAGA, BRUNA DEVENS ; DANDOLINI, GERTRUDES APARECIDA ; SOUZA, João Artur de ; VARVAKIS, GREGÓRIO JEAN	B2	
artigoEmPeriodico	2016		Marcas gráficas: evolução estética e sensorialidade	Revista Educação Gráfica	Perassi, R.; BRAGLIA, I. A. ; ROSUMEK, G. B.	Qualis nao identificado	Revista Educação Gráfica
artigoEmPeriodico	2016		Revista Digital Expressão Gráfica: exercício e vitrine de Design e Animação	REVISTA BRASILEIRA DE EXPRESSÃO GRÁFICA	Perassi, R.; CASTRO, L. P. S. ; MENEGAZZI, D. L.	Qualis nao identificado	REVISTA BRASILEIRA DE EXPRESSÃO GRÁFICA
artigoEmPeriodico	2016		Marcas do inconsciente: grafite, psicanálise e possíveis interlocuções	Visualidades (UFG)	Perassi, R.; LIMA, T. A. A.	B1	
artigoEmPeriodico	2016		A função do personagem central em um infográfico educativo	Revista Memorare	Perassi, R.; NEVES, M. L. C.	Qualis nao identificado	Revista Memorare
artigoEmPeriodico	2016		A Comunicação da marca Dove e o feminino na Psicanálise	Razón y Palabra	Perassi, R.; SCHMIEGELOW, S. S. ; LIMA, T. A. A.	B1	
artigoEmPeriodico	2016		Gestão de pessoas e o processo de recompensar a motivação dos funcionários: estudo de caso do setor metalúrgico	Pensamento & Realidade	PERRARO, J. ; VIEIRA, A. C. P. ; FREIRE, P. S. ; ZILLI, J. C. F. ; VOLPATO, D.	B3	
artigoEmPeriodico	2016		Inteligência Competitiva e Ciência da Informação: conexões epistemológicas para tomada de decisão nas organizações	Em Questão	PINTRO, S. ; VIANNA, W. B. ; VARVAKIS, G.	B1	
artigoEmPeriodico	2016		ARQUITETURA REGENERATIVA: O ENSINO E APRENDIZAGEM PARA UMA NOVA CONCEPÇÃO EM ARQUITETURA	Travessias (UNIOESTE. Online)	PIRES, J. F. ; SILVEIRA, C. E. ; Francisco Antonio FIALHO	B4	
artigoEmPeriodico	2016		Como a web de dados pode apoiar o processo de inteligência competitiva	Perspectivas em Gestão & Conhecimento	PIZZOL, L. D. ; Todesco, José Leomar ; TODESCO, Bernardo P. R.	B1	
artigoEmPeriodico	2016		CONVERSÃO DO CONHECIMENTO INDIVIDUAL EM ORGANIZACIONAL: DESAFIOS PARA AS INSTITUIÇÕES DE ENSINO SUPERIOR	Pensamento & Realidade	PRIM, M. A. ; BUCHELE, G. T. ; DANDOLINI, G. A. ; CUNHA, C. J. C. A.	B3	
artigoEmPeriodico	2016		Mídia e ação social na página Facebook do movimento ?passe livre? em Florianópolis	REVISTA GEMInIS	QUINAUD, A. L. ; OLIVEIRA, A. A. ; BALDESSAR, M. J. ; Perassi, R.	B3	
artigoEmPeriodico	2016		A aplicação da NBR ISO 20121 na gestão da sustentabilidade em eventos: o fortalecimento da marca por meio da produção de eventos mais sustentáveis em Santa Catarina	CRIAR EDUCAÇÃO Revista do Programa de Pós-Graduação em Educação UNESC	RANZAN, E. M. ; MAURICIO, A. L. ; Perassi, R.	Qualis nao identificado	CRIAR EDUCAÇÃO Revista do Programa de Pós-Graduação em Educação UNESC
artigoEmPeriodico	2016		Avaliação da cultura inovadora empresarial ? Um estudo de caso	Espacios (Caracas)	RECH, I. ; TURECK, B. G. B. ; OLIVEIRA, D. C. ; SCHLEMMER, A. ; FREITAS FILHO, F. L. ; DANDOLINI, G. A.	B1	
artigoEmPeriodico	2016		Análise de uma interface de landing page a partir dos princípios de usabilidade visual: aplicação de teste A/B	REVISTA EDUCAÇÃO GRÁFICA	REGINATO, B. R. ; GONÇALVES, B. S. ; PEREIRA, A. T. C.	Qualis nao identificado	REVISTA EDUCAÇÃO GRÁFICA
artigoEmPeriodico	2016		Impacto do planejamento estratégico em incubação de empresas - Um estudo de caso na ITfetep	Espacios (Caracas)	REZENDE, Mauricio Seiji Cesar ; TSCHOEKE, Osvalmir ; ZACARKIM, V. ; ALVES, João Bosco da Mota ; TEIXEIRA, Clarissa Stefani ; MACEDO, Marcelo	B1	
artigoEmPeriodico	2016		Vínculos externos no front end da inovação	Revista de Empreendedorismo, Negócios e Inovação	ROCHADEL, W. ; VALDATI, A. B. ; DANDOLINI, GERTRUDES APARECIDA ; SOUZA, João Artur de	Qualis nao identificado	Revista de Empreendedorismo, Negócios e Inovação
artigoEmPeriodico	2016		Estudo de Localização de Áreas de Descanso: análise de aplicabilidade do Método LabTrans de Gestão do Conhecimento em Documentos de Projetos de Engenharia Civil.	Espacios (Caracas)	SANTOS, A. V. ; VALENTE, A. M. ; MARQUES, D. ; FREIRE, P. S. ; ESPINDOLA, V.	B1	
artigoEmPeriodico	2016		Implementação de um Sistema de Informações Prediais como Apoio ao Gerenciamento Interno e à Tomada de Decisão nas Áreas de Infraestrutura	RBC. Revista Brasileira de Cartografia (Online)	SANTOS, J. V. ; BOING, B. ; ZIMMERMANN, C. C. ; BASTOS, L. C. ; HIGASHI, R.	B1	
artigoEmPeriodico	2016	http://dx.doi.org/10.1590/1981-5344/2523	Knowledge representation through ontologies: an application in the electronic democracy field	Perspectivas em Ciência da Informação (Online)	SANTOS, PALOMA MARIA ; ROVER, Aires José	B1	
artigoEmPeriodico	2016	http://dx.doi.org/10.1590/s1679-875920160919064sp2	Climate changes in mangrove forests and salt marshes	Brazilian Journal of Oceanography (Online)	SCHAEFFER-NOVELLI, YARA ; SORIANO-SIERRA, EDUARDO JUAN ; VALE, CLAUDIA CÂMARA DO ; BERNINI, ELAINE ; ROVAI, ANDRÉ SCARLATE ; PINHEIRO, MARCELO ANTONIO AMARO ; SCHMIDT, ANDERS JENSEN ; ALMEIDA, RENATO DE ; COELHO JÚNIOR, CLEMENTE ; MENGHINI, RICARDO PALAMAR ; MARTINEZ, DIEGO IGAWA ; ABUCHAHLA, GUILHERME MORAES DE OLIVEIRA ; CUNHA-LIGNON, MARÍLIA ; CHARLIER-SARUBO, SARAH ; SHIRAZAWA-FREITAS, JUSSARA ; CINTRÓN-MOLERO, GILBERTO	B1	
artigoEmPeriodico	2016		Social value as a marketing strategy in a brazilian credit union	Perspectivas Contemporâneas	SCHARF, E. R. ; GEHRKE, G. ; Perassi, R.	B2	
artigoEmPeriodico	2016		A experiência e mais dez: uma estratégia para vencer na Champions League	Gestão & Regionalidade (Online)	SCHARF, E. R. ; Perassi, R. ; SARQUIS, A. B. ; BELZ, E.	B3	
artigoEmPeriodico	2016		Inovação, empreendedorismo e universidades no Programa de Pós-graduação em Engenharia e Gestão do Conhecimento da Universidade Federal de Santa Catarina	International Journal of Knowledge Engineering and Management	SCHMITZ, A. ; ROCHADEL, W. ; SOUZA, J. A. ; DANDOLINI, G. A. ; GONÇALVES, Alexandre L.	B4	
artigoEmPeriodico	2016		Inovação, Empreendedorismo e Universidades no Programa de Pós-Graduação em Engenharia e Gestão do Conhecimento da Universidade Federal de Santa Catarina	International Journal of Knowledge Engineering and Management	SCHMITZ, Ademar ; ROCHADEL, W. ; SOUZA, João Artur de ; DANDOLINI, G. A. ; GONÇALVES, A. L.	B4	
artigoEmPeriodico	2016	http://dx.doi.org/10.1007/s11365-016-0401-z	Innovation and entrepreneurship in the academic setting: a systematic literature review	International Entrepreneurship and Management Journal	SCHMITZ, Ademar ; URBANO, DAVID ; DANDOLINI, GERTRUDES APARECIDA ; DE SOUZA, JOÃO ARTUR ; GUERRERO, MARIBEL	Qualis nao identificado	International Entrepreneurship and Management Journal
artigoEmPeriodico	2016		Informação, conhecimento e memória organizacional: mapeamento da produção científica	Revista ACB (Florianópolis)	SCHWEITZER, F. ; VARVAKIS, G.	B2	
artigoEmPeriodico	2016		Knowledge Waste	Navus Revista de Gestão e Tecnologia	SELIG, PAULO MAURÍCIO; FERENHOF, H. A.	B5	
artigoEmPeriodico	2016		Conhecimento de Sintaxe Visual aplicado ao Design de jogos digitais Independentes	Revista Design & Tecnologia	SENA, S. ; Perassi, R.	B3	
artigoEmPeriodico	2016		Aprendizagem baseada em jogos digitais: a contribuição dos jogos epistêmicos na geração de novos conhecimentos.	RENOTE. Revista Novas Tecnologias na Educação	SENA, S. ; SCHMIEGELOW, S. S. ; PRADO, G. M. B. C. ; Perassi, R. ; FIALHO, F. A. P.	B3	
artigoEmPeriodico	2016		PERSONA: CONSTRUÇÃO DE PERSONAGENS COM BASE NA PSICOLOGIA ARQUETÍPICA	projetica	SENNA, C. E. ; FIALHO, F. A. P.	B5	
artigoEmPeriodico	2016		Avaliação do modelo nacional de interoperabilidade do Poder Judiciário brasileiro	Revista Pensar	SEWALD JUNIOR, Egon ; SILVEIRA, L. ; ROVER, Aires José	Qualis nao identificado	Revista Pensar
artigoEmPeriodico	2016		Gestão de produção de instrumentos avaliativos para EaD: uma ação multidisciplinar	TICs e EaD em Foco	SILVA, A. R. L. da ; DIANA, J. B. ; SPANHOL, F. J.	Qualis nao identificado	TICs e EaD em Foco
artigoEmPeriodico	2016		Production Management of Evaluation Instruments for Distance Education	IOSR Journal of Research & Method in Education (IOSR-JRME)	SILVA, A.R.L. ; DIANA, J. B. ; SPANHOL, F. J.	Qualis nao identificado	IOSR Journal of Research & Method in Education (IOSR-JRME)
artigoEmPeriodico	2016		Didactic Material Production Management	US-China Education Review. A	SILVA, A.R.L. ; MACHADO, A. B. ; SPANHOL, FERNANDO JOSÉ	B2	
artigoEmPeriodico	2016	http://dx.doi.org/10.18227/2237-8057rarr.v6i2.3179	Reflexões acerca da experiência vivida na universidade: a transição de líder para contribuidor individual	Revista de Administração de Roraima - RARR	SILVA, FABIULA MENEGUETE VIDES DA ; CUNHA, CRISTIANO JOSÉ CASTRO DE ALMEIDA	B4	
artigoEmPeriodico	2016	http://dx.doi.org/10.19132/1808-5245222.140-164	O sistemismo de Bunge como base teórica e metodológica para pesquisa em Ciência da Informação	Em Questão	SILVA, Luciana Mara ; VIANNA, William Barbosa ; KERN, Vinícius Medina	B1	
artigoEmPeriodico	2016		Autonomic Quality of Experience Management of Software-Defined Networks	Revue des Nouvelles Technologies de l'information	SILVA, Madalena Pereira da ; DANTAS, M. A. R. ; GONCALVES, A. L.	Qualis nao identificado	Revue des Nouvelles Technologies de l'information
artigoEmPeriodico	2016	http://dx.doi.org/10.5380/dma.v36i0.41879	O processo de implementação do Projeto Orla em Itapema, Santa Catarina - Brasil	Desenvolvimento e Meio Ambiente (UFPR)	SILVA, MARIA EMÍLIA MARTINS DA ; SORIANO-SIERRA, EDUARDO JUAN	B1	
artigoEmPeriodico	2016		Learning Objects Recommendation System: Issues And Approaches For Retrieving, Indexing And Recomend Learning Objects	Advances in Distributed Computing and Artificial Intelligence Journal	SILVEIRA, R. A.; Comarella, Rafaela Lunardi ; Campos, Ronaldo Lima Rocha ; Vian, Jonas ; PRIETA, F. L.	Qualis nao identificado	Advances in Distributed Computing and Artificial Intelligence Journal
artigoEmPeriodico	2016	http://dx.doi.org/10.14201/ADCAIJ2015435786	Towards a Model of Open and Reliable Cognitive Multiagent Systems: Dealing with Trust and Emotions	Advances in Distributed Computing and Artificial Intelligence Journal	Silveira, R.A.; BITENCOURT, G. K. S. ; GELAIM, T. A. ; MARCHI, J. ; PRIETA, F. L.	Qualis nao identificado	Advances in Distributed Computing and Artificial Intelligence Journal
artigoEmPeriodico	2016		O compartilhamento de conhecimento em organizações apícolas: uma análise qualitativa em organizações sul-mato-grossenses	Navus Revista de Gestão e Tecnologia	SORDI, V. F. ; BINOTTO, E. ; NAKAYAMA, M. K.	B5	
artigoEmPeriodico	2016		As pequenas ilhas do arquipélago de Santa Catarina, Brasil	Revista Internacional em Lingua Portuguesa	SORIANO-SIERRA, E. J	Qualis nao identificado	Revista Internacional em Lingua Portuguesa
artigoEmPeriodico	2016		COMUNICAÇÃO, CONSUMO E O ARQUÉTIPO DA GRANDE-MÃE: A MATERNIDADE NA PERSPECTIVA DAS MARCAS	Revista Memorare	SOUZA, F. M. ; FIALHO, FRANCISCO ANTONIO PEREIRA	Qualis nao identificado	Revista Memorare
artigoEmPeriodico	2016		Revisão Sistemática de Literatura sobre Indicadores da Inovação Regional	Espacios (Caracas)	SPERONI, R. ; MACEDO, M. ; GAUTHIER, F. A. O.	B1	
artigoEmPeriodico	2016		Modelo de Referência para Indicadores de Inovação Regional	Espacios (Caracas)	SPERONI, R. ; MACEDO, M. ; GAUTHIER, F. A. O.	B1	
artigoEmPeriodico	2016		Análise do trabalho - definição, usos e métodos de realização	Psicologia em Estudo (Online)	STEIL, A. V.; GARCIA, C. E.	A2	
artigoEmPeriodico	2016	http://dx.doi.org/10.17652/rpot/2016.1.542	Antecedentes da retenção de pessoas em organizações: Uma revisão de literatura	Revista Psicologia: Organizações e Trabalho	STEIL, A. V.; PENHA, M. M. ; BONILLA, M. A. M.	B2	
artigoEmPeriodico	2016		Mapeamento de competências baseado em análise de agrupamentos	Revista Tecnologia e Sociedade	SÉRGIO, M. C. ; GONÇALVES, Alexandre L. ; SOUZA, J. A.	B2	
artigoEmPeriodico	2016		REPRESENTAÇÃO DO DOMÍNIO DE CONHECIMENTO ACADÊMICO E UMA TEORIA DE REPRESENTAÇÃO: A ONTOLOGIA DE FUNDAMENTAÇÃO UNIFICADA	International Journal of Knowledge Engineering and Management	SÉRGIO, M. C. ; SILVA, T. do N. da ; GONÇALVES, A. L.	B4	
artigoEmPeriodico	2016	http://dx.doi.org/10.19132/1808-5245222.87-113	Descoberta de Conhecimento a partir de informações não estruturadas por meio de técnicas de correlação e associação	Em Questão	SÉRGIO, MARINA CARRADORE ; DA SILVA, THALES DO NASCIMENTO ; Gonçalves, Alexandre Leopoldo	B1	
artigoEmPeriodico	2016		Spirituality in organizations?	Organizações & Sociedade (Impresso)	TECCHIO, E. ; BESEN, F. ; CUNHA, C. J. C. A.	A2	
artigoEmPeriodico	2016		O Processo de Revitalização Urbana: Economia Criativa e Design	e-Revista LOGO	TEIXEIRA, Clarissa Stefani; PIQUE, Josep Miquel ; ADAN, Carmen ; GASPAR, Jadhi Vincki	C	
artigoEmPeriodico	2016		Analysis of quantitative empirical papers on diffusion and adoption of methods, techniques and tools for innovation	RAI : Revista de Administração e Inovação	Teza, P. ; BUCHELE, G. T. ; DANDOLINI, G. A. ; SOUZA, João Artur de	B1	
artigoEmPeriodico	2016	http://dx.doi.org/10.1590/0104-530x1454-14	Ideias para a inovação: um mapeamento sistemático da literatura	Gestão & Produção	Teza, P. ; MIGUEZ, V. B. ; FERNANDES, R. F. ; DANDOLINI, G. A. ; SOUZA, J. A.	Qualis nao identificado	Gestão & Produção
artigoEmPeriodico	2016		Características e Comportamentos de Empreendedores no Estado de Santa Catarina	REGMPE	TORQUATO, M. ; LAPOLLI, É. M.	Qualis nao identificado	REGMPE
artigoEmPeriodico	2016		SOLUÇÕES DE GESTÃO DO CONHECIMENTO PARA PEQUENAS E MEDIAS EMPRESAS	Perspectivas em Gestão & Conhecimento	TRINDADE, E. P. ; MACEDO, M. ; GAUTHIER, F. A. O. ; BOTELHO, L. ; Labiak Jr, S.	B1	
artigoEmPeriodico	2016		MINDFUL LEADERSHIP: UMA DÉCADA DE ABORDAGENS IDENTIFICADAS EM PUBLICAÇÕES ACADÊMICAS	International Journal of Knowledge Engineering and Management	UENO, A. T. ; CUNHA, C. J. C. A.	B4	
artigoEmPeriodico	2016		Inteligência para Competitividade: O Papael do Conhecimento na Identificação de Oportunidades de Inovação	Revista Inteligência Competitiva	UENO, A. T. ; SANTOS, N. ; DANDOLINI, G. A.	Qualis nao identificado	Revista Inteligência Competitiva
artigoEmPeriodico	2016		Serviço de informação como fator de vantagem competitiva nas organizações	Biblios (Lima)	VARVAKIS, G.; INOMATA, D. O. ; TRZECIAK, D. S. ; MANHAES, M. C.	B2	
artigoEmPeriodico	2016		Maturity Assessment Model of Intellectual Capital for Manufacturing Organization	Revista IEEE América Latina	VAZ, C. R. ; SELIG, PAULO MAURICIO	B1	
artigoEmPeriodico	2016	http://dx.doi.org/10.1016/j.jclepro.2016.02.106	Critical attributes of Sustainability in Higher Education: a categorisation from literature review	Journal of Cleaner Production	VIEGAS, Cláudia V. ; BOND, ALAN J. ; VAZ, CAROLINE R. ; BORCHARDT, MIRIAM ; PEREIRA, GIANCARLO MEDEIROS ; SELIG, PAULO M. ; VARVAKIS, Gregório	A1	
artigoEmPeriodico	2016	http://dx.doi.org/10.7198/S2237-0722201600010013	VALES DA UVA GOETHE: UMA ANÁLISE DO PROCESSO DE INSTITUCIONALIZAÇÃO DA INDICAÇÃO GEOGRÁFICA PARA O DESENVOLVIMENTO SOCIOECONOMICO	Revista GEINTEC: gestao, inovacao e tecnologias	VIEIRA, A. C. P. ; JENOVEVA NETO, R. ; FREIRE, P. S. ; ZILLI, J. C.	B4	
artigoEmPeriodico	2016		Revisão sistemática sobre os modelos mentais de equipe como forma de cognição coletiva	Ciências & Cognição (UFRJ)	Wessling, C. B. ; STEIL, A. V. ; SILVA, N.	B2	
artigoEmPeriodico	2016		Compartilhamento do conhecimento em uma empresa pública brasileira	Espacios (Caracas)	WILBERT, J. K. W. ; DUARTE, K. B. ; KRAUSE, M. G. ; Mallmann, M. L. ; DANDOLINI, G. A. ; SOUZA, João Artur de ; LAPOLLI, Édis Mafra	B1	
artigoEmPeriodico	2016		O PERFIL EMPREENDEDOR DOS LÍDERES DAS EMPRESAS DE BASE TECNOLÓGICA: um estudo sobre a área de tecnologia educacional na região metropolitana de Florianópolis	Pensamento & Realidade	WILLERDING, I. A. V. ; FELICIANO, A. M. ; SOUZA, V. B. ; GOMES JR, W. V. ; LAPOLLI, É. M.	B3	
artigoEmPeriodico	2016		GESTÃO DE PESSOAS E GESTÃO DO CONHECIMENTO À LUZ DA ESTÉTICA ORGANIZACIONAL	PERSPECTIVAS EM GESTÃO & CONHECIMENTO	WILLERDING, I. A. V. ; KRAUSE, M. G. ; LAPOLLI, É. M.	B1	
artigoEmPeriodico	2016	http://dx.doi.org/10.19177/reen.v9e22016134-165	STRATEGIC MANAGEMENT FOR SUSTAINABLE DEVELOPMENT AND THE ORGANIZATIONAL AESTHETIC PERSPECTIVE	REVISTA ELETRÔNICA DE ESTRATÉGIA & NEGÓCIOS	WILLERDING, INARA ANTUNES VIEIRA ; SILVEIRA, ANA CLARA MEDEIROS ; BERCHIN, ISSA IBRAHIM ; LAPOLLI, ÉDIS MAFRA ; ANDRADE GUERRA, JOSÉ BALTAZAR SALGUEIRINHO OSÓRIO DE	B3	
artigoEmPeriodico	2016	http://dx.doi.org/10.1590/0100-67622016000300004	PROPOSITION AND EVALUATION OF NATIVE VEGETATION RECOVERING INDEX (NVRI) OF RURAL PROPERTY	Revista Árvore (Online)	WOLLMANN, LAURO MARINO ; BASTOS, LIA CAETANO	B1	
artigoEmPeriodico	2016		A inovação na perspectiva de uma Instituição de Ciência e Tecnologia: Um olhar sobre o Núcleo de Inovação Tecnológica	Espacios (Caracas)	ZANDAVALLI, C. ; SANTOS, Diego dos ; MELLO, Marta Inês Caldart ; PICHETTI, Roni Francisco ; TEIXEIRA, Clarissa Stefani ; MACEDO, Marcelo	B1	
artigoEmPeriodico	2016	http://dx.doi.org/10.4067/S0718-27242016000400006	Tax Incentives for Innovation in Brazil: Obstacles for Use of the Good Law (Law 11.196/2005)	Journal of Technology Management & Innovation	ZIMMER, PALOMA ; MITSUÊ IATA, CRISTIANE ; ARTUR DE SOUZA, JOÃO ; CASTRO DE ALMEIDA CUNHA, CRISTIANO JOSÉ	A2	
trabalhoCompletoEmCongresso	2016		The innovation teacher - towards a conceptual frameworks to systemically integrate an idea in context	Conbgresso Internacional de Conocimento e Innovación	ABDALA, Lucas Novelino ; SCHREINER, Tatiana ; HAMAD, Aldrwin Farias ; TEIXEIRA, Clarissa Stefani ; COSTA, Eduardo Moreira		
trabalhoCompletoEmCongresso	2016		A INDÚSTRIA PELA EDUCAÇÃO?: A EDUCAÇÃO CORPORATIVA NAS INDÚSTRIAS CATARINENSES E SUA RELAÇÃO COM O MODELO UNIVERSIDADE CORPORATIVA EM REDE	XXVII ENANGRAD - Encontro Nacional dos Cursos de Graduação em Administração	AIRES, R. W. A. ; FREIRE, P. S.		
trabalhoCompletoEmCongresso	2016		EDUCAÇÃO CORPORATIVA COMO FERRAMENTA PARA ESTIMULAR A INOVAÇÃO NAS ORGANIZAÇÕES: UMA REVISÃO DE LITERATURA	13o. Congresso Brasileiro em Gestão do Conhecimento - KM Brasil	AIRES, R. W. A. ; FREIRE, P. S. ; DE SOUZA, JOÃO ARTUR		
trabalhoCompletoEmCongresso	2016		Educação Corporativa Como Ferramenta Para Estimular A Inovação Nas Organizações: Uma Revisão de Literatura	KMBRASIL	AIRES, R. W. A. ; FREIRE, P. S. ; SOUZA, J. A.		
trabalhoCompletoEmCongresso	2016		A Comunicação dos Parques Científicos Tecnológicos Brasileiros	Congresso Nacional de Inovação e Tecnologia	ALMEIDA, Carla Gabbi ; TEIXEIRA, Clarissa Stefani		
trabalhoCompletoEmCongresso	2016		Oportunidades de desenvolvimento de liderança no nível de equipes	VI Congreso Internacional de Conocimiento e Innovación	ALVAREZ, A. M. O. ; CUNHA, CRISTIANO JOSÉ CASTRO DE ALMEIDA ; STEIL, A. V.		
trabalhoCompletoEmCongresso	2016		Análise Comparativa dos Bancos Orientados a Grafos de Primeira e Segunda Geração - Uma Aplicação na Análise Social	XII Simpósio Brasileiro de Sistemas de Informação	ALVAREZ, G. M. ; CECI, F. ; GONÇALVES, A. L.		
trabalhoCompletoEmCongresso	2016	http://dx.doi.org/10.1109/ISCC.2016.7543852	Quality of Context and Grid Computing: an User Satisfaction and System Performance Trade Off Model	21st IEEE Symposium on Computers and Communications (ISCC)	AMATO, ANDRE LUIZ TINASSI D' ; DANTAS, M. A. R.		
trabalhoCompletoEmCongresso	2016		Ações de Investimentos em Florianópolis: Uma Análise dos Atores que Realizam a Integração entre Investidores e Empreendedores	Congresso Nacional de Inovação e Tecnologia	AMORIM, Yuri Soares ; TEIXEIRA, Clarissa Stefani		
trabalhoCompletoEmCongresso	2016	http://dx.doi.org/10.5151/despro-ped2016-0248	A INFLUÊNCIA DOS SISTEMAS NATURAIS NA EDUCAÇÃO EM DESIGN	12º Congresso Brasileiro de Pesquisa e Desenvolvimento em Design	ARAÚJO, SHARLENE MELANIE MARTINS DE ; NUNES, CRISTINA COLOMBO ; SOUSA, RICHARD PERASSI LUIZ DE		
trabalhoCompletoEmCongresso	2016		A Software-Defined Network Configuration Providing Differentiated QoS to an eHealth Environment	International Conference Parallel and Distributed Processing Techniques and Applications	ASSUITI, M. ; VOLPATO, F. ; Madalena Pereira Silva ; Dantas, M. A. R.		
trabalhoCompletoEmCongresso	2016		Análise característica das Incubadoras de Base Tecnológica	Congresso Nacional de Inovação e Tecnologia	AZEVEDO, Ingrid Santos Cirio de ; GASPAR, Jadhi Vincki ; TEIXEIRA, Clarissa Stefani		
trabalhoCompletoEmCongresso	2016		Análise das Incubadoras Universitárias do Brasil	Conferência ANPROTEC	AZEVEDO, Ingrid Santos Cirio de ; POZZOBON, Christian ; CAMPOS, João Geraldo Cardoso ; PINTO, Sofia Lorena Urrutia ; TEIXEIRA, Clarissa Stefani		
trabalhoCompletoEmCongresso	2016		Busca de imagens na internet: discussão acerca dos resultados obtidos para a confecção de painéis semânticos	CIMODE 2016 3rd International Congress Fashion and Design	BALDESSAR, M. J.; GOLFETTO, I. F. ; CAMPOS, A. Q. ; Luiz Salomão ribas Gomez		
trabalhoCompletoEmCongresso	2016		As Mudanças na Narrativa e o Livro Digital	Intercom ? Sociedade Brasileira de Estudos Interdisciplinares da Comunicação	BALDESSAR, MARIA JOSÉ; CARNEIRO, N. O.		
trabalhoCompletoEmCongresso	2016		O Protagonismo da Comunicação Interna Disseminando Conhecimento e Inovação Sustentável nas Organizações	Intercom ? Sociedade Brasileira de Estudos Interdisciplinares da Comunicação	BALDESSAR, MARIA JOSÉ; QUINAUD, A. L.		
trabalhoCompletoEmCongresso	2016		(Re)Desenhando a Cidade: o Uso de Dispositivos Móveis para o Estímulo de Alternativas de Transporte Urbano	Intercom ? Sociedade Brasileira de Estudos Interdisciplinares da Comunicação	BALDESSAR, MARIA JOSÉ; TARACHUCKY, L.		
trabalhoCompletoEmCongresso	2016		Observatórios de competência	VI Congreso Internacional de Conocimiento e Innovación	BATISTA, A. D. ; DUARTE, K. ; PACHECO, Roberto Carlos dos Santos ; MARCHEZAN, M. ; SELL, D.		
trabalhoCompletoEmCongresso	2016		Towards Educational Metadata Interoperability on Semantic Web	Simpósio Brasileiro de Informática na Educação (SBIE)	Behr, A ; PRIMO, T. ; Vicari R. M.		
trabalhoCompletoEmCongresso	2016		Using Semantic Web Technologies to Describe an Educational Domain	7th International Workshop on Collaborative Agents Research and Development	Behr, A ; PRIMO, Tiago ; Vicari R. M.		
trabalhoCompletoEmCongresso	2016		La Extensión Universitária como promotora de la Innovación Social: uma revisión sistemática	XVI Coloquio Internacional de Gestão Universitária - CIGU	BERNARDES, José Francisco ; GOMES JR, W. V. ; VALDATI, A. de B. ; AGUIAR, R. R. S. de ; DELGADO, A. A. S. ; LAPOLLI, É. M.		
trabalhoCompletoEmCongresso	2016		A Gestão Empreendedora da Inovação na Gestão Universitária	XVI Colóquio Internacional de Gestão Universitária - CIGU	BERNARDES, José Francisco ; SCHMITZ, A. L. F. ; GOMES JR, W. V. ; BERNARDES, R. N. ; WILLERDING, I. A. V. ; LAPOLLI, É. M.		
trabalhoCompletoEmCongresso	2016		Estructura Conceptual de Plataforma de e-Gov para el Ministério de Turismo (MTur) de Brasil	XI Congreso internacional de Turismo y Tecnologías de la Información y la Comunicación	BIZ, Alexandre A ; PACHECO, R. C. S. ; Todesco, José Leomar		
trabalhoCompletoEmCongresso	2016		Iniciativas e experiências em Recursos Abertos Educacionais (REA) no ensino superior	XVIII Simposio Internacional de Informática Educativa	BOHRER JUNIOR, E. ; NAKAYAMA, M. K. ; SILVEIRA, R. A. ; TEODOROSKI, R. C. C.		
trabalhoCompletoEmCongresso	2016	http://dx.doi.org/10.1109/SIIE.2016.7751863	Initiatives and experiences in open educational resources (OER) in higher education: A reflective roadmap	2016 International Symposium on Computers in Education (SIIE)	BOHRER, EMMANUEL ; NAKAYMA, MARINA KEIKO ; Silveira, Ricardo Azambuja ; DE CASSIA CLARK TEODOROSKI, RITA		
trabalhoCompletoEmCongresso	2016		Gestão Do Conhecimento: Um Estudo De Caso De Controle Da Merenda Escolar No Município De Itajaí	SICT-SUL	BONATT, A. ; FREIRE, P. S. ; SOUZA, J. A. ; SANTOS, F.		
trabalhoCompletoEmCongresso	2016		O PAPEL DA CULTURA ORGANIZACIONAL NA GESTÃO DO CONHECIMENTO: Revisão de Literatura de 2009 A 2015	13o. Congresso Brasileiro em Gestão do Conhecimento - KM Brasil	BRAQUEHAIS, A. ; WILBERT, J. K. W. ; MORESI, E. A. D. ; DANDOLINI, G. A.		
trabalhoCompletoEmCongresso	2016		Mapeamento das publicações científicas empíricas sobre sistemas de inovação	VI Congreso Internacional de Conocimiento e Innovación	BUCHELE, G. ; TRIERVEILER, H. J. ; DANDOLINI, G. A. ; SELL, D.		
trabalhoCompletoEmCongresso	2016		MAPEAMENTO DAS PUBLICAÇÕES CIENTÍFICAS SOBRE GERENCIAMENTO DE PROJETOS E INOVAÇÃO	VI Congresso de Engenharia de Projetos	BUCHELE, G. T. ; SOUZA, João Artur de		
trabalhoCompletoEmCongresso	2016		CARACTERÍSTICAS DA ADOÇÃO DE MÉTODOS, TÉCNICAS E FERRAMENTAS PARA INOVAÇÃO EM ORGANIZAÇÕES CATARINENSES	IV CONGRESO INTERNACIONAL DE CONOCIMIENTO E INNOVACIÓN	BUCHELE, G. T. ; Teza, P. ; SOUZA, João Artur de ; DANDOLINI, G. A.		
trabalhoCompletoEmCongresso	2016		ADOÇÃO DE MÉTODOS, TÉCNICAS E FERRAMENTAS PARA INOVAÇÃO: ESTADO DA ARTE DOS ARTIGOS EMPÍRICOS	VIII Seminário de Pesquisa Interdisciplinar	BUCHELE, G. T. ; Teza, P. ; SOUZA, João Artur de ; DANDOLINI, G. A.		
trabalhoCompletoEmCongresso	2016		ADOÇÃO DE MÉTODOS, TÉCNICAS E FERRAMENTAS PARA INOVAÇÃO: UM LEVANTAMENTO EM ORGANIZAÇÕES CATARINENSES	III Fórum Internacional de Acreditacion	BUCHELE, G. T. ; Teza, P. ; SOUZA, João Artur de ; DANDOLINI, G. A.		
trabalhoCompletoEmCongresso	2016		Elementos essenciais para o desenvolvimento de modelos de gestão da inovação em serviço	V Congresso Brasileiro de Engenharia de Produção - Conbrepo	BURGER, F. ; KRAEMER, R. ; DANDOLINI, G. A. ; SOUZA, João Artur de		
trabalhoCompletoEmCongresso	2016		Comunidades Inovadoras: Revisão das publicações sobre CoP?s com foco em inovação	V Congresso Brasileiro de Engenharia de Produção - Combrepo	BURGER, F. ; WILBERT, J. K. W. ; DANDOLINI, GERTRUDES		
trabalhoCompletoEmCongresso	2016		Gamification approaches to learning and knowledge development: a theorical review	WorldCist'16	BUSARELLO, R. ; ULBRICHT, V. ; FADEL, L. M. ; LOPES, A. V. F. E.		
trabalhoCompletoEmCongresso	2016		Control of Smart Environments Using Brain Computer Interface Based on Genetic Algorithm	ACIIDS: Asian Conference on Intelligent Information and Database Systems	CAMELO, G. A. ; MENEZES, M. L. ; SANTANNA, A. P. ; VICARI, ROSA M. ; PEREIRA, C. E.		
trabalhoCompletoEmCongresso	2016		Implementing Resource Manager Drivers for the Dédal o Middleware: The Prost Project	WSCAD 2016 - XVII Simpósio em Sistemas Computacionais de Alto Desempenho	CAMILO, E. ; GUILLON, A. ; PREVOST, M. ; Dantas, M. A. R		
trabalhoCompletoEmCongresso	2016		Investimento do Estado de Santa Catarina em Ciência, Tecnologia e Inovação nos anos de 2014 e 2015	Encontro Catarinense de Estudantes de Contabilidade	CARDOSO, Thaís Bittencourt ; TEIXEIRA, Clarissa Stefani		
trabalhoCompletoEmCongresso	2016		Empreendedorismo social versus economia de comunhão ? pesquisa bibliométrica	VI Congresso Brasileiro de Engenharia de Produção	CARREIRA, S. S. ; FRANZONI, A. M. B. ; CARREIRA, M. F.		
trabalhoCompletoEmCongresso	2016		Pesquisa Bibliométrica ? Eneagrama: ferramenta de auto conhecimento para o processo de gestão de pessoas	V Simpósio de Engenharia de Produção	CARREIRA, S. S. ; FRANZONI, A. M. B. ; CARREIRA, M. F.		
trabalhoCompletoEmCongresso	2016		Impactos da qualidade da informação em ambientes de Data Warehouse durante o processo de gestão do conhecimento: Um estudo de caso	V SINGEP - Simpósio Internacional de Gestão de Projetos,Inovação e Sustentabilidade	CASAES, J.C.C ; OKAYAMA, O. ; BASTOS, L. C.		
trabalhoCompletoEmCongresso	2016		Análise de sentimento e audiência televisiva: limites e possibilidades	14º Encontro Nacional de Pesquisadores em Jornalismo	CAVENAGHI, B. ; BALDESSAR, M. J.		
trabalhoCompletoEmCongresso	2016		Análise do clima organizacional em uma Instituição de Ensino Superior na perspectiva dos técnicos administrativos	VI Congresso Brasileiro de Engenharia de Produção	CEMIN, X. ; RIZZATTI, G. ; FRANZONI, A. M. B.		
trabalhoCompletoEmCongresso	2016		As práticas em sustentabilidade e a contabilidade: uma revisão de literatura com enfoque na ISO 14001	Encontro Catarinense de Estudantes de Ciências Contábeis	CORREA, Gustavo Alves ; TEIXEIRA, Clarissa Stefani		
trabalhoCompletoEmCongresso	2016	http://dx.doi.org/10.1109/WETICE.2016.32	A New QoC-Based Approach for Resource Allocation in Distributed Systems	2016 IEEE 25th International Conference on Enabling Technologies: Infrastructure for Collaborative Enterprises (WETICE)	D'AMATO, ANDRE ; Dantas, Mario ; DE MACEDO, DOUGLAS D.J.		
trabalhoCompletoEmCongresso	2016	http://dx.doi.org/10.5748/9788599693124-13contecsi/ps-3913	A Model for Collective Knowledge representation in Idea Management Systems	13th CONTECSI International Conference on Information Systems and Technology Management	DANDOLINI, Gertrudes Aparecida ; SOUZA, João Artur de ; ROCHADEL, WILLIAN		
trabalhoCompletoEmCongresso	2016	http://dx.doi.org/10.5748/9788599693124-13contecsi/rf-4018	Ontology and e-Government in the context of Knowledge Engineering	13th CONTECSI International Conference on Information Systems and Technology Management	DANDOLINI, Gertrudes Aparecida ; SOUZA, João Artur de ; ROCHADEL, WILLIAN		
trabalhoCompletoEmCongresso	2016		O papel das práticas de gestão estratégica de gestão do conhecimento na inovação e no desempenho organizacional	VI Congreso Internacional de Conocimento e Innovación - ciKi	DAVILA, G. A. ; AUGUSTIN, L. W. ; VARVAKIS, G. ; NORTH, K.		
trabalhoCompletoEmCongresso	2016		EXPERIÊNCIA DE USO DE SERVIÇOS DE SUPERMERCADOS: ANÁLISE DE FERRAMENTAS PARA COLETA DADOS PROMOVIDAS PELO DESIGN THINKING	12º Congresso Brasileiro de Pesquisa e Desenvolvimento em Design	DEMILIS, M. P. ; FIALHO, FRANCISCO ANTONIO PEREIRA ; REIS, A. A.		
trabalhoCompletoEmCongresso	2016		Fontes dos problemas na revisão por pares que levam à retratação de artigos divulgados no Retraction Watch	Encontro Nacional de Pesquisa em Ciência da Informação (ENANCIB)	DENISCZWICZ, M. ; KERN, V. M.		
trabalhoCompletoEmCongresso	2016		Dimensão Humana e a Futuro das Cidades Inteligentes	V Congresso Internacional de Cidades Criativas	DEPINE, A. C. ; ELEUTHERIOU, V. ; MACEDO, M.		
trabalhoCompletoEmCongresso	2016		Design Thinking no desenvolvimento de cidades humanas inteligentes	VI Congreso Internacional de Conocimiento e Innovación	DEPINÉ, Ágatha ; RAMOS, Joice ; VANZIN, Tarcisio ; TEIXEIRA, Clarissa Stefani ; FIALHO, Francisco		
trabalhoCompletoEmCongresso	2016	http://dx.doi.org/10.5151/despro-sigradi2016-522	A influência dos dispositivos portáteis de leitura no design do livro digital	XX Congreso de la Sociedad Iberoamericana de Gráfica Digital	DICK, MAURÍCIO ELIAS ; GONÇALVES, BERENICE SANTOS ; Pereira, Alice Teresinha Cybis ; VIEIRA, MILTON LUIZ HORN		
trabalhoCompletoEmCongresso	2016		Ambientes Virtuais De Ensino E Aprendizagem Acessíveis Para Suporte De Criação De Valores Em Comunidades De Prática Bilíngues	Congreso Internacional de Informática Educativa	Elisa Maria Pivetta ; ULBRICHT, V. R. ; SAITO, D. S. ; ALMEIDA, A. M. P.		
trabalhoCompletoEmCongresso	2016		Ciência Cidadã Baseada em Big Data Aplicada ao Planejamento Urbano	CSBC 2016 - BreSci - 10º Brazilian e-Science Workshop	Eliza Gomes ; Dantas, M. A. R ; Douglas Dyllon J de Macedo ; ROLT, Carlos Roberto de ; BROCARDO, M. L. ; FOSCHINI, L.		
trabalhoCompletoEmCongresso	2016		A disseminação da cultura de inovação e o desenvolvimento dos Núcleos de Inovação Tecnológica nas ICTs de Santa Catarina	Conferência ANPROTEC	FERREIRA, Maria Carolina Zanini ; FLÔR, Clarissa ; TEIXEIRA, Clarissa Stefani		
trabalhoCompletoEmCongresso	2016		Fomento à inovação entre Instituição Científica Tecnológica (ICT) e Empresa: os Núcleos de Inovação Tecnológica (NIT)	Congresso Nacional de Inovação e Tecnologia	FERREIRA, Maria Carolina Zanini ; TEIXEIRA, Clarissa Stefani		
trabalhoCompletoEmCongresso	2016		As Aceleradoras Brasileiras: Levantamento para Identificação do Foco, Atuação, e Distribuição Territorial	Conferência ANPROTEC	FLÔR, Clarissa ; SANTOS, Gabriel Sant'Ana Palma ; FERREIRA, Maria Carolina Zanini ; EHLERS, Ana Cristina da Silva Tavares ; TEIXEIRA, Clarissa Stefani		
trabalhoCompletoEmCongresso	2016		Caracterização das aceleradoras do Estado de Santa Catarina	Congresso Nacional de Inovação e Tecnologia	FLÔR, Clarissa ; TEIXEIRA, Clarissa Stefani		
trabalhoCompletoEmCongresso	2016		Business Intelligence: Relato Do Caso Da Secretaria De Estado Da Fazenda De Santa Catarina (SEFAZ-SC)	5º SICT-SUL	FOGACA, E. T. ; FORTUNATO, T. P. ; SANTOS, F. ; FREIRE, P. S. ; SOUZA, J. A.		
trabalhoCompletoEmCongresso	2016		Relações teóricas e empíricas do capital humano com a aprendizagem e a memória organizacional: uma revisão de literatura	VI Congresso Internacional de Conhecimento e Inovação	FRAGA, B. D. ; VIDOTTO, J. ; STEIL, ANDREA V		
trabalhoCompletoEmCongresso	2016		MEMÓRIA COLETIVA: APROXIMAÇÃO EPISTEMOLÓGICA DAS TEORIAS DE SHELDRAKE E JUNG	XII CNEG ? Congresso Nacional de Excelência em Gestão III INOVARSE ? Responsabilidade Social Aplicada	FREIRE, P. S.; MARQUES, D. ; DEBATIN, M.		
trabalhoCompletoEmCongresso	2016		?GRUPOS COLABORATIVOS COMO AMBIENTES DE APRENDIZAGEM ORGANIZACIONAL	XII CNEG ? Congresso Nacional de Excelência em Gestão III INOVARSE ? Responsabilidade Social Aplicada	FREIRE, P. S.; MARQUES, D. ; NAKAYAMA,K.M. ; SPANHOL, F. J.		
trabalhoCompletoEmCongresso	2016		Modelos de Gestão Organizacional para a Sustentabilidade	IV Encontro de Sustentabilidade em Projeto ENSUS	FREIRE, P. S.; TRIERWEILLER, A. C. ; SILVA, S. M. ; ROTTA, M. ; ESTEVES, P. C. L.		
trabalhoCompletoEmCongresso	2016		Ciência cidadã: a universidade como agente para o desenvolvimento do ecossistema socioeconômico	IV Encontro de Sustentabilidade em Projeto ENSUS	FREIRE, P. S.; TRIERWEILLER, A. C. ; SILVA, S. M. ; ROTTA, M. ; RAMOS, I.		
trabalhoCompletoEmCongresso	2016	http://dx.doi.org/10.3233/978-1-61499-703-0-338	Identification of the main factors that influence the Innovation Management Performance	International Conference on Transdisciplinary Engineering	FREITAS FILHO, F. ; CUNHA, CRISTIANO JOSÉ CASTRO DE ALMEIDA ; DANDOLINI, G. A. ; SOUZA, J. A.		
trabalhoCompletoEmCongresso	2016		Revisão Sistemática sobre Gestão da Inovação no Contexto Brasileiro	VI Congresso Internacional de Conhecimento e Inovação (ciKi)	FREITAS, F. L. ; DANDOLINI, G. A. ; SOUZA, João Artur de		
trabalhoCompletoEmCongresso	2016		Analysis ranking Connected Smart Cities	Congresso Internacional de Conocimento e Innovación	GASPAR, Jadhi Vincki ; AZEVEDO, Ingrid Santos Cirio de ; TEIXEIRA, Clarissa Stefani		
trabalhoCompletoEmCongresso	2016		A Revitalização de Espaços Urbanos: O Case do Centro Sapiens em Florianópolis	Conferência ANPROTEC	GASPAR, Jadhi Vincki ; MENEGAZZO, Carolina ; FIATES, José Eduardo ; TEIXEIRA, Clarissa Stefani ; GOMES, Luiz Salomão Ribas		
trabalhoCompletoEmCongresso	2016		Anais do VI Congresso Internacional de Conhecimento e Inovação (ciKi)	VI Congresso Internacional de Conhecimento e Inovação (ciKi)	GAUTHIER, F. A. O.; SELIG, P. M. ; BENTANCOURT, S. M. P. ; GOMES, M. S. ; VISINTIN, L.		
trabalhoCompletoEmCongresso	2016		The Socio-Cultural Approach to Software Engineering and its Application to Modeling a Virtual Learning Environment	Social Computing in Digital Education	Gluz, J. C. ; Vicari R. M. ; PASSERINO, L. M.		
trabalhoCompletoEmCongresso	2016		GESTÃO DO CONHECIMENTO: COMPETÊNCIA COMO FATOR DO PROCESSO DE INOVAÇÃO	CONBREPRO- VI Congresso Brasileiro de Engenharia de Produção	GOMES JR, W. V. ; AGUIAR, R. R. S. de ; FERNANDEZ, R. F. ; LAPOLLI, É. M. ; VALDATI, A. de B.		
trabalhoCompletoEmCongresso	2016		UM PROCESSO DE CLASSIFICAÇÃO E ARMAZENAMENTO DE INFORMAÇÃO PARA GERAÇÃO DE CONHECIMENTO: UM ESTUDO DE CASO NA CIDASC	XII CNEG ? Congresso Nacional de Excelência em Gestão III INOVARSE ? Responsabilidade Social Aplicada	GOMES JR, W. V. ; ALVES, P. ; ZACARKIM, V. L. ; LAPOLLI, É. M.		
trabalhoCompletoEmCongresso	2016		Modelos de Gestão Universitária baseados na Sustentabilidade Social	XVI Coloquio Internacional de Gestão Universitária - CIGU	GOMES JR, W. V. ; VALDATI, A. de B. ; AGUIAR, R. R. S. de ; MARTINS, F. D. ; LAPOLLI, É. M. ; RAMOS, M. C. L.		
trabalhoCompletoEmCongresso	2016		GESTÃO DO CONHECIMENTO: UMA REFLEXÃO DA MEMÓRIA ORGANIZACIONAL NAS INSTITUIÇÕES DE ENSINO SUPERIOR (IES)	CONBREPRO - VI Congresso Brasileiro de Engenharia de Produção	GOMES JR, W. V. ; PRIM, M. A. ; VALDATI, A. B. ; LAPOLLI, Édis Mafra ; DANDOLINI, GERTRUDES		
trabalhoCompletoEmCongresso	2016		Contribuição da Gestão do Conhecimento ao Mapeamento de competências Organizacionais	5º SICT - SUL - Simpósio de Integração Científica e Tecnológica do Sul Catarinense	GOMES JR, W. V. ; VIANNA, C. T. ; WILLERDING, I. A. V. ; LAPOLLI, É. M.		
trabalhoCompletoEmCongresso	2016	http://dx.doi.org/10.1109/WETICE.2016.31	Towards an Infrastructure to Support Big Data for a Smart City Project	2016 IEEE 25th International Conference on Enabling Technologies: Infrastructure for Collaborative Enterprises (WETICE)	GOMES, ELIZA ; Dantas, M.A.R. ; DE MACEDO, DOUGLAS D.J. ; DE ROLT, CARLOS ; BROCARDO, MARCELO LUIZ ; FOSCHINI, LUCA		
trabalhoCompletoEmCongresso	2016		Estudo Comparativo dos Elementos Estruturais do Ecossistema de Inovação e Ecossistema de Software	VI Congresso Internacional de Conhecimento e Inovação (ciKi)	GOMES, M. S. ; VISINTIM, L. ; TRINDADE, E. P. ; GAUTHIER, F. A. O. ; MACEDO, M.		
trabalhoCompletoEmCongresso	2016		O Impacto do Empreendedorismo na Educação: Uma Abordagem Sistemática	VI Congresso Internacional de Conhecimento e Inovação (ciKi)	GOMES, M. S. ; VISINTIM, L. ; TRINDADE, E. P. ; GAUTHIER, F. A. O. ; MACEDO, M.		
trabalhoCompletoEmCongresso	2016		Gerência de Projetos Ágeis: Um Estudo sobre as Pontencialidades do Framework SAFE	V SINGEP - Simpósio Internacional de Gestão de Projetos	GOMES, V. R. ; ALVAREZ, G.M. ; BASTOS, L. C.		
trabalhoCompletoEmCongresso	2016		FORMATO NOTÍCIA E CURADORIA DIGITAL EM SITES DE PARQUES BRASILEIROS	26ª Conferência de Empreendedorismo e Ambientes de Inovação	GONCALVES, Sicilia Vechi ; SANTOS, Neri dos ; TEIXEIRA, Clarissa Stefani ; MACEDO, Marcelo		
trabalhoCompletoEmCongresso	2016		Análise da Ruta-N: Parque de Inovação e Negócios	Congresso Nacional de Inovação e Tecnologia	GUEDES, Marina Klöppel ; TEIXEIRA, Clarissa Stefani		
trabalhoCompletoEmCongresso	2016	http://dx.doi.org/10.1109/ISCC.2016.7543861	Dédalo: A Middleware with a Single Point of Access for Heterogeneous Distributed Computing Environments	21st IEEE Symposium on Computers and Communications (ISCC)	INACIO, EDUARDO CAMILO ; SIQUEIRA, Frank Augusto ; DANTAS, M. A. R.		
trabalhoCompletoEmCongresso	2016		Fluxos de informação e conhecimento em ambiente de inovação: evidências sobre a interação formal e informal para o desenvolvimento de negócios em empresas incubadas em um parque tecnológico	Encontro Nacional de Pesquisa em Ciência da Informação	INOMATA, D. O. ; VARVAKIS, G. ; SOARES, A. L.		
trabalhoCompletoEmCongresso	2016		O Sistema de Ciência, Tecnologia e Inovação: Panorama Nacional a Partir das Leis de Inovação dos Estados Brasileiros	Conferência ANPROTEC	JUNCKES, Darlan ; SAMPAIO, Marcio ; SANTOS, Gabriel Sant'Ana Palma ; ABDALA, Lucas Novelino ; TEIXEIRA, Clarissa Stefani		
trabalhoCompletoEmCongresso	2016		Modelo Brasileiro de Maturidade para Cidades Inteligentes: análise dos municípios do estado de Santa Catarina	Congresso Nacional de Inovação e Tecnologia	JUNCKES, Darlan ; TEIXEIRA, Clarissa Stefani		
trabalhoCompletoEmCongresso	2016	http://dx.doi.org/10.4018/978-1-59904-355-5.ch003	A redução ao sistema como operação epistêmica na pesquisa descritiva e explicativa em ciência da informação	Encontro Nacional de Pesquisa em Ciência da Informação (ENANCIB)	KERN, V. M.; SILVA, Luciana Mara ; BALBIS, Paula ; ESTÁCIO, Letícia Silvana dos Santos ; ANDRADE, Wemylinn Giovana Florencio ; DENISCZWICZ, M. ; GUNTHER, Leonardo Lima ; FORMOSO, R. G.		
trabalhoCompletoEmCongresso	2016		Gestão de pessoas: um modelo de banco de talentos para instituições de ensino	XVI Colóquio Internacional de Gestão Universitária	KRACIK, M. S. ; SANTOS, F. ; FRANZONI, A. M. B. ; KRACIK, G. S.		
trabalhoCompletoEmCongresso	2016		Sistema de banco de talentos para gestão por competências em instituições universitárias	Congresso de Administração	KRACIK, M. S. ; SANTOS, F. ; MELO, M. B. ; FRANZONI, A. M. B. ; BASTOS, L. C.		
trabalhoCompletoEmCongresso	2016		Maturidade de Gestão do Conhecimento: Uma Revisão Sistemática da Literatura para apoiar o desenvolvimento de novos modelos de Avaliação	13º KM BRASIL - Congresso Brasileiro de Gestão do Conhecimento	KRAEMER, R. ; FREIRE, P. S. ; SOUZA, J. A. ; DANDOLINI, G. A.		
trabalhoCompletoEmCongresso	2016		Maturidade de Gestão do Conhecimento: Uma Revisão Sistemática da Literatura Para Apoiar O Desenvolvimento de Novos Modelos de Avaliação	KMBRASIL 2016	KRAEMER, R. ; FREIRE, P. S. ; SOUZA, J. A. ; DANDOLINI, G. A.		
trabalhoCompletoEmCongresso	2016		Maturidade de Gestão do Conhecimento: uma revisão sistemática da literatura para apoiar o desenvolvimento de novos modelos de avaliação	13o. Congresso Brasileiro em Gestão do Conhecimento - KM Brasil	KRAEMER, R. ; FREIRE, P. S. ; DE SOUZA, JOÃO ARTUR ; DANDOLINI, G. A.		
trabalhoCompletoEmCongresso	2016		GESTÃO DA INOVAÇÃO E SETOR PÚBLICO: PANORAMA DAS PESQUISAS NO ÚLTIMO DECÊNIO	IV CONGRESO INTERNACIONAL DE CONOCIMIENTO E INNOVACIÓN	KRAEMER, R. ; WILBERT, J. K. W. ; SOUZA, João Artur de ; DANDOLINI, G. A.		
trabalhoCompletoEmCongresso	2016		O CONHECIMENTO NA VITRINE: A PROMOÇÃO DA GESTÃO DO CONHECIMENTO NO COTIDIANO DE UMA ORGANIZAÇÃO DE BASE TECNOLÓGICA	13º Congresso Brasileiro de Gestão do Conhecimento ? KM Brasil 2016	KRAUSE, M. G. ; CUNHA, CRISTIANO JOSÉ CASTRO DE ALMEIDA ; LAPOLLI, E. M. ; DANDOLINI, G. A.		
trabalhoCompletoEmCongresso	2016		O CONHECIMENTO NA VITRINE: a promoção da gestão do conhecimento no cotidiano de uma organização de base tecnológica	13o. Congresso Brasileiro em Gestão do Conhecimento - KM Brasil	KRAUSE, M. G. ; CUNHO, C. J. C. A. ; LAPOLLI, É. M. ; DANDOLINI, G. A.		
trabalhoCompletoEmCongresso	2016		Poligonopolis: Prototype of accessible and gamified learning object to teach Geometry	XI Latin American Conference on Learning Objects and Technology (LACLO)	LANE PRIMO ; ERON MORENO CHAGAS ROCHA ; ULBRICHT, V. R. ; MESACASA, A. ; QUEIROZ, R. G.		
trabalhoCompletoEmCongresso	2016		SCALA web system on the Internet of Things: an Exploratory Research in Social Computing	7th International Workshop on Collaborative Agents Research and Development	LIMA, R. ; BERCHT, M. ; PASSERINO, Liliana M. ; Vicari R. M. ; GLUZ, J. C.		
trabalhoCompletoEmCongresso	2016		Information Retrieval at the Graduate Program in Engineering and Knowledge Management Theses and Dissertations Library Catalog: Proposal of a Navigational Taxonomy	IKE'16 - The 15th International Conference on Information Knowledge Engineering	MACHADO, G. B. ; PEREIRA, L. M. F. ; Todesco, José Leomar ; GONÇALVES, A. L.		
trabalhoCompletoEmCongresso	2016		Implementação da IoT para o Monitoramento das Variáveis Meteorológicas num AAL	CSBC - WIM - 16º Workshop de Informática Médica	Madalena Pereira Silva ; NAZÁRIO, DÉBORA CABRAL ; Dantas, M. A. R ; GONCALVES, A. L. ; PINTO, Alex Sandro Roschildt ; MANERICHI, G. ; VANELLI, BRUNNO		
trabalhoCompletoEmCongresso	2016	http://dx.doi.org/10.1007/978-3-319-07857-1_70	DESENVOLVIMENTO DE UM OBJETO DE APRENDIZAGEM VIRTUAL PARA O ENSINO DE CONFORTO TÉRMICO	ENTAC 2016 : Encontro Nacional de Tecnologia do Ambiente Construído	Maier, S. ; PEREIRA, A. T. C. ; PEREIRA, F. O. R. ; Scalco, V.		
trabalhoCompletoEmCongresso	2016		QUALIDADE NA GESTÃO DE SERVIÇOS DE FISIOTERAPIA: UMA REVISÃO SISTEMÁTICA	XIX SEMEAD - Seminários em Administração FEA USP	MANDELLI, P. G. B. ; SANTOS, F. ; FREIRE, P. S. ; BASTOS, L. C.		
trabalhoCompletoEmCongresso	2016		Dynamic Adaptive Activity Planning in Education: Implementation and Case Study	Communications in Computer and Information Science - CSEDU	MARISCAL, J. P. ; RIOS, M. Y. U. ; LEON, L. F. B. ; MOLINA, N. A. M. ; RAMOS, A. C. C. ; QUIMBAYA, A. P. ; VARGAS, J. C. G. ; BRIJALDO, M. ; SABOGAL, M. ; VICARI, ROSA M. ; FABREGAT, R. ; MARTIN, H.		
trabalhoCompletoEmCongresso	2016		OntoIRBR: Ontology for Information Retrieval in Bibliographic Resources	2016 ISPE International Conference on Transdisciplinary Engineering	MARQUES, D. ; QUINGERSKI, L. ; BAMBERG, C. ; FREIRE, P. S.		
trabalhoCompletoEmCongresso	2016		Sistemas Basados en Conocimiento como Suporte a la Gestión del Conocimiento con Fines de Innovación	VI Congreso Internacional de Conocimiento e Innovación	MARTINEZ, D. J. ; BASTOS, L. C.		
trabalhoCompletoEmCongresso	2016		Prototipo de Sistema Experto para Atribución de Creditos Academicos por Publicación de Artículos en Congresos	VI Congreso Internacional de Conocimirnto e Innovación	MARTINEZ, D. J. ; BASTOS, L. C.		
trabalhoCompletoEmCongresso	2016		O ensino formal de softwares em cursos de Design Gráfico: uma presença fragmentada	12º PD 2016 Congresso Brasileiro de Pesquisa e Desenvolvimento em Design	MAZZAROTTO FILHO, M. A. ; ULBRICHT, V. R.		
trabalhoCompletoEmCongresso	2016		Os Parques Brasileiros e as Soluções aos Empreendedores	Conferência ANPROTEC	MENEGAZZO, Carolina ; SANTOS, Shayane Damazio ; EHLERS, Ana Cristina da Silva Tavares ; CATAPAN, Araci Hack ; TEIXEIRA, Clarissa Stefani		
trabalhoCompletoEmCongresso	2016		A Teorização Excessiva do Ensino Técnico: Desafios de um Campus Recém-Implantado no Sul do Brasil	VII Congresso Mundial de Estilos de Aprendizagem	MENEGHEL, T. ; CARDENUTO, M. ; ZAMMAR, A. ; Perassi, R.		
trabalhoCompletoEmCongresso	2016		Pesquisa Qualitativaem estudosde identidadedeMarca	5º Congresso Ibero-Americano em Investigação Qualitativa (CIAIQ2016) e do 1st International Symposium on Qualitative Research (ISQR2016)	MENEGHEL, T. ; Perassi, R. ; MUNARETTI, D.		
trabalhoCompletoEmCongresso	2016		Ativos intangíveis no Planejamento Estratégico de Tecnologia da Informação: análise dos PETI de Organizações Públicas	13o. Congresso Brasileiro em Gestão do Conhecimento - KM Brasil	MOREIRA, F. K. ; FREIRE, P. S. ; DE SOUZA, JOÃO ARTUR		
trabalhoCompletoEmCongresso	2016		Ativos Intangíveis no Planejamento Estratégico de Tecnologia da Informação: Análise dos PETI de Organizações Públicas	KMBRASIL 2016	MOREIRA, F. K. ; FREIRE, P. S. ; SOUZA, J. A.		
trabalhoCompletoEmCongresso	2016		Análise para identificação das caraterísticas empreendedoras	VI Congresso Internacional do Conhecimento e Inovação	NEVES, E. R. ; FRANZONI, A. M. B. ; FERNANDES JUNIO, A. L. ; MARQUES, P. M.		
trabalhoCompletoEmCongresso	2016		A RELAÇÃO ENTRE MODELO DE GESTÃO DE PESSOAS DE ALTO COMPROMISSO E GESTÃO DO CONHECIMENTO: UMA REVISÃO SISTEMÁTICA INTEGRATIVA	VI Congreso Internacional de Conocimiento e Innovación	NEVES, M. L. C. ; CUNHA, CRISTIANO JOSÉ CASTRO DE ALMEIDA ; FIALHO, F. A. P.		
trabalhoCompletoEmCongresso	2016		Sustentabilidade e concepção de educação ambiental da Encíclica Laudato si ́	ENSUS 2016 - IV Encontro de Sustentabilidade em Projeto	NEVES, M. L. C. ; SOUSA, Richard Perassi Luiz de ; FIALHO, FRANCISCO ANTONIO PEREIRA		
trabalhoCompletoEmCongresso	2016		Estratégias de Game Design na Educação: uma revisão sistemática da literatura	I Simpósio Latino-Americano de Jogos	NIEHUES, M. ; SENA, S. ; CATAPAN, A. H.		
trabalhoCompletoEmCongresso	2016		A condição feminina nos anúncios das marcas de eletrodomésticos nos anos 1950 e 1960	Colóquio Internacional de Semiótica - 5º COLSEMI	NUNES, C. C. ; Perassi, R. ; CASTRO, L. P. S. ; ARAUJO, S. M. M.		
trabalhoCompletoEmCongresso	2016	http://dx.doi.org/10.5151/despro-ped2016-0021	O RETORNO AO LAR: UMA ANÁLISE DA REPRESENTAÇÃO FEMININA NO MATERIAL GRÁFICO-PULICITÁRIOA DAS MARCAS DE ELETRODOMÉSTICOS NOS ANOS 1950 E 1960	12º Congresso Brasileiro de Pesquisa e Desenvolvimento em Design	NUNES, CRISTINA COLOMBO ; ARAÚJO, SHARLENE MELANIE MARTINS DE ; SOUSA, RICHARD PERASSI LUIZ DE ; CASTRO, LUCIANO PATRÍCIO DE ; MARTINELLI, RAQUEL		
trabalhoCompletoEmCongresso	2016		Análise de Usabilidade em Sistema de Resposta Audível automatizada, com base no Percurso Cognitivo, Critérios Ergonômicos de Bastien e Scapin e Heurísticas de Nielsen	XII Simpósio Brasileiro de Sistemas de Informação	OLIVEIRA, A. A. ; BALDESSAR, M. J.		
trabalhoCompletoEmCongresso	2016		Ferramentas do design thinking no desenvolvimento do EuTeGuio, uma interface interativa de auxílio a crianças autistas. In: IV Simpósio Internacional de Inovação em Mídias Interativas	IV Simpósio Internacional de Inovação em Mídias Interativas	OLIVEIRA, A. A. ; BALDESSAR, M. J.		
trabalhoCompletoEmCongresso	2016		Sistemas de gestão do conhecimento e gestão comercial e de vendas: uma revisão sistemática	VI Congreso Internacional de Conocimiento e Innovación	OMAR, O. ; CUNHA, CRISTIANO JOSÉ CASTRO DE ALMEIDA ; SELL, D.		
trabalhoCompletoEmCongresso	2016		Governança de tic no processo de modernização das serventias extrajudiciais no brasil, uma proposta de modelo	VI Congreso Internacional de Conocimiento e Innovación	OMAR, O. A. M. S. ; ROVER, A. ; SELL, D.		
trabalhoCompletoEmCongresso	2016		[Anti] Fragility of technological and innovations parks towards extreme events: an assessment and analysis model	VI Congreso Internacional de Conocimiento e Innovación	OMAR, Omar ; MENEGAZZO, Carolina ; TEIXEIRA, Clarissa Stefani ; MACEDO, Marcelo ; SELL, Denilson		
trabalhoCompletoEmCongresso	2016		Avaliação de empresas com foco nos valores intangíveis	VI International Congress of Knowledge Management Inovation ? ciKi	OSINSKI, Marilei ; ROMAN, Darlan José ; SELIG, PAULO MAURICIO		
trabalhoCompletoEmCongresso	2016		O VALOR DA INFORMAÇÃO PARA O PROCESSO DE DECISÃO EM INOVAÇÃO UTILIZANDO BIG DATA	IV CONGRESO INTERNACIONAL DE CONOCIMIENTO E INNOVACIÓN	PANISSON, C. ; FURTADO, L. P. ; PANISSON, A. ; SOUZA, João Artur de		
trabalhoCompletoEmCongresso	2016		A IMPORTÂNCIA DA GESTÃO DE CUSTOS PARA HOTÉIS DE LAZER	Congresso Virtual Brasileiro - Convibra Business	PANISSON, C. ; STEINMETZ, G. D. de F. ; LAPOLLI, É. M.		
trabalhoCompletoEmCongresso	2016		Avaliando a Produção Científica e a Publicação de Dados Conectados na América Latina e Caribe	International Congress of Knowledge and Inovation (CIKI)	PEREIRA, L. M. F. ; MACHADO, G. B. ; Todesco, José Leomar		
trabalhoCompletoEmCongresso	2016		Open Data in Open Government - What is being discussed?	6 International Congress of Knowledge and Inovation (CIKI)	PEREIRA, L. M. F. ; MACHADO, G. B. ; Todesco, José Leomar		
trabalhoCompletoEmCongresso	2016		Open Government Data Publish (OGDPub) ? Uma Ontologia de Domínio para Ampliar e Promover o Uso de Dados Abertos Governamentais	Seminário em Tecnologia da Informação Inteligente	PEREIRA, L. M. F. ; MACHADO, G. B. ; Todesco, José Leomar ; GAUTHIER, Fernando Álvaro Ostuni		
trabalhoCompletoEmCongresso	2016		Guidelines for Transparency Implementation in Brazilian Municipalities Based on Apiuna's Case	EEE'16 - The 15th International Conference on e-Learning	PEREIRA, L. M. F. ; NASCIMENTO, E. R. ; SELL, Denilson ; Todesco, José Leomar ; SELIG, P. M. ; MACHADO, G. B.		
trabalhoCompletoEmCongresso	2016		Coprodução transdisciplinar no contexto da sustentabilidade sob a perspectiva de modelos de gestão do conhecimento baseados em sistemas complexos adaptativos	Conbrepo - VI Congresso Brasileiro de Engenharia de Produção	PIMENTA, R. B. ; SPANHOL, F. J.		
trabalhoCompletoEmCongresso	2016		O Movimento Maker: Enfoque nos Fablabs Brasileiros	Conferência ANPROTEC	PINTO, Sofia Lorena Urrutia ; AZEVEDO, Ingrid Santos Cirio de ; SANTOS, Gabriel Sant'Ana Palma ; HAMAD, Aldrwin Farias ; TEIXEIRA, Clarissa Stefani		
trabalhoCompletoEmCongresso	2016	http://dx.doi.org/10.5151/despro-sigradi2016-524	Taxonomias de Geometria da Arquitetura Contemporânea como elementos didáticos para a prática do Projeto Paramétrico	XX Congreso de la Sociedad Iberoamericana de Gráfica Digital	PIRES, JANICE DE FREITAS ; GONÇALVES, ALEXANDRE ; Pereira, Alice Therezinha Cybis		
trabalhoCompletoEmCongresso	2016		Using the Web of Data in Competitive Intelligence Process	XIV Congreso Internacional de Información INFO´16	PIZZOL, L. D. ; Todesco, José Leomar ; TODESCO, Bernardo P. R.		
trabalhoCompletoEmCongresso	2016	http://dx.doi.org/10.1109/IE.2016.36	A Framework for Multi-zone Building Thermal-Electrical Representation	2016 12th International Conference on Intelligent Environments (IE)	PREISSLER, SIGMUNDO ; GONCALVES, ALEXANDRE LEOPOLDO ; FERNANDES, WILLIAM REIS		
trabalhoCompletoEmCongresso	2016		INOVAÇÃO SOCIAL E EMPODERAMENTO COMUNITÁRIO:O CASO DO BANCO DE PALMAS	IV CONGRESO INTERNACIONAL DE CONOCIMIENTO E INNOVACIÓN	PRIM, M. A. ; AGUIAR, R. R. ; DANDOLINI, G. A.		
trabalhoCompletoEmCongresso	2016		Art, Creativity and a Learning Object Proposal	XI Latin American Conference on Learning Objects and Technology	QUEIROZ, R. G. ; ULBRICHT, V. R.		
trabalhoCompletoEmCongresso	2016	http://dx.doi.org/10.3233/978-1-61499-703-0-259	BND: A Proposal of a Business Needs Documentation for Software Solutions to Business Analysts	2016 ISPE International Conference on Transdisciplinary Engineering	QUINGERSKI, L. ; COSTA, S. N. ; SCHWENING, C. ; FREIRE, P. S.		
trabalhoCompletoEmCongresso	2016		Processo de ETL Utilizando Dados Abertos do e-Gov para Descoberta e Representação de Conhecimentos	13º CONTECSI - Congresso Internacional de Gestão da Tecnologia e Sistemas de Informação. International Conference on Information Systems and Technology Management	QUINGERSKI, L. ; MARQUES, D. ; FREIRE, P. S.		
trabalhoCompletoEmCongresso	2016		O Distrito de Inovação de Jaraguá do Sul	Conferência ANPROTEC	RAMOS, Danielle Nunes ; SILVEIRA, Marcio Manoel da ; CORREA, Gustavo Alves ; GASPAR, Jadhi Vincki ; TEIXEIRA, Clarissa Stefani		
trabalhoCompletoEmCongresso	2016		Redes de Inovação: alinhamento conceitual e o panorama atual da temática no território brasileiro	Congresso Nacional de Inovação e Tecnologia	RAMOS, Danielle Nunes ; TEIXEIRA, Clarissa Stefani		
trabalhoCompletoEmCongresso	2016		Comunicação, Organização e Gestão da Marca Instituto Federal de Santa Catarina - IFSC	II Congresso Internacional de Marcas/Branding: conexões e experiências	RAMOS, T. L. ; MENEGHEL, T. ; Perassi, R.		
trabalhoCompletoEmCongresso	2016		Marcas da mobilidade e cidades inteligentes: a busca pela sustentabilidade no circuito primavera (Florianópolis/SC)	VI Congresso Internacional de Conhecimento e Inovação	RANZAN, E. M. ; PRADO, G. M. B. C. ; Perassi, R.		
trabalhoCompletoEmCongresso	2016		A marca da mobilidade inteligente: o contexto de Cacupé e Santo Antônio de Lisboa	VI Congresso Internacional de Conhecimento e Inovação	RANZAN, E. M. ; PRADO, G. M. B. C. ; Perassi, R.		
trabalhoCompletoEmCongresso	2016	http://dx.doi.org/10.5151/despro-sigradi2016-647	Definição do plano de escopo do projeto TEAR_AD - Tecnologia no Ensino e Aprendizagem em Rede nas a rea de Arquitetura e Design	XX Congreso de la Sociedad Iberoamericana de Gráfica Digital	REGINATO, BRUNA ROVERE ; PEREIRA, ALICE THERESINHA CYBIS		
trabalhoCompletoEmCongresso	2016		UM MODELO PARA A REPRESENTAÇÃO DO CONHECIMENTO COLETIVO EM SISTEMAS DE GESTÃO DE IDEIAS	13th INTERNATIONAL CONFERENCE ON INFORMATION SYSTEMS TECHNOLOGY MANAGEMENT - CONTECSI - 2016	ROCHADEL, W. ; DANDOLINI, G. A. ; SOUZA, J. A.		
trabalhoCompletoEmCongresso	2016		ONTOLOGIA E GOVERNO ELETRÔNICO NO CONTEXTO DA ENGENHARIA DO CONHECIMENTO	13th INTERNATIONAL CONFERENCE ON INFORMATION SYSTEMS TECHNOLOGY MANAGEMENT - CONTECSI - 2016	ROCHADEL, W. ; SOUZA, J. A. ; DANDOLINI, G. A.		
trabalhoCompletoEmCongresso	2016		Categorias e dimensões do conhecimento tradicional gastronômico	CIKI 2016	RONCHETTI, A. G. ; TRINDADE, E. P. ; FIALHO, FRANCISCO ANTONIO PEREIRA ; MULLER, S. G.		
trabalhoCompletoEmCongresso	2016	http://dx.doi.org/10.5151/despro-ped2016-0393	ANÁLISE DAS IDENTIDADES VISUAIS DAS PRIMEIRAS UNIVERSIDADES BRASILEIRAS	12º Congresso Brasileiro de Pesquisa e Desenvolvimento em Design	ROSUMEK, GISELE BAUMGARTEN ; SOUSA, RICHARD PERASSI LUIZ DE		
trabalhoCompletoEmCongresso	2016		Virtualização de Processos: a justiça digital a serviço da sustentabilidade, ética e transparência. In: IV Encontro de Sustentabilidade em Projeto	IV Encontro de Sustentabilidade em Projeto ENSUS	ROTTA, M. ; TRIERWEILLE, A. C. ; SILVA, S. M. ; ESTEVES, P. ; FREIRE, P. S. ; ROVER, A. ; SELL, D.		
trabalhoCompletoEmCongresso	2016		Desenvolvendo Eco-inovações em empresas, um modelo de referência	VI Congresso brasileiro de Engenharia de Produção	Sampaio, I.C.B. ; Santana Filho, J.F. ; Pimenta, R.B. ; SORIANO SIERRA, E. J.		
trabalhoCompletoEmCongresso	2016		Teoria da Complexidade e Liderança Organizacional: a emergência da Complexity Lidership	IV Congresso Internacional de Conhecimento e Inovação	SANTANA, J. Q. ; NASCIMENTO, E. R. ; COSTA, R. ; SCHULTZ, S. M. ; GAUTHIER, F. A. O.		
trabalhoCompletoEmCongresso	2016		Gestão de Projetos Complexos: Levantamento Sistemático da Produção Científica em Periódicos	V Simpósio Internacional de Gestão de Projetos	SANTOS, F. ; TRIERWEILLER, A. C. ; SILVA, S. M. ; FREIRE, P. S.		
trabalhoCompletoEmCongresso	2016		ATIVIDADES RELACIONADAS À INOVAÇÃO E AO EMPREENDEDORISMO EM UMA UNIVERSIDADE COMUNITÁRIA BRASILEIRA	IV CONGRESO INTERNACIONAL DE CONOCIMIENTO E INNOVACIÓN	SCHMITZ, Ademar ; HEERDT, M. L. ; DANDOLINI, G. A. ; SOUZA, João Artur de		
trabalhoCompletoEmCongresso	2016		Prototipação aplicada à produção de arte para jogos digitais: estudos de caso em três empresas de Santa Catarina	SBC ? Proceedings of SBGames 2016 | ISSN: 2179-2259	SENA, S. ; NIEHUES, M. ; FIALHO, F. A. P. ; CATAPAN, Araci Hack		
trabalhoCompletoEmCongresso	2016		Governança de sistemas de indicadores de sustentabilidade em processos de Avaliação Ambiental Estratégica	1o Simpósio Luso-Brasileiro sobre Modelos e Práticas de Sustentabilidade	SILVA, A. W. L. ; NETTO, M. ; SELIG, PAULO MAURÍCIO ; LERIPIO, A. A.		
trabalhoCompletoEmCongresso	2016	http://dx.doi.org/10.5151/9788580391763-13	Gestão na elaboração multidisciplinar de instrumentos avaliativos para EaD	22º CIAED - Congresso Internacional ABED de Educação a Distância	SILVA, A.R.L. ; BORDINHÃO DIANA, JULIANA ; SPANHOL, FERNANDO JOSÉ		
trabalhoCompletoEmCongresso	2016		Aprendizagem baseada em jogos: impacto na motivação e evasão de alunos em um curso de Engenharia de Produção	XII EMEPRO	SILVA, E. D. ; Graziani. A. ; Lanzer, E. A. ; MACEDO, M.		
trabalhoCompletoEmCongresso	2016		LEAN OFFICE NA ELABORAÇÃO DE PROJETOS DE UMA EMPRESA MUNICIPAL DE SANEAMENTO	XX Exposição de Experiências Municipais em Saneamento	SILVA, E. D. ; PEREIRA, M. M. ; Graziani. A. ; MACEDO, M.		
trabalhoCompletoEmCongresso	2016		Game-Based Learning: Analysis of Students? Motivation, Performance, and Drop Out in a Production Engineering Course	7th International Conference on Applied Human Factors and Ergonomics	SILVA, Elissa Danielle. ; MACEDO, Marcelo ; TEIXEIRA, Clarissa Stefani ; LANZER, Edgar ; GRAZIANI, Álvaro Paz.		
trabalhoCompletoEmCongresso	2016	http://dx.doi.org/10.1109/CBMS.2016.15	An eHealth Context Management and Distribution Approach in AAL Environments	2016 IEEE 29th International Symposium on ComputerBased Medical Systems (CBMS)	SILVA, Madalena Pereira da ; NAZARIO, DEBORA CABRAL ; Dantas, M. A. R. ; GONCALVES, ALEXANDRE LEOPOLDO ; PINTO, A. R. ; MANERICHI, GUILHERME ; VANELLI, BRUNO		
trabalhoCompletoEmCongresso	2016	http://dx.doi.org/10.1109/WETICE.2016.48	Context Management and Distribution Architecture Using Software-Defined Networking	2016 IEEE 25th International Conference on Enabling Technologies: Infrastructure for Collaborative Enterprises (WETICE)	SILVA, Madalena Pereira da ; NAZARIO, DEBORA CABRAL ; Dantas, M.A.R. ; GONCALVES, ALEXANDRE LEOPOLDO ; PINTO, A.R. ; MANERICHI, GUILHERME ; VANELLI, BRUNO		
trabalhoCompletoEmCongresso	2016		Implicações da implantação de sistemas erp em micro e pequenas empresas do setor varejista de calçados: um estudo multicasos	XXIII SIMPEP - GESTÃO DE OPERAÇÕES EM SERVIÇOS E SEUS IMPACTOS SOCIAIS	SILVA, S. M. ; BALTAZAR, R. O. ; TRIERWEILLER, A. C. ; ESTEVES, P. C. L. ; FREIRE, P. S.		
trabalhoCompletoEmCongresso	2016		MECANISMOS DE GESTÃO FLEXÍVEL COMO POTENCIALIZADORES DA INOVAÇÃO	VI Congresso Brasileiro de Engenharia da Produção	SILVA, T. C. ; BURGER, F. ; COUTO, R. M. ; FREIRE, P. S. ; SOUZA, João Artur de		
trabalhoCompletoEmCongresso	2016		CULTURA ORGANIZACIONAL VOLTADA PARA A IMPLANTAÇÃO DA GOVERNANÇA DO CONHECIMENTO	V Congresso Brasileiro de Engenharia de Produção - Conbrepo	SILVA, T. C. ; COUTO, M. R. ; FREIRE, P. S. ; DANDOLINI, G. A.		
trabalhoCompletoEmCongresso	2016		Uma Ontologia Para apoio à Sistemas de Recomendação baseados em Conhecimento	Congresso Internacional de Conhecimento e Inovação (ciKi)	SILVA, T. do N. da ; SÉRGIO, M. C. ; GONÇALVES, A. L.		
trabalhoCompletoEmCongresso	2016		The production of a gamified Learning Object accessible to people with visual or hearing disabilities for teaching Geometry	XI Latin American Conference on Learning Objects and Technology	SOMBRIO, G. S. ; Schimmelpfeng, L.E ; ULBRICHT, V. R.		
trabalhoCompletoEmCongresso	2016		FATORES DETERMINANTES E POSSÍVEIS BARREIRAS AO COMPARTILHAMENTO DE CONHECIMENTO NAS ORGANIZAÇÕES: UMA REVISÃO INTEGRATIVA	VI Congreso Internacional de Conocimiento e Innovación	SORDI, V. F. ; CUNHA, CRISTIANO JOSÉ CASTRO DE ALMEIDA		
trabalhoCompletoEmCongresso	2016		A CRIAÇÃO DE CONHECIMENTO COM BASE NO DESENVOLVIMENTO ÁGIL: UM ESTUDO DE CASO QUALITATIVO EM UMA EMPRESA DE TI DE FLORIANÓPOLIS	VI Congreso Internacional de Conocimiento e Innovación	SORDI, V. F. ; CUNHA, CRISTIANO JOSÉ CASTRO DE ALMEIDA ; ZACARKIM, V. L.		
trabalhoCompletoEmCongresso	2016		Criação de conhecimento na interação cliente-fornecedor: as organizações de serviços que aprendem e ensinam	VI Congreso Internacional e Conocimiento e Innovación	SORDI, V. F. ; EMMENDOERFER, L. ; VARVAKIS, G.		
trabalhoCompletoEmCongresso	2016		AS CONTRIBUIÇÕES DOS ARQUÉTIPOS PARA O DESIGN DE EXPERIÊNCIA DO USUÁRIO EM INTERFACES GRÁFICAS	12º Congresso Brasileiro de Pesquisa e Desenvolvimento em Design	SOUZA, F. M. ; FIALHO, FRANCISCO ANTONIO PEREIRA		
trabalhoCompletoEmCongresso	2016	http://dx.doi.org/10.1109/ISCC.2016.7543799	Architectural Recovering Model for Distributed Databases: A Reliability, Availability and Serviceability Approach	21st IEEE Symposium on Computers and Communications (ISCC)	SOUZA, R. H. DE ; FLORES, P. ; Dantas, M. A. R ; SIQUEIRA, Frank Augusto		
trabalhoCompletoEmCongresso	2016		Modelo Suportado por Dados Ligados para a Representação de Indicadores da Inovação Regional	VI Congresso Internacional de Conhecimento e Inovação (ciKi)	SPERONI, Rafael de Moura ; TRINDADE, E. P. ; MACEDO, M. ; GAUTHIER, F. A. O. ; BASTOS, R. C.		
trabalhoCompletoEmCongresso	2016		New Moodle Blocks for Knowledge Management	Social Computing in Digital Education	SPROCK, A. S. ; Vicari R. M.		
trabalhoCompletoEmCongresso	2016		Retenção de profissionais em organizações de pesquisa e desenvolvimento - percepção de dirigentes	VI Congresso Internacional de Conhecimento e Inovação	STEIL, A. V.; PENHA, M. M. ; CUFFA, Denise		
trabalhoCompletoEmCongresso	2016		Processo de Co-criação como Estratégia Competitiva: Análise e Identificação de Ideias para Implementação	Congresso Internacional de Conhecimento e Inovação (ciKi)	SÉRGIO, M. C. ; SILVA, T. do N. da ; GONÇALVES, A. L.		
trabalhoCompletoEmCongresso	2016		Representação de Processos de Negócios e Representação de Conhecimento	Congresso Internacional de Conhecimento e Inovação (ciKi)	SÉRGIO, M. C. ; SILVA, T. do N. da ; GONÇALVES, A. L.		
trabalhoCompletoEmCongresso	2016		Expert Profiling: Um Modelo Para Extração Automática de Perfil de Especialista Para Apoio À Expertise Location e À Gestão do Conhecimento	13o Congresso Brasileiro de Gestão do Conhecimento	TAXWEILER, R. ; SELL, Denilson ; Todesco, José Leomar ; MONTENEGRO, F. B. ; SELIG, P. M.		
trabalhoCompletoEmCongresso	2016		Estratégias Catarinenses para inovação	Conferência ANPROTEC	TEIXEIRA, Clarissa Stefani; VOGEL, Jean Carlo ; RÉUS, I. ; LEONEL, Carlos Eduardo Lozano ; BASTOS, Debora		
trabalhoCompletoEmCongresso	2016		A CRIATIVIDADE EM EQUIPES DE DESIGN: UMA RELAÇÃO ENTRE FATORES INFLUENTES E TÉCNICAS DE GRUPOS	12º Congresso Brasileiro de Pesquisa e Desenvolvimento em Design	THALER, A. ; FIALHO, FRANCISCO ANTONIO PEREIRA ; GONÇALVES, Berenice Santos ; CASSOL, M.		
trabalhoCompletoEmCongresso	2016		Background and analysis of Ciudad del Saber	Congresso Internacional de Conocimento e Innovación	TIBINCOVSKI, João Vitor de Souza ; RAMOS, Danielle Nunes ; GASPAR, Jadhi Vincki ; TEIXEIRA, Clarissa Stefani		
trabalhoCompletoEmCongresso	2016		ANÁLISE DA GESTÃO DA INOVAÇÃO EM UNIVERSIDADES NOS CONTEXTOS DE SISTEMAS DE INOVAÇÃO	26ª Conferência Anprotec	TRINDADE, E. P. ; GAUTHIER, F. A. O. ; BASTOS, R. C. ; AMANTE, C. J. ; BUSS, M. O.		
trabalhoCompletoEmCongresso	2016		Alternatives for Knowledge Management Implementation in SME?s: A Case Study With Tree Enterprises of Santa Catarina State	International Forum on /knowledge Asset Dynamics - IFKAD	TRINDADE, E. P. ; GAUTHIER, F. A. O. ; MACEDO, M.		
trabalhoCompletoEmCongresso	2016		E-gov como ferramenta de governança para cidades inteligentes, um estudo de casos entre brasil e colômbia	CIKI 2016	TRINDADE, E. P. ; MEZZAROBA, M. ; CARNEIRO, M. ; FIALHO, FRANCISCO ANTONIO PEREIRA		
trabalhoCompletoEmCongresso	2016		A Integração da Tríplice Hélice em São Bento do Sul	Conferência ANPROTEC	TSCHOEKE, Osvalmir ; SCHREINER, Tatiana ; CRISTOFONILI, José ; ALANDT, Ingo Rusch ; TEIXEIRA, Clarissa Stefani		
trabalhoCompletoEmCongresso	2016		iEnsemble: A Framework for Committee Machine based On Multiagent Systems with Reinforcement Learning	15th Mexican International Conference on Artificial Intelligence	UBER JUNIOR, A. ; de Freitas Filho, Paulo José ; Silveira, R.A. ; Costa e Lima, M. D. ; ERPEN, A.		
trabalhoCompletoEmCongresso	2016		CONSTRUÇÃO DE UMA ONTOLOGIA DE DOMÍNIO NO ÂMBITO EDUCACIONAL UTILIZANDO O PROTÉGÉ E O ONTOKEM	VI CONGRESO INTERNACIONAL DE CONOCIMIENTO E INNOVACION	VALDATI, A. B. ; ROCHADEL, W. ; DE SOUZA, JOÃO ARTUR		
trabalhoCompletoEmCongresso	2016		SELEÇÃO DE IDEIAS: BUSCA SISTEMÁTICA DA LITERATURA E BIBLIOMETRIA	IV CONGRESO INTERNACIONAL DE CONOCIMIENTO E INNOVACIÓN	VALDATI, A. B. ; ROCHADEL, W. ; FREIRE, P. S. ; DANDOLINI, G. A.		
trabalhoCompletoEmCongresso	2016		O Uso de VCoPs para Fins de Inovação Segundo Percepção de Seus Membros	13o. Congresso Brasileiro em Gestão do Conhecimento - KM Brasil	WILBERT, J. K. W. ; OLIVEIRA, I. C. G. ; Steil, A. V. ; DANDOLINI, G. A. ; DE SOUZA, JOÃO ARTUR		
trabalhoCompletoEmCongresso	2016		ABORDAGEM DE AQUISIÇÃO DE CONHECIMENTO PARA IDENTIFICAR COMPETÊNCIAS-CHAVE DE LÍDERES EM INICIATIVA DE MELHORIA DE PROCESSO DE SOFTWARE	VI Congreso Internacional de Conocimiento e Innovación	ZOUCAS, A. C. ; CUNHA, CRISTIANO JOSÉ CASTRO DE ALMEIDA		
resumoExpandidoEmCongresso	2016	Webquest e gamificação como estratégia de aprendizagem no ensino superior: experimento piloto envolvendo um objeto de aprendizagem	SBGames, 2016, São Paulo. Anais do SBGames 2016	DUBIELA, R. P. ; SILVA, C. H. ; PADOVANI, S. ; ULBRICHT, V. R.		
resumoExpandidoEmCongresso	2016	Cuestionario Difuso de Estilos de Aprendizaje Basado en el Modelo de Felder y Silverman	11° CONFERENCIA LATINOAMERICANA DE OBJETOS Y TECNOLOGÍAS DE APRENDIZAJE - LACLO, 2016, San Carlos, Alajuela. Cuestionario Difuso de Estilos de Aprendizaje Basado en el Modelo de Felder y Silverman	SPROCK, A. S. ; Vicari R. M. ; GALLEGOS, J. P.		
resumoExpandidoEmCongresso	2016	As cidades sob a perspectiva da complexidade	VI Congresso Internacional de Conhecimento e Inovação, ciKi., 2016, Florianópolis. Anais do VI Congresso Internacional de Conhecimento e inovação	TARACHUCKY, L. ; BALDESSAR, M. J.		
