0163735914142185
5138758521691630
5353319785806627
0512122110804047
3451735515197297
2900995280822495
4838614492836820
9274837225584499
1472689109850138
7242368838666168
7383221421443606
7634477387447702
4046984728286369
6695591100082194
8153758173673961
3098548295086867
1602495591542111
9722066254398087
1282804646377460
1017331751698527
2747052673337424
4889416945801003
5098313138514050
4005300337391516
0196218903676581
0628224413850063
8977816806473448
5966868764284331
1586141465559053
5695753044496038
9955844127080187
9580200413725994
6668948766545628
9456227813420650
8542512634940524
9547378691159321
2693759912446687
0396579652444165
8018788492846096
4712989817231486
4588973096462209
