6267844431389182
8060875213921446
4045461101775296
9571488360812994
6741026914548492
8444210181194986
9369928320175297
6003210915464722
8725620123788586
5229442671399164
7830368617720691
2158499051567196
8239871300802542
4747844086411846
9562911881045203
5494459022670775
7307702766087200
6523255861320165
9702430844330119
4519888592231795
8911895513681203
3347242466053445
0831388652787701
9098047398813476
9970894005778087
2150558011507981
