strict graph grafo1 {
	graph [bb="0,0,1369.9,233",
		id=grafo1,
		overlap=False
	];
	node [fontsize=8,
		label="\N",
		shape=rectangle,
		style=filled
	];
	0	 [URL="http://lattes.cnpq.br/1161317972489632",
		color="#17272B",
		fontcolor="#FFFFFF",
		height=0.23611,
		label="Roberto Aizik Tenenbaum [6]",
		pos="145.99,224.5",
		width=1.5694];
	6	 [URL="http://lattes.cnpq.br/1627016864213973",
		color="#17272B",
		fontcolor="#FFFFFF",
		height=0.23611,
		label="Leonardo Tavares Stutz [12]",
		pos="145.99,170.5",
		width=1.5];
	0 -- 6	 [pos="145.99,215.83 145.99,206 145.99,189.05 145.99,179.2"];
	9	 [URL="http://lattes.cnpq.br/1743826010794846",
		color="#17272B",
		fontcolor="#FFFFFF",
		height=0.23611,
		label="Diego Campos Knupp [13]",
		pos="198.99,116.5",
		width=1.4306];
	6 -- 9	 [pos="153.81,161.83 163.83,152 181.1,135.05 191.14,125.2"];
	13	 [URL="http://lattes.cnpq.br/6725653281197187",
		color="#17272B",
		fontcolor="#FFFFFF",
		height=0.23611,
		label="Ivan Napoleão Bastos [13]",
		pos="395.99,62.5",
		width=1.4167];
	9 -- 13	 [pos="227.63,107.94 264.98,98.08 329.94,80.934 367.31,71.07"];
	14	 [URL="http://lattes.cnpq.br/9634798722030132",
		color="#17272B",
		fontcolor="#FFFFFF",
		height=0.23611,
		label="Joao F. Vieira de Vasconcellos [4]",
		pos="262.99,62.5",
		width=1.7639];
	9 -- 14	 [pos="208.43,107.83 220.53,97.996 241.39,81.051 253.51,71.204"];
	18	 [URL="http://lattes.cnpq.br/0608816393004565",
		color="#17272B",
		fontcolor="#FFFFFF",
		height=0.23611,
		label="Leôncio D. Tavares Câmara [3]",
		pos="121.99,62.5",
		width=1.6389];
	9 -- 18	 [pos="187.63,107.83 172.99,97.939 147.69,80.856 133.15,71.035"];
	16	 [URL="http://lattes.cnpq.br/5759364958802333",
		color="#17272B",
		fontcolor="#FFFFFF",
		height=0.23611,
		label="Ricardo Fabbri [4]",
		pos="395.99,8.5",
		width=1.0556];
	13 -- 16	 [pos="395.99,53.827 395.99,43.996 395.99,27.051 395.99,17.204"];
	1	 [URL="http://lattes.cnpq.br/0543546857869709",
		color="#17272B",
		fontcolor="#FFFFFF",
		height=0.23611,
		label="Luiz N. H. Guedes de Oliveira [0]",
		pos="283.99,224.5",
		width=1.75];
	2	 [URL="http://lattes.cnpq.br/6419554168530740",
		color="#17272B",
		fontcolor="#FFFFFF",
		height=0.23611,
		label="Joaquim Teixeira de Assis [0]",
		pos="420.99,224.5",
		width=1.5556];
	3	 [URL="http://lattes.cnpq.br/0109837868064895",
		color="#17272B",
		fontcolor="#FFFFFF",
		height=0.23611,
		label="Roberto Pinheiro Domingos [10]",
		pos="278.99,170.5",
		width=1.6944];
	3 -- 9	 [pos="267.18,161.83 251.97,151.94 225.69,134.86 210.58,125.04"];
	3 -- 13	 [pos="279.37,161.65 280.38,148.82 284.13,123.2 297.99,107.5 314.65,88.623 340.99,77.419 362.17,71.045"];
	11	 [URL="http://lattes.cnpq.br/4140908385855725",
		color="#17272B",
		fontcolor="#FFFFFF",
		height=0.23611,
		label="Gustavo Mendes Platt [11]",
		pos="357.99,116.5",
		width=1.4167];
	3 -- 11	 [pos="290.65,161.83 305.67,151.94 331.62,134.86 346.54,125.04"];
	3 -- 16	 [pos="225.61,161.99 143.24,148.3 0,114.88 53.988,53.5 73.831,30.941 272.86,16.705 357.85,11.611"];
	11 -- 13	 [pos="363.6,107.83 370.78,97.996 383.16,81.051 390.36,71.204"];
	11 -- 14	 [pos="343.97,107.83 325.91,97.939 294.7,80.856 276.76,71.035"];
	4	 [URL="http://lattes.cnpq.br/8300604408079168",
		color="#17272B",
		fontcolor="#FFFFFF",
		height=0.23611,
		label="Ricardo Carvalho de Barros [0]",
		pos="553.99,224.5",
		width=1.625];
	5	 [URL="http://lattes.cnpq.br/6601368978577012",
		color="#17272B",
		fontcolor="#FFFFFF",
		height=0.23611,
		label="Pedro P. G. Watts Rodrigues [0]",
		pos="690.99,224.5",
		width=1.6667];
	7	 [URL="http://lattes.cnpq.br/8409134275489376",
		color="#17272B",
		fontcolor="#FFFFFF",
		height=0.23611,
		label="Josë A. da Silva Neto [0]",
		pos="817.99,224.5",
		width=1.3472];
	8	 [URL="http://lattes.cnpq.br/6680742566331144",
		color="#17272B",
		fontcolor="#FFFFFF",
		height=0.23611,
		label="Francisco D. Moura Neto [8]",
		pos="436.99,170.5",
		width=1.5278];
	8 -- 13	 [pos="435.05,161.72 431.99,149.84 425.6,126.52 417.99,107.5 412.72,94.337 405.04,79.744 400.28,71.11"];
	8 -- 11	 [pos="425.33,161.83 410.31,151.94 384.36,134.86 369.44,125.04"];
	8 -- 16	 [pos="441.2,161.97 451.34,142.75 474.9,90.817 455.99,53.5 447.29,36.332 428.39,24.243 414.11,17.137"];
	10	 [URL="http://lattes.cnpq.br/1999072996132654",
		color="#17272B",
		fontcolor="#FFFFFF",
		height=0.23611,
		label="Helio P. Amaral Souto [0]",
		pos="934.99,224.5",
		width=1.4028];
	12	 [URL="http://lattes.cnpq.br/2182469523085517",
		color="#17272B",
		fontcolor="#FFFFFF",
		height=0.23611,
		label="Anderson Amendoeira Namen [0]",
		pos="1066.9,224.5",
		width=1.75];
	15	 [URL="http://lattes.cnpq.br/1089015137026377",
		color="#17272B",
		fontcolor="#FFFFFF",
		height=0.23611,
		label="Hermes Alves Filho [0]",
		pos="1193.9,224.5",
		width=1.2778];
	17	 [URL="http://lattes.cnpq.br/9401814864083219",
		color="#17272B",
		fontcolor="#FFFFFF",
		height=0.23611,
		label="Daiara Fernandes de Faria [0]",
		pos="1313.9,224.5",
		width=1.5556];
}
