artigoEmPeriodico	2016		Mapas Conceituais e Storyboard como Metodologia para a Produção de Aplicativo Gamificado para o Ensino de Ciências	REDES.COM (SEVILLA)	AMÉRICO, M.; GRANDE, F. C.	B2	
artigoEmPeriodico	2016	http://dx.doi.org/10.21723/RIAEE.v11.esp.1.p363	DESENVOLVIMENTO DE SISTEMAS GAMIFICADOS COM FOCO NO EDUTRETENIMENTO E NO JOGADOR: UMA ANÁLISE DOS ARQUÉTIPOS DE BARTLE E MARCZEWSKI	REVISTA IBERO-AMERICANA DE ESTUDOS EM EDUCAÇÃO	AMÉRICO, M.; NAVARI, S. C. ; GRANDE, F. C.	B1	Revista Ibero-Americana de Estudos em Educação
artigoEmPeriodico	2016		Vídeo-documentário transmídia sobre a Associação Ferroviária de Esportes: duas décadas	Multiplicidades	AMÉRICO, MARCOS; CARDOZO, P. H. R.	B5	
artigoEmPeriodico	2016	http://dx.doi.org/10.1007/s11042-016-3417-z	QRcode, hashtag or audio watermark? A case study on second screening	Multimedia Tools and Applications	ANGELUCI, ALAN CÉSAR BELO ; CALIXTO, GUSTAVO MOREIRA ; BEVILAQUA, LEIRE MARA ; BERNARDINI, Gleice ; GOBBI, Maria Cristina	B1	
artigoEmPeriodico	2016		Jogos digitais e competência em informação como instrumento de gestão: uma inter-relação para a competitividade das organizações contemporâneas	Multiplicidades	BELLUZZO, R. C. B.; ANTUNES, D. L.	B5	
artigoEmPeriodico	2016		Educação e inovação: o desafio da Escola Brasileira	Revista Tendéncias Pedagogicas - Universidad Autónoma de Madrid	BIZELLI, J. L.; Heredero, Eladio Sebastian	Qualis nao identificado	Revista Tendéncias Pedagogicas - Universidad Autónoma de Madrid
artigoEmPeriodico	2016		Culinária Tradicional no programa MasterChef	Razón y Palabra	BOTELHO, Daira Martins ; KONDLATSCH, R. ; GOBBI, M., MARIA CRISTINA	B1	
artigoEmPeriodico	2016		DOCUMENTÁRIO TRANSMÍDIA SOBRE A ASSOCIAÇÃO FERROVIÁRIA DE ESPORTES: DUAS DÉCADAS	Multiplicidades	CARDOZO, P. H. R. ; AMÉRICO, M.	B5	
artigoEmPeriodico	2016		Regulação de conteúdo - uma questão política ou social?	Multiplicidades	CARVALHO, Juliano M.; BELLUZZO, R. C. B. ; ANTUNES, D. L.	B5	
artigoEmPeriodico	2016		A TV Cultura e seu papel no processo de implantação da multiprogramação no Brasil	Cadernos de Comunicação (UFSM)	CARVALHO, Juliano M.; CARDOSO, V. L.	Qualis nao identificado	Cadernos de Comunicação (UFSM)
artigoEmPeriodico	2016		O desenvolvimento da regulamentação das televisões pública e educativa no Brasil	Revista Latinoamericana de Ciencias de la Comunicación	CARVALHO, Juliano M.; CARDOSO, V. L.	B1	
artigoEmPeriodico	2016	http://dx.doi.org/10.22633/rpge.v20.n2.9458	Caminhos para as TIC em sala de aula sob a perspectiva dos professores	Política e Gestão Educacional (Online)	DARIDO DA CUNHA, MAÍRA ; BIZELLI, JOSÉ LUÍS	Qualis nao identificado	Política e Gestão Educacional (Online)
artigoEmPeriodico	2016	http://dx.doi.org/10.1007/s40313-016-0249-z	Intelligent Control Architecture for Assistive Mobile Robots	Journal of Control, Automation and Electrical Systems	DOS REIS ALVES, SILAS FRANCO ; FERASOLI FILHO, HUMBERTO	Qualis nao identificado	Journal of Control, Automation and Electrical Systems
artigoEmPeriodico	2016		Tempos de convergência: o perfil digital do jovem universitário da UFAC	Paradoxos	DREVES, Aleta Teresa ; GOBBI, Maria Cristina	Qualis nao identificado	Paradoxos
artigoEmPeriodico	2016		O ensino de 'Teorias da Comunicação' no Nordeste do Brasil: Subsídios para refletir sobre a produção teórico-comunicativa Latino-Americana	Animus (Santa Maria. Online)	GOBBI, M., MARIA CRISTINA; SANTOS, A. J. S. ; ROSA, B. N. ; KOMONO, E. S. M. ; NASCIMENTO, M. S.	B1	
artigoEmPeriodico	2016		Projeto Memória Etapa Folk: Revista Internacional de Folkcomunicação	Revista Internacional de Folkcomunicação	GOBBI, Maria Cristina; BETTI, Juliana Gobbi	B3	
artigoEmPeriodico	2016		Capacitação profissional através do lúdico. Experiência interdisciplinar do design e da comunicação	Paradoxos	GOBBI, Maria Cristina; DOMICIANO, C. L. C.	Qualis nao identificado	Paradoxos
artigoEmPeriodico	2016		Abertura do processo de impeachment na Câmara Federal em 2016: uma análise da cobertura noticiosa pela TV Brasil e Rede Globo	Pauta Geral - Estudos em Jornalismo	GODOY, J. M. ; GOBBI, Maria Cristina	Qualis nao identificado	Pauta Geral - Estudos em Jornalismo
artigoEmPeriodico	2016	http://dx.doi.org/10.1007/s11554-016-0623-x	Efficient parallelization on GPU of an image smoothing method based on a variational model	Journal of Real-Time Image Processing (Print)	GULO, CARLOS A. S. J. ; DE ARRUDA, HENRIQUE F. ; DE ARAUJO, ALEX F. ; SEMENTILLE, ANTONIO C. ; TAVARES, JOÃO MANUEL R. S.	Qualis nao identificado	Journal of Real-Time Image Processing (Print)
artigoEmPeriodico	2016	http://dx.doi.org/10.12804/disertaciones.09.02.2016.04	O CAMPO ACADÊMICO-CIENTÍFICO DA COMUNICAÇÃO NO BRASIL: PANORAMA, CONSTITUIÇÃO E PERSPECTIVAS	Anuario Estudios en Comunicación Social Disertaciones	KUNSCH, M., MARGARIDA MARIA ; GOBBI, M., MARIA CRISTINA	B4	
artigoEmPeriodico	2016		Cenário e perspectiva da produção científica sobre competência em informação (CoInfo) no Brasil: estudo da produção no âmbito da ANCIB	Informação & Sociedade (UFPB. Online)	LEITE, C. ; SIMEAO, E. L. M. S. ; NUNES, E. M. A. ; BRANCO, F. C. ; FERES, G. G. ; FREIRE, I. M. ; BELLUZZO, R. C. B.	A2	
artigoEmPeriodico	2016		O desafio da formação e do trabalho do jornalista na ?era da informação?	Leituras do Jornalismo	MAGNONI, A. F.; GARRIDO, B. A.	Qualis nao identificado	Leituras do Jornalismo
artigoEmPeriodico	2016		Multidimensional Wavelet Neural Networks Based on Polynomial Powers of Sigmoid: A Framework to Image Verification	DATJournal: Design, Art and Technology	MARAR, J. F.; BORDIN, A.	Qualis nao identificado	DATJournal: Design, Art and Technology
artigoEmPeriodico	2016		Multidimensional wavelet neural networks Based on polynomial powers of sigmoid: a framework to image verification	DATJournal Design Art and Technology	MARAR, J. F.; BORDIN, A. B.	Qualis nao identificado	DATJournal Design Art and Technology
artigoEmPeriodico	2016	http://dx.doi.org/10.21723/riaee.v11.esp2.p1059-1071	Atendimento educacional para alunos com necessidades educativas especiais na Espanha	Revista Ibero-Americana de Estudos em Educação	MATTOS, MARIA ODETE DE ; BIZELLI, JOSÉ LUÍS	B1	
artigoEmPeriodico	2016		Os meandros de uma comunicação (hiper)local em um cenário rural	Pauta Geral â013 Estudos em Jornalismo	MIRANDA, G. V. ; MAGNONI, A. F.	Qualis nao identificado	Pauta Geral â013 Estudos em Jornalismo
artigoEmPeriodico	2016		Cenários de possibilidades e desafios para o jornalismo radiofônico local	Rádio-Leituras	MIRANDA, G. V. ; MAGNONI, A. F.	B4	
artigoEmPeriodico	2016	http://dx.doi.org/10.21204/2359-375x/ancora.v3n1p214-230	Rural e (Hiper)Local: Novas Possibilidades Jornalísticas	ÂNCORA - Revista Latino-americana de Jornalismo	MIRANDA, G. V. ; MAGNONI, A. F.	Qualis nao identificado	ÂNCORA - Revista Latino-americana de Jornalismo
artigoEmPeriodico	2016		Desenvolvimento de sistemas gamificados com foco no edutretenimento e no jogador: uma análise dos arquétipos de Bartle e Marczewski (impresso)	Revista Ibero-Americana de Estudos em Educação	NAVARI, S. C. ; GRANDE, F. C. ; AMÉRICO, M.	B1	
artigoEmPeriodico	2016		Dos 'novos novos' cidadãos aos 'novos novos' movimentos sociais	Extraprensa (USP)	OLIVEIRA, J. D. ; RENO, Denis P.	B2	
artigoEmPeriodico	2016		A importância da gestão da comunicação e da informação nas empresas socialmente responsáveis	Multiplicidades	POREM, M.E. ; BELLUZZO, R. C. B.	B5	
artigoEmPeriodico	2016		Reportagem: o gênero sob medida para o jornalismo contemporâneo	Chasqui_ Revista Latinoamericana de Comunicación	RENO, Denis P.; GONCALVES, Elizabeth M. ; SANTOS, M.	Qualis nao identificado	Chasqui_ Revista Latinoamericana de Comunicación
artigoEmPeriodico	2016		Reportagem: o gênero sob medida para o jornalismo contemporâneo	Revista Latinoamericana Comunicación Chasqui	RENO, Denis P.; GONCALVES, Elizabeth M. ; SANTOS, M.	B2	
artigoEmPeriodico	2016		Times Video: o papel estratégico da produção audiovisual no The New York Times	Razón y Palabra	RENO, Denis P.; PENTEADO, J. D. O.	B1	
artigoEmPeriodico	2016		Dos 'novos novos' cidadãos aos 'novos novos' movimentos sociais	Revista Extraprensa	RENO, Denis P.; PENTEADO, J. D. O.	B3	
artigoEmPeriodico	2016		Interatividade, canal de retorno e mobilidade na TV Digital	Multiplicidades	RIBEIRO, C. E. T. ; ANTUNES, M. A. M. ; ANTUNES, D. L. ; ANTUNES, J. M. ; BELLUZZO, R. C. B.	B5	
artigoEmPeriodico	2016		Estudo teórico-prático sobre a competência em informação como fator de interação entre a ciência da informação e história da ciência com o uso de abordagens qualitativas	Cadernos de Educação, Tecnologia e Sociedade	Rosetto, M. ; BELLUZZO, R. C. B.	Qualis nao identificado	Cadernos de Educação, Tecnologia e Sociedade
artigoEmPeriodico	2016		Metodologias Ativas no processo de ensino-aprendizagem de Relações Públicas: inovações pedagógicas na era da comunicação reticular	Memorias del ALAIC	SANTOS, C. M. R. G.; CABRAL, R. ; ANDRELO, Roseane ; POREM, M.Eugenia ; RUIZ, Angelica A. P. L.	Qualis nao identificado	Memorias del ALAIC
artigoEmPeriodico	2016		Educación para los medios e interculturalidad: una experiencia de enseñanza-aprendizaje para la lectura crítica de los médios	RAZÓN Y PALABRA	SANTOS, C. M. R. G.; POREM, M.Eugenia ; CABRAL, R. ; ANDRELO, R. ; GUARALDO, T. S. B.	B1	
artigoEmPeriodico	2016		Competência em informação (CoInfo) no bibliotecário protagonista: estudo do perfil da Rede de Bibliotecas de Pesquisa do MCTIC à luz do Diagrama Belluzzo	Inclusão Social (Impresso)	SANTOS, R. B. ; SIMEAO, E. L. M. S. ; BELLUZZO, R. C. B.	Qualis nao identificado	Inclusão Social (Impresso)
artigoEmPeriodico	2016		A competência em informação em articulação com a inteligência competitiva no apoio ao alinhamento estratégico das informações nas organizações	Perspectivas em Gestão & Conhecimento	SANTOS, V. C. B. ; SANTOS, C. A. ; BELLUZZO, R. C. B.	B1	
artigoEmPeriodico	2016		Análise semiótica da hipermídia: um estudo do web documentário ?One Millionth Tower?	Temática (João Pessoa. Online)	SYLVESTRE, H. S. ; AFFINI, L. P.	B4	
artigoEmPeriodico	2016		Interação humano-computador: técnicas de desenvolvimento de mobiles	Multiplicidades	TAVARES, H. L. ; RIBEIRO, C. E. T. ; ANTUNES, M. A. M. ; ANTUNES, D. L. ; ANTUNES, J. M. ; BELLUZZO, R. C. B.	B5	
artigoEmPeriodico	2016		Explorando a Interatividade na TV Digital: Desenvolvimento de um Aplicativo no GINGA	Multiplicidades	TORRES, C. T. ; ALBINO, João Pedro ; ANTUNES, M. A. M. ; RIBEIRO, C. E. T.	B5	
artigoEmPeriodico	2016		Beacons e a Ponte UX: Controle da informação em instituições de Ensino	Multiplicidades	TORRES, C. T. ; ALBINO, João Pedro ; CARVALHO, R. G. ; PRADO, M. S.	B5	
artigoEmPeriodico	2016		Indústrias Culturais: O reinado da internet e as influencias nas transformações nas indústrias culturais.	Multiplicidades	TORRES, C. T. ; ALBINO, João Pedro ; MORGADO, Eduardo Martins ; ANTUNES, M. A. M. ; NEVES, M. J.	B5	
artigoEmPeriodico	2016		Infográfico - narrativa visual para o jornalismo de investigação	Multiplicidades	VALENTE, V. C. P. N.; DOMICIANO, M. A. L.	B5	
artigoEmPeriodico	2016		Infogame: edutretenimento para a orientação profissional	Multiplicidades	AMÉRICO, MARCOS; VALENTE, V. C. P. N. ; DOMICIANO, M. A. L. ; PERRENOUD, C.	B5	
artigoEmPeriodico	2016		A competência em informação e o perfil empreendedor no âmbito das organizações	Perspectivas em Gestão & Conhecimento	ZUCCARI, P. ; BELLUZZO, R. C. B.	B1	
trabalhoCompletoEmCongresso	2016		Uma Abordagem para Criação de Valor em Dados Abertos para Pequenas e Médias Empresas Utilizando o Ecossistema R	3o. Encontro Internacional de Dados	ALBINO, João Pedro		
trabalhoCompletoEmCongresso	2016		Transmídia, Edutretenimento E Infotretenimento: Aproximações Contemporâneas	SIED:EnPED:2016	AMÉRICO, M.; CARDOZO, P. H. R.		
trabalhoCompletoEmCongresso	2016		Apontamentos sobre a utilização dos conceitos de conectivismo e inteligência coletiva no curso on-line ?fundamentos do Google para o ensino?	III Congresso Nacional de Formação de Professores e XIII Congresso Estadual Paulista sobre Formação de Educadores ? Profissão de Professor: cenários	AMÉRICO, MARCOS; SANTOS, J. F. T. S. ; MAGNONI, M. G. M. ; SBROGIO, R. O.		
trabalhoCompletoEmCongresso	2016		Supergenius: concepção e desenvolvimento de um jogo de cartas para-didático de divulgação científica e cultural	Simpósio Brasileiro de Jogos e Entretenimento Digital	BELDA, Francisco Rolfsen		
trabalhoCompletoEmCongresso	2016		Inclusão digital na 3a idade: uma necessidade esquecida	5º Ergotrip Design : Design	CAMARGO, M. ; FAKHOURY, R. S. ; BORDIN, A. ; MARAR, J. F.		
trabalhoCompletoEmCongresso	2016		TERCEIRA IDADE CONECTADA: UM ESTUDO PILOTO PARA O USO DE SERIOUS GAMES NA INCLUSÃO DIGITAL PARA IDOSOS	: III Encontro Científico Multidiciplinar FAAG	CAMARGO, M. ; FAKHOURY, R. S. ; MARAR, J. F.		
trabalhoCompletoEmCongresso	2016		A Ubiquidade na Educação a Distância e as Tecnologias de Informação e Comunicação: reflexões educacionais contemporâneas	XXXIX Congresso Brasileiro de Ciências da Comunicação.	CARAM, N. R. ; BIZELLI, JOSÉ LUÍS		
trabalhoCompletoEmCongresso	2016		Inclusão Digital e Cidadania: um olhar sobre o Programa Acessa SP, seus potenciais e limites	Intercom ? Sociedade Brasileira de Estudos Interdisciplinares da Comunicação	CARVALHO, Juliano M.; LOURENCO, A. L.		
trabalhoCompletoEmCongresso	2016		Mercado produtor de Jogos Digitais no Brasil: um panorama histórico	III Congresso Internacional Red INAV	CARVALHO, Juliano M.; ZAMBON, P. S.		
trabalhoCompletoEmCongresso	2016		Ensino Híbrido e as TIC no Ensino Superior	XXXIX Congresso Brasileiro de Ciências da Comunicação.	CRUZ, J. A. S. ; Arxer, E. A. ; BIZELLI, JOSÉ LUÍS		
trabalhoCompletoEmCongresso	2016		Metodologias ativas no ensino superior: ensino híbrido ?blended learning?	V Simpósio Nacional de Ensino de Ciência e Tecnologia - SINECT	CRUZ, J. A. S. ; Arxer, E. A. ; CUNHA, A. K. ; BIZELLI, JOSÉ LUÍS		
trabalhoCompletoEmCongresso	2016		Novas mídias: tecnologias e formação de professores para o ensino superior	III Congresso Nacional de Formação de Professores (CNFP) e XIII Congresso Estadual Paulista sobre Formação de Educadores (CEPFE)	CRUZ, J. A. S. ; BIZELLI, J. L.		
trabalhoCompletoEmCongresso	2016		Produções de sentido nas fotografias das capas do jornal Clarín sobre o afastamento da presidente Dilma Rousseff	II Simpósio Internacional Pensar e Repensar a América Latina	DINIZ, T. V. G. ; GOBBI, Maria Cristina		
trabalhoCompletoEmCongresso	2016		O Uso de Representações Tridimensionais no Entendimento de Projetos Arquitetônicos	III Encontro Internacional de Dados	FAKHOURY, Renata Svizzero ; CAMARGO, Mayckel Barbosa de Oliveira ; AGUILAR, I. A. ; MARAR, J. F. ; SEMENTILLE, A. C.		
trabalhoCompletoEmCongresso	2016		'Imprensa Negra'. Um olhar sobre a história da resistência no jornalismo brasileiro	XIII Congreso Latinoamericano de Investigadores de la Comunicación	GOBBI, Maria Cristina; BETTI, Juliana Cristina Gobbi		
trabalhoCompletoEmCongresso	2016		SICOM-PET ? Notícias Audiovisual	II Jornada Internacional GEMInIS (JIG 2016)	MAGNONI, A. F		
trabalhoCompletoEmCongresso	2016		Oficinas de produção de protótipos e jogos digitais de narrativas interativas do tipo visual novels	II Jornada Internacional GEMInIS (JIG 2016)	MAGNONI, A. F.; AZEVEDO, J. L.		
trabalhoCompletoEmCongresso	2016		Captação de recursos para projetos audiovisuais de TCCs na universidade pública	II Jornada Internacional GEMInIS (JIG 2016)	MAGNONI, A. F.; AZEVEDO, J. L.		
trabalhoCompletoEmCongresso	2016		Roteirizando 'Macunaíma' Para Os Games - Narrativa Interativa, Não Linear E Multirramificad	7º Seminário Histórias de Roteiristas ? Roteiristas em Ponto de Virada	MAGNONI, A. F.; AZEVEDO, J. L.		
trabalhoCompletoEmCongresso	2016		Adaptando ?Macunaíma? para os Games: modelagem e prototipagem de Jogos Digitais para Ciências Sociais e Linguagens na Educação Básica	XV Simpósio Brasileiro de Jogos e Entretenimento Digital	Magnoni, A. F.; AZEVEDO, J. L.		
trabalhoCompletoEmCongresso	2016		Na Trilha de Macunaíma	7º Seminário Histórias de Roteiristas ? Roteiristas em Ponto de Virada	MAGNONI, A. F.; AZEVEDO, J. L.		
trabalhoCompletoEmCongresso	2016		PET-RTV ? Programa De Educação Tutorial Interdisciplinar Em Rádio Televisão	II Jornada Internacional GEMInIS (JIG 2016)	MAGNONI, A. F.; AZEVEDO, J. L. ; CHAGAS, C. J. R. ; SANTOS, S. C.		
trabalhoCompletoEmCongresso	2016		Narrativas multi-ramificadas e dilemas morais	II Jornada Internacional GEMInIS (JIG 2016)	MAGNONI, A. F.; CHAGAS, C. J. R.		
trabalhoCompletoEmCongresso	2016		A conjuntura econômica e o desafio do audiovisual brasileiro	II Jornada Internacional GEMInIS (JIG 2016)	MAGNONI, A. F.; SANTOS, F. J. A.		
trabalhoCompletoEmCongresso	2016		COMUNICA-NER	II Jornada Internacional GEMInIS (JIG 2016)	MAGNONI, A. F.; SANTOS, S. C. ; MELLO, M. F. C.		
trabalhoCompletoEmCongresso	2016		A tecnologia no episódio ?Be right back?, da segunda temporada de ?Black Mirror?: as relações com ?software takes command?, de Lev Manovich	II Jornada Internacional GEMInIS (JIG 2016)	MAGNONI, A. F.; SILVA, S. R. ; BRESSAN, D. L.		
trabalhoCompletoEmCongresso	2016		A convergência de tecnologias digitais como ampliadora de oportunidades de aprendizagem	II Jornada Internacional GEMInIS (JIG 2016)	MAGNONI, A. F.; SOUZA, A. C. M.		
trabalhoCompletoEmCongresso	2016		Conteúdo audiovisual do Curso de Pedagogia semipresencial da Unesp/Univesp	II Jornada Internacional GEMInIS:Entretenimento Transmídia: Conteúdos Multiplataformas	MARTINEZ, D. E. G. ; BIZELLI, J. L.		
trabalhoCompletoEmCongresso	2016		UOL TAB: GRANDE REPORTAGEM REVISITADA	II Jornada Internacional Geminis ?Entretenimento Transmídia: Conteúdos Multiplataformas?	PEREIRA, J. R. ; AFFINI, L. P.		
trabalhoCompletoEmCongresso	2016		A ESTRUTURA TEMPORAL NA NARRATIVA COMPLEXA: estudo de caso da série ?How to Get Away with Murder?	II Jornada Internacional Geminis ?Entretenimento Transmídia: Conteúdos Multiplataformas?	PIVA, H. C. ; AFFINI, L. P.		
trabalhoCompletoEmCongresso	2016		Ambiente baseado em Emoções para Interação Humano-Robô	XXI Congresso Brasileiro de Automática (CBA 2016)	RANIERI, C. ; FERASOLI FILHO, HUMBERTO ; ROMERO, R.		
trabalhoCompletoEmCongresso	2016		A Mobile Virtual Character with Emotion-Aware Strategies for Human-Robot Interaction	The Eighth International Conference on Advanced Cognitive Technologies and Applications - (COGNITIVE 2016)	RANIERI, C. ; Romero ; FERASOLI FILHO, H.		
trabalhoCompletoEmCongresso	2016		LOGIKID ? Um software educacional para controle de robôs em um ambiente didático e experimental de robôs móveis	7th Workshop of Robotics in Education (WRE 2016)	SANTOS, M. B. ; LISBOA, C. O. ; MOCHETTI, T. M. ; PEGORARO, Renê ; FERASOLI FILHO, HUMBERTO ; Alves, S. F. R.		
trabalhoCompletoEmCongresso	2016	http://dx.doi.org/10.4018/978-1-4666-8740-0.ch024	Jóvenes conectados: el uso de internet y los medios digitales de los jóvenes en Bauru (SP - Brasil)	XIII Congreso Latinoamericano de Investigadores de la Comunicación	SOUSA, Juliano Ferreira de ; GOBBI, Maria Cristina		
trabalhoCompletoEmCongresso	2016		A REPERCUSSÃO DA BATALHA DE NOVA YORK NO UNIVERSO MARVEL	II Jornada Internacional Geminis ?Entretenimento Transmídia: Conteúdos Multiplataformas?	SOUZA, L. M. F. ; AFFINI, L. P.		
trabalhoCompletoEmCongresso	2016		Proposta de um novo modelo de acessibilidade: a audiodescrição e a importância da coerência com a obra original e seu público	XXVIII Congresso de Iniciação Científica da Unesp	STAMATO, A. B. T. ; GOBBI, Maria Cristina		
trabalhoCompletoEmCongresso	2016		Acessibilidade no Brasil: um panorama sobre o acesso a cultura audiovidual	II Seminário Internacional de Pesquisa em Políticas Públicas e Desenvolvimento Social	STAMATO, A. B. T. ; GOBBI, Maria Cristina		
trabalhoCompletoEmCongresso	2016		Apresentação de dados do questionário e na onda Hallyu. O K-Pop no cenário da América Latina	XXVIII Congresso de Iniciação Científica da Unesp	TEODORO, M. C. ; GOBBI, Maria Cristina		
trabalhoCompletoEmCongresso	2016		A disparidade da participação feminina no Congresso Brasileiro no século XXI	XXVIII Congresso de Iniciação Científica da Unesp	VIANA, Thais Alves ; GOBBI, Maria Cristina		
trabalhoCompletoEmCongresso	2016		Uma análise sobre a percepção dos educandos na educação a distância	1ª Jornada Ibero-Americana de Pesquisas em Políticas Educacionais e Experiências Interdisciplinares na Educação	VOLPATO, S. M. ; CRUZ, J. A. S. ; BIZELLI, J. L.		
trabalhoCompletoEmCongresso	2016		Ciberativismo da juventude negra: Exoesqueleto no enfrentamento ao racismo	IX Simpósio Nacional da ABCiber	XAVIER, J. T. P		
trabalhoCompletoEmCongresso	2016		Grupos de interesse e políticas públicas: ABRAGAMES versus ACIGAMES	SBGames 2016	ZAMBON, P. S. ; CARVALHO, Juliano M.		
resumoExpandidoEmCongresso	2016	Vídeo-Documentário Transmídia Sobre A Associação Ferroviária De Esportes: Duas Décadas	XVIII Jornada Multidisciplinar ? 2016:, 2016, Bauru, SP. Anais do XVIII Jornada Multidisciplinar ? 2016	AMÉRICO, M.; CARDOZO, P. H. R.		
resumoExpandidoEmCongresso	2016	A Fotografia No Ecossistema Midiático: Estudo De Caso Dos Jogos Olímpicos Rio 2016	XVIII Jornada Multidisciplinar ? 2016:, 2016, Bauru, SP. Anais da XVIII Jornada Multidisciplinar ? 2016	AMÉRICO, M.; MARGADONA, L. A.		
resumoExpandidoEmCongresso	2016	Blended learning como metodologia ativa no ensino superior	II ENCONTRO DE PRÁTICAS PEDAGÓGICAS, 2016, Itapetininga. Anais do II ENCONTRO DE PRÁTICAS PEDAGÓGICAS. Itapetininga: IFSP Itapetininga	CRUZ, J. A. S. ; BIZELLI, J. L.		
resumoExpandidoEmCongresso	2016	Fotografia no Brasil do Séc. XIX: contribuições de Alberto Henschel	XXXIX Congresso Intercom, 2016, São Paulo. XXXIX Intercom. São Paulo: Intercom	DINIZ, T. V. G. ; GOBBI, Maria Cristina		
resumoExpandidoEmCongresso	2016	Produções de sentido nas fotografias das capas do jornal Clarín sobre o afastamento da presidente Dilma Rousseff	II Simpósio Internacional Pensar e Repensar a América Latina, 2016, São Paulo. II Simpósio Internacional Pensar e Repensar a América Latina. São Paulo: Prolam/USP	DINIZ, T. V. G. ; GOBBI, Maria Cristina		
resumoExpandidoEmCongresso	2016	Arpilleras: manifestações de resistência política e cultural das mulheres em defesa dos direitos humanos na América Latina	II Simpósio Internacional Pensar e Repensar a América Latina, 2016, São Paulo. II Simpósio Internacional Pensar e Repensar a América Latina. São Paulo: USP	GOBBI, Maria Cristina; BETTI, Juliana Cristina Gobbi		
resumoExpandidoEmCongresso	2016	O progresso à luz das ingerências do ser humano na natureza	16ª Semana da Educação Municipal e 6º Congresso Municipal de Educação, 2016, Bauru. Anais 16ª Semana da Educação Municipal e 6º Congresso Municipal de Educação. Bauru: Município de Bauru	MATTAR, L. R. ; BIZELLI, J. L.		
resumoExpandidoEmCongresso	2016	PROPOSTA TEÓRICA DE UMA REDE NEURAL SEM FIO BASEASA NO MÓDULO ESP8266	II Congresso de Iniciação Científica e Tecnológica - FATEC Lins, 2016, Lins. Anais do II Congresso de Iniciação Científica e Tecnológica - FATEC Lins	MIRA, E. J. ; MARAR, J. F.		
resumoExpandidoEmCongresso	2016	Desenvolvimento de um método para a captura de movimentos humanos usando câmera RGB-D	VI Workshop do Programa de Pós-Graduação em Ciência da Computação - WPPGCC 2016, 2016, São José do Rio Preto. Anais do VI Workshop do Programa de Pós-Graduação em Ciência da Computação - WPPGCC 2016	MOTTA, Everton Simões da ; SEMENTILLE, A. C.		
resumoExpandidoEmCongresso	2016	O desenvolvimento de um sistema de animação facial baseado em performance e no uso de câmera RGB-D	VI Workshop do Programa de Pós-Graduação em Ciência da Computação - WPPGCC 2016, 2016, São José do Rio Preto. Anais do VI Workshop do Programa de Pós-Graduação em Ciência da Computação - WPPGCC 2016	SILVA, Carlos Eduardo Rossi Cubas da ; SEMENTILLE, A. C.		
resumoExpandidoEmCongresso	2016	Um Suporte para a Animação de Personagens Virtuais Baseada em Captura de Movimentos Corporais para o ARSTUDIO	XXVIII Congresso de Iniciação Científica da Unesp, 2016, Bauru. XXVIII Congresso de Iniciação Científica da Unesp. São Paulo: Unesp	VIZONI, Marcelo Vilela ; SEMENTILLE, A. C.		
