2852377357599198
2268246279249818
9318885964891395
0089739298242263
9501907577020110
0795050823229745
9607334909366654
5033930756866717
6747215104363265
5294781291958691
5325753251589251
0394733398229079
9573924260693571
9683055091801104
0726021224038168
5193228545481595
7938119508337389
7775566747895072
1200771569783721
7255962059886608
5932980808143497
2332629104748207
5657929114457821
5377483143596229
1510655084439926
9665893319289013
2019663762572783
2882524776546697
1898007894731106
5208824640229110
4021506958174837
5744415641833528
