strict graph grafo1 {
	graph [bb="0,0,2213.5,71",
		id=grafo1,
		overlap=False
	];
	node [fontsize=8,
		label="\N",
		shape=rectangle,
		style=filled
	];
	0	 [URL="http://lattes.cnpq.br/6961717072558004",
		color="#17272B",
		fontcolor="#FFFFFF",
		height=0.23611,
		label="Paulo Roberto Bergamaschi [0]",
		pos="59,62.5",
		width=1.6389];
	1	 [URL="http://lattes.cnpq.br/9666500788789379",
		color="#17272B",
		fontcolor="#FFFFFF",
		height=0.23611,
		label="Muris Lage Junior [0]",
		pos="180,62.5",
		width=1.2083];
	2	 [URL="http://lattes.cnpq.br/3254944113298230",
		color="#17272B",
		fontcolor="#FFFFFF",
		height=0.23611,
		label="Michelle Andrade [0]",
		pos="285,62.5",
		width=1.1944];
	3	 [URL="http://lattes.cnpq.br/0067281135180613",
		color="#17272B",
		fontcolor="#FFFFFF",
		height=0.23611,
		label="Marcos Napoleão Rabelo [0]",
		pos="401,62.5",
		width=1.5139];
	4	 [URL="http://lattes.cnpq.br/4223137210064694",
		color="#17272B",
		fontcolor="#FFFFFF",
		height=0.23611,
		label="Marcos Aurélio Batista [0]",
		pos="525,62.5",
		width=1.4167];
	5	 [URL="http://lattes.cnpq.br/1532505326645535",
		color="#17272B",
		fontcolor="#FFFFFF",
		height=0.23611,
		label="Marcelo Henrique Stoppa [1]",
		pos="649,62.5",
		width=1.5278];
	17	 [URL="http://lattes.cnpq.br/3888145024042412",
		color="#17272B",
		fontcolor="#FFFFFF",
		height=0.23611,
		label="Romes Antonio Borges [2]",
		pos="708,8.5",
		width=1.4306];
	5 -- 17	 [pos="657.71,53.827 668.86,43.996 688.09,27.051 699.26,17.204"];
	6	 [URL="http://lattes.cnpq.br/2479225716217997",
		color="#17272B",
		fontcolor="#FFFFFF",
		height=0.23611,
		label="José d. R. V. de Moura Júnior [0]",
		pos="892,62.5",
		width=1.7222];
	7	 [URL="http://lattes.cnpq.br/3025165325162182",
		color="#17272B",
		fontcolor="#FFFFFF",
		height=0.23611,
		label="Helio Yochihiro Fuchigami [0]",
		pos="1030,62.5",
		width=1.6111];
	8	 [URL="http://lattes.cnpq.br/2449347153075493",
		color="#17272B",
		fontcolor="#FFFFFF",
		height=0.23611,
		label="Wellington Andrade da Silva [0]",
		pos="1167,62.5",
		width=1.6806];
	9	 [URL="http://lattes.cnpq.br/5192533875584788",
		color="#17272B",
		fontcolor="#FFFFFF",
		height=0.23611,
		label="Vaston Gonçalves da Costa [0]",
		pos="1304,62.5",
		width=1.6111];
	10	 [URL="http://lattes.cnpq.br/6511292268901783",
		color="#17272B",
		fontcolor="#FFFFFF",
		height=0.23611,
		label="Heber Martins de Paula [0]",
		pos="1432,62.5",
		width=1.4444];
	11	 [URL="http://lattes.cnpq.br/7640108116459444",
		color="#17272B",
		fontcolor="#FFFFFF",
		height=0.23611,
		label="Fran Sérgio Lobato [1]",
		pos="767,62.5",
		width=1.25];
	11 -- 17	 [pos="758.29,53.827 747.14,43.996 727.91,27.051 716.74,17.204"];
	12	 [URL="http://lattes.cnpq.br/1738906012880469",
		color="#17272B",
		fontcolor="#FFFFFF",
		height=0.23611,
		label="Donald Mark Santee [0]",
		pos="1549,62.5",
		width=1.3056];
	13	 [URL="http://lattes.cnpq.br/5634231159637601",
		color="#17272B",
		fontcolor="#FFFFFF",
		height=0.23611,
		label="Celso Vieira Abud [0]",
		pos="1658,62.5",
		width=1.2222];
	14	 [URL="http://lattes.cnpq.br/7088164201134128",
		color="#17272B",
		fontcolor="#FFFFFF",
		height=0.23611,
		label="Tobias Anderson Guimarães [0]",
		pos="1780,62.5",
		width=1.6528];
	15	 [URL="http://lattes.cnpq.br/8041183668335400",
		color="#17272B",
		fontcolor="#FFFFFF",
		height=0.23611,
		label="Thiago Alves de Queiroz [0]",
		pos="1912,62.5",
		width=1.5];
	16	 [URL="http://lattes.cnpq.br/6724295293317941",
		color="#17272B",
		fontcolor="#FFFFFF",
		height=0.23611,
		label="Sergio Francisco da Silva [0]",
		pos="2039,62.5",
		width=1.5278];
	18	 [URL="http://lattes.cnpq.br/3792275882221002",
		color="#17272B",
		fontcolor="#FFFFFF",
		height=0.23611,
		label="Roberto M. Finzi Neto [0]",
		pos="2163,62.5",
		width=1.4028];
}
