artigoEmPeriodico	2015	http://dx.doi.org/10.1063/1.4923016	Impact of punctual flat magnetic shear on the field line transport	Physics of Plasmas	ABUD, C. V.; Caldas, I. L.	A2	
artigoEmPeriodico	2015	http://dx.doi.org/10.1016/j.physd.2015.06.005	On Slater’s criterion for the breakup of invariant curves	Physica. D, Nonlinear Phenomena (Print)	ABUD, C.V.; CALDAS, I.L.	A2	
artigoEmPeriodico	2015	http://dx.doi.org/10.1016/j.minpro.2015.12.001	Multi-objective optimization of column flotation of an igneous phosphate ore	International Journal of Mineral Processing (Print)	BARROZO, MARCOS A.S. ; LOBATO, FRAN S.	B1	
artigoEmPeriodico	2015	http://dx.doi.org/10.1080/17415977.2015.1047364	Model updating of a rotating machine using the self-adaptive differential evolution algorithm	Inverse Problems in Science & Engineering (Print)	CAVALINI, ALDEMIR AP ; LOBATO, FRAN SÉRGIO ; KOROISHI, EDSON HIDEKI ; STEFFEN, VALDER	B1	
artigoEmPeriodico	2015	http://dx.doi.org/10.1016/j.physa.2015.08.008	Robust attractor of non-twist systems	Physica. A (Print)	de Carvalho, R. Egydio ; ABUD, C. VIEIRA	A2	
artigoEmPeriodico	2015	http://dx.doi.org/10.1007/s10288-014-0274-3	On the $$L$$ L -approach for generating unconstrained two-dimensional non-guillotine cutting patterns	4OR (Berlin)	DE QUEIROZ, THIAGO ALVES; MIYAZAWA, FLÁVIO KEIDI ; Wakabayashi, Yoshiko	Qualis nao identificado	4OR (Berlin)
artigoEmPeriodico	2015	http://dx.doi.org/10.14488/1676-1901.v15i4.1791	Desempenho relativo de regras de prioridade para programação de flow shop híbrido com tempos de setup	Revista Produção Online	FUCHIGAMI, H. Y.; MOCCELLIN, J. V.	B2	
artigoEmPeriodico	2015	http://dx.doi.org/10.1590/0103-6513.089212	Novas regras de prioridade para programação em flexible flow line com tempos de setup explícitos	Production	FUCHIGAMI, H. Y.; MOCCELLIN, J. V. ; RUIZ, R.	Qualis nao identificado	Production
artigoEmPeriodico	2015	http://dx.doi.org/10.1080/09537287.2015.1091954	Production planning and control for remanufacturing: exploring characteristics and difficulties with case studies	Production Planning & Control (Online)	Lage Junior, Muris; Godinho Filho, Moacir	B1	Production Planning & Control (Print)
artigoEmPeriodico	2015	http://dx.doi.org/10.5540/tema.2015.016.01.0003	Controle Ótimo da Fermentação Alcoólica em Reator Batelada Alimentada usando Computação Bio-Inspirada	Tendências em Matemática Aplicada e Computacional	LOBATO, F.S	B2	TEMA. Tendências em Matemática Aplicada e Computacional
artigoEmPeriodico	2015		Programação Linear: Uma Contextualização a partir de Sistemas Lineares	Ciência e Natura	Lyra, M. S. ; de Queiroz, Thiago A.	B2	
artigoEmPeriodico	2015	http://dx.doi.org/10.5028/jatm.v7i3.447	Electromechanical Impedance - Based Structural Health Monitoring Instrumentation System Applied to Aircraft Structures and Employing a Multiplexed Sensor Array	Journal of Aerospace Technology and Management (Online)	MARUO, I. I. ; GIACHERO, G. ; Steffen Jr, V. ; FINZI NETO, R. M.	B3	
artigoEmPeriodico	2015		Near-infrared vision system for monitoring arc welding processes	Welding International	MOTA, C. P. ; MACHADO, M. V. R. ; FINZI NETO, R. M. ; VILARINHO, L. O.	Qualis nao identificado	Welding International
artigoEmPeriodico	2015	http://dx.doi.org/10.5216/reec.v10i1.32759	GESTÃO DA ÁGUA EM USINA DE CONCRETO: ANALISE DO RISCO DAS ATIVIDADES E MONITORAMENTO DA QUALIDADE DA ÁGUA RESIDUÁRIA PARA FINS DE REUSO	REEC - Revista Eletrônica de Engenharia Civil	PAULA, H. M.; Fernandes, C. E.	Qualis nao identificado	REEC - Revista Eletrônica de Engenharia Civil
artigoEmPeriodico	2015		Facile Microwave-Assisted Synthesis of Lanthanide Doped CaTiO3 Nanocrystals	Journal of the Brazilian Chemical Society (Impresso)	PEREIRA, S. C. ; FIGUEIREDO, A. T. ; BARRADO, C. M. ; Stoppa, M. H. ; DWIVEDI, Y. ; LI, M. S. ; LONGO, E.	A2	
artigoEmPeriodico	2015	http://dx.doi.org/10.1002/ceat.201400571	Robust Multiobjective Optimization Applied to Optimal Control Problems Using Differential Evolution	Chemical Engineering & Technology	SOUZA, DAVI L. ; LOBATO, FRAN S. ; GEDRAITE, RUBENS	A2	
artigoEmPeriodico	2015	http://dx.doi.org/10.1016/j.applthermaleng.2015.06.088	Simultaneous heat and mass transfer in a fixed bed dryer	Applied Thermal Engineering	SOUZA, G.F.M.V. ; MIRANDA, R.F. ; LOBATO, F.S. ; BARROZO, M.A.S.	A1	
trabalhoCompletoEmCongresso	2015	http://dx.doi.org/10.5151/mathpro-cnmai-0136	USO DE MODELO MATEMÁTICO DE ALOCAÇÃO DE PEÇAS PARA TESTES DE DIFERENTES CENÁRIOS	Congresso Nacional de Matemática Aplicada à Indústria	ALMEIDA, TIAGO DOS SANTOS ; FUCHIGAMI, HELIO YOCHIHIRO ; LAGE JÚNIOR, MURIS ; QUEIROZ, THIAGO ALVES DE		
trabalhoCompletoEmCongresso	2015		Introdução ao Estudo da Plataforma Arduino para Desenvolvimento de Aplicações em Integridade Estrutural	I Conpeex Catalão	Barella, B.P. ; MOURA JR, J. R. V.		
trabalhoCompletoEmCongresso	2015		Um Estudo Comparativo Entre Veículos com Motores a Combustão e Híbridos Sobre Emissão de Gases Nocivos	III Seminário de Pesquisa	BERNARDES JUNIOR, E. ; STOPPA, M. H.		
trabalhoCompletoEmCongresso	2015		Modelagem Matemática de Sistema de Locomoção em Máquinas Móveis do Tipo Jansen	III Seminário de Pesquisa	Borges, J. S. ; STOPPA, M. H.		
trabalhoCompletoEmCongresso	2015		Controle Sem Fio por Dispositivos Móveis de Prótese Biônica de Mão	III Seminário de Pesquisa	CAMARGO, L. C. ; STOPPA, M. H.		
trabalhoCompletoEmCongresso	2015		Determinação do Perfil Ótimo de Temperatura Aplicado ao Processo de Cristalização usando o Algoritmo de Evolução Diferencial e Otimização Multiobjetivo	XVIII Encontro Nacional de Modelagem Computacional e VI Encontro de Ciência e Tecnologia de Materiais	CASTRO, C. C. ; MALAGONI, R. A. ; LOBATO, F. S.		
trabalhoCompletoEmCongresso	2015		STOCHASTIC ANALYSIS OF NONLINEAR MECHANICAL SYSTEM	International Congress of Mechanical Engineering - COBEM 2015	COSTA, T. N. ; PURCINA, A. B. ; BORGES, R. A.		
trabalhoCompletoEmCongresso	2015	http://dx.doi.org/10.5151/mathpro-cnmai-0021	INDUSTRIAL PRODUCTION LINE MODELING AND REASONING BY PETRI NETS	Congresso Nacional de Matemática Aplicada à Indústria	COSTA, VASTON GONÇALVES DA; VIEIRA, BRUNO LOPES ; STOPPA, MARCELO HENRIQUE ; SOUZA, LEANDRO RODRIGUES DA SILVA		
trabalhoCompletoEmCongresso	2015		ANÁLISE NÃO-LINEAR DE ELEMENTOS DE CONCRETO PARCIALMENTE CARREGADOS	IBRACON	DINIZ, G. A. A. ; PAMPLONA, M. K. Y. ; QUARESMA, F. S. ; Da SILVA, W. A. ; LIMA NETO, A. F. ; FERREIRA, M. P.		
trabalhoCompletoEmCongresso	2015		Uma Abordagem de Recozimento Simulado com Busca Local para o Problema Integrado de Localização e Roteamento	XLVII Simpósio Brasileiro de Pesquisa Operacional	FERREIRA, K. M. ; Queiroz, T. A.		
trabalhoCompletoEmCongresso	2015		Projeto de um Secador Rotativo usando Otimização Robusta	XVIII Encontro Nacional de Modelagem Computacional e VI Encontro de Ciência e Tecnologia de Materiais	FLORIANO, G. H. ; SILVERIO, B. C. ; ARRUDA, E. B. ; BARROZO, M. A. S. ; LOBATO, F. S.		
trabalhoCompletoEmCongresso	2015		REDUCTIONS METHODS APPLIED OF NONLINEAR MECHANICAL SYSTEMS	International Congress of Mechanical Engineering - COBEM 2015	Fonseca Jr, L. A. ; GONCALVES, D. F. ; BORGES, R. A. ; LIMA, A. M. G.		
trabalhoCompletoEmCongresso	2015		Métodos heurísticos para maximização do número de tarefas just-in-time em flow shop permutacional	XLVII Simpósio Brasileiro de Pesquisa Operacional (SBPO)	FUCHIGAMI, H. Y.; RANGEL, S.		
trabalhoCompletoEmCongresso	2015		PROJETO DE LAJES DE CONCRETO ARMADO EM SITUAÇÃO DE INCÊNDIO	IBRACON	G.NICACIO, W. ; N.LIMA, H. J. ; Da SILVA, W. A. ; OLIVEIRA, M. H.		
trabalhoCompletoEmCongresso	2015		PROJETO DE VIGAS DE CONCRETO ARMADO EM SITUAÇÃO DE INCÊNDIO	IBRACON	G.NICACIO, W. ; N.LIMA, H. J. ; Da SILVA, W. A. ; OLIVEIRA, M. H.		
trabalhoCompletoEmCongresso	2015		Balanceamento de linha de montagem: um estudo em uma linha de montagem de evaporadores de ar forçado	ENEGEP	GALAN, J. C. A. ; BACHEGA, S. J. ; LAGE JUNIOR, M.		
trabalhoCompletoEmCongresso	2015		STUDY AND COMPARISON OF REDUCTION METHODS OF MECHANICAL SYSTEMS	International Congress of Mechanical Engineering - COBEM 2015	GONCALVES, D. F. ; Fonseca Jr, L. A. ; BORGES, R. A. ; LIMA, A. M. G.		
trabalhoCompletoEmCongresso	2015		REDUCTION MODEL METHODS APPLIED OF MECHANICAL NONLINEAR SYSTEM	CILAMCE-2015: XXXVI Ibero-Latin American Congress on Computational Methods in Engineering	GONCALVES, D. F. ; Fonseca Jr, L. A. ; REZENDE, S. M. F. ; BORGES, R. A.		
trabalhoCompletoEmCongresso	2015		Otimização Robusta de um Dispositivo Robótico Atuado por Cabos para Reabilitação do Membro Inferior Humano Usando Evolução Diferencial	Encontro Nacional de Engenharia Biomecânica	GONCALVES, R. S. ; CARVALHO, J. C. M. ; BARBOSA, A. M. ; LOBATO, F.S.		
trabalhoCompletoEmCongresso	2015		Modelling and Optimal Topology Design of the Fuselage Airplane for SAE Aerodesign Competition	23rd International Congress of Mechanical Engineering	GUIMARÃES, T. A.; CAMPOFREDO, G. V.		
trabalhoCompletoEmCongresso	2015		Detection and Analysis of the Vibration Signals Produced by the Cavitation in Centrifugal Pumps	23rd International Congress of Mechanical Engineering	GUIMARÃES, T. A.; OLIVEIRA FILHO, R. H.		
trabalhoCompletoEmCongresso	2015		Métodos heurísticos para minimização do número de tarefas atrasadas em flow shop permutacional	XLVII Simpósio Brasileiro de Pesquisa Operacional (SBPO)	HORDONES, P. A. M. ; SILVA, A. A. ; FUCHIGAMI, H. Y.		
trabalhoCompletoEmCongresso	2015		Condições de equilíbrio e balanceamento em problemas de empacotamento: levantamento e discussão	XLVII Simpósio Brasileiro de Pesquisa Operacional	JUNQUEIRA, L. ; Queiroz, T. A.		
trabalhoCompletoEmCongresso	2015		Solution of Singular Optimal Control Problems using Social Spider Optimization	XVIII Encontro Nacional de Modelagem Computacional e VI Encontro de Ciência e Tecnologia de Materiais	LOBATO, F. S.; STEFFEN JUNIOR, V.		
trabalhoCompletoEmCongresso	2015		Problema do Caixeiro Viajante com Coleta e Entrega de Objetos com Base Retangular	XLVII Simpósio Brasileiro de Pesquisa Operacional	MACHADO, F. C. ; Queiroz, T. A. ; RESENDE, M. G. C. ; MORABITO, R. ; MIYAZAWA, F. K.		
trabalhoCompletoEmCongresso	2015		Otimização do plano mestre de produção em uma fábrica de fertilizantes	ENEGEP	MARIANO, D. S. ; LAGE JUNIOR, M.		
trabalhoCompletoEmCongresso	2015	http://dx.doi.org/10.5151/mathpro-cnmai-0072	ESTUDO DE UM MODELO DE PROGRAMAÇÃO INTEIRA PARA O PROBLEMA DE LOCALIZAÇÃO DE ESTAÇÕES E AMBULÂNCIAS	Congresso Nacional de Matemática Aplicada à Indústria	MARQUES, RAINA RIBEIRO ; QUEIROZ, THIAGO ALVES DE		
trabalhoCompletoEmCongresso	2015		Energy Efficient Opportunistic Wireless as Digital Inclusion Support and Easy Access to Information in Southeast Goias-Brazil	The 2015 world congress in computer science computer engineering and applied computing	MOREIRA, W. ; OLIVEIRA, A. C. ; RIBEIRO, M. R. C. ; S. FILHO, T. A. ; TAVARES, D. M. ; SOUZA, C. ; FRANCISCO, R. P. ; RABELO, M. N. ; BATISTA, M. A.		
trabalhoCompletoEmCongresso	2015	http://dx.doi.org/10.5151/mathpro-cnmai-0121	O PROBLEMA DA MOCHILA TRIDIMENSIONAL RESOLVIDO POR UMA HEURÍSTICA	Congresso Nacional de Matemática Aplicada à Indústria	MOURA, MIRELLA AUGUSTA SOUSA ; QUEIROZ, THIAGO ALVES DE		
trabalhoCompletoEmCongresso	2015	http://dx.doi.org/10.5151/mathpro-cnmai-0039	APLICANDO O ALGORITMO GENÉTICO DE CHAVES ALEATO´ RIAS VICIADAS EM UM PROBLEMA DE CORTE COM ITENS IRREGULARES	Congresso Nacional de Matemática Aplicada à Indústria	MUNDIM, LEANDRO RESENDE ; ANDRETTA, MARINA ; QUEIROZ, THIAGO ALVES DE		
trabalhoCompletoEmCongresso	2015	http://dx.doi.org/10.5151/mathpro-cnmai-0071	SYSTEM FOR MAPPING AN ESTIMATE ZONE OF ACTUATION OF ULTRASONIC SENSORS	Congresso Nacional de Matemática Aplicada à Indústria	OLIVEIRA, RÔMULO MURIEL MESQUITA DE ; STOPPA, MARCELO HENRIQUE ; SAAD, NÚBIA DOS SANTOS		
trabalhoCompletoEmCongresso	2015		ANÁLISE NÃO-LINEAR DE LAJES LISAS DE CONCRETO ARMADO SEM ARMADURA DE CISALHAMENTO	IBRACON	PAMPLONA, M. K. Y. ; TAPAJOS, L. S. ; BARROS, R. N. M. ; OLIVEIRA, M. H. ; Da SILVA, W. A. ; FERREIRA, M. P.		
trabalhoCompletoEmCongresso	2015		STUDY OF BIFURCATIONS AND CHAOTIC DYNAMICS IN A NONLINEAR MECHANICAL SYSTEM	XXXVI Ibero-Latin American Congress on Computational Methods in Engineering - CILAMCE-2015	PURCINA, A. B. ; COSTA, T. N. ; BORGES, R. A.		
trabalhoCompletoEmCongresso	2015		Bound Smoothing with a Biased Random-Key Genetic Algorithm	17th International Conference on Artificial Intelligence	Queiroz, T. A.; SENDIN, I. S. ; Batista, Marcos A.		
trabalhoCompletoEmCongresso	2015		MODELOS DE BIELAS E TIRANTES PARA CONSOLOS COM DIFERENTES RELAÇÕES	IBRACON	QUEIROZ, T. F. ; TAPAJOS, L. S. ; PEREIRA FILHO, M. J. M. ; GOMES, H. P. ; Da SILVA, W. A. ; FERREIRA, M. P.		
trabalhoCompletoEmCongresso	2015		IMPEDANCE-BASED STRUCTURAL HEALTH MONITORING INCORPORATING COMPENSATION OF TEMPERATURE VARIATION EFFECTS	23rd ABCM International Congress of Mechanical Engineering	RABELO, D. S. ; FINZI NETO, R. M. ; Steffen Jr, V.		
trabalhoCompletoEmCongresso	2015		A statistical approach for assessing reliability for Impedance-based Structural Health Monitoring using Probability of Detection	International Workshop on Structural Health Monitoring - IWSHM	RABELO, D. S. ; STEFFEN Jr, V. ; FINZI NETO, R. M. ; LACERDA, H. B.		
trabalhoCompletoEmCongresso	2015		Estimação de Parâmetros em Funções de Transferência de Primeira Ordem usando Evolução Diferencial - Aplicação em um Processo Químico Real	XVIII Encontro Nacional de Modelagem Computacional e VI Encontro de Ciência e Tecnologia de Materiais	REZENDE, A. H. R. ; SOUZA, D. L. ; LOBATO, F. S.		
trabalhoCompletoEmCongresso	2015		An Investigation of the Thermal Runaway Phenomenon in Viscoelastic Materials Subjected to Cyclic Loads Accounting for Pre-stress	International Conference on Structural Engineering Dynamics	Rodovalho, L.F.F. ; BORGES, ROMES ANTONIO ; LIMA, A. M. G. ; RADE, D. A. ; LACERDA, H. B. ; SAAD, N. S.		
trabalhoCompletoEmCongresso	2015		A NUMERICAL AND EXPERIMENTAL INVESTIGATION OF THE THERMAL RUNAWAY PHENOMENON IN VISCOELASTIC MATERIALS SUBJECT TO CYCLIC LOADS ACCOUNTING FOR PRESTRESS	17th INTERNATIONAL SYMPOSIUM ON DYNAMIC PROBLEMS OF MECHANICS	Rodovalho, L.F.F. ; LIMA, A. M. G. ; BORGES, ROMES ANTONIO ; RADE, D. A. ; LACERDA, H. B. ; SAAD, N. S.		
trabalhoCompletoEmCongresso	2015		Transducer Module Recognition in a Network Environment Based on IEEE 1451	2015 World Congress in Computer Science	S. FILHO, T. A. ; OLIVEIRA, A. C. ; TAVARES, D. M. ; BATISTA, M. A. ; SILVA, A. C. R. ; RABELO, M. N.		
trabalhoCompletoEmCongresso	2015		Evasão no Curso de Engenharia de Produção da Universidade Federal de Goiás - Regional Catalão	ENEGEP	SANTOS, N. V. M. ; LAGE JUNIOR, M. ; RIBEIRO, M. L. L.		
trabalhoCompletoEmCongresso	2015		Otimização como Ferramenta para a Resolução de Sistemas Lineares - Aplicação do Algoritmo de Ciclo de Água	XVIII Encontro Nacional de Modelagem Computacional e VI Encontro de Ciência e Tecnologia de Materiais	SILVA, M. A. ; STEFFEN, VALDER ; LOBATO, F. S.		
trabalhoCompletoEmCongresso	2015	http://dx.doi.org/10.5151/mathpro-cnmai-0143	SIMULAÇÃO COMPUTACIONAL POR ELEMENTOS FINITOS E VALIDAÇÃO EXPERIMENTAL DE TUBOS DE PVC SOLICITADOS À FLEXÃO	Congresso Nacional de Matemática Aplicada à Indústria	SOUZA, LEANDRO RODRIGUES DA SILVA ; SANTOS, NÚBIA SAAD DOS ; PEREIRA, CLEZIDAN NÚCIO ; COSTA, VASTON GONÇALVES DA ; STOPPA, MARCELO HENRIQUE		
trabalhoCompletoEmCongresso	2015	http://dx.doi.org/10.5151/mathpro-cnmai-0140	KINEMATIC MODELING OF A MULTI-FINGERED HAND PROSTHESIS FOR MANIPULATION TASKS	Congresso Nacional de Matemática Aplicada à Indústria	STOPPA, MARCELO H.; CARVALHO, JOÃO CARLOS MENDES		
trabalhoCompletoEmCongresso	2015		ANÁLISE NÃO LINEAR DE CONSOLOS DE CONCRETO	IBRACON	TAPAJOS, L. S. ; PAMPLONA, M. K. Y. ; MERABET JR., J. C. F. ; GOMES, H. P. ; Da SILVA, W. A. ; FERREIRA, M. P.		
trabalhoCompletoEmCongresso	2015		Tratamento de Carcinomas de Pele via Formulação e Resolução de um Problema Inverso	Encontro Nacional de Engenharia Biomecânica	TIAGO, N. C. S. ; FRANCO, D. G. F. ; LOBATO, FRAN S. ; STEFFEN JUNIOR, V.		
trabalhoCompletoEmCongresso	2015		EXPERIMENTAL EVALUATION OF A CRUCIFORM PIEZOELECTRIC ENERGY HARVESTER	International Conference on Structural Engineering Dynamics - ICEDdyn 2015	TSURUTA, K. M. ; FINZI NETO, R. M. ; Rade, D. A. ; CAVALINI, A. A.		
trabalhoCompletoEmCongresso	2015		Low Level Processing for Digital Images	The 2015 World Congress in Computer Science	VALE, I. B. ; Marchiori, J. T. ; TAVARES, D. M. ; S. FILHO, T. A. ; OLIVEIRA, A. C. ; SENDIN, I. S. ; SILVA, S. F. ; BATISTA, M. A. ; RABELO, M. N.		
resumoExpandidoEmCongresso	2015	Simulação Computacional do Processo de Expansão de um Stent Comercial com Balão Expansível	Encontro Nacional de Engenharia Biomecânica, 2015, Uberlândia, MG. ENEBI 2015	ARAUJO, R. ; OLIVEIRA, S. A. G. ; GUIMARÃES, T. A.		
resumoExpandidoEmCongresso	2015	Propostas de Atividades que Exploram as Isometrias e as Homotetias no Plano via Congruência e Semelhança de Figuras Geométricas Planas	IV Colóquio de Matemática da Região Centro-Oeste., 2015, Catalão-GO. Caderno de Resumos do Colóquio de Matemática da Região Centro-Oeste	ASSUNÇÃO, Ricardo Gomes ; BERGAMASCHI, Paulo Roberto		
resumoExpandidoEmCongresso	2015	NP full system and Mimp-fol association	NataLogic 2015, 2015, Natal-RN. NataLogic 2015. Natal: UFRN	COSTA, V. G.; Hermann, E. H. ; CRUZ, M. Q.		
resumoExpandidoEmCongresso	2015	NP system and Mimp-graph Association	5th World Congress and School of Universal Logic, 2015, Istambul. Handbook of the 5th orld Congress and School of Universal Logic. Istanbul: University of Istanbul	COSTA, V. G.; Hermann, E. H. ; CRUZ, M. Q. ; SANTOS, J. B.		
resumoExpandidoEmCongresso	2015	Método de Análise de Desvio aplicado ao Problema da Soma de Subconjuntos	II Congresso Nacional de Matemática Aplicada à Indústria, 2015, Fortaleza - CE. II CNMAI	CUNHA, J. G. A. ; de Queiroz, Thiago A.		
resumoExpandidoEmCongresso	2015	Algoritmos evolutivos: estudo do tempo de convergência por meio do método de análise de desvio	I Congresso de Pesquisa, Ensino e Extensão - Regional Catalão, 2015, Catalão - GO. I CONPEEX-RC	CUNHA, J. G. A. ; Queiroz, T. A.		
resumoExpandidoEmCongresso	2015	MÉTODOS DE REDUÇÃO DE MODELOS APLICADOS A SISTEMAS COM NÃO LINEARIDADES LOCALIZADAS	CNMAI - 2015: CONGRESSO NACIONAL DE MATEMÁTICA APLICADA À INDÚSTRIA, 2015, FORTALEZA - CE. CNMAI - 2015	Fonseca Jr, L. A. ; GONCALVES, D. F. ; BORGES, R. A. ; LIMA, A. M. G.		
resumoExpandidoEmCongresso	2015	Um estudo computacional do problema de maximização do número de tarefas just-in-time em no-wait flow shop	XVII Oficina Nacional de Problemas de Corte e Empacotamento, Planejamento e Programação da Produção e Correlatos, 2015, Sorocaba/SP. XVII ONPCE	FUCHIGAMI, H. Y.; RANGEL, S.		
resumoExpandidoEmCongresso	2015	TÉCNICAS DE REDUÇÃO DE MODELOS APLICADAS À ANÁLISE DE ESTRUTURAS MECÂNICAS	CNMAI 2015: CONGRESSO NACIONAL DE MATEMÁTICA APLICADA À INDÚSTRIA, 2015, FORTALEZA - CE. CNMAI - 2015	GONCALVES, D. F. ; Fonseca Jr, L. A. ; LIMA, A. M. G. ; BORGES, ROMES ANTONIO		
resumoExpandidoEmCongresso	2015	Aspectos de estabilidade e balanceamento de carga em problemas de empacotamento	XVII Oficina Nacional de Problemas de Corte, Empacotamento, Dimensionamento de Lotes e Programação da Produção, 2015, Sorocaba - SP. XVII ONPCE	JUNQUEIRA, L. ; Queiroz, T. A.		
resumoExpandidoEmCongresso	2015	CONTROLE DE VIBRAÇÕES EM UM SISTEMA MECÂNICO UTILIZANDO MOLAS PONTUAIS	CNMAI 2015: CONGRESSO NACIONAL DE MATEMÁTICA APLICADA À INDÚSTRIA, 2015, FORTALEZA - CE. CNMAI - 2015	LOUZADA, L. A. ; REZENDE, S. M. F. ; BORGES, R. A.		
resumoExpandidoEmCongresso	2015	Abordagens Robustas para Problemas de Otimização Linear com Incerteza nos Dados	II Congresso Nacional de Matemática Aplicada à Indústria, 2015, Fortaleza - CE. II CNMAI	MARQUES, R. R. ; de Queiroz, Thiago A.		
resumoExpandidoEmCongresso	2015	Uma Abordagem Heurística para o Problema de Roteamento de Veículos Capacitados	II Congresso Nacional de Matemática Aplicada à Indústria, 2015, Fortaleza - CE. II CNMAI	MARTINS, J. S. ; de Queiroz, Thiago A.		
resumoExpandidoEmCongresso	2015	ESTUDO DO EFEITO DE INCERTEZAS EM UM SISTEMA DINÂMICO NÃO LINEAR	CNMAI 2015: CONGRESSO NACIONAL DE MATEMÁTICA APLICADA À INDÚSTRIA, 2015, FORTALEZA - CE. CNMAI - 2015	PURCINA, A. B. ; COSTA, T. N. ; BORGES, R. A.		
resumoExpandidoEmCongresso	0	Componentes tecnológicos de suporte à produção integrada. 2010. (Parecer técnico)		LAGE JUNIOR, M		
resumoExpandidoEmCongresso	0	Sistemas de Informação Gerenciais. 2007. (Desenvolvimento de material didático ou instrucional - Apostila)		LAGE JUNIOR, M		
resumoExpandidoEmCongresso	0	Modelos Probabilísticos Aplicados à Engenharia de Produção. 2006. (Desenvolvimento de material didático ou instrucional - Apostila)		LAGE JUNIOR, M		
resumoExpandidoEmCongresso	0	Minicurso de Melhoria da Qualidade. 2002. (Curso de curta duração ministrado/Outra)		LAGE JUNIOR, M		
resumoExpandidoEmCongresso	0	sistema kanban de duplo cartão. 2008. (Desenvolvimento de material didático ou instrucional - Simulador)		LAGE JUNIOR, M.; Fernandes, F. C. F.		
