strict graph grafo1 {
	graph [bb="0,0,3700.5,125",
		id=grafo1,
		overlap=False
	];
	node [fontsize=8,
		label="\N",
		shape=rectangle,
		style=filled
	];
	0	 [URL="http://lattes.cnpq.br/",
		color="#17272B",
		fontcolor="#FFFFFF",
		height=0.23611,
		label="[Nome-nao-identificado] [0]",
		pos="53.5,116.5",
		width=1.4861];
	1	 [URL="http://lattes.cnpq.br/4015451841111880",
		color="#17272B",
		fontcolor="#FFFFFF",
		height=0.23611,
		label="Marcelo I. Ferreira Ferraz [0]",
		pos="180.5,116.5",
		width=1.5417];
	2	 [URL="http://lattes.cnpq.br/5428256895565798",
		color="#17272B",
		fontcolor="#FFFFFF",
		height=0.23611,
		label="Carla R. F. Freire Guimarães [0]",
		pos="314.5,116.5",
		width=1.6806];
	3	 [URL="http://lattes.cnpq.br/6488290754626724",
		color="#17272B",
		fontcolor="#FFFFFF",
		height=0.23611,
		label="Geovânia Silva de Sousa [0]",
		pos="447.5,116.5",
		width=1.5];
	4	 [URL="http://lattes.cnpq.br/4025227752576820",
		color="#17272B",
		fontcolor="#FFFFFF",
		height=0.23611,
		label="Zina A. Caceres Benavides [0]",
		pos="577.5,116.5",
		width=1.5972];
	5	 [URL="http://lattes.cnpq.br/5493564382050585",
		color="#17272B",
		fontcolor="#FFFFFF",
		height=0.23611,
		label="Lessí I. Farias Pinheiro [0]",
		pos="704.5,116.5",
		width=1.4167];
	6	 [URL="http://lattes.cnpq.br/7345698017961040",
		color="#17272B",
		fontcolor="#FFFFFF",
		height=0.23611,
		label="Carlos E. Iwai Drumond [0]",
		pos="826.5,116.5",
		width=1.4722];
	7	 [URL="http://lattes.cnpq.br/7289592650871795",
		color="#17272B",
		fontcolor="#FFFFFF",
		height=0.23611,
		label="Andrea da Silva Gomes [0]",
		pos="949.5,116.5",
		width=1.4444];
	8	 [URL="http://lattes.cnpq.br/7880060241219293",
		color="#17272B",
		fontcolor="#FFFFFF",
		height=0.23611,
		label="Guilhardes de Jesus Júnior [0]",
		pos="1076.5,116.5",
		width=1.5694];
	9	 [URL="http://lattes.cnpq.br/9289298095076064",
		color="#17272B",
		fontcolor="#FFFFFF",
		height=0.23611,
		label="João P. de C. Nunes Pereira [0]",
		pos="1209.5,116.5",
		width=1.625];
	10	 [URL="http://lattes.cnpq.br/3417734567782570",
		color="#17272B",
		fontcolor="#FFFFFF",
		height=0.23611,
		label="Andre L. Batista Ribeiro [0]",
		pos="1339.5,116.5",
		width=1.4861];
	11	 [URL="http://lattes.cnpq.br/9205464082942072",
		color="#17272B",
		fontcolor="#FFFFFF",
		height=0.23611,
		label="Jorge H. de Oliveira Sales [0]",
		pos="1467.5,116.5",
		width=1.5556];
	12	 [URL="http://lattes.cnpq.br/4221004979116020",
		color="#17272B",
		fontcolor="#FFFFFF",
		height=0.23611,
		label="Susana Marrero Iglesias [4]",
		pos="1729.5,116.5",
		width=1.4583];
	23	 [URL="http://lattes.cnpq.br/8384020879567133",
		color="#17272B",
		fontcolor="#FFFFFF",
		height=0.23611,
		label="Esbel T. Valero Orellana [2]",
		pos="1647.5,62.5",
		width=1.5];
	12 -- 23	 [pos="1717.4,107.83 1701.8,97.939 1674.9,80.856 1659.4,71.035"];
	24	 [URL="http://lattes.cnpq.br/1838276397621049",
		color="#17272B",
		fontcolor="#FFFFFF",
		height=0.23611,
		label="Dany Sanchez Dominguez [4]",
		pos="1688.5,8.5",
		width=1.5694];
	12 -- 24	 [pos="1727.6,107.72 1724.5,95.835 1718.1,72.524 1710.5,53.5 1705.2,40.337 1697.5,25.744 1692.8,17.11"];
	23 -- 24	 [pos="1653.5,53.827 1661.3,43.996 1674.7,27.051 1682.4,17.204"];
	13	 [URL="http://lattes.cnpq.br/3225963678857568",
		color="#17272B",
		fontcolor="#FFFFFF",
		height=0.23611,
		label="Sérgio Mota Alves [0]",
		pos="1844.5,116.5",
		width=1.2222];
	14	 [URL="http://lattes.cnpq.br/5034444360451621",
		color="#17272B",
		fontcolor="#FFFFFF",
		height=0.23611,
		label="Paulo Eduardo Ambrósio [3]",
		pos="1961.5,116.5",
		width=1.5139];
	21	 [URL="http://lattes.cnpq.br/0087804302005744",
		color="#17272B",
		fontcolor="#FFFFFF",
		height=0.23611,
		label="Francisco B. Souza Oliveira [1]",
		pos="1896.5,62.5",
		width=1.6389];
	14 -- 21	 [pos="1951.9,107.83 1939.6,97.996 1918.4,81.051 1906.1,71.204"];
	25	 [URL="http://lattes.cnpq.br/5785651071977693",
		color="#17272B",
		fontcolor="#FFFFFF",
		height=0.23611,
		label="César A. Bravo Pariente [2]",
		pos="2026.5,62.5",
		width=1.4722];
	14 -- 25	 [pos="1971.1,107.83 1983.4,97.996 2004.6,81.051 2016.9,71.204"];
	15	 [URL="http://lattes.cnpq.br/5466915298318577",
		color="#17272B",
		fontcolor="#FFFFFF",
		height=0.23611,
		label="Martha X. Torres Delgado [0]",
		pos="2090.5,116.5",
		width=1.5694];
	16	 [URL="http://lattes.cnpq.br/7196165938116027",
		color="#17272B",
		fontcolor="#FFFFFF",
		height=0.23611,
		label="Maria V. Manso Guevara [1]",
		pos="2220.5,116.5",
		width=1.5278];
	20	 [URL="http://lattes.cnpq.br/1153836209203304",
		color="#17272B",
		fontcolor="#FFFFFF",
		height=0.23611,
		label="Felix Mas Milian [1]",
		pos="2220.5,62.5",
		width=1.1528];
	16 -- 20	 [pos="2220.5,107.83 2220.5,97.996 2220.5,81.051 2220.5,71.204"];
	17	 [URL="http://lattes.cnpq.br/6096624359077545",
		color="#17272B",
		fontcolor="#FFFFFF",
		height=0.23611,
		label="Luciano A. de Souza Bernardes [0]",
		pos="2358.5,116.5",
		width=1.7917];
	18	 [URL="http://lattes.cnpq.br/7122524744613697",
		color="#17272B",
		fontcolor="#FFFFFF",
		height=0.23611,
		label="Gildson Queiroz de Jesus [0]",
		pos="2495.5,116.5",
		width=1.5139];
	19	 [URL="http://lattes.cnpq.br/2560106052820991",
		color="#17272B",
		fontcolor="#FFFFFF",
		height=0.23611,
		label="Gesil S. Amarante Segundo [1]",
		pos="1600.5,116.5",
		width=1.625];
	19 -- 23	 [pos="1607.4,107.83 1616.3,97.996 1631.6,81.051 1640.5,71.204"];
	22	 [URL="http://lattes.cnpq.br/2383628271548614",
		color="#17272B",
		fontcolor="#FFFFFF",
		height=0.23611,
		label="Flávio Pietrobon Costa [0]",
		pos="2619.5,116.5",
		width=1.4167];
	26	 [URL="http://lattes.cnpq.br/7382773322716590",
		color="#17272B",
		fontcolor="#FFFFFF",
		height=0.23611,
		label="Eduardo Palmeira da Silva [0]",
		pos="2745.5,116.5",
		width=1.5694];
	27	 [URL="http://lattes.cnpq.br/6157255488660799",
		color="#17272B",
		fontcolor="#FFFFFF",
		height=0.23611,
		label="Mônica de Moura Pires [0]",
		pos="2871.5,116.5",
		width=1.4306];
	28	 [URL="http://lattes.cnpq.br/9498414767391075",
		color="#17272B",
		fontcolor="#FFFFFF",
		height=0.23611,
		label="Ricardo Candéa Sá Barreto [0]",
		pos="2998.5,116.5",
		width=1.5972];
	29	 [URL="http://lattes.cnpq.br/6838445286046040",
		color="#17272B",
		fontcolor="#FFFFFF",
		height=0.23611,
		label="Moema M. B. Cartibani Midlej [0]",
		pos="3138.5,116.5",
		width=1.7778];
	30	 [URL="http://lattes.cnpq.br/2981039601206887",
		color="#17272B",
		fontcolor="#FFFFFF",
		height=0.23611,
		label="Socrates J. Moquete Guzman [0]",
		pos="3281.5,116.5",
		width=1.6944];
	31	 [URL="http://lattes.cnpq.br/3312232105089762",
		color="#17272B",
		fontcolor="#FFFFFF",
		height=0.23611,
		label="Salvador D. Pozzo Trevizan [0]",
		pos="3419.5,116.5",
		width=1.6389];
	32	 [URL="http://lattes.cnpq.br/6508153637251662",
		color="#17272B",
		fontcolor="#FFFFFF",
		height=0.23611,
		label="Ronaldo Lima Gomes [0]",
		pos="3545.5,116.5",
		width=1.3611];
	33	 [URL="http://lattes.cnpq.br/1731706608106563",
		color="#17272B",
		fontcolor="#FFFFFF",
		height=0.23611,
		label="Naisy Silva Soares [0]",
		pos="3656.5,116.5",
		width=1.2222];
}
