strict graph grafo2 {
	graph [bb="0,0,1302.5,345",
		id=grafo2,
		overlap=False
	];
	node [fontsize=8,
		label="\N",
		shape=rectangle,
		style=filled
	];
	0	 [URL="http://lattes.cnpq.br/2820404320026694",
		color="#17272B",
		fontcolor="#FFFFFF",
		height=0.23611,
		label="José R. Cápua Proveti [7]",
		pos="108,336.5",
		width=1.3611];
	1	 [URL="http://lattes.cnpq.br/3741207242086712",
		color="#17272B",
		fontcolor="#FFFFFF",
		height=0.23611,
		label="Marcelo Silveira Bacelos [13]",
		pos="217,272.5",
		width=1.5694];
	0 -- 1	 [fontsize=8,
		label=1.0,
		lp="175.5,304.5",
		pos="121.37,327.9 142.29,316 182.54,293.1 203.53,281.16"];
	9	 [URL="http://lattes.cnpq.br/8285018770645807",
		color="#17272B",
		fontcolor="#FFFFFF",
		height=0.23611,
		label="Eduardo Perini Muniz [7]",
		pos="111,172.5",
		width=1.375];
	0 -- 9	 [fontsize=8,
		label=6.0,
		lp="115.5,272.5",
		pos="108.14,327.69 108.65,300.26 110.35,208.54 110.86,181.24"];
	20	 [URL="http://lattes.cnpq.br/7140925853660088",
		color="#17272B",
		fontcolor="#FFFFFF",
		height=0.23611,
		label="Paulo S. da Silva Porto [10]",
		pos="65,8.5",
		width=1.4722];
	0 -- 20	 [fontsize=8,
		label=6.0,
		lp="5.5,172.5",
		pos="63.449,328 33.699,320.14 0,304.42 0,273.5 0,273.5 0,273.5 0,71.5 0,45.3 27.993,26.787 47.238,17.154"];
	1 -- 9	 [fontsize=8,
		label=1.0,
		lp="164.5,240.5",
		pos="192.41,263.99 181.38,259.77 168.69,253.7 159,245.5 136.98,226.87 120.99,195.69 114.37,181.26"];
	1 -- 20	 [fontsize=8,
		label=2.0,
		lp="51.5,136.5",
		pos="170.27,263.96 119.64,254.44 46,236.03 46,209.5 46,209.5 46,209.5 46,71.5 46,51.236 55.393,28.816 60.971,17.291"];
	6	 [URL="http://lattes.cnpq.br/8699243861996813",
		color="#17272B",
		fontcolor="#FFFFFF",
		height=0.23611,
		label="Taisa Shimosakai de Lira [12]",
		pos="475,208.5",
		width=1.5694];
	1 -- 6	 [fontsize=8,
		label=9.0,
		lp="419.5,240.5",
		pos="273.35,265.76 305.78,261.7 347.1,255.21 383,245.5 410.32,238.11 440.64,225.29 458.75,217.11"];
	7	 [URL="http://lattes.cnpq.br/0319559373628489",
		color="#17272B",
		fontcolor="#FFFFFF",
		height=0.23611,
		label="Gisele de L. Diniz Chaves [20]",
		pos="596,136.5",
		width=1.6111];
	1 -- 7	 [fontsize=8,
		label=2.0,
		lp="565.5,208.5",
		pos="273.35,267.81 354.11,261.57 497.7,246.66 540,217.5 567.64,198.45 586.02,161.01 592.93,145.02"];
	8	 [URL="http://lattes.cnpq.br/5476118728173549",
		color="#17272B",
		fontcolor="#FFFFFF",
		height=0.23611,
		label="Fabio de A. Ressel Pereira [1]",
		pos="416,136.5",
		width=1.5694];
	1 -- 8	 [fontsize=8,
		label=1.0,
		lp="350.5,208.5",
		pos="234.03,263.94 254.98,254.33 291.29,236.67 320,217.5 355,194.13 392.08,160.24 407.99,145.19"];
	12	 [URL="http://lattes.cnpq.br/1800610548349937",
		color="#17272B",
		fontcolor="#FFFFFF",
		height=0.23611,
		label="Ana Paula Meneguelo [6]",
		pos="262,208.5",
		width=1.375];
	1 -- 12	 [fontsize=8,
		label=1.0,
		lp="248.5,240.5",
		pos="222.52,263.9 231.15,252 247.77,229.1 256.44,217.16"];
	14	 [URL="http://lattes.cnpq.br/7737476090013576",
		color="#17272B",
		fontcolor="#FFFFFF",
		height=0.23611,
		label="Leonardo da Silva Arrieche [12]",
		pos="252,72.5",
		width=1.6667];
	1 -- 14	 [fontsize=8,
		label=2.0,
		lp="188.5,172.5",
		pos="212.45,263.93 199.81,241.86 166.65,176.09 189,127.5 198.87,106.04 221.95,89.911 237.26,81.094"];
	9 -- 20	 [fontsize=8,
		label=5.0,
		lp="98.5,104.5",
		pos="108.78,163.69 100.99,136.26 74.95,44.543 67.196,17.235"];
	9 -- 14	 [fontsize=8,
		label=1.0,
		lp="137.5,136.5",
		pos="113.6,163.87 119.03,149.1 133.03,116.54 156,99.5 167.79,90.754 182.33,84.95 196.5,81.098"];
	6 -- 7	 [fontsize=8,
		label=1.0,
		lp="548.5,172.5",
		pos="489.5,199.8 498.47,194.87 510.13,188.17 520,181.5 530.76,174.24 532,170.4 543,163.5 554.29,156.42 567.78,149.83 578.32,145.05"];
	6 -- 8	 [fontsize=8,
		label=1.0,
		lp="458.5,172.5",
		pos="468.46,199.74 457.06,186.21 433.68,158.48 422.39,145.08"];
	6 -- 14	 [fontsize=8,
		label=2.0,
		lp="494.5,136.5",
		pos="478.63,199.9 485.43,184.43 497.94,148.9 481,127.5 460.31,101.36 372.88,86.598 312.25,79.334"];
	7 -- 14	 [fontsize=8,
		label=3.0,
		lp="554.5,104.5",
		pos="584.15,127.96 570.14,119.47 545.84,105.99 523,99.5 452.42,79.44 367.78,74.149 312.09,73.09"];
	11	 [URL="http://lattes.cnpq.br/3919161245148947",
		color="#17272B",
		fontcolor="#FFFFFF",
		height=0.23611,
		label="Wanderley Cardoso Celeste [2]",
		pos="728,72.5",
		width=1.625];
	7 -- 11	 [fontsize=8,
		label=2.0,
		lp="675.5,104.5",
		pos="612.19,127.9 637.52,116 686.27,93.102 711.68,81.165"];
	17	 [URL="http://lattes.cnpq.br/5222139886054755",
		color="#17272B",
		fontcolor="#FFFFFF",
		height=0.23611,
		label="Marielce de C. Ribeiro Tosta [3]",
		pos="591,72.5",
		width=1.6806];
	7 -- 17	 [fontsize=8,
		label=3.0,
		lp="599.5,104.5",
		pos="595.39,127.9 594.43,116 592.58,93.102 591.62,81.165"];
	12 -- 14	 [fontsize=8,
		label=5.0,
		lp="310.5,136.5",
		pos="270.75,199.77 285.52,185.73 312.76,154.97 302,127.5 294.17,107.51 275.08,90.504 262.89,81.171"];
	18	 [URL="http://lattes.cnpq.br/3981995002595753",
		color="#17272B",
		fontcolor="#FFFFFF",
		height=0.23611,
		label="Oldrich Joel Romero [1]",
		pos="246,136.5",
		width=1.3194];
	12 -- 18	 [fontsize=8,
		label=1.0,
		lp="261.5,172.5",
		pos="260.23,199.74 257.13,186.21 250.8,158.48 247.73,145.08"];
	14 -- 20	 [fontsize=8,
		label=2.0,
		lp="175.5,40.5",
		pos="229.07,63.898 193.08,51.966 123.75,28.978 87.825,17.068"];
	2	 [URL="http://lattes.cnpq.br/5401369683892150",
		color="#17272B",
		fontcolor="#FFFFFF",
		height=0.23611,
		label="Glaydston Mattos Ribeiro [11]",
		pos="655,208.5",
		width=1.5972];
	2 -- 7	 [fontsize=8,
		label=11.0,
		lp="640.5,172.5",
		pos="648.46,199.74 637.06,186.21 613.68,158.48 602.39,145.08"];
	3	 [URL="http://lattes.cnpq.br/0111900440522917",
		color="#17272B",
		fontcolor="#FFFFFF",
		height=0.23611,
		label="Gilmene Bianco [0]",
		pos="279,336.5",
		width=1.1111];
	4	 [URL="http://lattes.cnpq.br/5616576281329159",
		color="#17272B",
		fontcolor="#FFFFFF",
		height=0.23611,
		label="Laura Marina Pinotti [2]",
		pos="601,272.5",
		width=1.3194];
	4 -- 6	 [fontsize=8,
		label=2.0,
		lp="551.5,240.5",
		pos="585.55,263.9 561.37,252 514.84,229.1 490.58,217.16"];
	5	 [URL="http://lattes.cnpq.br/3410912882231783",
		color="#17272B",
		fontcolor="#FFFFFF",
		height=0.23611,
		label="Breno Nonato de Melo [0]",
		pos="514,336.5",
		width=1.4028];
	10	 [URL="http://lattes.cnpq.br/6948945548186089",
		color="#17272B",
		fontcolor="#FFFFFF",
		height=0.23611,
		label="Carlos M. Nascimento Yoshioka [3]",
		pos="712,336.5",
		width=1.8472];
	16	 [URL="http://lattes.cnpq.br/3606604113019271",
		color="#17272B",
		fontcolor="#FFFFFF",
		height=0.23611,
		label="Ana B. Neves Brito [3]",
		pos="712,272.5",
		width=1.2639];
	10 -- 16	 [fontsize=8,
		label=3.0,
		lp="717.5,304.5",
		pos="712,327.9 712,316 712,293.1 712,281.16"];
	13	 [URL="http://lattes.cnpq.br/6693921747312552",
		color="#17272B",
		fontcolor="#FFFFFF",
		height=0.23611,
		label="Roney Pignaton da Silva [0]",
		pos="850,336.5",
		width=1.4861];
	15	 [URL="http://lattes.cnpq.br/6446351182254980",
		color="#17272B",
		fontcolor="#FFFFFF",
		height=0.23611,
		label="Maria de F. Pereira dos Santos [0]",
		pos="985,336.5",
		width=1.75];
	19	 [URL="http://lattes.cnpq.br/1309035538142217",
		color="#17272B",
		fontcolor="#FFFFFF",
		height=0.23611,
		label="Maximilian Serguei Mesquita [0]",
		pos="1128,336.5",
		width=1.7083];
	21	 [URL="http://lattes.cnpq.br/0512510452476006",
		color="#17272B",
		fontcolor="#FFFFFF",
		height=0.23611,
		label="Rodrigo Dias Pereira [0]",
		pos="1255,336.5",
		width=1.3194];
}
