strict graph grafo1 {
	graph [bb="0,0,3105,71",
		id=grafo1,
		overlap=False
	];
	node [fontsize=8,
		label="\N",
		shape=rectangle,
		style=filled
	];
	0	 [URL="http://lattes.cnpq.br/1888940152771113",
		color="#17272B",
		fontcolor="#FFFFFF",
		height=0.23611,
		label="Lidia M. Pepe de Moraes [1]",
		pos="63,62.5",
		width=1.5139];
	20	 [URL="http://lattes.cnpq.br/8228010543041248",
		color="#17272B",
		fontcolor="#FFFFFF",
		height=0.23611,
		label="Fernando A. Gonçalves Torres [1]",
		pos="63,8.5",
		width=1.75];
	0 -- 20	 [pos="63,53.827 63,43.996 63,27.051 63,17.204"];
	1	 [URL="http://lattes.cnpq.br/1705430650855494",
		color="#17272B",
		fontcolor="#FFFFFF",
		height=0.23611,
		label="Leonardo Giordano Paterno [1]",
		pos="204,62.5",
		width=1.625];
	2	 [URL="http://lattes.cnpq.br/1412260545035778",
		color="#17272B",
		fontcolor="#FFFFFF",
		height=0.23611,
		label="Jurandir Rodrigues de Souza [1]",
		pos="204,8.5",
		width=1.6667];
	1 -- 2	 [pos="204,53.827 204,43.996 204,27.051 204,17.204"];
	3	 [URL="http://lattes.cnpq.br/5311560340084408",
		color="#17272B",
		fontcolor="#FFFFFF",
		height=0.23611,
		label="Juliana Petrocchi Rodrigues [1]",
		pos="340,62.5",
		width=1.6389];
	28	 [URL="http://lattes.cnpq.br/8997745775645416",
		color="#17272B",
		fontcolor="#FFFFFF",
		height=0.23611,
		label="Paulo A. Ziani Suarez [3]",
		pos="465,8.5",
		width=1.3611];
	3 -- 28	 [pos="358.18,53.939 381.88,44.08 423.09,26.934 446.8,17.07"];
	4	 [URL="http://lattes.cnpq.br/7324869293866597",
		color="#17272B",
		fontcolor="#FFFFFF",
		height=0.23611,
		label="José V. Elias Bernardi [0]",
		pos="710,62.5",
		width=1.375];
	5	 [URL="http://lattes.cnpq.br/5126547270872842",
		color="#17272B",
		fontcolor="#FFFFFF",
		height=0.23611,
		label="José J. Linares León [0]",
		pos="824,62.5",
		width=1.2917];
	6	 [URL="http://lattes.cnpq.br/8243497871129180",
		color="#17272B",
		fontcolor="#FFFFFF",
		height=0.23611,
		label="Joel Camargo Rubim [1]",
		pos="465,62.5",
		width=1.3333];
	6 -- 28	 [pos="465,53.827 465,43.996 465,27.051 465,17.204"];
	7	 [URL="http://lattes.cnpq.br/6464993141431276",
		color="#17272B",
		fontcolor="#FFFFFF",
		height=0.23611,
		label="João R. Moreira de Almeida [0]",
		pos="948,62.5",
		width=1.6528];
	8	 [URL="http://lattes.cnpq.br/1505814835374901",
		color="#17272B",
		fontcolor="#FFFFFF",
		height=0.23611,
		label="Jez W. Batista Braga [1]",
		pos="1073,62.5",
		width=1.3194];
	14	 [URL="http://lattes.cnpq.br/7421096523152034",
		color="#17272B",
		fontcolor="#FFFFFF",
		height=0.23611,
		label="Adriano Otávio Maldaner [1]",
		pos="1073,8.5",
		width=1.5278];
	8 -- 14	 [pos="1073,53.827 1073,43.996 1073,27.051 1073,17.204"];
	9	 [URL="http://lattes.cnpq.br/6403427750833514",
		color="#17272B",
		fontcolor="#FFFFFF",
		height=0.23611,
		label="Jader Galba Busato [0]",
		pos="1184,62.5",
		width=1.25];
	10	 [URL="http://lattes.cnpq.br/6040333497171664",
		color="#17272B",
		fontcolor="#FFFFFF",
		height=0.23611,
		label="Grace Ferreira Ghesti [1]",
		pos="1296,62.5",
		width=1.3472];
	27	 [URL="http://lattes.cnpq.br/7612104033806948",
		color="#17272B",
		fontcolor="#FFFFFF",
		height=0.23611,
		label="Sarah Silva Brum [1]",
		pos="1296,8.5",
		width=1.1806];
	10 -- 27	 [pos="1296,53.827 1296,43.996 1296,27.051 1296,17.204"];
	11	 [URL="http://lattes.cnpq.br/5464023129390042",
		color="#17272B",
		fontcolor="#FFFFFF",
		height=0.23611,
		label="Fernando Fabriz Sodré [0]",
		pos="1413,62.5",
		width=1.4028];
	12	 [URL="http://lattes.cnpq.br/9861081561303546",
		color="#17272B",
		fontcolor="#FFFFFF",
		height=0.23611,
		label="Alexandre Perez Umpierre [0]",
		pos="1539,62.5",
		width=1.5833];
	13	 [URL="http://lattes.cnpq.br/4851548247475082",
		color="#17272B",
		fontcolor="#FFFFFF",
		height=0.23611,
		label="Paulo A. F. Herbert Ribeiro [0]",
		pos="1673,62.5",
		width=1.625];
	15	 [URL="http://lattes.cnpq.br/1214716137780644",
		color="#17272B",
		fontcolor="#FFFFFF",
		height=0.23611,
		label="Nádia Skorupa Parachin [0]",
		pos="1803,62.5",
		width=1.4722];
	16	 [URL="http://lattes.cnpq.br/1190292525097613",
		color="#17272B",
		fontcolor="#FFFFFF",
		height=0.23611,
		label="Maria S. Soares Felipe [0]",
		pos="1925,62.5",
		width=1.4028];
	17	 [URL="http://lattes.cnpq.br/1367227325248750",
		color="#17272B",
		fontcolor="#FFFFFF",
		height=0.23611,
		label="Maria Lucilia dos Santos [0]",
		pos="2048,62.5",
		width=1.5];
	18	 [URL="http://lattes.cnpq.br/6449987900688958",
		color="#17272B",
		fontcolor="#FFFFFF",
		height=0.23611,
		label="Marcos Juliano Prauchner [1]",
		pos="587,62.5",
		width=1.5417];
	18 -- 28	 [pos="569.26,53.939 546.13,44.08 505.9,26.934 482.76,17.07"];
	19	 [URL="http://lattes.cnpq.br/5077323083768252",
		color="#17272B",
		fontcolor="#FFFFFF",
		height=0.23611,
		label="Marcelo H. Sousa Ferreira [0]",
		pos="2177,62.5",
		width=1.5694];
	21	 [URL="http://lattes.cnpq.br/",
		color="#17272B",
		fontcolor="#FFFFFF",
		height=0.23611,
		label="[Nome-nao-identificado] [0]",
		pos="2305,62.5",
		width=1.4861];
	22	 [URL="http://lattes.cnpq.br/0115124958520241",
		color="#17272B",
		fontcolor="#FFFFFF",
		height=0.23611,
		label="Valéria Regina Bellotto [0]",
		pos="2429,62.5",
		width=1.4444];
	23	 [URL="http://lattes.cnpq.br/4220445584776352",
		color="#17272B",
		fontcolor="#FFFFFF",
		height=0.23611,
		label="Sônia Maria de Freitas [0]",
		pos="2549,62.5",
		width=1.3889];
	24	 [URL="http://lattes.cnpq.br/9888455998189405",
		color="#17272B",
		fontcolor="#FFFFFF",
		height=0.23611,
		label="Fabrício M. Souza Silva [0]",
		pos="2670,62.5",
		width=1.4722];
	25	 [URL="http://lattes.cnpq.br/7735605194095870",
		color="#17272B",
		fontcolor="#FFFFFF",
		height=0.23611,
		label="Fábio Moreira da Silva [0]",
		pos="2792,62.5",
		width=1.4167];
	26	 [URL="http://lattes.cnpq.br/4578658799634346",
		color="#17272B",
		fontcolor="#FFFFFF",
		height=0.23611,
		label="Simone Monteiro e Silva [0]",
		pos="2915,62.5",
		width=1.5];
	29	 [URL="http://lattes.cnpq.br/6580089254529584",
		color="#17272B",
		fontcolor="#FFFFFF",
		height=0.23611,
		label="Ângelo H. de Lira Machado [0]",
		pos="3046,62.5",
		width=1.6389];
}
