strict digraph grafo3 {
	graph [bb="0,0,2855,145",
		id=grafo3,
		overlap=False
	];
	node [fontsize=8,
		label="\N",
		shape=rectangle,
		style=filled
	];
	0	 [URL="http://lattes.cnpq.br/1888940152771113",
		color="#17272B",
		fontcolor="#FFFFFF",
		height=0.23611,
		label="Lidia M. Pepe de Moraes [1]",
		pos="64,136.5",
		width=1.5139];
	20	 [URL="http://lattes.cnpq.br/8228010543041248",
		color="#17272B",
		fontcolor="#FFFFFF",
		height=0.23611,
		label="Fernando A. Gonçalves Torres [1]",
		pos="63,72.5",
		width=1.75];
	0 -> 20	 [arrowhead=normal,
		arrowsize=0.75,
		fontsize=8,
		label=1.0,
		lp="65.5,104.5",
		penwidth=3.5,
		pos="e,61.643,81.222 62.499,127.8 61.573,122.64 60.474,115.69 60,109.5 59.487,102.79 59.931,95.387 60.619,89.045"];
	20 -> 0	 [arrowhead=normal,
		arrowsize=0.75,
		fontsize=8,
		label=1.0,
		lp="77.5,104.5",
		penwidth=3.5,
		pos="e,67.046,127.81 65.996,81.096 67.847,86.208 70.045,93.148 71,99.5 72.038,106.41 70.902,114 69.264,120.43"];
	1	 [URL="http://lattes.cnpq.br/1705430650855494",
		color="#17272B",
		fontcolor="#FFFFFF",
		height=0.23611,
		label="Leonardo Giordano Paterno [1]",
		pos="197,136.5",
		width=1.625];
	2	 [URL="http://lattes.cnpq.br/1412260545035778",
		color="#17272B",
		fontcolor="#FFFFFF",
		height=0.23611,
		label="Jurandir Rodrigues de Souza [1]",
		pos="212,72.5",
		width=1.6667];
	1 -> 2	 [arrowhead=normal,
		arrowsize=0.75,
		fontsize=8,
		label=1.0,
		lp="188.5,104.5",
		penwidth=3.5,
		pos="e,199.55,81.002 190.52,127.97 185.03,120.62 178.68,109.17 183,99.5 185.35,94.236 189.35,89.595 193.64,85.745"];
	2 -> 1	 [arrowhead=normal,
		arrowsize=0.75,
		fontsize=8,
		label=1.0,
		lp="211.5,104.5",
		penwidth=3.5,
		pos="e,198.84,127.9 210.15,81.165 207.78,90.957 203.62,108.12 200.62,120.55"];
	3	 [URL="http://lattes.cnpq.br/5311560340084408",
		color="#17272B",
		fontcolor="#FFFFFF",
		height=0.23611,
		label="Juliana Petrocchi Rodrigues [1]",
		pos="333,136.5",
		width=1.6389];
	28	 [URL="http://lattes.cnpq.br/8997745775645416",
		color="#17272B",
		fontcolor="#FFFFFF",
		height=0.23611,
		label="Paulo A. Ziani Suarez [3]",
		pos="347,72.5",
		width=1.3611];
	3 -> 28	 [arrowhead=normal,
		arrowsize=0.75,
		fontsize=8,
		label=1.0,
		lp="327.5,104.5",
		penwidth=3.5,
		pos="e,336.49,81.143 327.7,127.92 323.24,120.55 318.14,109.08 322,99.5 323.93,94.697 327.23,90.284 330.8,86.511"];
	28 -> 3	 [arrowhead=normal,
		arrowsize=0.75,
		fontsize=8,
		label=0.33,
		lp="348.5,104.5",
		penwidth=1.49,
		pos="e,334.72,127.9 345.27,81.165 343.06,90.957 339.18,108.12 336.38,120.55"];
	6	 [URL="http://lattes.cnpq.br/8243497871129180",
		color="#17272B",
		fontcolor="#FFFFFF",
		height=0.23611,
		label="Joel Camargo Rubim [1]",
		pos="288,8.5",
		width=1.3333];
	28 -> 6	 [arrowhead=normal,
		arrowsize=0.75,
		fontsize=8,
		label=0.33,
		lp="302.5,40.5",
		penwidth=1.49,
		pos="e,287.61,17.174 321.03,63.957 311.5,59.942 301.47,54.02 295,45.5 290.52,39.596 288.66,31.616 287.97,24.669"];
	18	 [URL="http://lattes.cnpq.br/6449987900688958",
		color="#17272B",
		fontcolor="#FFFFFF",
		height=0.23611,
		label="Marcos Juliano Prauchner [1]",
		pos="410,8.5",
		width=1.5417];
	28 -> 18	 [arrowhead=normal,
		arrowsize=0.75,
		fontsize=8,
		label=0.33,
		lp="372.5,40.5",
		penwidth=1.49,
		pos="e,391.68,17.043 349.36,63.837 352.09,55.969 357.24,43.742 365,35.5 370.57,29.588 377.78,24.619 384.8,20.661"];
	6 -> 28	 [arrowhead=normal,
		arrowsize=0.75,
		fontsize=8,
		label=1.0,
		lp="327.5,40.5",
		penwidth=3.5,
		pos="e,339.77,63.898 295.29,17.165 305.06,27.424 322.52,45.775 334.43,58.286"];
	18 -> 28	 [arrowhead=normal,
		arrowsize=0.75,
		fontsize=8,
		label=1.0,
		lp="398.5,40.5",
		penwidth=3.5,
		pos="e,360.14,63.795 405.48,17.235 400.74,24.938 392.78,36.834 384,45.5 378.86,50.574 372.64,55.359 366.77,59.408"];
	4	 [URL="http://lattes.cnpq.br/7324869293866597",
		color="#17272B",
		fontcolor="#FFFFFF",
		height=0.23611,
		label="José V. Elias Bernardi [0]",
		pos="460,136.5",
		width=1.375];
	5	 [URL="http://lattes.cnpq.br/5126547270872842",
		color="#17272B",
		fontcolor="#FFFFFF",
		height=0.23611,
		label="José J. Linares León [0]",
		pos="574,136.5",
		width=1.2917];
	7	 [URL="http://lattes.cnpq.br/6464993141431276",
		color="#17272B",
		fontcolor="#FFFFFF",
		height=0.23611,
		label="João R. Moreira de Almeida [0]",
		pos="698,136.5",
		width=1.6528];
	8	 [URL="http://lattes.cnpq.br/1505814835374901",
		color="#17272B",
		fontcolor="#FFFFFF",
		height=0.23611,
		label="Jez W. Batista Braga [1]",
		pos="823,136.5",
		width=1.3194];
	14	 [URL="http://lattes.cnpq.br/7421096523152034",
		color="#17272B",
		fontcolor="#FFFFFF",
		height=0.23611,
		label="Adriano Otávio Maldaner [1]",
		pos="823,72.5",
		width=1.5278];
	8 -> 14	 [arrowhead=normal,
		arrowsize=0.75,
		fontsize=8,
		label=1.0,
		lp="812.5,104.5",
		penwidth=3.5,
		pos="e,816.72,81.153 816.04,127.74 810.5,120.6 804.13,109.63 807,99.5 808.16,95.398 810.17,91.307 812.38,87.625"];
	14 -> 8	 [arrowhead=normal,
		arrowsize=0.75,
		fontsize=8,
		label=1.0,
		lp="828.5,104.5",
		penwidth=3.5,
		pos="e,823,127.9 823,81.165 823,90.864 823,107.8 823,120.19"];
	9	 [URL="http://lattes.cnpq.br/6403427750833514",
		color="#17272B",
		fontcolor="#FFFFFF",
		height=0.23611,
		label="Jader Galba Busato [0]",
		pos="934,136.5",
		width=1.25];
	10	 [URL="http://lattes.cnpq.br/6040333497171664",
		color="#17272B",
		fontcolor="#FFFFFF",
		height=0.23611,
		label="Grace Ferreira Ghesti [1]",
		pos="1046,136.5",
		width=1.3472];
	27	 [URL="http://lattes.cnpq.br/7612104033806948",
		color="#17272B",
		fontcolor="#FFFFFF",
		height=0.23611,
		label="Sarah Silva Brum [1]",
		pos="1046,72.5",
		width=1.1806];
	10 -> 27	 [arrowhead=normal,
		arrowsize=0.75,
		fontsize=8,
		label=1.0,
		lp="1035.5,104.5",
		penwidth=3.5,
		pos="e,1039,81.264 1039.7,127.85 1036.1,122.93 1031.9,116.23 1030,109.5 1027.9,102.06 1030.8,94.165 1034.6,87.672"];
	27 -> 10	 [arrowhead=normal,
		arrowsize=0.75,
		fontsize=8,
		label=1.0,
		lp="1051.5,104.5",
		penwidth=3.5,
		pos="e,1046,127.9 1046,81.165 1046,90.864 1046,107.8 1046,120.19"];
	11	 [URL="http://lattes.cnpq.br/5464023129390042",
		color="#17272B",
		fontcolor="#FFFFFF",
		height=0.23611,
		label="Fernando Fabriz Sodré [0]",
		pos="1163,136.5",
		width=1.4028];
	12	 [URL="http://lattes.cnpq.br/9861081561303546",
		color="#17272B",
		fontcolor="#FFFFFF",
		height=0.23611,
		label="Alexandre Perez Umpierre [0]",
		pos="1289,136.5",
		width=1.5833];
	13	 [URL="http://lattes.cnpq.br/4851548247475082",
		color="#17272B",
		fontcolor="#FFFFFF",
		height=0.23611,
		label="Paulo A. F. Herbert Ribeiro [0]",
		pos="1423,136.5",
		width=1.625];
	15	 [URL="http://lattes.cnpq.br/1214716137780644",
		color="#17272B",
		fontcolor="#FFFFFF",
		height=0.23611,
		label="Nádia Skorupa Parachin [0]",
		pos="1553,136.5",
		width=1.4722];
	16	 [URL="http://lattes.cnpq.br/1190292525097613",
		color="#17272B",
		fontcolor="#FFFFFF",
		height=0.23611,
		label="Maria S. Soares Felipe [0]",
		pos="1675,136.5",
		width=1.4028];
	17	 [URL="http://lattes.cnpq.br/1367227325248750",
		color="#17272B",
		fontcolor="#FFFFFF",
		height=0.23611,
		label="Maria Lucilia dos Santos [0]",
		pos="1798,136.5",
		width=1.5];
	19	 [URL="http://lattes.cnpq.br/5077323083768252",
		color="#17272B",
		fontcolor="#FFFFFF",
		height=0.23611,
		label="Marcelo H. Sousa Ferreira [0]",
		pos="1927,136.5",
		width=1.5694];
	21	 [URL="http://lattes.cnpq.br/",
		color="#17272B",
		fontcolor="#FFFFFF",
		height=0.23611,
		label="[Nome-nao-identificado] [0]",
		pos="2055,136.5",
		width=1.4861];
	22	 [URL="http://lattes.cnpq.br/0115124958520241",
		color="#17272B",
		fontcolor="#FFFFFF",
		height=0.23611,
		label="Valéria Regina Bellotto [0]",
		pos="2179,136.5",
		width=1.4444];
	23	 [URL="http://lattes.cnpq.br/4220445584776352",
		color="#17272B",
		fontcolor="#FFFFFF",
		height=0.23611,
		label="Sônia Maria de Freitas [0]",
		pos="2299,136.5",
		width=1.3889];
	24	 [URL="http://lattes.cnpq.br/9888455998189405",
		color="#17272B",
		fontcolor="#FFFFFF",
		height=0.23611,
		label="Fabrício M. Souza Silva [0]",
		pos="2420,136.5",
		width=1.4722];
	25	 [URL="http://lattes.cnpq.br/7735605194095870",
		color="#17272B",
		fontcolor="#FFFFFF",
		height=0.23611,
		label="Fábio Moreira da Silva [0]",
		pos="2542,136.5",
		width=1.4167];
	26	 [URL="http://lattes.cnpq.br/4578658799634346",
		color="#17272B",
		fontcolor="#FFFFFF",
		height=0.23611,
		label="Simone Monteiro e Silva [0]",
		pos="2665,136.5",
		width=1.5];
	29	 [URL="http://lattes.cnpq.br/6580089254529584",
		color="#17272B",
		fontcolor="#FFFFFF",
		height=0.23611,
		label="Ângelo H. de Lira Machado [0]",
		pos="2796,136.5",
		width=1.6389];
}
