artigoEmPeriodico	2014	http://dx.doi.org/10.1016/j.jallcom.2014.01.173	Corrosion resistance of aged Ti-Mo-Nb alloys for biomedical applications	Journal of Alloys and Compounds	ALMEIDA, L. H. ; Bastos, Ivan Napoleão ; DUTRA, A. J. B.	A1	
artigoEmPeriodico	2014	http://dx.doi.org/10.1080/00218464.2014.976626	Correlation Between Chemical Composition and Adherence of Cr and Co Coatings Deposited by Electric Arc	The Journal of Adhesion (Print)	ANTUNES, F. J. ; SÁ BRITO, V. R. S. ; COSTA, H. R. M. ; BASTOS, I. N. ; DE CAMPOS, J. B. ; DE AGUIAR, R. A. A.	Qualis nao identificado	The Journal of Adhesion (Print)
artigoEmPeriodico	2014	http://dx.doi.org/10.1179/1743278214Y.0000000156	Influence of heat treatments on microstructure and pitting corrosion resistance of 15%Cr supermartensitic stainless steel	Corrosion Engineering, Science and Technology	Bruno Barbosa ; MACEDO, Marcelo Camargo Severo de ; Bastos, Ivan Napoleão ; TAVARES, Sérgio Souto Maior	B1	
artigoEmPeriodico	2014	http://dx.doi.org/10.1103/physrevb.90.041411	Gaussian deformations in graphene ribbons: Flowers and confinement	PHYSICAL REVIEW B	CARRILLO-BASTOS, R. ; FARIA, D. ; LATGÉ, A. ; MIRELES, F. ; SANDLER, N.	A1	
artigoEmPeriodico	2014	http://dx.doi.org/10.1615/computthermalscien.2014008663	THE UNIFIED INTEGRAL TRANSFORMS (UNIT) ALGORITHM WITH TOTAL AND PARTIAL TRANSFORMATION	Computational Thermal Sciences: An International Journal	Cotta, Renato M. ; Knupp, Diego C. ; NAVEIRA-COTTA, CAROLINA P. ; SPHAIER, LEANDRO A. ; QUARESMA, JOAO N. N.	B3	Computational Thermal Sciences
artigoEmPeriodico	2014	http://dx.doi.org/10.1088/1742-6596/490/1/012033	Optimization strategies in the modelling of SG-SMB applied to separation of phenylalanine and tryptophan	Journal of Physics. Conference Series (Online)	CÂMARA, L. D. T	B2	
artigoEmPeriodico	2014	http://dx.doi.org/10.1002/ceat.201200193	Stepwise Model Evaluation in Simulated Moving-Bed Separation of Ketamine	Chemical Engineering & Technology	Câmara, Leôncio Diógenes T	A2	
artigoEmPeriodico	2014	http://dx.doi.org/10.1016/j.corsci.2013.11.020	A thermodynamically consistent modelling of stress corrosion tests in elasto-viscoplastic materials	Corrosion Science	DA COSTA MATTOS, H.S. ; BASTOS, I.N. ; GOMES, J.A.C.P.	A1	
artigoEmPeriodico	2014		Simulação de Escoamentos Incompressíveis Empregando o Método SPH Utilizando Um Algoritmo Iterativo na Determinação do Campo de Pressões	Revista de Engenharia da Universidade Católica de Petrópolis	de Freitas, M. M. ; H.P. Amaral Souto	B4	
artigoEmPeriodico	2014	http://dx.doi.org/10.1016/j.renene.2013.11.006	Glycerol conversion in the experimental study of catalytic hydrolysis of triglycerides for fatty acids production using Ni or Pd on Al2O3 or SiO2	Renewable Energy	DÍAZ, GISEL CHENARD ; TAPANES, NEYDA DE LA C. OM ; Câmara, Leôncio Diógenes T. ; ARANDA, DONATO A.G.	A1	
artigoEmPeriodico	2014		The Algorithmic Autoregulation software development methodology	RESI : Revista Eletrônica de Sistemas de Informação	Fabbri, Renato ; Fabbri, Ricardo ; Vieira, Vilson ; NEGRAO, A. ; ZAMBIANCHI, L. ; MENDONÇA, M. ; SHIGA, D.	B3	
artigoEmPeriodico	2014	http://dx.doi.org/10.1016/j.physa.2013.09.048	Multi- pattern classification of polarization curves	Physica. A (Print)	FABBRI, RICARDO ; Bastos, Ivan N. ; NETO, FRANCISCO D. MOURA ; LOPES, FRANCISCO J.P. ; GONÇALVES, WESLEY N. ; BRUNO, ODEMIR M.	A2	
artigoEmPeriodico	2014	http://dx.doi.org/10.4028/www.scientific.net/DDF.353.298	The Convergence Rate of Iterative Procedures for Elliptic Problems in Heterogeneous Media	Defect and Diffusion Forum	FRANCISCO, Alexandre Santos ; AMARAL SOUTO, H. P. ; PEREIRA, T. J.	Qualis nao identificado	Defect and Diffusion Forum
artigoEmPeriodico	2014	http://dx.doi.org/10.1080/00986445.2014.947365	Computation of Critical Points of Mixtures Using Particle Swarm Optimization with Low-Discrepancy Sequences	CHEMICAL ENGINEERING COMMUNICATIONS (PRINT)	Henderson, Nélio; DE MOURA MENESES, ANDERSON ALVARENGA ; Sacco, Wagner F. ; BARUFATTI, NELZA E.	A2	
artigoEmPeriodico	2014	http://dx.doi.org/10.1021/ie403763a	Prediction of Tricritical Points in Ternary Mixtures by Global Optimization	Industrial & Engineering Chemistry Research	Henderson, Nélio; RODRIGUES, RAIMUNDO A. ; Sacco, Wagner F.	A1	
artigoEmPeriodico	2014	http://dx.doi.org/10.1021/ie402819r	Phase Stability Analysis using a Polarization Technique and the Randomness of a Stochastic Method in an Unconstrained Optimization Framework	Industrial & Engineering Chemistry Research	Henderson, Nélio; SARTORI, JOVIANA ; F. SACCO, WAGNER	A1	
artigoEmPeriodico	2014		Mapas de impedância eletroquímica aplicados à corrosão	Corrosão e Proteção	KAPPEL, M. A. A. ; Ivan N. Bastos ; FABBRI, R. ; DOMINGOS, R. P.	B3	
artigoEmPeriodico	2014		Electrochemical Impedance Maps and their Application to Corrosion	Corrosão e Proteção	KAPPEL, M. A. A. ; LUZ, J. M. M. ; Fabbri, Ricardo ; Pinheiro, R ; BASTOS, I. N.	B3	
artigoEmPeriodico	2014	http://dx.doi.org/10.1016/j.ijheatmasstransfer.2014.03.005	Theoretical-experimental analysis of conjugated heat transfer in nanocomposite heat spreaders with multiple microchannels	International Journal of Heat and Mass Transfer	Knupp, D.C.; Naveira-Cotta, C. P. ; Cotta, Renato M.	A1	
artigoEmPeriodico	2014	http://dx.doi.org/10.1088/0031-9120/49/6/658	Demonstrations of magnetic phenomena: measuring the air permeability using tablets	PHYSICS EDUCATION (BRISTOL. PRINT)	LARA, V. O. M. ; Amaral, D ; FARIA, D. ; Vieira, L	Qualis nao identificado	PHYSICS EDUCATION (BRISTOL. PRINT)
artigoEmPeriodico	2014		A new approach to validate computer modeling auralizations by using articulation indexes	Acústica e Vibrações	Melo V.S.G. ; TENENBAUM, R. A. ; NARANJO, J. F.L.	B4	
artigoEmPeriodico	2014	http://dx.doi.org/10.1007/s40314-013-0059-x	Multi-scale approach for conduction heat transfer: one- and two-equation models	Computational & Applied Mathematics	MOYNE, C. ; AMARAL SOUTO, H. P.	B1	
artigoEmPeriodico	2014	http://dx.doi.org/10.1007/s40314-013-0072-0	Multi-Scale approach for conduction heat transfer: one and two-equation models	Computational & Applied Mathematics	MOYNE, C. ; Souto, H. P. Amaral	B1	
artigoEmPeriodico	2014	http://dx.doi.org/10.1177/0734242x14536463	RFID technology for hazardous waste management and tracking	Waste Management and Research	NAMEN, A. A.; DA COSTA BRASIL, F. ; ABRUNHOSA, J. J. G. ; ABRUNHOSA, G. G. S. ; TARRE, R. M. ; MARQUES, F. J. G.	A2	
artigoEmPeriodico	2014	http://dx.doi.org/10.1088/1749-4699/7/1/015002	Application of the Firefly and Luus-Jaakola algorithms in the calculation of a double reactive azeotrope	Computational Science & Discovery	PLATT, G. M	Qualis nao identificado	Computational Science & Discovery
artigoEmPeriodico	2014		Computational Experiments with Flower Pollination Algorithm in the Calculation of Double Retrograde Dew Points	International Review of Chemical Engineering (Testo Stampato)	PLATT, G. M	B3	
artigoEmPeriodico	2014		Testing Population Initialisation Schemes for Differential Evolution Applied to a Nuclear Reactor Core Design. International Journal of Nuclear Energy	International Journal of Nuclear Energy, Science and Technology (Online)	SACCO, W. F. ; COELHO, A. C. R. ; Henderson, Nélio	B1	International Journal of Nuclear Energy, Science and Technology (Print)
artigoEmPeriodico	2014	http://dx.doi.org/10.1016/j.pnucene.2013.09.012	Differential evolution with topographical mutation applied to nuclear reactor core design	Progress in Nuclear Energy (New Series)	Sacco, Wagner F. ; Henderson, Nélio	A2	
artigoEmPeriodico	2014	http://dx.doi.org/10.1016/j.anucene.2013.10.027	Topographical global optimization applied to nuclear reactor core design: Some preliminary results	Annals of Nuclear Energy	Sacco, Wagner F. ; Henderson, Nélio ; RIOS-COELHO, ANA CAROLINA	A2	
artigoEmPeriodico	2014	http://dx.doi.org/10.1016/j.pnucene.2013.12.011	Topographical clearing differential evolution: A new method to solve multimodal optimization problems	Progress in Nuclear Energy (New Series)	Sacco, Wagner F. ; Henderson, Nélio ; RIOS-COELHO, ANA CAROLINA	A2	
artigoEmPeriodico	2014		Resolução da Equação de Burgers Empregando Uma Formulação Implícita e Métodos de Krylov	Revista de Engenharia da Universidade Católica de Petrópolis	SANTOS, R. D. ; H.P. Amaral Souto	B4	
artigoEmPeriodico	2014		Otimização de Espessuras de Isolamento de Dutos de Petróleo em Condições Submarinas	REUCP	SILVA, G. R. ; CÂMARA, L. D. T. ; SILVA NETO, Antônio José da	Qualis nao identificado	REUCP
artigoEmPeriodico	2014		Inverse problem in anomalous diffusion with uncertainty propagation	Computer Assisted Methods in Engineering and Science	Silva, L. G. ; Knupp, D.C. ; BEVILACQUA, LUIZ ; Galeão, A. C. N. R. ; Silva Neto, A.J.	Qualis nao identificado	Computer Assisted Methods in Engineering and Science
artigoEmPeriodico	2014	http://dx.doi.org/10.5902/2179460x13184	FORMULAÇÃO E SOLUÇÃO DE UM PROBLEMA INVERSO DE DIFUSÃO ANÔMALA COM TÉCNICAS ESTOCÁSTICAS	Ciência e Natura	SILVA, LUCIANO GONÇALVES DA ; KNUPP, DIEGO CAMPOS ; BEVILACQUA, LUIZ ; GALEÃO, AUGUSTO CÉSAR NORONHA RODRIGUES ; SILVA NETO, ANTÔNIO JOSÉ DA	B2	
artigoEmPeriodico	2014		Comparación de diferentes algoritmos metaheurísticos en la estimación de parámetros del modelo relacional general de cromatografía líquida en columna	Ingeniare. Revista Chilena de Ingeniería (En línea)	TORRES, R. H. ; MESA, M. I. ; Llanes-Santiago, Orestes ; CÂMARA, L. D. T. ; SILVA NETO, A. J. ; CARDENAS, L. M. Z.	B2	
artigoEmPeriodico	2014	http://dx.doi.org/10.1007/s40430-014-0223-2	Analytical and numerical analyses of gradient estimation methodologies on Voronoi grids	Journal of the Brazilian Society of Mechanical Sciences and Engineering (Impresso)	VASCONCELLOS, J. F. V.; Silva, D. P.	B1	
trabalhoCompletoEmCongresso	2014		COMPORTAMENTO MECÂNICO, TENSÕES RESIDUAIS E CARACTERIZAÇÃO MICROESTRUTURAL DE JUNTAS SOLDADAS PELO PROCESSO ERW DE AÇO API 5L X65	CONEM2014	Alexandre ; Bastos, Ivan Napoleão ; REBELLO, J. M. A. ; FONSECA, M. P. C.		
trabalhoCompletoEmCongresso	2014		Effect of Hydrogenation on Mechanical Behavior, Residual Stresses and Microstructural Properties of API 5L X65 Steel Welded Joints	Hy-SEA International Conference on Hydrogen Storage Embrittlement and Applications	Alexandre ; FONSECA, M. P. C. ; Bastos, Ivan Napoleão ; REBELLO, J. M. A.		
trabalhoCompletoEmCongresso	2014		RESOLUTION OF GLOBAL MULTIMODAL PROBLEMS USING OPTIMIZATION AND CLUSTERING ALGORITHMS	OPT-i An International Conference on Engineering and Applied Sciences Optimization	ALMEIDA, D. M. B. ; MOURA NETO, Francisco Duarte ; Platt, Gustavo Mendes		
trabalhoCompletoEmCongresso	2014		Acoplamento de algoritmos de otimização e agrupamento para resolução de problemas globalmente multimodais	XXXV Congresso Nacional de Matemática Aplicada e Computacional	ALMEIDA, D. M. B. ; Platt, G. M. ; Moura Neto, F		
trabalhoCompletoEmCongresso	2014		Redes neurais artificiais aplicadas à determinação do tamanho ótimo de malha para o cálculo da intensidade útil	XXV Encontro da Sociedade Brasileira de Acústica	Barros T.M.S.M. ; TENENBAUM, R. A. ; CORREA JR., C. ; FERREIRA, V. L. D.		
trabalhoCompletoEmCongresso	2014		O Novo Modelo Front Velocity Aplicado na Modelagem da Separação de Enantiômeros Via Processo Leito Móvel Simulado	XXXV Congresso Nacional de Matemática Aplicada e Computacional	BIHAIN, A. L. J. ; SILVA NETO, ANTÔNIO ; CÂMARA, L. D. T.		
trabalhoCompletoEmCongresso	2014	http://dx.doi.org/10.5220/0005009400050011	The Front Velocity Approach in the Modelling of Simulated Moving Bed Process (SMB)	4th International Conference on Simulation and Modeling Methodologies	BIHAIN, ANDERSON ; Câmara, Leôncio Diógenes T. ; SILVA NETO, ANTÔNIO		
trabalhoCompletoEmCongresso	2014		EXPERIMENTOS NUMÉRICOS NA MODELAGEM TERMODINÂMICA DE DEPOSIÇÃO DE PARAFINA EM DUTOS	XXXV CONGRESSO NACIONAL DE MATEMÁTICA APLICADA E COMPUTACIONAL	BLASS, L. ; PLATT, Gustavo Mendes ; VASCONCELLOS, J. F. V.		
trabalhoCompletoEmCongresso	2014		Numerical Reservoir Simulation of Naturally Fractured Reservoirs. Mini-symposium Advanced Gridding and Discretization Techniques for Petroleum Reservoir Simulation	The Ibero-Latin American Congress on Computational Methods in Engineering	BOY, G. S. ; AMARAL SOUTO, H. P.		
trabalhoCompletoEmCongresso	2014		Comparação dos Modelos de Darcy, Forchheimer e Barree e Conway na Simulação de Reservatórios de Gás	XVII Encontro de Modelagem Computacional	BOY, G. S. ; Amaral Souto, H.P.		
trabalhoCompletoEmCongresso	2014		Solução do problema inverso de transferência radiativa em meios de duas camadas com o algoritmo de vagalumes e variações	XXXV Congresso Nacional de Matemática Aplicada e Computacional - CNMAC 2014	Cirino, R. L. ; Knupp, D.C. ; Neto, B. L. ; Silva Neto, A.J.		
trabalhoCompletoEmCongresso	2014		Uso de redes neurais artificiais para filtragem de ondas sonoras não radiantes em superfícies vibrantes	Congresso Nacional de Matemática Aplicada e Computacional	CORREA JR., C. ; CORRÊA, R.A.P. ; PERRU, L. F. P. ; TENENBAUM, R. A.		
trabalhoCompletoEmCongresso	2014		UMA COMPARAÇÃO DAS PROPRIEDADES DAS LIGAS DE Ni EM CONDIÇÕES DE CORROSÃO AGRESSIVA	Conem2014	Costa, Hector Reynaldo Meneses ; SILVA, S. G. ; Bastos, Ivan Napoleão ; FIUZA, G. C. C. ; TROJAN, J. C. ; AGUIAR, R. A. A.		
trabalhoCompletoEmCongresso	2014		Reaeration Coefficient Sensitivity Analysis For Water Quality River Modelling	4th International Conference on Engineering Optimization	COSTA, V. T. R. ; RODRIGUES, P. P. G. W. ; LUGON JR., J.		
trabalhoCompletoEmCongresso	2014		Unified integral transforms algorithm for convection-diffusion in irregular geometries and complex configurations	CONV-14: Int. Symp. on Convective Heat and Mass Transfer	Cotta, Renato M. ; Knupp, D.C. ; Naveira-Cotta, C. P.		
trabalhoCompletoEmCongresso	2014		Unified integral transforms in conjugated heat and fluid flow	Third International Conference on Computational Methods for Thermal Problems - THERMACOMP 2014	Cotta, Renato M. ; Knupp, D.C. ; Naveira-Cotta, C. P.		
trabalhoCompletoEmCongresso	2014		Acoustic radiation through the supersonic intensity for rectangular plates with several boundary conditions	XXV Encontro da Sociedade Brasileira de Acústica	FERREIRA, V. L. D. ; TENENBAUM, R. A. ; SUAZO, G. C. ; CORREA JR., C.		
trabalhoCompletoEmCongresso	2014		Mapping of radiant regions in vibrating rectangular plates with different boundary edge conditions through the supersonic and useful intensities	XVII Encontro de Modelagem Computacional e V Encontro de Ciência e Tecnologia de Materiais	FERREIRA, V. L. D. ; TENENBAUM, R. A. ; TAMINATO, F. O.		
trabalhoCompletoEmCongresso	2014		Extração de padrões relacionados a professores do ensino básico - um estudo em bases de dados desbalanceadas	XVII Encontro de Modelagem Computacional	FONSECA, S. O. ; NAMEN, A. A.		
trabalhoCompletoEmCongresso	2014		Estudo Comparativo das Versões Serial e Paralela (CUDA) do Método SPH Empregando-se uma Técnica Iterativa para a Determinação do Campo de Pressões	The Ibero-Latin American Congress on Computational Methods in Engineering	GOES, M. L. ; Gés, J. F. ; de Freitas, M. M. ; AMARAL SOUTO, H. P.		
trabalhoCompletoEmCongresso	2014		Inversion of functions from the plane to the plane e to solve Nonlinear Algebraic Systems: Calculating of Double Azeotrope using the Modified Raoult?s Law in the Mixture Benzene + Hexafluorobenzene	4th International Conference on Engineering Optmization	GUEDES, A. L. ; PLATT, G. M. ; Moura Neto, F. D.		
trabalhoCompletoEmCongresso	2014		Avaliação dos algoritmos de Picard-Krylov na solução da equação de Richards	XXXV Congresso Nacional de Matemática Aplicada e Computaciona	GUTERRES, M. X. ; SILVA NETO, Antônio José da ; VASCONCELLOS, J. F. V.		
trabalhoCompletoEmCongresso	2014		Cuantificación de Incertidumbre en Identificación de Proceso de Cromatografía Basada en Cadenas de Markov Monte Carlo	1º International Symposium of Modeling Applied to Engineering	Irizar Mesa, Mirtha ; Llanes-Santiago, Orestes ; CÂMARA, L. D. T. ; SILVA NETO, Antônio José da		
trabalhoCompletoEmCongresso	2014		AVALIAÇÃO ELETROQUÍMICA DA INIBIÇÃO DE CORROSÃO EM AÇO-CARBONO POR A. canelilla EM MEIO ÁCIDO	17 ENMC / 5 ECTM	Iuri Bezerra de Barros ; Bastos, Ivan Napoleão		
trabalhoCompletoEmCongresso	2014		Mapas de impedância eletroquímica aplicada à corrosão	Intercorr 2014	Jorge Morvan ; Marco Kappel ; Fabbri ; Domingos ; BASTOS, I.N.		
trabalhoCompletoEmCongresso	2014		Uma Versão Modificada do Método Evolução Diferencial para Estimativa de Parâmetros do Modelo de Difusão Anômala Assimétrica	XXXV Congresso Nacional de Matemática Aplicada e Computacional - CNMAC 2014	KNUPP, D. C. ; GALEAO, A. C. N. R. ; SILVA NETO, Antônio José da ; CÂMARA, L. D. T. ; BEVILACQUA, L. ; Llanes-Santiago, Orestes		
trabalhoCompletoEmCongresso	2014		Unified integral transforms in single domain formulation for internal flow three-dimensional conjugated problems	15th International Heat Transfer Conference - IHTC-15	Knupp, D.C.; Naveira-Cotta, C. P. ; Cotta, Renato M.		
trabalhoCompletoEmCongresso	2014		Uncertainty Analysis in the Solution of an Inverse Anomalous Diffusion Problem Employing Maximum Likelihood and Bayesian Estimation	17th Scientific Convention on Engineering and Architecture	Knupp, D.C.; Silva, L. G. ; Bevilacqua, L. ; Galeão, A. C. N. R. ; Silva Neto, A.J.		
trabalhoCompletoEmCongresso	2014		ESTUDO DA FOTOCURA DE RESINAS DENTÁRIAS COM AS TÉCNICAS DE MICROBALANÇA DE CRISTAL DE QUARTZO E ESPECTROSCOPIA FOTOACÚSTICA	XVII Encontro Nacional de Modelagem Computacional / V Encontro de Ciência e Tecnologia dos Materiais	LIMA, M. A. ; CELLA, Norberto ; Bastos, Ivan Napoleão		
trabalhoCompletoEmCongresso	2014		Equilíbrio Líquido-Vapor no Sistema Ciclohexano + n-heptano em Baixas Pressões: Aspectos Experimentais e Ferramentas Numérico-Computacionais	XVII Encontro Nacional de Modelagem Computacional	LUZ FILHO, J. M. M. ; PINTO, A. B. C. ; FARIA, D. S. ; CUSTODIO, D. L. ; PLATT, G. M.		
trabalhoCompletoEmCongresso	2014		Efeito inercial microscópico no estudo da transição do escoamento incompressível não-Darciano em meio poroso não consolidado	COBEQ 2014- XX Congresso Brasileiro de Engenharia Química	MACIEL, H. E. ; CÂMARA, L. D. T.		
trabalhoCompletoEmCongresso	2014		Statistical design of an adaptive control chart for linear profile monitoring	3rd Stochastic Modeling Techniques and Data Analysis International Conference	MAGALHAES, Maysa Sacramento de ; FERNANDES, V. L. ; Moura Neto, Francisco Duarte		
trabalhoCompletoEmCongresso	2014		EVOLUÇÃO DIFERENCIAL APLICADA AO AJUSTE DE CIRCUITOS EQUIVALENTES EM MAPAS DE IMPEDÂNCIA ELETROQUÍMICA	17 ENMC / 5 ECTM	KAPPEL, M. A. A. ; Domingos, R. P. ; BASTOS, Ivan Napoleão		
trabalhoCompletoEmCongresso	2014		MAPPING ELECTROCHEMICAL IMPEDANCE AND NEW SIMULATIONS OF EQUIVALENT ELECTRIC CIRCUITS	1st International Electrochemistry Workshop and Forum	Marco Kappel ; FABBRI, RICARDO ; Domingos ; Nogueira, R. P. ; Bastos, Ivan Napoleão		
trabalhoCompletoEmCongresso	2014		Um Estudo Comparativo da Solução do Problema de Transferência Radiativa em Meios Heterogêneos	VIII Congresso Nacional de Engenharia Mecânica - CONEM 2014	Mattos, E. W. B. R. ; Knupp, D.C. ; Silva Neto, A.J.		
trabalhoCompletoEmCongresso	2014		Efeito do potencial nos parâmetros de circuito equivalente de diagramas de impedância eletroquímica	Intercorr 2014	MELENGATE, G. S. ; Iuri Bezerra de Barros ; BASTOS, I.N. ; PAYÃO, J. C.		
trabalhoCompletoEmCongresso	2014		Método para avaliação de inteligibilidade em salas de aula do ensino fundamental a partir de respostas impulsivas biauriculares e testes virtuais	XXV Encontro da Sociedade Brasileira de Acústica	Melo V.S.G. ; TENENBAUM, R. A. ; MUSAFIR, R. E.		
trabalhoCompletoEmCongresso	2014		A new approach to validate computer modeling auralizations by using articulation indexes	XXV Encontro da Sociedade Brasileira de Acústica	Melo V.S.G. ; TENENBAUM, R. A. ; NARANJO, J. F.L.		
trabalhoCompletoEmCongresso	2014		Una Propuesta para Reducir el Tiempo de Solución de un Problema Inverso Aplicado a la Estimación de Parámetros. In: 1º International Symposium of Modeling Applied to Engineering	17 Convención Científica de Ingeniería y Arquitectura	MORENO, A. P. ; CÂMARA, L. D. T. ; SILVA NETO, Antônio José da ; Llanes-Santiago, Orestes		
trabalhoCompletoEmCongresso	2014		Uncertianty Analysis in Mass Transfer Parameter Estimations for Chromatographic Separation of Glucose and Fructose	XXXV Congresso Nacional de Matemática Aplicada e Computacional	MORENO, A. P. ; SANTIAGO, O. L. ; CÂMARA, L. D. T. ; SILVA NETO, ANTÔNIO		
trabalhoCompletoEmCongresso	2014		RFID TECHNOLOGY FOR HAZARDOUS WASTE MANAGEMENT AND TRACKING	ISWA 2014 Solid Waste World Congress	NAMEN, A. A.; BRASIL, F. C. ; ABRUNHOSA, J. J. G. ; ABRUNHOSA, G. G. S. ; TARRE, R. M. ; MARQUES, F. J. G.		
trabalhoCompletoEmCongresso	2014		Realidade virtual acústica: a abordagem das redes neurais artificiais	XXV Encontro da Sociedade Brasileira de Acústica	NARANJO, J. F. ; TENENBAUM, R.A. ; Torres, J.C.B.		
trabalhoCompletoEmCongresso	2014		Redes neurais artificiais aplicadas na geração de respostas impulsivas biauriculares	XXV Encontro da Sociedade Brasileira de Acústica	NARANJO, J. F.L. ; TENENBAUM, R. A. ; TORRES, Julio C B		
trabalhoCompletoEmCongresso	2014	http://dx.doi.org/10.5540/03.2015.003.01.0260	Utilização de Modelos Autoregressivos na Quantificação de Incertezas em Problemas de Transporte Linear	XXXV CNMAC Congresso Nacional de Matemática Aplicada e Computacional	PEREIRA, THIAGO JORDEM ; SOUTO, HELIO PEDRO AMARAL		
trabalhoCompletoEmCongresso	2014		Study of truncation point via artificial neural networks for the computation of the useful intensity in plates	XXXV Ibero Latin American Congress on Computational Methods in Engineering	PERRU, L. ; CORREA JR., C. ; CORRÊA, R.A.P. ; TENENBAUM, R. A.		
trabalhoCompletoEmCongresso	2014		Analysis of the application of RNAs in choice of mesh size for the calculation of useful intensity	XVII Encontro de Modelagem Computacional e V Encontro de Ciência e Tecnologia de Materiais	PERRU, L. F. P. ; C.A. Corrêa Jr ; SOUZA, R. ; CORRÊA, R.A.P. ; TENENBAUM, R.A. ; Barros T.M.S.M.		
trabalhoCompletoEmCongresso	2014		Diffusion Maps in the Reconstruction of Nonlinear Signals	3rd Stochastic Modeling Techniques and Data Analysis International Conference	PINTO, L. M. S. ; FABBRI, R. ; Moura Neto, Francisco Duarte		
trabalhoCompletoEmCongresso	2014		Um Código em Scilab para Cálculo de Pontos Críticos de Misturas	XVII Encontro Nacional de Modelagem Computacional	PLATT, G. M		
trabalhoCompletoEmCongresso	2014		Modelagem do Equilíbrio Líquido-Vapor no Sistema Linalol-Geraniol	XVII Encontro Nacional de Modelagem Computacional	PLATT, G. M.; CUSTODIO, D. L.		
trabalhoCompletoEmCongresso	2014		Hibridização entre Modelo de Superfície de Resposta e dados no domínio do tempo em problemas de identificação de danos estruturais	XVII Encontro de Modelagem Computacional	RANGEL, I. C. S. S. ; RANGEL, L. S. ; STUTZ, L.T.		
trabalhoCompletoEmCongresso	2014		Identificação de danos estruturais a partir de um modelo de superfície de resposta	XXXV Congresso Nacional de Matemática Aplicada e Computacional	RANGEL, I. C. S. S. ; STUTZ, L.T. ; RANGEL, L. S.		
trabalhoCompletoEmCongresso	2014		Identificação de danos estruturais utilizando dados no domínio do tempo e critério D-ótimo	XXXV Congresso Nacional de Matemática Aplicada e Computacional	RANGEL, L. S. ; STUTZ, L.T. ; RANGEL, I. C. S. S.		
trabalhoCompletoEmCongresso	2014		Previsão do Equilíbrio Líquido-Vapor de Sistemas Binários: uma Comparação entre Abordagens via Redes Neurais e Interpolação Linear	XVII Encontro Nacional de Modelagem Computacional	RIBEIRO, D. G. ; PLATT, G. M. ; VASCONCELOS, João Flávio Veira de		
trabalhoCompletoEmCongresso	2014		Previsão do equilíbrio vapor-líquido de sistemas binários: Uma comparação entre abordagens via redes neurais artificiais e interpolação linear	XII Encontro Nacional de Modelagem Computacional	Ribeiro, D. G. ; VASCONCELLOS, J. F. V. ; PLATT, Gustavo Mendes		
trabalhoCompletoEmCongresso	2014		Estimação de Ótimos Globais de Equações Não-Lineares Através dos Métodos Estocásticos R2W e MR2W	XXXV Congresso Nacional de Matemática Aplicada e Computacional	RIBEIRO, M. A. C. ; CÂMARA, L. D. T. ; SILVA NETO, ANTÔNIO		
trabalhoCompletoEmCongresso	2014		Estudo do Comportamento do Adsorvente Sepharose na Resolução de Problema de Cromatografia em Batelada com Base na Análise de Sensibilidade dos Parâmetros de Interesse	XVII Encontro de Modelagem Computacional	RIBEIRO, M. A. C. ; SILVA NETO, A. J. ; CÂMARA, L. D. T.		
trabalhoCompletoEmCongresso	2014		Uma Formulação Implícita no Tempo para o Método Smoothed Particle Hydrodynamics	XVII Encontro de Modelagem Computacional	SANTOS, R. D. ; Amaral Souto, H.P.		
trabalhoCompletoEmCongresso	2014		Reconhecimento de nódulos pulmonares utilizando a transformada de Hough e textura	XII Encontro Nacional de Modelagem Computacional	Severiano, F. S. ; VASCONCELLOS, J. F. V. ; ASSIS, J. T.		
trabalhoCompletoEmCongresso	2014		Tribocorrosão do aço inoxidável superduplex uns s32750 em solução SBF simplificada	Intercorr 2014	SILVA, D. P. ; AMAYA, J. M. S. ; BASTOS, I.N.		
trabalhoCompletoEmCongresso	2014		ESTUDO DA TRIBOCORROSÃO DO AÇO INOXIDÁVEL AISI 304L	17 ENMC / 5 ECTM	SILVA, D. P. ; AMAYA, J. M. S. ; Bastos, Ivan Napoleão		
trabalhoCompletoEmCongresso	2014		Estimação de Parâmetros do Modelo de Difusão Anômala Assimétrica Empregando Inferência Bayesiana com Método de Monte Carlo Via Cadeia de Markov	XVII Encontro de Modelagem Computacional	SILVA, L. G. ; KNUPP, D. C. ; Llanes-Santiago, Orestes ; CÂMARA, L. D. T. ; SILVA NETO, Antônio José da ; GALEAO, A. C. N. R. ; BEVILACQUA, L.		
trabalhoCompletoEmCongresso	2014		Inverse Problem in Anomalous Diffusion with Uncertainty Propagation	8th International Conference on Inverse Problems in Engineering (ICIPE-2014)	Silva, L. G. ; Knupp, D.C. ; Bevilacqua, L. ; Galeão, A. C. N. R. ; Silva Neto, A.J.		
trabalhoCompletoEmCongresso	2014		Aplicação dos Métodos Evolução Diferencial e Algoritmo de Colisão de Partículas na Estimativa de Parâmetros do Modelo de Difusão Anômala	Congresso de Matemática Aplicada e Computacional - CMAC Sul	Silva, L. G. ; Silva Neto, A.J. ; Galeão, A. C. N. R. ; Knupp, D.C. ; Bevilacqua, L.		
trabalhoCompletoEmCongresso	2014		Recovery of rough acoustic impedance profile by using an improved direct propagation algorithm	XXV Encontro da Sociedade Brasileira de Acústica	TAMINATO, F. O. ; TENENBAUM, R. A. ; FERNANDES, K. M.		
trabalhoCompletoEmCongresso	2014		Estudo e avaliação das propriedades térmicas de coberturas verdes utilizando o gênero commelina	IX congresso internacional de bioenergia	TAVARES NETO, P. A. ; CÂMARA, L. D. T.		
trabalhoCompletoEmCongresso	2014		Application of a Continuum Damage Identification Approach Using Time-Domain Response to Euler-Bernoulli Beams via Markov Chain Monte Carlo Method	8th International Conference on Inverse Problems in Engineering (ICIPE-2014)	Teixeira, J. S. ; Stutz, L. T. ; Knupp, D.C. ; Silva Neto, A.J.		
trabalhoCompletoEmCongresso	2014		Identificação de danos empregando um modelo de dano contínuo e o método de Monte Carlo com Cadeias de Markov	XXXV Congresso Nacional de Matemática Aplicada e Computacional - CNMAC 2014	TEIXEIRA, J. S. ; SILVA NETO, A. J. ; STUTZ, L.T. ; KNUPP, D. C.		
trabalhoCompletoEmCongresso	2014		Application of a Continuum Damage Identification Approach via Markov Chain Monte Carlo Method using the Inpulsive Response Function	VIII International Conference on Inverse Problems in Engineering	TEIXEIRA, J. S. ; STUTZ, L.T. ; KNUPP, D. C. ; SILVA NETO, A.J.		
trabalhoCompletoEmCongresso	2014		Estimativa de Parâmetros Hidráulicos de um Rio Utilizando o Método de Luus-Jaakola	XXXV Congresso Nacional de Matemática Aplicada e Computacional	Telles, W.R. ; SILVA NETO, ANTÔNIO JOSÉ ; RODRIGUES, PEDRO PAULO GOMES WATTS		
trabalhoCompletoEmCongresso	2014		ESTIMATION FLOOD USING INVERSE PROBLEM TECHNIQUES COUPLED TO MOHID PLATFORM	ESTIMATION FLOOD USING INVERSE PROBLEM TECHNIQUES COUPLED TO MOHID PLATFORM	Telles, W.R. ; SILVA NETO, ANTÔNIO JOSÉ ; RODRIGUES, PEDRO PAULO GOMES WATTS ; LUGON JR., J.		
trabalhoCompletoEmCongresso	2014		Binaural Simulations and Measurements in an Optimized Room Acoustic Test Scenario	40th Annual German Congress on Acoustics	TORRES, Julio C B ; PELZER, S. ; NARANJO, J. F. ; TENENBAUM, R. A. ; VORLANDER, M.		
trabalhoCompletoEmCongresso	2014		Comparative study of two models for binaural acoustic simulation	7th Forum Acusticum	TORRES, Julio C B ; PELZER, S. ; VORLANDER, M. ; TENENBAUM, R. A.		
trabalhoCompletoEmCongresso	2014		Utilização da microtomografi computacional de raios X no desenvolvimento de ferramenta computacional aplicavel à metrologia	XII Encontro Nacional de Modelagem Computacional	VASCONCELLOS, J. F. V.; OLIVEIRA, J. C. C. ; ASSIS, J. T.		
trabalhoCompletoEmCongresso	2014		Integral Transforms with Single Domain Formulation for Conjugated Heat Transfer in Multistream Direct Contact Laminar Flows	ENCIT 2014 - 15th Brazilian Congress of Thermal Sciences and Engineering	Zotin, J. L. Z. ; Knupp, D.C. ; Cotta, Renato M.		
resumoExpandidoEmCongresso	2014	Study on rheological and mechanical properties pf polyamide (PA-11) /nano CaCO3 composites with offshoe applications	30th international conference of polymer processing society, 2014, Cleveland. 30th international conference of polymer processing society. Cleveland: polymer processing society	SILVA, A. L. N. ; RODRIGUES, A. C. ; SILVA, A. H. M. F. T. ; ANDRADE, Mônica C ; Bastos, Ivan Napoleão		
