artigoEmPeriodico	2014		O uso de infográficos como estratégia de gestão de marcas	Revista Brasileira de Expressão Gráfica	ADORNO, L. ; REGINATO, B. ; Perassi, R. ; BRAVIANO, G.	Qualis nao identificado	Revista Brasileira de Expressão Gráfica
artigoEmPeriodico	2014		A UTILIZAÇÃO DE REALIDADE VIRTUAL E REALIDADE AUMENTADA NA ARQUITETURA E URBANISMO	Revista da Unifebe (Online)	AGUIAR, M. O. ; PEREIRA, A. T. C.	Qualis nao identificado	Revista da Unifebe (Online)
artigoEmPeriodico	2014		Desenvolvimento Sustentável Empresarial: o uso da gestão da informação	Revista Digital de Biblioteconomia e Ciência da Informação	ARAÚJO, Wánderson Cássio Oliveira ; Inomata, Danielly Oliveira ; VARVAKIS, G.	B1	
artigoEmPeriodico	2014		O estilo como negócio. a tendência retrô utilizada como recurso estratégico nas práticas da gestão do design	DAPesquisa	BASSO, C. ; Perassi, R. ; ARAUJO, S. M. M.	B4	
artigoEmPeriodico	2014		MOOCs: uma alternativa para a democratização do ensino	RENOTE. Revista Novas Tecnologias na Educação	BASTOS, Rogerio Cid; BIAGIOTTI, B.	B3	
artigoEmPeriodico	2014		Três caminhos para o desenvolvimento da liderança: uma análise comparativa	Perspectivas Contemporâneas	BECKER, D. N. ; VICENTINI, L. C. ; CUNHA, C. J. C. A. ; GÜNTHER, H. F.	B2	
artigoEmPeriodico	2014		Três caminhos para o desenvolvimento da liderança: uma análise comparativa	Perspectivas Contemporâneas	BECKER, D. N. ; VICENTINI, L. C. ; CUNHA, C. J. C. A. ; GÜNTHER, H. F.	B2	
artigoEmPeriodico	2014		Convergência entre comunicação digital e a prática da Educação a Distância	E-tech: Tecnologias para Competitividade Industrial	BEM, A. ; Andreza Regina Lopes ; CATAPAN, A. H.	B3	
artigoEmPeriodico	2014		Prácticas y tecnologías de Gestión del Conocimiento en Instituciones de Educación Superior	Espacios (Caracas)	BENITEZ, S. R. ; URIONA MALDONADO, M. ; VARVAKIS, G. ; NORTH, K.	B1	
artigoEmPeriodico	2014	http://dx.doi.org/10.5007/2175-8077.2014v16n40p139	Towards an understanding of information technology strategy development based on knowledge management	Revista de Ciências da Administração (CAD/UFSC)	BERMEJO, P. H. S. ; TONELLI, A. O. ; Zambalde, André Luiz ; TODESCO, J. L.	B1	
artigoEmPeriodico	2014		LIDERANÇA EM ORGANIZAÇÕES INTENSIVAS EM CONHECIMENTO: UMA BIBLIOMETRIA	Gestão Contemporânea	BESEN, F. ; TECCHIO, EDIVANDRO ; CUNHA, C. J. C. A. ; FIALHO, FRANCISCO ANTÔNIO PEREIRA	B3	
artigoEmPeriodico	2014		Potencialidades das mídias sociais e da gamificação na educação a distância	RENOTE. Revista Novas Tecnologias na Educação	BISSOLOTTI, K. ; NOGUEIRA, H. G. ; PEREIRA, A. T. C.	B3	
artigoEmPeriodico	2014		Avaliação de Objeto de Aprendizagem de Geometria Descritiva: uma narrativa hipermidiática para surdos	Educação Gráfica (Online)	BLEICHER, S. ; Armando Cardoso Ribas ; Silvia Quevedo ; ULBRICHT, V. R. ; VANZIN, Tarcisio.	Qualis nao identificado	Educação Gráfica (Online)
artigoEmPeriodico	2014	http://dx.doi.org/10.1590/1981-5344/1796	Análise da colaboração científica departamental através de redes de coautoria	Perspectivas em Ciência da Informação (Impresso)	GONÇALVES, Alexandre L.; BORDIN, A. S. ; GONÇALVES, A. L. ; TODESCO, J. L.	A2	
artigoEmPeriodico	2014		Tecnologia social e políticas públicas para o desenvolvimento: ideias para serem discutidas na Academia	Espacios (Caracas)	BOTELHO, L. ; WUERGES, A. E. ; CHAMP, E. ; MINETTO, C. ; MACEDO, M. ; TRINDADE, E. P.	B1	
artigoEmPeriodico	2014		Revisão Integrativa sobre o tema da Economia Solidária publicados no EnANPAD entre 2004 e 2013	International Journal of Knowledge Engineering and Management	BOTELHO, L. ; WUERGES, A. E. ; THIELE, J. M. ; MACEDO, M. ; TRINDADE, E. P.	B4	
artigoEmPeriodico	2014		O positivismo percebido nas etapas de desenvolvimento do DNA da marca	Arcos Design (Online)	BRAUN, J. ; LOPES, D. ; WERNER, L. ; Perassi, R. ; Gomes, L. (Luiz Salomão Ribas Gomes)	B5	
artigoEmPeriodico	2014		Desenvolvimento de um Modelo de Gestão Educacional Voltado para a Indústria	Revista Iberoamericana de Ingeniería Mecánica	BRISTOT, V. M. ; BRISTOT, V. M. ; Gruber, V. ; SCHAEFFER, L. ; ALVES, J. B. M. ; Castelan, J.	B4	
artigoEmPeriodico	2014		Narrativa Hipermídia a partir de Quadrinhos: uma proposta de criação de histórias em quadrinhos hipermídia	Revista Hipertexto	BUSARELLO, Raul Inácio ; ULBRICHT, V. R.	B4	
artigoEmPeriodico	2014	http://dx.doi.org/10.1504/ijnvo.2014.067878	A survey into performance and energy efficiency in HPC, cloud and big data environments	International Journal of Networking and Virtual Organisations	CAMILO, E. ; Dantas, M.A.R.	B3	
artigoEmPeriodico	2014		Os discursos do design: cultura, modernidade e os sistemas peritos	Revista Design, Inovação e Gestão Estratégica - REDIGE	CAMPOS, A. Q. ; Perassi, R. ; GOMEZ, Luiz Salomão Ribas.	B3	
artigoEmPeriodico	2014		Fatores relevantes para a mudança na formação em Odontologia motivados pelo Programa Nacional de Reorientação da Formação Profissional em Saúde (Pró-Saúde)	Revista da ABENO	CARCERERI, Daniela L. ; PADILHA, Ana Clara L. ; BASTOS, Rogerio Cid	B4	
artigoEmPeriodico	2014		Gestão do conhecimento nas respostas a desastres naturais: a experiência da defesa civil do estado de Santa Catarina	PERSPECTIVAS EM GESTÃO & CONHECIMENTO	CARDOSO, D. ; SANTOS, G. S. P. ; REZENDE, M. S. C. ; BELLO, J. S. A. ; FRANZONI, A. M. B.	B1	
artigoEmPeriodico	2014		UBUNTU: A escola necessária para o futuro	International Journal of Knowledge Engineering and Management	Carlos Henrique Berg ; Iracy Gallo Ritzmann ; Madalena Pereira Silva ; Araci Hack Catapan ; Dantas, M. A. R ; Vânia Ulbricht	B4	
artigoEmPeriodico	2014	http://dx.doi.org/10.3991/ijes.v2i3.3822	The Dynamic Audio Direct-Interactive and Indirect-Adaptive Sounds	International Journal of Recent Contributions from Engineering, Science & IT (iJES)	Carvalho, Luiz Roberto ; Pereira, Alice T. Cybis	Qualis nao identificado	International Journal of Recent Contributions from Engineering, Science & IT (iJES)
artigoEmPeriodico	2014		TECNOLOGIA E DESIGN DE COMPLEXMEDIA DEDICADA À EDUCAÇÃO DIGITAL: UM RELATO DE CASO	Revista FAEEBA	CATAPAN, A. H.; CARVALHO NETO, C. Z.	B1	
artigoEmPeriodico	2014		O uso de anotações semânticas e ontologias para a classificação de documentos	International Journal of Knowledge Engineering and Management	CECI, F. ; WOSZEZENKI, C. ; GONÇALVES, Alexandre L.	B4	
artigoEmPeriodico	2014		Utilização de ferramentas da qualidade para melhoria dos processos do setor de hastes flexíveis: o estudo de caso de uma empresa do setor de higienização pessoal	Espacios (Caracas)	CESCONETTO, R.B. ; GUIMARÃES FILHO, L.P. ; BERNARDIN, A. M. ; FREIRE, P. S.	B1	
artigoEmPeriodico	2014		O conceito antropológico do gift giving aplicado ao marketing	Revista Inova Ação	CRESTANI, Ricardo ; TEIXEIRA, Clarissa Stefani	Qualis nao identificado	Revista Inova Ação
artigoEmPeriodico	2014	http://dx.doi.org/10.1142/s1464333214500082	USE OF SUSTAINABILITY INDICATORS IN STRATEGIC ENVIRONMENTAL ASSESSMENT PROCESSES CONDUCTED IN BRAZIL	Journal of Environmental Assessment Policy and Management	DA SILVA, ANTONIO WALDIMIR LEOPOLDINO ; SELIG, PAULO MAURÍCIO ; BELLEN, Hans Michael Van	Qualis nao identificado	Journal of Environmental Assessment Policy and Management
artigoEmPeriodico	2014		O CICLO DE GESTÃO DO CONHECIMENTO NA PRÁTICA: UM ESTUDO NOS NÚCLEOS EMPRESARIAIS CATARINENSES	International Journal of Knowledge Engineering and Management	DAVILA CALLE, G.A. ; FRAGA, B. D. ; DIANA, J. ; SPANHOL, F. J.	B4	
artigoEmPeriodico	2014		Knowledge Intensive Processes Innovation: A Case in a Peruvian Insurance Company	International Journal of Engineering and Innovative Technology	DAVILA, G. A. ; BELLONI, H. L. ; DANDOLINI, G. A. ; SOUZA, João Artur de	Qualis nao identificado	International Journal of Engineering and Innovative Technology
artigoEmPeriodico	2014		The role of information and comunication technologies (ICTs) in the capture of ideas and organizational learning	International Journal of Basic & Applied Sciences	DIAS, A. J. ; SCHMITZ, A. L. F. ; LAPOLLI, É. M. ; GOMES JR, W. V.	Qualis nao identificado	International Journal of Basic & Applied Sciences
artigoEmPeriodico	2014		Intellectual Capital and Public Management: A Bibliometric Analysis	Journal of US-China Public Administration	DIAS, M. A. H. ; Paula Regina Zarelli ; SELIG, P. M.	Qualis nao identificado	Journal of US-China Public Administration
artigoEmPeriodico	2014		Análise biomecânica relacionada a lesões no balé clássico	Revista Mackenzie de Educação Física e Esporte (Online)	DORNELES, Patrícia Paludette ; TEIXEIRA, Clarissa Stefani ; PRANKE, Gabriel Ivan ; LEMOS, Luiz Fernando Cuozzo ; MOTA, Carlos Bolli	B4	
artigoEmPeriodico	2014		GERAÇÃO DE IDEIAS: UMA ANÁLISE BIBLIOMÉTRICA DO ESTADO DA LITERATURA	International Journal of Knowledge Engineering and Management	DOROW, P. F. ; SOUZA, João Artur de ; DANDOLINI, G. A.	B4	
artigoEmPeriodico	2014		O processo de geração de ideias para inovação: estudo de caso em uma empresa náutica	Espacios (Caracas)	DOROW, P. F. ; SOUZA, João Artur de ; DANDOLINI, G. A.	B1	
artigoEmPeriodico	2014	http://dx.doi.org/10.1088/1742-6596/540/1/012002	Towards a Resource Reservation Approach for an Opportunistic Computing Environment	Journal of Physics. Conference Series (Print)	Eliza Gomes ; MAR, Dantas	B2	
artigoEmPeriodico	2014		Elementos da comunicação visual de marca de lugares: análise da composição da marca do Peru.	CONVERGENCIAS: REVISTA DE INVESITIGACAO E ENSINO DAS ARTES	EVANGELISTA, E. ; FEIJO, V. C. ; Perassi, R. ; BRAVIANO, G. ; GOMEZ, L. S. R.	B4	
artigoEmPeriodico	2014		Environmental Management Systems in Small and Medium-sized Enterprises: An Analysis and Systematic Review	Journal of Cleaner Production	FERENHOF, H. A. ; VIGNOCHI, L. ; SELIG, PAULO MAURÍCIO ; LEZANA, Á. G. R. ; CAMPOS, L. M. S.	A1	
artigoEmPeriodico	2014		Queixas musculoesqueléticas e a atividade de agricultura familiar	Lecturas Educación Física y Deportes (Buenos Aires)	FERNANDES, Carlos Aparecido ; MANNRICH, Giuliano ; TEIXEIRA, Clarissa Stefani ; MERINO, Giselle Schmidt Alves Diaz ; GONTIJO, Leila Amaral ; MERINO, Eugenio Andrés Díaz	B3	
artigoEmPeriodico	2014		Decision Support Method Contribution to Generate Interactive Maps of Suggestion for Land Use By Using the Concept of Soft Decision Tree: Case of Island of São Francisco do Sul, Brazil	Journal of Urban Planning and Development	Fernandes, E. ; MELLO, R. de ; BASTOS, L. C.	Qualis nao identificado	Journal of Urban Planning and Development
artigoEmPeriodico	2014		A AQUISIÇÃO DE CONHECIMENTO NO PROCESSO DE IDENTIFICAÇÃO DE OPORTUNIDADES NAS REDES SOCIAIS ON-LINE	Perspectivas em Gestão & Conhecimento	FERNANDES, R. F. ; SOUZA, João Artur de ; DANDOLINI, G. A. ; AGUIAR, R. R.	B1	
artigoEmPeriodico	2014	http://dx.doi.org/10.5007/1983-4535.2014v7n1p79	A colaboração do segmento privado da educação superior na proposta de democratização do acesso: um estudo da perspectiva sul catarinese	Revista Gestao Universitaria na America Latina - GUAL	FRANCISCO, THIAGO HENRIQUE ALMINO ; NAKAYAMA, Marina Keiko ; RAMOS, ALEXANDRE MORAES ; PINTO, RODRIGO SERPA ; RODRIGUES, THIAGO MENEGHEL	B3	
artigoEmPeriodico	2014		THE PROCESS OF COMPETITIVE INTELLIGENCE IN AN ISOLATED THE PROCESS OF COMPETITIVE INTELLIGENCE IN AN ISOLATED THE PROCESS OF COMPETITIVE INTELLIGENCE	International Journal of Knowledge Engineering and Management	FRANCISCO, THIAGO HENRIQUE ALMINO ; OTANI, N. ; NAKAYAMA, M. K. ; Claudio Jose Muller	B4	
artigoEmPeriodico	2014		Conhecimento Organizacional: Produto ou Processo ?	Perspectivas em Gestão & Conhecimento	FREIRE, P S. ; SPANHOL, FERNANDO JOSÉ	B1	
artigoEmPeriodico	2014	http://dx.doi.org/10.1590/1981-5344/1930	Ontologias como suporte à avaliação enquanto tarefa intensiva em conhecimento: uma revisão bibliométrica	Perspectivas em Ciência da Informação (Impresso)	FREITAS JUNIOR, V. ; GONÇALVES, Alexandre L.	A2	
artigoEmPeriodico	2014		A pesquisa científica e tecnológica	Espacios (Caracas)	FREITAS JUNIOR, V. ; WOSZEZENKI, C. ; SPERONI, D. F. ; NAKAYAMA, Marina Keiko	B1	
artigoEmPeriodico	2014	http://dx.doi.org/10.3895/s1808-04482013000400002	TESTE DO MODELO MCNS-TRIZ EM UMA EMPRESA QUE DESENVOLVE SOFTWARE	Revista Gestão Industrial	GOMES FILHO, Antonio Costa ; FORCELLINI, Fernando Antonio ; PACHECO, R. C. S.	B3	
artigoEmPeriodico	2014		OS ESTÍMULOS E BARREIRAS À CRIATIVIDADE NO AMBIENTE ORGANIZACIONAL	Revista Borges	GOMES, R. K. ; LAPOLLI, É. M.	Qualis nao identificado	Revista Borges
artigoEmPeriodico	2014		Mindful leadership: origem e concepção	Perspectiva (Erexim)	GÜNTHER, H. F. ; CUNHA, C. J. C. A. ; LOCH, M. ; GONCALVES, E. B.	B2	
artigoEmPeriodico	2014		O conceito de líder na liderança espiritual	Encontro: revista de psicologia	GÜNTHER, H. F. ; CUNHA, C. J. C. A. ; VICENTINI, L. C. ; GONCALVES, E. B.	B2	
artigoEmPeriodico	2014		Inovação social: perspectivas e desafios	Revista Espacios	JULIANI, D. P. ; JULIANI, J. P. ; SOUZA, João Artur de ; HARGER, E. M.	B3	
artigoEmPeriodico	2014		La Educación profesional técnica brasileira de nível intermediário en la modalidad EaD: La red e-Tec Brasil	84-8448-375-4	KASSICK, C. N. ; CATAPAN, A. H. ; MENEGOTTI, I.	Qualis nao identificado	84-8448-375-4
artigoEmPeriodico	2014		O pensamento enxuto aplicado ao processo de transferência de conhecimento entre organizações: associação entre desperdícios e barreiras ao fluxo de conhecimento em uma cadeia produtiva	Espacios (Caracas)	KURTZ, D. J. ; FORCELLINI, F. A. ; VARVAKIS, G.	B1	
artigoEmPeriodico	2014		Adoção de tecnologias de serviços de governo eletrônico: análise de estudos quantitativos no âmbito internacional	Liinc em Revista	LA Costa ; Paulo Cristiano de Oliveira ; Gertrudes Aparecida Dandolini ; SOUZA, João Artur de	B1	
artigoEmPeriodico	2014		Leadership and self-knowledge through a systemic approach: an integrative systematic review	Business Management Review (BMR)	LAPOLLI, Juliana ; LAPOLLI, É. M. ; FRANZONI, A. M. B. ; CUNHA, M. P.	Qualis nao identificado	Business Management Review (BMR)
artigoEmPeriodico	2014		INFOGRAFIA NA WEB PARA SURDOS: ENSINANDO OS FUNDAMENTOS DA GEOMETRIA DESCRITIVA - GD	Revista Brasileira de Expressão Gráfica	LAPOLLI, M. ; Ulbricht, Vania Ribas ; VANZIN, Tarcisio.	Qualis nao identificado	Revista Brasileira de Expressão Gráfica
artigoEmPeriodico	2014		Organização da informação em narrativas infográficas na web voltadas para o processo de ensino-aprendizagem	Infodesign (SBDI. Online)	LAPOLLI, M. ; VANZIN, Tarcisio. ; Ulbricht, Vania Ribas	B2	
artigoEmPeriodico	2014		Bases Epistemológicas da Teoria de Criação de Conhecimento Organizacional	Perspectivas em Gestão & Conhecimento	LEONARDI, J. ; BASTOS, Rogerio Cid	B1	
artigoEmPeriodico	2014		Análise da interface padrão do Oxwall como plataforma de rede social	Infodesign (SBDI. Online)	LINDNER, L. H. ; ULBRICHT, V. R. ; PALAZZO, L. A. M.	B2	
artigoEmPeriodico	2014		Liderança no contexto da sociedade do conhecimento: uma revisão sistemática	Revista da UNIFEBE	LOPES, Mauricio. C. ; FIALHO, F. A. P.	B3	
artigoEmPeriodico	2014		Conteúdos de Aprendizagem Profissional de Executivos Varejistas	Revista Brasileira de Gestão de Negócios (Online)	LUCENA, E. A. ; CUNHA, C. J. C. A.	B1	
artigoEmPeriodico	2014		Aplicação da manufatura enxuta para melhoria dos resultados operacionais no processo de macharia de uma fundição: estudo de caso Docol	Espacios (Caracas)	MACEDO, M. ; Fisher, D. A. ; GAUTHIER, F. A. O. ; TRINDADE, E. P.	B1	
artigoEmPeriodico	2014	http://dx.doi.org/10.14521/p2237-5163.2014.0005.0002	Mapeamento de competências individuais em uma equipe de desenvolvimento de produtos eletrônicos de aplicação industrial	Produção em Foco	MACEDO, M. ; LINO, J. R. ; TRINDADE, E. P. ; BOTELHO, L. ; GAUTHIER, F. A. O.	C	
artigoEmPeriodico	2014	http://dx.doi.org/10.14521/p2237-5163.2014.0005.0007	Princípios da Administração Cientifica e do Lean Manufacturing aplicados em uma fábrica de injeção de plástico: análise comparativa do resultado operacional	Produção em Foco	MACEDO, M. ; PAWLAK, J. S. ; BOTELHO, L. ; TRINDADE, E. P. ; GAUTHIER, F. A. O.	C	
artigoEmPeriodico	2014		Uma trajetória histórica do ambiente MOODLE	Hipertextus Revista Digital (UFPE)	MACHADO, A. B. ; PEDROSO, R. S. ; Perassi, R. ; FIALHO, F. A. P.	B2	
artigoEmPeriodico	2014		Moluscos marinhos como commodity ambiental em Santa Catarina	Agropecuária Catarinense	MACHADO, M. ; SORIANO-SIERRA, E. J.	B4	
artigoEmPeriodico	2014		Impactos da maricultura em Santa Catarina	Agropecuária Catarinense	MACHADO, M. ; SORIANO-SIERRA, E. J.	B4	
artigoEmPeriodico	2014		Da forma à forma: um percurso da sintaxe visual no projeto topomorfose	Educação Gráfica (Online)	MEDEIROS, D. P. ; MENEZES, G. S. ; Perassi, R. ; Gonçalves, M. (Marília Matos Gonçalves)	Qualis nao identificado	Educação Gráfica (Online)
artigoEmPeriodico	2014		The Challenge Of Online Informative Business: Internet, Interactivity And Contents In Favor Of Profits	International Journal of Knowledge Engineering and Management	MEDEIROS, D. R. ; BALDESSAR, M. J.	B4	
artigoEmPeriodico	2014		AUDITORIA DA GESTÃO DA INOVAÇÃO: UM ESTUDO REALIZADO EM UMA PEQUENA EMPRESA DO RAMO METALÚRGICO	Revista Gestão Industrial	MELLO, J. ; FRANCISCO, A. C. ; MARTINS, W. L. da S. ; VAZ, C. R. ; SELIG, P. M.	B3	
artigoEmPeriodico	2014		Conceptual Maps for Training Tutors in the Distance Learning Course in Management	International Journal on E-Learning	MENDES, E. B. ; CARVALHO, C. J. ; GARGIULO, V. ; ALVES, J. B. M.	Qualis nao identificado	International Journal on E-Learning
artigoEmPeriodico	2014	http://dx.doi.org/10.5433/2236-2207.2014v5n2p9	Reforço e recompensa: a Gamificação tratada sob uma abordagem behaviorista	Projética	MENEZES, GRACIELA SARDO ; TARACHUCKY, LARYSSA ; PELLIZZONI, ROGER COSTA ; PERASSI, RICHARD ; GONÇALVES, MARÍLIA MATOS ; GOMEZ, LUIZ SALOMÃO RIBAS ; FIALHO, FRANCISCO ANTONIO PEREIRA	B5	
artigoEmPeriodico	2014		Design thinking e métodos ágeis: aliados na geração de ideias para projetos de TIC	MundoPM (Curitiba)	MICHELS, E. ; Filho, E. P. ; DANDOLINI, G. A. ; Stamm, J. F. ; Cruz, F. R.	B4	
artigoEmPeriodico	2014	http://dx.doi.org/10.5007/1984-6924.2014v11n2p533	Fotografia, imagem e criatividade: formas de expressão e implicações político-sociais	Estudos em Jornalismo e Mídia (UFSC)	MIRANDA, CRISTIANE FONTINHA ; CARVALHO, LUIZ ROBERTO ; BALDESSAR, MARIA JOSÉ ; PEREIRA, ALICE T CYBIS ; FIALHO, FRANCISCO ANTÔNIO PEREIRA	B1	
artigoEmPeriodico	2014	http://dx.doi.org/10.5007/1984-6924.2014v11n2p533	Fotografia, imagem e criatividade: formas de expressÃ£o e implicaÃ§Ãµes polÃ­tico-sociais	Estudos em Jornalismo e Mídia	MIRANDA, CRISTIANE FONTINHA ; CARVALHO, LUIZ ROBERTO ; BALDESSAR, MARIA JOSÉ ; PEREIRA, ALICE T CYBIS ; FIALHO, FRANCISCO ANTÔNIO PEREIRA	B1	Estudos em Jornalismo e Mídia (UFSC)
artigoEmPeriodico	2014		Um olhar sobre o relacionamento e a fidelização do cliente em e-commerce: caso do site Mercado Livre	Revista Borges	MIRANDA, M. ; LEMES, A. D. ; Perassi, R. ; GERBER, F. L.	Qualis nao identificado	Revista Borges
artigoEmPeriodico	2014		Contribuições estratégicas do marketing de relacionamento para uma empresa de assessoria e cerimonial de eventos sociais	Revista Borges	MIRANDA, M. ; SANTOS, T. M. ; Perassi, R. ; REMOR, C.	Qualis nao identificado	Revista Borges
artigoEmPeriodico	2014		O e-book como mídia do conhecimento.	VI Seminário Leitura de Imagens para a Educação: múltiplas mídias	MIRANDA, M. B. ; Perassi, R.	Qualis nao identificado	VI Seminário Leitura de Imagens para a Educação: múltiplas mídias
artigoEmPeriodico	2014	http://dx.doi.org/10.1088/1742-6596/540/1/012005	Green Cloud Computing: An Experimental Validation	Journal of Physics. Conference Series (Print)	Monteiro, Rogerio C. ; RODRIGUEZ, M. V. R. Y. ; MAR, Dantas	B2	
artigoEmPeriodico	2014		Avaliação da Expansão do Processo Judicial Digital no Tribunal de Justiça de São Paulo sob a ótica da Gestão de Projetos: Um Estudo do Projeto PUMA	Anales del 14º Simposio Argentino de Informática y Derecho	MULLER, L. O. ; ROVER, ARES JOSÉ	Qualis nao identificado	Anales del 14º Simposio Argentino de Informática y Derecho
artigoEmPeriodico	2014		Cultura, desenvolvimento e visualização da identidade de marca	Educação Gráfica (Online)	NAPOLEÃO, E. ; Perassi, R.	Qualis nao identificado	Educação Gráfica (Online)
artigoEmPeriodico	2014	http://dx.doi.org/10.4301/S1807-17752014000300004	Context management: toward assessing quality of context parameters in a ubiquitous ambient assisted living environment	Revista de Gestão da Tecnologia e Sistemas de Informação (Online)	NAZ'RIO, D'BORA CABRAL ; DANTAS, M'RIO ANT'NIO RIBEIRO ; TODESCO, JOS' LEOMAR	B1	
artigoEmPeriodico	2014	http://dx.doi.org/10.1109/TLA.2014.7014527	Knowledge Engineering: Survey of Methodologies, Techniques and Tools	Revista IEEE América Latina	NAZÁRIO, DÉBORA CABRAL ; DANTAS, M. A. R. ; TODESCO, J. L.	B1	
artigoEmPeriodico	2014		Traditional knowledge and processes of innovation and creativity: Brazilian pottery and bobbin lace makers	Sociedade e Cultura (Online)	NETTO, M. ; FIALHO, F. A. P.	B2	
artigoEmPeriodico	2014		O dogmatismo na aplicação das cores em produtos de Design	Educação Gráfica (Online)	NOGUEIRA, H. G. ; BISSOLOTTI, K. ; SOUSA, R. P. L. ; Pereira, Alice T. Cybis	Qualis nao identificado	Educação Gráfica (Online)
artigoEmPeriodico	2014		An ontology-based framework for relevant guidance	Advances in Artificial Intelligence	OLIVEIRA, E. H. T. ; NOZAWA, E. H. ; Vicari R. M.	Qualis nao identificado	Advances in Artificial Intelligence
artigoEmPeriodico	2014		GESTÃO DA INFORMAÇÃO OU GESTÃO DO CONHECIMENTO? PERCEPÇÃO DE PROFISSIONAIS DA INDÚSTRIA DE SOFTWARE DE SANTA CATARINA	Perspectivas em Gestão & Conhecimento	Paulo Cristiano de Oliveira ; OSHIRO, A. U. ; SOUZA, João Artur de ; DANDOLINI, G. A.	B1	
artigoEmPeriodico	2014		Metodologias das pesquisas sobre as necessidades de usuários de Hypervideos	Revista Hipertexto	Paulo Roberto Alves de Almeida ; ULBRICHT, V. R.	B4	
artigoEmPeriodico	2014		Princípios do Lean Manufacturing aplicados em uma fábrica de injeção de peças plásticas: análise do resultado operacional	Produto & Produção (Online)	PAWLAK, J. S. ; MACEDO, M.	B3	
artigoEmPeriodico	2014		A televisão em transição: olhar sobre o processo de convergência digital da mídia	Alceu (PUCRJ)	Perassi, R.; GIGLIO, K.	B1	
artigoEmPeriodico	2014	http://dx.doi.org/10.4067/S0718-24492014000300013	Estresse Relacionado ao Trabalho em Professores de Educação Básica	Ciencia & Trabajo (En línea)	PEREIRA, E. F. ; TEIXEIRA, Clarissa Stefani ; PELEGRINI, A. ; MEYER, C. ; ANDRADE, R. D. ; LOPES, A. S.	Qualis nao identificado	Ciencia & Trabajo (En línea)
artigoEmPeriodico	2014		Qualidade de vida de atletas Brasileiros, Canadenses e Norte- Americamos	Revista Brasileira de Qualidade de Vida	PEREIRA, Érico Felden ; LEMOS, Luiz Fernando Cuozzo ; TEIXEIRA, Clarissa Stefani ; BLEYER, Fernanda Tolentino de Souza ; FILIPIN, Douglas ; REBELATTO, Cleber Fernando	B4	
artigoEmPeriodico	2014		Associação entre o perfil de ambiente e condições de trabalho com a percepção de saúde e qualidade de vida em professores de educação básica	Cadernos Saúde Coletiva (UFRJ)	PEREIRA, Érico Felden ; TEIXEIRA, Clarissa Stefani ; ANDRADE, R. D. ; BLEYER, F. T. S. ; LOPES, Adair da Silva	B3	
artigoEmPeriodico	2014		O trabalho docente e a qualidade de vida dos professores na educação básica	Revista de Salud Publica	PEREIRA, Érico Felden ; TEIXEIRA, Clarissa Stefani ; ANDRADE, Rubian Diego ; LOPES, Adair da Silva	B1	
artigoEmPeriodico	2014		Work-related stress in teachers in elementary education	Ciencia & Trabajo (En línea)	PEREIRA, Érico Felden ; TEIXEIRA, Clarissa Stefani ; PELEGRINI, Andreia ; MEYER, Carolina ; ANDRADE, Rubian Diego ; LOPES, Adair da Silva	Qualis nao identificado	Ciencia & Trabajo (En línea)
artigoEmPeriodico	2014	http://dx.doi.org/10.5007/2177-7055.2013v35n68p291	Conceito Jurídico de Software, Padrão Proprietário e Livre: Políticas Públicas	Sequencia	PIMENTEL, L. O.; SILVA, C. E. R. F. E.	B2	
artigoEmPeriodico	2014		Serviço de referência de bibliotecas universitárias: tradicional e educativo	Tendências da Pesquisa Brasileira em Ciência da Informação	PINTRO, S. ; INOMATA, D. O. ; VARVAKIS, GREGÓRIO	B2	
artigoEmPeriodico	2014	http://dx.doi.org/10.1590/s1413-65382014000100011	Surdos e acessibilidade: análise de um ambiente virtual de ensino e aprendizagem	Revista Brasileira de Educação Especial	PIVETTA, E. M. ; SAITO, D. S. ; ULBRICHT, V. R.	A2	
artigoEmPeriodico	2014		Influência da facilitação neuromuscular proprioceptiva no equilíbrio de atletas de futsal	Revista Brasileira de Biomecânica (Impresso)	PRANKE, Gabriel Ivan ; ALVES, Rudi Facco ; LEMOS, Luiz Fernando Cuozzo ; SOARES, Juliana Corrêa ; MEEREIS, Estele Caroline Welter ; TEIXEIRA, Clarissa Stefani ; ROSSI, Angela Garcia ; MOTA, Carlos Bolli	B2	
artigoEmPeriodico	2014		Comunicação gráfica da marca Rosamel: um estudo descritivo-interpretativo	DAPesquisa	QUEIROZ, R. G. ; Perassi, R. ; ARAUJO, S. M. M.	B4	
artigoEmPeriodico	2014		A utilização das Tecnologias Digitais por professores de modo pessoal e com seus alunos na prática educativa: um estudo de caso no DALTEC - IFSC	Revista Tecnologias na Educação	REGINALDO, T. ; BALDESSAR, M. J. ; FERNANDES, A.	B3	
artigoEmPeriodico	2014		Análise comportamental na criação de personas	Educação Gráfica (Online)	REIS, A. V. ; DICK, M. E. ; Perassi, R. ; GONCALVES, B. S.	Qualis nao identificado	Educação Gráfica (Online)
artigoEmPeriodico	2014		Un modelo para la organización semiautomática de contenido educativo desde repositorios abiertos de objetos de aprendizaje	Revista Electrónica de Investigación Educativa	RODRÍGES, P. A. ; MORENO, J. ; MENDEZ, N. D. D. ; CARRANZA, Demetrio Arturo Ovalle ; Silveira, R. A.	Qualis nao identificado	Revista Electrónica de Investigación Educativa
artigoEmPeriodico	2014		A utilização das mídias na preservação dos conhecimentos tradicionais em Gastronomia	Travessias (UNIOESTE. Online)	RONCHETTI, A. G. ; FIALHO, F. A. P. ; SOUZA, R. P. L.	B4	
artigoEmPeriodico	2014	http://dx.doi.org/10.1016/j.envpol.2013.06.023	Photosynthetic performance of restored and natural mangroves under different environmental constraints	Environmental Pollution (London)	ROVAI, A. S. ; BARUFI, J. B. ; PAGLIOSA, P. R. ; SCHEMER, F. ; TORRES, M. A. ; HORTA JUNIOR, P. A. ; SIMONASSI, J. C. ; Quadros, D.P.C. ; BORGES, D. L. G. ; SORIANO-SIERRA, E. J.	B1	
artigoEmPeriodico	2014		Design Thinking como ferramenta para a melhoria em processos de negócios.	Espacios (Caracas)	Sampaio, I.C.B. ; Santana Filho, J. ; Pimenta, R.B. ; SORIANO-SIERRA, E. J.	B1	
artigoEmPeriodico	2014		DesignThinking aplicado ao desenvolvimento de software.	Espacios (Caracas)	Sampaio, I.C.B. ; Santana Filho, J. ; Soriano-Sierra, E. J.	B1	
artigoEmPeriodico	2014		Televisão Digital e a Teoria Geral dos Sistemas	Datagramazero (Rio de Janeiro)	SANTOS, P. M. ; ROVER, ARES JOSÉ	B1	
artigoEmPeriodico	2014		Indicadores para o novo serviço público: uma análise bibliométrica e sistêmica	Perspectivas em Ciência da Informação (Online)	SANTOS, P. M. ; SELIG, P. M.	B1	
artigoEmPeriodico	2014		O capital humano como um driver das estratégias de marketing em empresas inovadoras: o caso da Apple	RACE - Revista de Administração, Contabilidade e Economia (Online)	SCHARF, Edson Roberto ; FERNANDES, Josieane ; PACHECO, ROBERTO C. S	B4	RACE : Revista de Administração, Contabilidade e Economia
artigoEmPeriodico	2014	http://dx.doi.org/10.1088/1742-6596/540/1/012008	Modeling a distributed environment for a petroleum reservoir engineering application with software product line	Journal of Physics. Conference Series (Print)	Scheidt, Rafael F ; VILAIN, P. ; MAR, Dantas	B2	
artigoEmPeriodico	2014	http://dx.doi.org/10.5892/ruvrd.v12i1.1360	Perfil Intraempreendedor dos Líderes de Empresas de Base Tecnológica Associadas: um estudo de caso na Vertical de Segurança ACATE	Revista da Universidade Vale do Rio Verde	SCHMITZ, A. L. F. ; DIAS, A. J. ; FELICIANO, A. M. ; FRANZONI,	B3	
artigoEmPeriodico	2014		Proposal for Entrepreneurial Innovation Management: An Integrative Systematic Review	International Journal of Humanities and Social Science	SCHMITZ, A. L. F. ; LAPOLLI, P. C. ; LAPOLLI, É. M.	Qualis nao identificado	International Journal of Humanities and Social Science
artigoEmPeriodico	2014		Universities as Knowledge Intensive Business Services ? A Systematic Literature Review and a Case Study of a Research Group	International Journal of Engineering and Innovative Technology (IJEIT)	SCHMITZ, Ademar ; TEZA, P. ; DANDOLINI, G. A. ; SOUZA, João Artur de	Qualis nao identificado	International Journal of Engineering and Innovative Technology (IJEIT)
artigoEmPeriodico	2014		Criatividade no Cinema: O papel da montagem para a composição criativa	Travessias (UNIOESTE. Online)	SCHUCH, R. M. G. ; FIALHO, F. A. P. ; VIEIRA, M. L. H.	B4	
artigoEmPeriodico	2014		INCORPORAÇÃO DOS PROCESSOS DE CONHECIMENTO NAS ROTINAS DE TRABALHO ORGANIZACIONAIS: UM MODELO DE APLICAÇÃO FUNDAMENTADO NA INTEGRAÇÃO ENTRE GESTÃO DO CONHECIMENTO E BUSINESS PROCESS MANAGEMENT	Revista da Universidade Vale do Rio Verde	SENA, M. A.C. ; BASTOS, L. C. ; Dandolini, G.	B3	
artigoEmPeriodico	2014		Design Televisual: Definições, Funções e Elementos	Estudos em Design (Online)	Sens, A. L. ; PEREIRA, A. T. C.	B1	
artigoEmPeriodico	2014		Ontologia como Representação do Conhecimento: aplicação no curso de formação continuada em tecnologias educacionais na Web	RENOTE. Revista Novas Tecnologias na Educação	SILVA, A. R. L. da ; BORGES, M. A. ; FERNANDES, Maria Cristina Pfeiffer ; SPANHOL, FERNANDO JOSÉ	B3	
artigoEmPeriodico	2014		Orientação na Educação a Distância: uma análise da realidade brasileira	Revista da Universidade Vale do Rio Verde	SILVA, A. R. L. da ; MACHADO, A. B. ; SARTORI, V. ; SPANHOL, F. J.	B3	
artigoEmPeriodico	2014		Comunidades de prática no espaço rural: construindo e compartilhando conhecimentos sobre a atividade agropecuária	Organizações Rurais & Agroindustriais	SILVA, A. W. L. ; RADOS, GREGÓRIO JEAN VARVAKIS ; SELIG, P. M.	Qualis nao identificado	Organizações Rurais & Agroindustriais
artigoEmPeriodico	2014		Strategic Environmental Assessment: one concept, multiple definitions.	International Journal of Innovation and Sustainable Development	SILVA, A. W. L. ; SELIG, P. M. ; VIEGAS, Claudia Viviane ; LERIPIO, A. A.	A2	
artigoEmPeriodico	2014	http://dx.doi.org/10.15640/jehd.v3n4a12	Games and Gamification: A Proposal for a Creative Learning Process in Education	Journal of Education and Human Development	SOMBRIO, G. S. ; HAEMING, W. K. ; ULBRICHT, V. R.	Qualis nao identificado	Journal of Education and Human Development
artigoEmPeriodico	2014		Aprendizagem criativa na educação utilizando jogos e gamificação	Revista Hipertexto	SOMBRIO, G. S. ; ULBRICHT, V. R. ; HAEMING, W. K.	B4	
artigoEmPeriodico	2014		Recompensas em organizações: abordagens de pesquisa e padrões de citação utilizados no Brasil	Estudos de Psicologia (Natal. Online)	STEIL, A. V.; FARSEN, T. C. ; GARCIA, C. E. ; BONILLA, M. A. M.	Qualis nao identificado	Estudos de Psicologia (Natal. Online)
artigoEmPeriodico	2014		Estado da Arte sobre Recompensas em Organizações no Brasil: uma Análise Bibliométrica da Literatura Nacional de 2000-2011	Revista Psicologia: Organizações e Trabalho	STEIL, A. V.; GARCIA, C. E. ; FARSEN, T. C. ; BONILLA, M. A. M.	B2	
artigoEmPeriodico	2014		Produtores organicos e a sustentabilidade	Revista Brasileira de Agroecologia	SÁ, Marcelo ; GONCALVES, E. B. ; SOUZA, Vitória Augusta Braga de ; LAPOLLI, É. M.	B2	
artigoEmPeriodico	2014	http://dx.doi.org/10.5433/2236-2207.2014v5n1p25	O uso do diagrama comparativo como ferramenta de abordagem sistêmica na gestão de design das marcas coca cola e Pepsi	Projética	SÁ, TÚLIO HENRIQUE MANDOLESI ; MERINO, GISELLE SCHMIDT DÍAZ ; FIGUEIREDO, LUIZ FERNANDO GONÇALVES DE ; SOUZA, RICHARD PERASSI LUIZ DE	B5	
artigoEmPeriodico	2014		Análise Semiótica dos elementos da marca ?Floripa Inteligente'.	CONVERGENCIAS: REVISTA DE INVESITIGACAO E ENSINO DAS ARTES	TARACHUCKY, L. ; MENEGAZZI, D. L. ; Perassi, R. ; GOMEZ, L. S. R.	B4	
artigoEmPeriodico	2014		Competências individuais para a inovação: em busca do profissional inovador	Espacios (Caracas)	TARTARI, Jaqueline de Souza ; WILBERT, J. K. W. ; DANDOLINI, G. A. ; SOUZA, João Artur de	B1	
artigoEmPeriodico	2014	http://dx.doi.org/10.5935/1806-0013.20140025	Work-related stress and musculoskeletal complaints of orchestra musicians	Revista Dor	TEIXEIRA, Clarissa Stefani; KOTHE, Fausto ; BLEYER, Fernanda Tolentino de Souza ; PEREIRA, Érico Felden	B2	
artigoEmPeriodico	2014	http://dx.doi.org/10.4322/cto.2014.005	Percepção de ambiente e condições de trabalho de músicos de orquestra	Cadernos de Terapia Ocupacional da UFSCar	TEIXEIRA, Clarissa Stefani; KOTHE, Fausto ; PEREIRA, Érico Felden ; LOPES, Luis Felipe Dias	B1	
artigoEmPeriodico	2014		Comparison of body balance in active elderly and young	ConScientiae Saúde (Online)	TEIXEIRA, Clarissa Stefani; REBELATTO, Cleber Fernando ; ANDRADE, Rubian Diego ; PEREIRA, Érico Felden ; LOPES, Luis Felipe Dias ; MOTA, Carlos Bolli	B3	
artigoEmPeriodico	2014	http://dx.doi.org/10.1007/s10278-013-9665-9	Optimization of PACS Data Persistency Using Indexed Hierarchical Data	Journal of Digital Imaging	Thiago Coelho ; Douglas Dyllon J de Macedo ; Wangenheim, Aldo ; Dantas, M. A. R.	A2	
artigoEmPeriodico	2014		Knowledge and Expression of Human Talents to the Process of Innovation in Technology-Based Companies	International Journal of Basic & Applied Sciences	TORQUATO, M. ; MACHADO, E. V. ; LAPOLLI, É. M.	Qualis nao identificado	International Journal of Basic & Applied Sciences
artigoEmPeriodico	2014		Perspectivas de docentes do ensino superior sobre EaD no contexto brasileiro	ETD. Educação Temática Digital	TORRES, M. K. L. ; OLIVEIRA, P. C. ; NAKAYAMA, Marina Keiko ; Nunes, Carolina S.	A2	
artigoEmPeriodico	2014		Análise da utilização da Grounded Theory (Teoria Fundamentada nos Dados) na produção científica brasileira entre 2008-2012	RBPG. Revista Brasileira de Pós-Graduação	TORRES, M. K. L. ; OLIVEIRA, P. C. ; NUNES, C. S. ; NAKAYAMA, M. K.	B1	
artigoEmPeriodico	2014		Ferramentas Colaborativas Aplicadas no Ensino de Geometria: proposta de utilização de uma rede social com atividades acessíveis	Educação Gráfica (Online)	ULBRICHT, V. R.; Rodrigo Duran GONZALEZ ; Marcia Maria ALVES ; KUNTZ, V. H. ; MACEDO, Cláudia Mara Scudelari de	Qualis nao identificado	Educação Gráfica (Online)
artigoEmPeriodico	2014		Ambientes Virtuais de Aprendizagem bilingues para surdos em EAD	Revista Brasileira de Aprendizagem Aberta e a Distância	Silvia Quevedo ; VANZIN, T. ; ULBRICHT, V. R.	B3	
artigoEmPeriodico	2014		Indústria	Brasil em Números (Edição em Inglês. Impresso)	VARVAKIS, G.; SORATTO, Alexandre Nixon ; DAVILA, G. A.	Qualis nao identificado	Brasil em Números (Edição em Inglês. Impresso)
artigoEmPeriodico	2014		Some reasons to implement reverse logistics in companies	International Journal of Environmental Technology and Management	VAZ, C. R. ; GRABOT, B. ; URIONA MALDONADO, M. ; SELIG, P. M.	B2	
artigoEmPeriodico	2014		Bibliometric analysis of the scientific production of the concept of intellectual capital (1980-2012)	Revista Espacios	VAZ, C. R. ; Paula Regina Zarelli ; MALDONADO, M. U. ; SELIG, P. M. ; ROCHA, J. P. Z.	B3	
artigoEmPeriodico	2014		Modelos de Mensuração do Capital Intelectual para Tomada de Decisão e Variáveis de Desempenho	Iberoamerican Journal of Industrial Engineering	VAZ, C. R. ; Paula Regina Zarelli ; WERUTSKY, V. D. G. ; SELIG, P. M. ; MORALES, A. B. T.	B4	
artigoEmPeriodico	2014		Bibliometric analysis of the scientific production of the concept of intellectual capital (1980-2012)	Revista Espacios	VAZ, C. R. ; ROCHA, P. R. Z. ; URIONA MALDONADO, M. ; SELIG, P. M. ; ROCHA, J. P. Z.	B3	
artigoEmPeriodico	2014		Bibliometric analysis of the scientific production of the concept of intellectual capital (1980-2012)	Revista Espacios	VAZ, C. R. ; ROCHA, P. R. Z. ; URIONA MALDONADO, M. ; SELIG, PAULO M. ; ROCHA, J. P. Z.	B3	
artigoEmPeriodico	2014		Modelos de mensuração do capital intelectual para tomada de decisão e variáveis de desempenho	Iberoamerican Journal of Industrial Engineering	VAZ, C. R. ; ROCHA, P. R. Z. ; WERUSTKY, V. D. G ; SELIG, P. M. ; MORALES, A. B. T.	B4	
artigoEmPeriodico	2014		As tecnologias assistivas e a pessoa cega	Datagramazero (Rio de Janeiro)	VERGARA-NUNES, Elton ; DANDOLINI, G. A. ; SOUZA, João Artur de	B1	
artigoEmPeriodico	2014		A aplicação da ISO 9001 nas empresas: uma revisão de literatura	Revista Inova Ação	VIGANO, Fabiano ; FOSCHI, Rogê Roberto ; TEIXEIRA, Clarissa Stefani	Qualis nao identificado	Revista Inova Ação
artigoEmPeriodico	2014	http://dx.doi.org/10.1088/1742-6596/540/1/012001	A case-comparison study of automatic document classification utilizing both serial and parallel approaches	Journal of Physics. Conference Series (Print)	WILGES, Beatriz ; BASTOS, Rogerio Cid ; Mateus, Gustavo P. ; DANTAS, M. A. R.	B2	
artigoEmPeriodico	2014		ORGANIZATIONAL AESTHETICS AS A CONTRIBUTION IN THE MANAGEMENT OF ENTREPRENEURIAL ORGANIZATIONS: systematic literature review and qualitative meta-synthesis	International Journal of Humanities and Social Science	WILLERDING, I. A. V. ; LAPOLLI, É. M.	Qualis nao identificado	International Journal of Humanities and Social Science
artigoEmPeriodico	2014		A evolução da informação gráfica nos produtos gráficos de comunicação da marca cultural Festival de Dança de Joinville	Educação Gráfica (Online)	ZWIRTES, A. M. ; Perassi, R.	Qualis nao identificado	Educação Gráfica (Online)
trabalhoCompletoEmCongresso	2014		Conception of an evolutionary innovation model based on Generalized Darwinism	IV Congresso Internacional de Conhecimenro e Inovação	ABDALA, L. N. ; OGLIARI, A. ; COSTA, E. M. ; DANDOLINI, G. A.		
trabalhoCompletoEmCongresso	2014		Diagnóstico da Cultura Organizacional como aporte à Gestão do Conhecimento	IV CONGRESSO BRASILEIRO DE ENGENHARIA DE PRODUÇÃO	AGUIAR, R. R. S. ; FERNANDES, R. F. ; DANDOLINI, G. A. ; SOUZA, João Artur de ; SALM, V. M.		
trabalhoCompletoEmCongresso	2014		A avaliação do intraempreendedorismo em coordenadores	CONVIBRA - XI Congresso Online - Administração	ALVES, J.B.M.; REZENDE, M. S. C. ; ZOUCAS, A. C. ; ROTTA, M. J. R.		
trabalhoCompletoEmCongresso	2014		Qualidade da gestão acadêmica em instituições de ensino superior: um estudo para identificar os indicadores de inovação e práticas criativas em ies com conceito máximo no igc	XIV Colóquio Internacional de Gestão Universitária	ALVES, l. ; LUZ FILHO, S. S. da		
trabalhoCompletoEmCongresso	2014		Diagnóstico das práticas de compartilhamento do conhecimento em pequenas e médias empresas de tecnologia da informação	IV Congresso Internacional de Conocimiento e Innovación ? CIKI 2014	AUGUSTIN, L. P. ; ROSSATO, J. ; LIMA, G. V. C. ; Varvakis, G.		
trabalhoCompletoEmCongresso	2014		Observatorios de Innovación: mecanismos para el fomento de la innovación en la industria brasileña	VISIO 2014- Congreso Internacional sobre Vigilancia e Inteligencia Sistemática para la Innovación en las Organizaciones	BACK, S. ; DANDOLINI, G. A. ; ALARCON, O. E.		
trabalhoCompletoEmCongresso	2014		Aspectos estruturais na relação entre telejornais e telespectadores	12 Encontro Nacional de Pesquisadores em Jornalismo	BALDESSAR, M. J.; CAVENAGHI, B.		
trabalhoCompletoEmCongresso	2014		Retrato dos jornalistas no horário nobre do telejornalismo no Brasil	IX Congresso Sopcom	BALDESSAR, M. J.; CAVENAGHI, B. ; MIRANDA, C. F.		
trabalhoCompletoEmCongresso	2014		A influência dos games na criatividade dos jogadores	X Seminário Jogos Eletrônicos	BALDESSAR, M. J.; MEDEIROS, D. R.		
trabalhoCompletoEmCongresso	2014		Educação para o Trânsito no Brasil: Como os jogos podem ajudar?	2º Encontro sobre Jogos e Mobile-Learning.	BARBOSA, R. E. ; BALDESSAR, M. J.		
trabalhoCompletoEmCongresso	2014		Aprender a se comportar no Trânsito jogando	V Congreso Internacional sobre Calidad y Accesibilidad de la Formación Virtual	BARBOSA, R. E. ; BALDESSAR, M. J.		
trabalhoCompletoEmCongresso	2014		Os Jogos na Educação para o Trânsito: Uma Revisão Sistemática	4º Ciki	BARBOSA, R. E. ; BALDESSAR, M. J.		
trabalhoCompletoEmCongresso	2014		OBAA-LEME: A Learning Object Metadata Content Editor supported by Application Profiles and Educational Metadata Ontologies	CBIE 2014 - Workshop Brasileiro de Web Semântica e Educação	Behr, A ; PRIMO, T. ; VICCARI, R. M.		
trabalhoCompletoEmCongresso	2014		O Valor dos Dados Abertos Ligados: proposta de avaliação	LOD Brasil - Linked Open Data	BENTANCOURT, Silvia M. P. ; EBONE, Denise S. ; BASTOS, Rogerio Cid		
trabalhoCompletoEmCongresso	2014		Usability Test: A Evaluation framework for the inclusive learning management system WEBGD	14o CONGRESSO INTERNACIONAL DE ERGONOMIA E USABILIDADE DE INTERFACES HUMANO-TECNOLOGIA: PRODUTO	BERG, C. H. ; RIBAS, A. C. ; ULBRICHT, V. R. ; Vanzin, T.		
trabalhoCompletoEmCongresso	2014		Teste de Usabilidade: Uma Exploração do Site WEBGD	ERGODESIGN /USIHC/2014	Carlos Henrique Berg ; Armando Cardoso Ribas ; ULBRICHT, V. R. ; Tarcisio Vanzin		
trabalhoCompletoEmCongresso	2014		Mapeamento das Publicações Científicas sobre a Liderança em Organizações Intensivas	KM Brasil 2014	BESEN, F. ; CUNHA, C. J. C. A. ; TECCHIO, E.		
trabalhoCompletoEmCongresso	2014		Espiritualidade nas Organizações	IV Congresso Internacional de Conhecimento e Inovação	BESEN, F. ; CUNHA, C. J. C. A. ; TECCHIO, E. L.		
trabalhoCompletoEmCongresso	2014		MOOCs uma alternativa para a democratização do Ensino Breno	Ciclo de Palestras Novas Tecnologias na Educação	BIAGIOTTI, B. ; BASTOS, Rogerio Cid		
trabalhoCompletoEmCongresso	2014		. DESIGN DE INTERFACE COMO ELEMENTO ESTRUTURADOR DE OBJETO DE APRENDIZAGEM	14º ERGOdesign USIHC - CONGRESSO INTERNACIONAL DE ERGONOMIA E USABILIDADE DE INTERFACES HUMANO-TECNOLOGIA: PRODUTO	BLEICHER, S. ; QUEVEDO, S. R. P. ; BERG, C. H. ; Vanzin, T. ; ULBRICHT, V. R.		
trabalhoCompletoEmCongresso	2014		OBJETOS DE APRENDIZAGEM INCLUSIVOS: DESENVOLVIMENTO DE NARRATIVAS HIPERMIDIÁTICAS PARA ALUNOS SURDOS	20ª CIAED - Congresso Internacional ABED de Educação a Distância	BLEICHER, S. ; Vanzin, T. ; QUEVEDO, S. R. P. ; ULBRICHT, V. R.		
trabalhoCompletoEmCongresso	2014		DO TEXTO IMPRESSO ÀS REDES SOCIAIS: AS TRANSFORMAÇÕES QUE CONFIGURAM NOVOS HÁBITOS DE LEITURA	WORLD CONGRESS ON COMMUNICATION AND ARTS: The Challenge of Developing Creative Artists in a Standardized World	BLEICHER, S. ; Vanzin, T. ; VELOSO, A. I. ; GONCALVES, B. ; GONÇALVES, Marília Matos		
trabalhoCompletoEmCongresso	2014		Remote Experimentation Applied in Education: An Inclusive Approach for Elementary and Secondary Education	11th International Conference on Remote Engineering Virtual Instrumentation (REV-2014)	BOHN, C. S. ; COSTA, L. A. ; DANDOLIN, G. A. ; ALVES, J. B. M.		
trabalhoCompletoEmCongresso	2014		Experimentação Remota aplicada na Educação: Uma Abordagem Inclusiva para o Ensino Fundamental e Médio	REV 2014 - 2014 11th International Conference on Remote Engineering and Virtual Instrumentation	BOHN, C. S. ; COSTA, L. A. ; DANDOLINI, G. A. ; ALVES, J. B. M.		
trabalhoCompletoEmCongresso	2014		Formas de aprendizagem gerencial ocorridas durante o processo de mudança organizacional: O caso dos gestores da Embrapa Clima Temperado	KM Brasil	BOTELHO, L. ; MACEDO, M. ; MINETTO, C. ; CHAMP, E. ; RIBAS, K. ; TRINDADE, E. P.		
trabalhoCompletoEmCongresso	2014		MUDANÇA ORGANIZACIONAL: TEORIA E TIPOLOGIAS	CONBREPRO	BOTELHO, L. ; MACEDO, M. ; WUERGES, A. E. ; ENGERS, N. K. ; TRINDADE, E. P.		
trabalhoCompletoEmCongresso	2014		Aprendizagem gerencial em instituições de ensino superior	XIV Colóquio Internacional de Gestão Universitária	BOTELHO, L. L. R. ; THIELE, J. ; ENGERS, N. K. ; MACEDO, M. ; TRINDADE, E. P. ; GAUTHIER, F. A. O. ; BASTOS, R. C.		
trabalhoCompletoEmCongresso	2014		Reflexões sobre o Papel das Universidades Empreendedoras e os Desafios da Implantação de Incubadoras Tecnossociais	XIV Colóquio Internacional de Gestão Universitária	BOTELHO, L. L. R. ; THIELE, J. ; MACEDO, M. ; TRINDADE, E. P. ; BASTOS, Rogerio Cid ; GAUTHIER, F. A. O.		
trabalhoCompletoEmCongresso	2014		A utilização dos espaços 'Ba' no processo de compartilhamento do conhecimento de uma agência bancária	CONEPRO-SUL	BOTTOLI, C. D. M. ; MACEDO, M.		
trabalhoCompletoEmCongresso	2014		NÚCLEO INTEGRADO DE CAPACITAÇÃO A DISTÂNCIA PARA SERVIDORES ESTADUAIS	IV Seminário de Ciências Sociais Aplicadas	BUCHELE, G. T. ; SCHMITZ, L. C. ; DANDOLINI, G. A.		
trabalhoCompletoEmCongresso	2014		Contribuição das comunidades de prática para o processo de auto avaliação em uma ies do segmento privado	XIV Colóquio Internacional de Gestão Universitária	BUCHELE, G. T. ; SOUZA, João Artur de ; Todescat, M. ; COELHO, M. D. ; SABINO, M. M. F. L. ; FRANCISCO, T. H. A.		
trabalhoCompletoEmCongresso	2014		Áreas de Estudos da Gestão da Inovação: Uma proposta de um modelo	CONVIBRA 2104	BUCHELE, G. T. ; Teza, P. ; DANDOLINI, G. A. ; SOUZA, João Artur de		
trabalhoCompletoEmCongresso	2014		Um Estudo sobre Gestão de Ideias para Inovação em um Setor da Universidade Federal de Santa Catarina	IV Congresso Internacional do Conhecimento e Inovação	BUCHELE, G. T. ; TEZA, P. ; DANDOLINI, G. A. ; SOUZA, João Artur de		
trabalhoCompletoEmCongresso	2014		Análise dos artigos qualitativos empíricos sobre métodos, técnicas e ferramentas para inovação	IV Congresso Internacional de Conhecimenro e Inovação	BUCHELE, G. T. ; TEZA, P. ; DANDOLINI, G. A. ; SOUZA, João Artur de		
trabalhoCompletoEmCongresso	2014		Audiodescrição como Tecnologia de Acessibilidade para HQ Hipermidiáticas	ERGODESIGN /USIHC/2014	BUSARELLO, Raul Inácio ; Elton Vergara Nunes ; ULBRICHT, V. R. ; VANZIN, T.		
trabalhoCompletoEmCongresso	2014		Construction Parameters for Hypermedia Comics to Learning Based on the Gamification Concept	International Conference on Design and Emotion (9th : 2014 : Colombia)	BUSARELLO, Raul Inácio ; FADEL, L. ; ULBRICHT, V. R. ; BIEGING, Patricia		
trabalhoCompletoEmCongresso	2014		COMICS INTERACTION IN HYPERMEDIA ENVIROMENT	World Congress on Communication and Arts	BUSARELLO, Raul Inácio ; ULBRICHT, V. R. ; GONÇALVES, M. M.		
trabalhoCompletoEmCongresso	2014		Knowledge engineering in the insurance industry: a process improvement-oriented approach	KM Brasil 2014 - 12º Congresso Brasileiro de Gestão do Conhecimento	CALLE, G. A. D. ; DOROW, P. F. ; VARVAKIS, G. ; VALLEJOS, Rolando Vargas		
trabalhoCompletoEmCongresso	2014		AVALIAÇÃO DE INTERFACE DE AMBIENTES VIRTUAIS DE ENSINO APRENDIZAGEM INCLUSIVO: USANDO PROCEDIMENTOS COMPUTADORIZADOS	World Congress on Communication and Arts	Carlos Henrique Berg ; ULBRICHT, V. R.		
trabalhoCompletoEmCongresso	2014		Nonverbal Usability Tests with Emotions for the Visually Impaired	International Conference on Design and Emotion (9th : 2014 : Colombia)	Carlos Henrique Berg ; ULBRICHT, V. R. ; FADEL, L.		
trabalhoCompletoEmCongresso	2014		O DESIGN DE SOM EM AMBIENTES INTERATIVOS: A TRILHA SONORA DA HIPERMÍDIA	14º CONGRESSO INTERNACIONAL DE ERGONOMIA E USABILIDADE	Carvalho, L.R. ; Pereira, Alice T. Cybis		
trabalhoCompletoEmCongresso	2014		DESIGN DE SOM E INTERATIVIDADE: O ÁUDIO DINÂMICO E SUAS ESPECIFICIDADES	14º CONGRESSO INTERNACIONAL DE ERGONOMIA E USABILIDADE	Carvalho, L.R. ; Pereira, Alice T. Cybis		
trabalhoCompletoEmCongresso	2014		TECNOLOGIA ASSISTIVA E DESIGN DA EXPERIÊNCIA DO USUÁRIO: A ACESSIBILIDADE SOB A ÓTICA DO DESENHO UNIVERSAL	14º CONGRESSO INTERNACIONAL DE ERGONOMIA E USABILIDADE	Carvalho, L.R. ; Pereira, Alice T. Cybis ; Batista, V. J.		
trabalhoCompletoEmCongresso	2014		O SIGNO DA HIPERMÍDIA SOB UMA ABORDAGEM SISTÊMICOSEMIÓTICA	14º CONGRESSO INTERNACIONAL DE ERGONOMIA E USABILIDADE	Carvalho, L.R. ; Pereira, Alice T. Cybis ; SOUSA, R. P. L.		
trabalhoCompletoEmCongresso	2014	http://dx.doi.org/10.1007/978-3-319-07230-2	Interface Design and Dynamic Audio	HCI International: Advanced Interaction Modalities and Techniques	Carvalho, Luiz Roberto ; PEREIRA, A. T. C.		
trabalhoCompletoEmCongresso	2014		Requisitos para construção de Ambiente Virtual Colaborativo das Comunidades Virtuais de Prática	12 KM Brasil- Congresso Brasileiro de Gestão do Conhecimento	CARVALHO, Marisa. A. ; VANZIN, Tarcisio.		
trabalhoCompletoEmCongresso	2014		Comunicação da EAD: uma análise do processo de orientação de monografia	20º CIAED - Congresso Internacional ABED de Educação a Distância	CATAPAN, A. H.; BEM, A. ; Silva, A. R. ; SARTORI, V.		
trabalhoCompletoEmCongresso	2014		Seleção e Elaboração de Material Didático: Definição de Critérios de Aderência	Congresso Internacional ABED de Educação a Distância	CATAPAN, A. H.; NUNES, R. C. ; FERNANDES, A.		
trabalhoCompletoEmCongresso	2014		Educação Empreendedora como Fator de Sucesso para Inovação no Contexto de uma Abordagem CTS - Ciência, Tecnologia e Sociedade	XXIV Seminário Nacional de Parques Tecnológicos e Incubadoras de Empresas	CATAPAN, A. H.; SARTORI, V. ; SILVA, A. P. ; SCHIMIGUEL, J.		
trabalhoCompletoEmCongresso	2014		Parques Científicos e Tecnológicos: empreendedorismo e inovação	XXIV Seminário Nacional de Parques Tecnológicos e Incubadoras de Empresas	CATAPAN, A. H.; SARTORI, V. ; SILVA, A. P. ; SCHIMIGUEL, J.		
trabalhoCompletoEmCongresso	2014		Formação continuada para a Rede e-Tec Brasil	ESUD 2014 - XI Congresso Brasileiro de Ensino Superior a Distância	CATAPAN, A. H.; SILVA, A. P. ; DALLABONA, C. A. ; SCHIMIGUEL, J.		
trabalhoCompletoEmCongresso	2014		Gestão e Design Instrucional: construindo intersecções	20º CIAED - Congresso Internacional ABED de Educação a Distância	SILVA, A.R.L. ; DIANA, J. B. ; CATAPAN, A. H. ; SPANHOL, F. J.		
trabalhoCompletoEmCongresso	2014		Do digital ao virtual na EaD	ESUD - Congresso Brasileiro de Ensino Superior a Distância	CATAPAN, A. H.; Silva, A. R.		
trabalhoCompletoEmCongresso	2014		Sustainable innovation and design for sustainability in productive groups	4ème Congrès TRANSFORMARE	CAVALCANTE, A. L. B. L. ; PRETTO, S. ; FIALHO, F. A. P.		
trabalhoCompletoEmCongresso	2014		Aspectos estruturais na relação entre telejornais e telespectadores	12 Encontro Nacional de Pesquisadores em Jornalismo	CAVENAGHI, B. ; BALDESSAR, M. J.		
trabalhoCompletoEmCongresso	2014		DIAGNÓSTICO DO CLIMA ORGANIZACIONAL DE UMA INSTITUIÇÃO DE ENSINO SUPERIOR PUBLICA EM SANTA CATARINA/BRASIL	XXI SIMPEP - Simpósio de Engenharia de Produção	CONSONI, D. P. ; LAPOLLI, Juliana ; FRANZONI, A. M. B. ; LAPOLLI, É. M.		
trabalhoCompletoEmCongresso	2014		Uma Proposta de Sistema de Conhecimento de Governo Eletrônico: Um Facilitador Para Aplicação De Recursos Públicos	NTERNATIONAL CONGRESS OF KNOWLEDGE AND INNOVATION (ciki)	COSTA, L. A. ; BOHN, C. S. ; DANDOLINI, G. A. ; SOUZA, João Artur de		
trabalhoCompletoEmCongresso	2014		Cognitive mediation process technology applied to education	VIII International GUIDE Conference and the V Symposium on Education and Communication	CRISTIANO, M. A. S. ; LUZ FILHO, S. S. da		
trabalhoCompletoEmCongresso	2014		Liderança Autêntica: Uma Revisão Integrativa	IV Congresso Internacional do Conhecimento e Inovação - CiKi	CUNHA, C. J. C. A.; ESPER, A. J. F.		
trabalhoCompletoEmCongresso	2014		Metodologias de Pesquisa Aplicadas em Ontologias	ANAIS DO IV CONGRESSO INTERNACIONAL DE CONHECIMENTO E INOVAÇÃO (CIKI)	CUNHA, CRISTIANO JOSÉ CASTRO DE ALMEIDA; CASAES, J. C. C. ; Bastos, L.C.		
trabalhoCompletoEmCongresso	2014		INOVAÇÃO PARA O DESENVOLVIMENTO SOCIOECONÔMICO: UM ESTUDO BIBLIOMÉTRICO	X Congresso Nacional de Excelência em Gestão	DAGOSTIN N.T. ; FREIRE, P. S. ; GUIMARÃES FILHO, L.P.		
trabalhoCompletoEmCongresso	2014		Inovação para o desenvolvimento socioeconômico: um estudo bibbliométrico	XXXIV Encontro Nacional de Engenharia de Produção	DAGOSTIN N.T. ; FREIRE, P. S. ; GUIMARÃES FILHO, L.P. ; ESTEVAM, Vanessa		
trabalhoCompletoEmCongresso	2014		Semantic Web data representation in BDI Agents	XI Encontro Nacional de Inteligência Artificial e Computacional.	de Campos, Diogo ; Silveira, R.A.		
trabalhoCompletoEmCongresso	2014	http://dx.doi.org/10.1109/ISCC.2014.6912597	Energy-aware resource selection on opportunistic grids	2014 IEEE Symposium on Computers and Communication (ISCC)	DE FARIA, IZAIAS ; Dantas, M.A.R. ; CAPRETZ, MIRIAM A.M.		
trabalhoCompletoEmCongresso	2014	http://dx.doi.org/10.1109/EDUCON.2014.6826245	Application of remote experiments in basic education through mobile devices	2014 IEEE Global Engineering Education Conference (EDUCON)	DE LIMA, J.P.C. ; ROCHADEL, W. ; SILVA, A.M. ; SIMAO, J.P.S. ; DA SILVA, J.B. ; ALVES, J.B.M.		
trabalhoCompletoEmCongresso	2014		Análise das marcas Ted e Tedx e sua expansão global	II Seminário de Informação e Comunicação da Marca - II SICOM/SIGMO/UFSC	DE NARDI, B. Z. ; LINDNER, L. H. ; Perassi, R.		
trabalhoCompletoEmCongresso	2014		Monitoramento de Indicadores de Desenvolvimento Municipal	VI Encontro de Administração Pública da ANPAD	DEBETIR, E. ; SELL, D. ; TURNES, V. A. ; JARA, E. J. ; SALM JR, J. F. ; SILVA, L. S.		
trabalhoCompletoEmCongresso	2014		BIM no Currículo de Arquitetura: Visões e Reflexões para uma implementação	SIGRADI 2014 - XVIII Congreso de la Sociedad Iberoamericana de Grafica Digital	Delatorre, V. ; Pereira, Alice T. Cybis		
trabalhoCompletoEmCongresso	2014		As várias leituras de uma identidade visual	VI Seminário Leitura de Imagens para a Educação: Multiplas Mídias	DIAS, A. R. ; Perassi, R.		
trabalhoCompletoEmCongresso	2014		Capital intelectual em la gestión pública: caso del método intellectus	IV Congresso Internacional de Conocimiento e Innovación ? CIKI 2014	DIAS, M. A. H. ; VARVAKIS, G. ; LERIPIO, A. A. ; VAZ, C. R.		
trabalhoCompletoEmCongresso	2014		Geração de ideias, ideação e gestão de ideias para inovação: clarificando conceitos	KM Brasil 2014 - 12º Congresso Brasileiro de Gestão do Conhecimento	DOROW, P. F. ; CALLE, G. A. D. ; VARVAKIS, G. ; VALLEJOS, Rolando Vargas		
trabalhoCompletoEmCongresso	2014		Generation of ideas, ideations and idea management	IV Congresso Internacional de Conocimiento e Innovación ? CIKI 2014	DOROW, P. F. ; DAVILA, G. A. ; Varvakis, G. ; Vallejos, R. V.		
trabalhoCompletoEmCongresso	2014		The importance of Knowledge Waste for Intellectual Capital Management and Portfolio Management Performance	10th edition of the world conference on intellectual capital for communities (IC10)	DURST, S. ; FERENHOF, H. A. ; SELIG, PAULO MAURÍCIO		
trabalhoCompletoEmCongresso	2014		Knowledge waste in organizations	9th International Forum on Knowledge Asset Dynamics	DURST, S. ; FERENHOF, H. A. ; SELIG, PAULO MAURÍCIO		
trabalhoCompletoEmCongresso	2014		An ontology-base framework for relevant guidance	Ibero-American Conference on Artificial Intelligence	Elaine Harada Teixeira de Oliveira ; NOZAWA, E. H. ; Vicari R. M.		
trabalhoCompletoEmCongresso	2014		ASPECTOS DO DESENVOLVIMENTO DA INTERFACE DE UM APLICATIVO PARA DISPOSITIVOS MÓVEIS COMO AUXÍLIO A CADEIRANTES	ERGODESIGN /USIHC/2014	ERON MORENO CHAGAS ROCHA ; MARÍLIA SILVA NASS ; ULBRICHT, V. R.		
trabalhoCompletoEmCongresso	2014		Análise Sistemática da Produção Acadêmico-Científica sobre Liderança e Aprendizagem Organizacional	XXXVIII Encontro da ANPAD - EnANPAD 2014	ESPER, A. J. F. ; STEIL, A. V. ; SANTOS, J. L. S.		
trabalhoCompletoEmCongresso	2014		CARACTERÍSTICAS BLOQUEADORAS E POTENCIALIZADORAS DA INOVAÇÃO EM EMPRESA FAMILIAR	V Semana de Ciências Tecnologia para o Desenvolvimento Social	ESTEVAM, Vanessa ; MACCARI, G.M. ; FREIRE, P. S.		
trabalhoCompletoEmCongresso	2014	http://dx.doi.org/10.5151/designpro-ped-00018	POSITIVISMO E DESIGN: PERCEPÇÕES SOBRE A INFLUÊNCIA POSITIVISTA NAS LEIS DA GESTALT	11º Congresso Brasileiro de Pesquisa e Desenvolvimento em Design	EVANGELISTA, EDUARDO ; SANTOS, MARCO AURÉLIO SOARES DOS ; WOLF, PAULO HENRIQUE ; FEIJÓ, VALÉRIA CASAROTO ; SOUSA, RICHARD PERASSI LUIZ DE ; GOMEZ, LUIZ SALOMÃO RIBAS		
trabalhoCompletoEmCongresso	2014	http://dx.doi.org/10.1109/WETICE.2014.31	Network and Energy-Aware Resource Selection Model for Opportunistic Grids	2014 IEEE 23rd International Workshops on Enabling Technologies: Infrastructures for Collaborative Enterprise (WETICE)	FARIA, IZAIAS DE ; Dantas, M.A.R. ; CAPRETZ, MIRIAM A.M. ; HIGASHINO, WILSON A.		
trabalhoCompletoEmCongresso	2014		OS DESAFIOS DA GESTÃO DE PESSOAS EM RETER OS TALENTOS DAS DIFERENTES GERAÇÕES QUE COMPÕEM O MERCADO BRASILEIRO	XI Congresso Online - Administração	FIEGENBAUM, M. ; VIEIRA, A. C. P. ; FREIRE, P. S.		
trabalhoCompletoEmCongresso	2014		RECOMENDAÇÕES PARA O PROJETO DE INTERFACES WEB ACESSÍVEIS AO PÚBLICO SURDO	World Congress on Communication and Arts	FLOR, C. S. ; BLEICHER, S. ; ULBRICHT, V. R. ; Vanzin, T. ; GONÇALVES, Marília Matos		
trabalhoCompletoEmCongresso	2014		Recomendações para o design de interfaces web acessíveis ao público surdo	VII World Congress on Communication and Arts	FLOR, Carla S. ; BLEICHER, S. ; ULBRICHT, Vania R. ; VANZIN, Tarcisio. ; GONÇALVES, Marília Matos		
trabalhoCompletoEmCongresso	2014		Navegação de surdos em Ambientes Virtuais de Ensino e Aprendizagem (AVEAs)	: IV Congresso Internacional de Conhecimento e Inovação	FLOR, Carla S. ; VANZIN, Tarcisio.		
trabalhoCompletoEmCongresso	2014		Conexões e desconexões na internet: a construção de uma narrativa visual convergente para devices divergentes	VI Colóquio Brasil-Estados Unidos de Ciências da Comunicação/XXXVII Congresso Brasileiro de Ciências da Comunicação/Intercom	FONTINHA, C. ; BALDESSAR, M. J.		
trabalhoCompletoEmCongresso	2014		New Technologies Applied to Education: a New Concept of Education	11th International Conference on Remote Engineering Virtual Instrumentation (REV-2014)	FORMANSKI, F. N. ; ALVES, J. B. M. ; SILVA, J. B.		
trabalhoCompletoEmCongresso	2014		Uso da Gameficação na Gestão de Organização em Rede	NTERNATIONAL CONGRESS OF KNOWLEDGE AND INNOVATION (ciki)	FORMANSKI, F. N. ; FORMANSKI, J. G. ; ALVES, J.B.M.		
trabalhoCompletoEmCongresso	2014		Capital Intelectual e polo de Educação a Distancia:um estudo bibliometrico	12 Congresso brasileiro de Gestão do Conhecimento	FRAGA, B. D. ; DIANA, J. B. ; SPANHOL, F. J. ; SELIG, P. M.		
trabalhoCompletoEmCongresso	2014		Gestão do capital intelectual em fusões e aquisições: uma listagem de ativos intangíveis priorizados para integração	X CNEG - Congresso Nacional de Excelência em Gestão	FREIRE, P. S. ; SPANHOL, F. J. ; SELIG, P. M.		
trabalhoCompletoEmCongresso	2014		PROPRIEDADE INTELECTUAL COMO ATIVO INTANGÍVEL PARA A CADEIA PRODUTIVA: o estudo de caso da Indicação de Procedência dos ?Vales da Uva Goethe? em Santa Catarina	KM BRASIL 2014 - Knowledge Management Brasil 2014 - 12º. Congresso Brasileiro de Gestão do Conhecimento.	FREIRE, P. S.; JENOVEVA NETO, R. ; VIEIRA, A. C. P.		
trabalhoCompletoEmCongresso	2014	http://dx.doi.org/10.13140/2.1.1729.2808	VALES DA UVA GOETHE COMO UM ARRANJO PRODUTIVO LOCAL (APL): UMA ANÁLISE PELO MODELO DE DIAMANTE DE PORTER	XXXIV Encontro Nacional de Engenharia de Produção	FREIRE, P. S.; VIEIRA, A. C. P. ; JENOVEVA NETO, R. ; ESTEVAM, Vanessa		
trabalhoCompletoEmCongresso	2014		Mensuração da inovação: um estudo de caso em uma empresa no setor de eletrodomésticos	3o. CONEPRO-SUL	FREITAS FILHO, L. F. ; SPERONI,R. M. ; DANDOLINI, G. A. ; SOUZA, João Artur de		
trabalhoCompletoEmCongresso	2014		A Student Model for Teaching Natural Deduction based on a Prover that Mimics Student Reasoning	International Conference on Intelligent Tutoring Systems (ICITS)	Gluz, J. C. ; PENTEADO, F. ; MOSSMANN, M. ; GOMES, L. ; Vicari R. M.		
trabalhoCompletoEmCongresso	2014		ANALYZING THE IMPACT OF CUSTOMIZATIONS IN WMS MODULE ON THE IMPLEMENTATION OF AN ENTERPRISE RESOURCE PLANNING - ERP	11th International Conference on Information Systems and Technology Management ? CONTECSI	GOBBATO, A. ; OLIVEIRA, P. C. ; BAPTISTA, J. A. A. ; HENRIQUE, M. R. ; NAKAYAMA, Marina Keiko		
trabalhoCompletoEmCongresso	2014	http://dx.doi.org/10.1109/NCA.2014.40	An Advance Reservation Mechanism to Enhance Throughput in an Opportunistic High Performance Computing Environment	2014 IEEE 13th International Symposium on Network Computing and Applications (NCA)	GOMES, ELIZA ; Dantas, Mario Antonio Ribeiro		
trabalhoCompletoEmCongresso	2014		A Utilização das Ferramentas de Gestão do Conhecimento em uma Empresa Intensiva de Conhecimento ? Estudo de Caso do IBGE	KM Brasil 2014	GOMES, R. K. ; CONSONI, D. P. ; FOSSARI, C.L. ; FOSSARI, I. M. ; LAPOLLI, É. M.		
trabalhoCompletoEmCongresso	2014		A aplicação do desenvolvimento de lideranças como ferramenta para redução do turnover	Convibra 2014	GOMES, R. K. ; GOMES, R. K. ; CONSONI, D. P. ; LAPOLLI, É. M.		
trabalhoCompletoEmCongresso	2014		O Intraempreendedorismo no Serviço Público: Modismo ou Oportunidade de Melhoria?	CIKI - IV Congreso Internacional de Conocimiento e Inovación Gestión del Conocimiento y capital intelectual como fuente de ventaja competitiva	GOMES, R. K. ; LAPOLLI, É. M.		
trabalhoCompletoEmCongresso	2014		Teoria da Complexity Leadership: um revisão integrativa	VIII Encontro de Estudos Organizacionais da ANPAD ? EnEO	GRAMKOW, F. B. ; CUNHA, C. J. C. A.		
trabalhoCompletoEmCongresso	2014		Liderança na Implementação da Estratégia como Processo de Gestão do Conhecimento em Organizações Intensivas em Conhecimento	KM Brasil 2014 - 12º Congresso Brasileiro de Gestão do Conhecimento	GÜNTHER, H. F. ; CUNHA, C. J. C. A. ; LOCH, M.		
trabalhoCompletoEmCongresso	2014		Análise da produção científica nacional sobre fluxos de informação	Encontro Nacional de Pesquisa em Ciência da Informação	INOMATA, D. O. ; ARAÚJO, Wánderson Cássio Oliveira ; PASSOS, KETRY GORETE FARIAS DOS ; VARVAKIS, G.		
trabalhoCompletoEmCongresso	2014		Criação de valor em incubadoras de empresas por meio do capital intelectual: uma revisão bibliográfica	Congresso Internacional de Conhecimento e Inovação - ciKi	INOMATA, D. O. ; MACHADO, E. ; VARVAKIS, G. ; SELIG, P. M.		
trabalhoCompletoEmCongresso	2014		Compartilhamento e registro de conhecimento: proposta de modelo para gestão de processos	KM Brasil 2014 - 12º Congresso Brasileiro de Gestão do Conhecimento	INOMATA, D. O. ; SCHWEITZER, F. ; VARVAKIS, G. ; CALLE, G. A. D.		
trabalhoCompletoEmCongresso	2014		Análise do Capital Intelectual na Influencia das Relações Organizacionais sobre os Fluxos de Informação	Congresso de Engenharia de Produção da Região Sul	INOMATA, D. O. ; Varvakis, G. ; VAZ, C. R.		
trabalhoCompletoEmCongresso	2014		Mapeamento de conhecimento na literatura científica: identificação de palavras através de coocorrência	Encontro Nacional de Pesquisa em Ciência da Informação	Inomata, Danielly Oliveira ; MANHAES, M. C. ; FRAGA, B. D. ; VARVAKIS, G.		
trabalhoCompletoEmCongresso	2014		Vigilância crítica da produção de literatura científica: uma proposta de processo para a análise de conteúdo	Encontro Nacional de Pesquisa em Ciência da Informação	Inomata, Danielly Oliveira ; MANHAES, M. C. ; FRAGA, B. D. ; VARVAKIS, GREGÓRIO		
trabalhoCompletoEmCongresso	2014		ANÁLISE DO PROCESSO DE INSTITUCIONALIZAÇÃO DA INDICAÇÃO GEOGRÁFICA PARA O DESENVOLVIMENTO SOCIOECONÔMICO: O CASODO ?VALES DA UVA GOETHE?	2º Seminário Nacional de Planejamento e Desenvolvimento (SNPD)	JENOVEVA NETO, R. ; FREIRE, P. S. ; VIEIRA, A. C. P.		
trabalhoCompletoEmCongresso	2014	http://dx.doi.org/10.17012/entac2014.294	Arquitetura efêmera sustentável	Encontro Nacional de Tecnologia do Ambiente Construído	JOCHIMS, CAROLINA ; LIBRELOTTO, LISIANE ; Cybis Pereira, Alice ; PUPO, REGIANE		
trabalhoCompletoEmCongresso	2014		INOVAÇÃO SOCIAL: UMA REVISÃO SISTEMÁTICA DE LITERATURA	X Congresso Nacional de Excelência em Gestão	JULIANI, D. P. ; JULIANI, J. P. ; SOUZA, João Artur de ; HARGER, E. M.		
trabalhoCompletoEmCongresso	2014		Mediação Tecnológica em Redes Inclusivas	World Congress on Communication and Arts	KAMINSKI, D. ; PALAZZO, Luiz Antonio Moro ; VANZIN, Tarcisio. ; GONÇALVES, Marília Matos ; ULBRICHT, Vania R.		
trabalhoCompletoEmCongresso	2014		Smart cities baseadas em big data: desafios e oportunidades	LOD Brasil - Linked Open Data	KLEIN, V. B. ; Todesco, José Leomar		
trabalhoCompletoEmCongresso	2014		Comunicação Interna em apoio à Gestão do Conhecimento	12º. Congresso Brasileiro de Gestão do Conhecimento - KM Brasil 2014	KRAUSE, M. G. ; LAPOLLI, Édis Mafra ; DANDOLINI, G. A. ; WILLERDING, I. A. V.		
trabalhoCompletoEmCongresso	2014		O clima organizacional em uma instituição pública de ensino superior	XIV Colóquio Internacional de Gestão Universitária - CIGU	LAPOLLI, Juliana ; CONSONI, D. P. ; FRANZONI, A. M. B. ; LAPOLLI, É. M.		
trabalhoCompletoEmCongresso	2014		Educação Inclusiva na EaD: Infografia Web Como Proposta Para Aprendizagem de Surdos	ESUD 2014 - XI Congresso Brasil;Eiro De Ensino Superior A Distancia	LAPOLLI, M. ; BLEICHER, S. ; VANZIN, Tarcisio. ; ULBRICHT, V. R.		
trabalhoCompletoEmCongresso	2014		Contribuindo com a aprendizagem voltada para as pessoas surdas: a infografia na web	: 11°PD. Congresso Brasileiro de Pesquisa e Desenvolvimento em Design	LAPOLLI, M. ; VANZIN, Tarcisio. ; Ulbricht, Vania Ribas		
trabalhoCompletoEmCongresso	2014		Infografia na web para a inclusão digital de alunos surdos	XXIII Ciclo de Palestras Novas Tecnologias na Educação	LAPOLLI, M. ; VANZIN, Tarcisio. ; Ulbricht, Vania Ribas		
trabalhoCompletoEmCongresso	2014		Gestão Universitária: um exercício empreendedor para o desenvolvimento	XIV Colóquio Internacional de Gestão Universitária	LAPOLLI, É. M.; GOMES JR, W. V. ; FRANZONI, A. M. B.		
trabalhoCompletoEmCongresso	2014		Objetos de Aprendizagem voltados ao ensino de modelagem digital 3D para arquitetura baseado no estilo cognitivo visual	SIGRADI 2014 - XVIII Congreso de la Sociedad Iberoamericana de Grafica Digital	LEDO, R. Z. ; Pereira, Alice T. Cybis		
trabalhoCompletoEmCongresso	2014		EXPERIMENTAL THEMATIC SOCIAL NETWORK OF A RESEARCH GROUP ABOUT WEB ACCESSIBILITY	World Congress on Communication and Arts	LINDNER, L. H. ; FLORES, A. B. ; PALAZZO, Luiz Antonio Moro ; ULBRICHT, V. R.		
trabalhoCompletoEmCongresso	2014	http://dx.doi.org/10.5151/designpro-ped-00856	O QUE PODEMOS APRENDER COM A INTERFACE DO FACEBOOK?	11º Congresso Brasileiro de Pesquisa e Desenvolvimento em Design	LINDNER, LUIS HENRIQUE ; ULBRICHT, Vania Ribas		
trabalhoCompletoEmCongresso	2014		ANÁLISE DE MODELOS DE TOMADA DE DECISÃO PARA IMPLANTAÇÃO EM EMPRESAS FAMILIARES A FIM DE EVITAR CONLITOS E INTERFERÊNCIAS	XIV Mostra de Iniciação Científica	MACCARI, G.M. ; FREIRE, P. S. ; VIEIRA, A. C. P. ; TOPANOTTI, A.P. ; ZILLI, J. C. F.		
trabalhoCompletoEmCongresso	2014		PROCESSOS DE NEGÓCIO COMO CONTEXTO DE APLICAÇÃO PARA A INTELIGÊNCIA COMPETITIVA	XXI SIMPEP - Simpósio da Engenharia de Produção	MACEDO, M. A. ; SENA, M. ; DANDOLINI, G. A. ; CASAROTTO FILHO, N.		
trabalhoCompletoEmCongresso	2014		INOVAÇÃO E GESTÃO DE AMBIENTE IMERSIVO GOVERNAMENTAL E CORPORATIVO	World Congress on Communication and Arts	MACEDO, R. P. ; Carla Susana da Encarnação Marques ; ULBRICHT, V. R.		
trabalhoCompletoEmCongresso	2014		Aprofundamento e criação de conhecimentos: Uma reflexão sobre os desafios da EAD brasileira e a educação do século XXI	VIII International Guide Conference and V Symposium on Education and Communication	MARTINS FILHO, V. ; FIALHO, F. A. P.		
trabalhoCompletoEmCongresso	2014		Os dez modos de Enesidemo e os sete princípios do Desenho Universal: uma discussão acerca da diversidade humana direcionada ao design	4º GAMPI Plural	MATTOZO, T. R. ; BATISTA, V. J. ; Perassi, R.		
trabalhoCompletoEmCongresso	2014		Behaviorism in-store design experience and setting of the brand: an analysis of the Havaianas brand	2° Congresso Internazionale di Moda e Design ou 2° International Fashion and Design Congress - CIMODE 2014	MEDEIROS, D. P. ; PILATTI, G. ; ALVES, C. M. ; Perassi, R. ; Gomes, L. (Luiz Salomão Ribas Gomes)		
trabalhoCompletoEmCongresso	2014		As novas relações de consumo midiático: Uma reflexão contexto Brasil, Espanha, Portugal e México a partir do uso de dispositivos móveis	II Congresso Mundial de Comunicação Ibero-americana	MEDEIROS, D. R. ; BALDESSAR, M. J.		
trabalhoCompletoEmCongresso	2014		A segmentação em áreas do conhecimento do estudo do ativo intangível marca em teses e dissertações UFSC	12º Congresso Brasileiro de Gestão do Conhecimento	MENEGHEL, T. ; Perassi, R. ; FRANCISCO, T. H. A.		
trabalhoCompletoEmCongresso	2014		A construção da marca de periódicos científicos no Brasil	International Congress on Brand(ing)	MENEGHEL, T. ; Perassi, R. ; FRANCISCO, T. H. A.		
trabalhoCompletoEmCongresso	2014		Qualidade da informação da métrica de usabilidade, Governo Eletronico nos Tribunais Brasileiros através do Modelo Servqual	Encontro Ibero Americano de Governo Eletrônico e Inclusão Digital	MEZZAROBA, Mariana P. ; BASTOS, Rogerio Cid ; BASTOS, L. C. ; ROVER, Aires J.		
trabalhoCompletoEmCongresso	2014		A convergência na era digital a nova estética visual da interatividade	11 Conferência Mundial de Economia e Gestão de Mídia	MIRANDA, C. F. ; BALDESSAR, M. J.		
trabalhoCompletoEmCongresso	2014		Parâmetros para a construção de uma narrativa visual para a web: convergência, subjetividade e qualidade no jornalismo	IV Congresso Internacional de Ciberjornalismo: Qualidade e Credibilidade no Ciberjornalismo,	MIRANDA, C. F. ; BALDESSAR, M. J.		
trabalhoCompletoEmCongresso	2014		A influência da interdisciplinaridade no processo de aprendizagem: uma análise em um programa de pós-graduação brasileiro	XIV Colóquio Internacional de Gestão Universitária - CIGU	MULLER, J. M. ; FREIRE, P. S. ; FIALHO, F. A. P.		
trabalhoCompletoEmCongresso	2014		A Disseminação do Conhecimento Através do Uso das TIC's: a Divulgação Pública da Ciência Através da Revista da FAPESP	II Congresso Mundial de Comunicação Ibero-Americana	MUNZLINGER, A. ; DANDOLINI, G. A. ; RANZAN, E. M.		
trabalhoCompletoEmCongresso	2014		Classificação semântica de informações não estruturadas sobre colaboradores	IV Congresso Internacional do Conhecimento e Inovação - CiKi	NOWASKY, R. ; SELL, D. ; TODESCO, José Leomar ; BEPPLER, Fabiano Duarte ; PACHECO, Roberto Carlos dos Santos		
trabalhoCompletoEmCongresso	2014	http://dx.doi.org/10.1109/cbms.2014.138	An Approach to Evaluating Quality of Context Parameters in an Ambient Assisted Living Environment	2014 IEEE 27th International Symposium on ComputerBased Medical Systems (CBMS)	NAZARIO, DEBORA CABRAL ; BOAS, IGOR VILAS ; DANTAS, MARIO ANTONIO RIBEIRO ; TODESCO, JOSE LEOMAR		
trabalhoCompletoEmCongresso	2014	http://dx.doi.org/10.5748/9788599693100-11contecsi/ps-731	Context Management by Evaluating Quality of Context	11th CONTECSI International Conference on Information Systems and Technology Management	NAZARIO, DEBORA CABRAL ; DANTAS, MARIO ANTONIO RIBEIRO ; TODESCO, JOSE LEOMAR		
trabalhoCompletoEmCongresso	2014	http://dx.doi.org/10.1109/iscc.2014.6912488	Toward assessing Quality of Context parameters in a ubiquitous assisted environment	2014 IEEE Symposium on Computers and Communication (ISCC)	NAZARIO, DEBORA CABRAL ; TROMEL, IGOR VILAS BOAS ; DANTAS, MARIO ANTONIO RIBEIRO ; TODESCO, JOSE LEOMAR		
trabalhoCompletoEmCongresso	2014		A Quality of Context Evaluating Approach in an Ambient Assisted Living e-Health System	IEEE 16th International Conference on e-Health Networking	Nazário, Débora Cabral ; Todesco, José Leomar ; DANTAS, M. A. R. ; TROMEL, I. V. B.		
trabalhoCompletoEmCongresso	2014		EDUCAÇÃO PARA O EMPREENDEDORISMO: DESENVOLVIMENTO DE COMPETÊNCIAS EMPREENDEDORAS NO ENSINO SUPERIOR	XIV COLÓQUIO INTERNACIONAL DE GESTÃO UNIVERSITÁRIA ? CIGU	NEVES, E. O. ; STEIL, A. V.		
trabalhoCompletoEmCongresso	2014		Gestão do conhecimento alinhada com o conceito de valor para o cliente	Knowledge Management Brasil 2014 - 12º Congresso Brasileiro de Gestão do Conhecimento	NEVES, M. L. C. ; Perassi, R.		
trabalhoCompletoEmCongresso	2014		O Uso do Facebook como Espaço de Interação em um Curso a Distância: A Percepção de Alunos e Tutores	XVI Encuentro Iberoamericano de Educación Superior a Distância	NUNES, C. S. ; PALOMINO, C. E. G. ; Silveira, R.A. ; NAKAYAMA, M. K.		
trabalhoCompletoEmCongresso	2014		Letramento Visual: reconhecendo a imagem na transmissão da informação	Congresso de Iniciação Científica do INATEL	OGLIARI, C. L. ; CATAPAN, A. H.		
trabalhoCompletoEmCongresso	2014		CHALLENGES OF SMALL BUSINESSES RELATED TO LOGISTICS OPERATION OF ERP SYSTEMS	11th International Conference on Information Systems and Technology Management ? CONTECSI	OLIVEIRA JUNIOR, R. B. L. ; OLIVEIRA, P. C. ; BAPTISTA, J. A. A. ; HENRIQUE, M. R. ; NAKAYAMA, Marina Keiko		
trabalhoCompletoEmCongresso	2014		Sistemas de gerenciamento de aprendizagem e gestão da educação a distância: uma revisão teórica e possibilidades para pesquisa	Simpósio Internacional de Educação a Distância	OLIVEIRA, P. C. ; NAKAYAMA, M. K.		
trabalhoCompletoEmCongresso	2014		PAPEL DO AMBIENTE VIRTUAL DE APRENDIZAGEM NA GESTÃO DO PROJETO ALUNO INTEGRADO DA UFSC: UMA TEORIA SUBSTANTIVA	11th International Conference on Information Systems and Technology Management ? CONTECSI	OLIVEIRA, P. C. ; NAKAYAMA, Marina Keiko		
trabalhoCompletoEmCongresso	2014		An Intelligent LMS Model Based on Intelligent Tutoring Systems	12th International Conference on Intelligent Tutoring Systems	PALOMINO, C. E. G. ; Silveira, R.A. ; NAKAYAMA, M. K.		
trabalhoCompletoEmCongresso	2014		Gestão do Conhecimento e planejamento de sucessão em indústria de alimentos no Brasil	KM Brasil 2014 - Knowledge Management Brasil 2014 - 12º Congresso Brasileiro de Gestão do Conhecimento	Paula Regina Zarelli ; DURST, S. ; VAZ, C. R. ; MURAN, C. B. ; SELIG, PAULO MAURÍCIO		
trabalhoCompletoEmCongresso	2014		Principios do Lean Manufacturing aplicados em uma fábrica de injeção de peças plásticas: análise do resultado operacional	IV Congresso de Sistemas Lean	PAWLAK, J. S. ; MACEDO, M.		
trabalhoCompletoEmCongresso	2014		INFLUÊNCIA DO PROCESSO DE RECOMPENSAR PESSOAS NA MOTIVAÇÃO DOS FUNCIONÁRIOS: ESTUDO DE CASO DO SETOR METALÚRGICO	XIV Mostra de Iniciação Científica	PERRARO, J. ; FREIRE, P. S. ; VIEIRA, A. C. P. ; TOPANOTTI, A.P. ; ZILLI, J. C. F.		
trabalhoCompletoEmCongresso	2014		Badgets, rewards and so on: motivation and engagement for online courses using gamification techniques	ICERI2014	PINTO, C. A. S. ; SPANHOL, F. J.		
trabalhoCompletoEmCongresso	2014		Serviço de referência de bibliotecas universitárias: tradicional e educativo	Encontro Nacional de Pesquisa em Ciência da Informação	PINTRO, S. ; INOMATA, D. O. ; VARVAKIS, G.		
trabalhoCompletoEmCongresso	2014		Otimização do Moodle para dar suporte a Comunidades de Prática Acessíveis a Surdos e Ouvintes	TISE 2014 XIX Conferência Internacional sobre Informática na Educação	PIVETTA, E. M. ; SAITO, D. S. ; FLOR, Carla S. ; ULBRICHT, Vania R. ; VANZIN, Tarcisio. ; PEREIRA, M. ; FERNANDES, D.		
trabalhoCompletoEmCongresso	2014		A marca como sistema simbólico: considerações a partir do reposicionamento da marca IFSC	II Seminário de Informação e Comunicação da Marca - II SICOM/SIGMO/UFSC	RAMOS, T. L. ; Perassi, R. ; ALVES. J. B.		
trabalhoCompletoEmCongresso	2014		As metodologias de Design na comunicação e prática da pedagogia de projetos	Confibercom - Congresso Mundial de Comunicação Ibero-Americana: os desafios da internacionalização	REGINALDO, T. ; BATISTA, C. R. ; BALDESSAR, M. J.		
trabalhoCompletoEmCongresso	2014		Design de interfaces personalizadas para o website adaptativo: diferente todo mundo é!	14º Ergodesign - USIHC (Congresso Internacional de Ergonomia e Usabilidade de Interfaces e Interação Humano-Computador)	REGINALDO, T. ; BATISTA, C. R. ; BALDESSAR, M. J.		
trabalhoCompletoEmCongresso	2014		Evaluating Knowledge Management Practices in Software Development Organizations	CONVIBRA - XI Congresso Online - Administração	REZENDE, M. S. C. ; ALVES, JOÃO BOSCO		
trabalhoCompletoEmCongresso	2014		A importância do design da informação na educação e aprendizado do público surdo na web	14o CONGRESSO INTERNACIONAL DE ERGONOMIA E USABILIDADE DE INTERFACES HUMANO-TECNOLOGIA: PRODUTO	RIBAS, A. C. ; Vanzin, T. ; PEREIRA, A. T. C.		
trabalhoCompletoEmCongresso	2014		Análise bibliometrica da Gestão do Conhecimento e Planejamento de Sucessão	Congresso Internacional de Administração	ROCHA, P. R. Z. ; VAZ, C. R. ; SELIG, P. M.		
trabalhoCompletoEmCongresso	2014		Gestão do Conhecimento e Planejamento de Sucessão: Lacunas de Pesquisa Identificadas a Partir de um Estudo Teórico	IV Congresso Internacional de Conhecimento e Inovação - ciKi	ROCHA, P. R. Z. ; VAZ, C. R. ; SELIG, P. M.		
trabalhoCompletoEmCongresso	2014		Universidade tecnológica: o conhecimento socialmente significativo como fundamento da estrutura e gestão de uma universidade especializada no campo do saber da tecnologia,	XIV Colóquio Internacional de Gestão Universitária - CIGU	ROMANO, C. A. ; LAPOLLI, É. M.		
trabalhoCompletoEmCongresso	2014		Compartilhamento de Conhecimentos Tácitos: Um estudo sob a ótica das Ciências Cognitivas	IV Congresso Internacional do Conhecimento e Inovação ? CIKI	RONCHETTI, A. G. ; SILVA NETO, E. ; MULLER, J. M. ; FIALHO, F. A. P.		
trabalhoCompletoEmCongresso	2014		Mapeamento da literatura brasileira sobre compartilhamento do conhecimento organizacional entre 2007 e 2012	IV Congresso Internacional de Conocimiento e Innovación ? CIKI 2014	ROSSATO, J. ; OSINSKI, Marilei ; FRAGA, B. D. ; Varvakis, G.		
trabalhoCompletoEmCongresso	2014		Mídias digitais na formação de comunidades de prática e competências socioemocionais	LOD BRASIL	S.SOMBRIO, G. ; PALAZZO, L. A. M. ; ULBRICHT, V. R.		
trabalhoCompletoEmCongresso	2014		A SUSTENTABILIDADE INTEGRADA NO AGRONEGÓCIO CATARINENSE	Convibra 2014	SA, M. ; LAPOLLI, É. M.		
trabalhoCompletoEmCongresso	2014		Skeumorfismo e Flat Design: a dupla estilística da marca Rede Globo de Televisão nas interfaces gráfico-digitais	II Seminário de Informação e Comunicação da Marca - II SICOM/SIGMO/UFSC	SA, T. H. M. ; Perassi, R.		
trabalhoCompletoEmCongresso	2014		SYSTEMATIC REVIEW ABOUT CREATIVITY AND DEVELOPING ACCESSIBLE WEB SITES	World Congress on Communication and Arts	SAITO, D. S. ; Mateus Lohn Andriani ; PIVETTA, E. M. ; ULBRICHT, V. R. ; GONÇALVES, M. M.		
trabalhoCompletoEmCongresso	2014		Social coproduction for knowledge representation in ubiquitous semantic systems	Congresso Internacional de Conhecimento e Inovação - CiKi	SALM JR, José Francisco ; PACHECO, ROBERTO C. S ; KOLLER, Karine ; SCHNEIDER, Viviane		
trabalhoCompletoEmCongresso	2014	http://dx.doi.org/10.1007/978-3-319-24586-7_4	eHealth Code of Ethics in ubiquitous semantic systems	The 8th International Multi-Conference on Society	SALM JR, José Francisco ; SCHNEIDER, Viviane ; PACHECO, R. C. S.		
trabalhoCompletoEmCongresso	2014		EXTENSIÓN Y GESTIÓN UNIVERSITARIA: UN ESTUDIO DEL PROYECTO	XIII Colóquio de Gestion Universitaria en Americas	SANTOS, A. D. ; BOHN, C. S. ; DANDOLINI, G. A. ; ALVES, J. B. M.		
trabalhoCompletoEmCongresso	2014		Design de interface, uma investigação a respeito dos elementos essenciais em Jogos Digitais para Smartphones - Sistema Android	SBGAMES 2014-XIII Simpósio Brasileiro de Jogos e Entretenimento Digital	SANTOS, M. A. S. ; PEREIRA, ALICE THERESINHA CYBIS ; VIEIRA, M. L. H.		
trabalhoCompletoEmCongresso	2014		A construção da corporate brand pela perspectiva das corporate stories: um estudo sobre os times brasileiros de futebol	XVII SemeAd	SCHARF, E. R. ; Perassi, R. ; VIEIRA, F. G. D. ; RUSSI, E.		
trabalhoCompletoEmCongresso	2014		Entrepreneurial Innovation Management to support organizational growth	The 59th Annual International Council for Small Business World Conference	SCHMITZ, A. L. F. ; LAPOLLI, É. M. ; LAPOLLI, P. C.		
trabalhoCompletoEmCongresso	2014		Innovation and Entrepreneurship in the Academic Setting from the Perspective of Quantitative Empirical Research	XXVIII Simpósio de Gestão da Inovação Tecnológica	SCHMITZ, Ademar ; DANDOLINI, G. A. ; SOUZA, J. A.		
trabalhoCompletoEmCongresso	2014		Agência de Gestão, Desenvolvimento Científico, Tecnologia e Inovação da Unisul: Contexto, Processo de Estruturação e Principais Resultados Alcançados na Relação Universidade-Empresa-Governo	Congresso ABIPTI 2014	SCHMITZ, Ademar ; Holthausen, F. H. ; DANDOLINI, G. A. ; SOUZA, João Artur de		
trabalhoCompletoEmCongresso	2014		Sistemas Nacionais de Inovação: Uma Análise Bibliométrica dos Artigos Publicados sobre o Tema na Base Scopus	VIII EGEPE - Encontro de Estudos sobre Empreendedorismo e Gestão de Pequenas Empresas	SCHMITZ, Ademar ; TEZA, P. ; DANDOLINI, G. A. ; SOUZA, João Artur de		
trabalhoCompletoEmCongresso	2014		Diretório de conhecimento: o caso SENAI-CE	12º. Congresso Brasileiro de Gestão do Conhecimento	SCHNEIDER, V. ; SELL, D. ; TODESCO, José Leomar ; NOWASKY, R. ; PACHECO, Roberto Carlos dos Santos ; SALM JR, J. F. ; SOARES, J. W. F. ; NUNES, F. R. M.		
trabalhoCompletoEmCongresso	2014		Estudio bibliográfico de los temas de aprendizaje y gestión de la innovación usando la herramienta PROKNOW-C KNOWLEDGE DEVELOPMENT PROCESS - CONSTRUCTIVIST	IBERGECYT 2014	SELIG, PAULO MAURICIO		
trabalhoCompletoEmCongresso	2014		Método para estruturação de sistemas de monitoramento do desenvolvimento sustentável em municípios catarinenses	19º Encontro Ibero Americano de Governo Eletrônico e Inclusão Digital	SELL, D.; DEBETIR, E. ; TURNES, V. A. ; SALM JR, J. F. ; JARA, E. J.		
trabalhoCompletoEmCongresso	2014		A abordagem behaviorista em projetos de Design com incentivo ao comportamento pró-ambiental	4º GAMPI Plural	SIBIRINO, R. S. ; FIGUEIREDO, L. F. G. ; Perassi, R.		
trabalhoCompletoEmCongresso	2014		Design Instrucional Contextualizado em Cursos On-line	ESUD - Congresso Brasileiro de Ensino Superior a Distânci	SILVA, A.R.L. ; FERNANDES, Maria Cristina P. ; SPANHOL, FERNANDO JOSÉ		
trabalhoCompletoEmCongresso	2014		Caracterização da marca gráfica Scielo	II Seminário de Informação e Comunicação da Marca - II SICOM/SIGMO/UFSC	SILVA, C. W. ; Perassi, R. ; TRISKA, R.		
trabalhoCompletoEmCongresso	2014		Influência do Design Thinking nas Maker Communities do Ensino Superior	VIII Workshop Red emprendeSUR ? Formação de empreendedores Universitários	SILVEIRA, D. C. ; LAPOLLI, P. C. ; ULBRICHT, Vania R. ; VANZIN, Tarcisio.		
trabalhoCompletoEmCongresso	2014		ESTADO DA ARTE DA PRODUÇÃO CIENTÍFICA SOBRE ENTERPRISE LINKED DATA	Linked Open Data Brasil - LOD Brasil	SPERONI, Rafael de Moura ; TRINDADE, E. P. ; KOSLOSKY, M. A. N. ; MACEDO, M. ; GAUTHIER, F. A. O.		
trabalhoCompletoEmCongresso	2014		Evaluación de la Calidad de Material Educativo en Repositorios y Y Federaciones de Objetos de Aprendizaje	II Congreso Internacional de Ingeniería Informática y Sistemas de Información	TABARES, V. ; MENDEZ, N. D. D. ; Silveira, R.A.		
trabalhoCompletoEmCongresso	2014	http://dx.doi.org/10.5151/designpro-CIDI-106	The sequential codes as mediators of interactivity in hypermedia narrative: an analysis of the eBook-APP Cinderella	6th Information Design International Conference	TEIXEIRA, DEGLAUCY JORGE ; GONÇALVES, BERENICE S. ; Pereira, Alice T. Cybis ; GONÇALVES, MARILIA MATOS		
trabalhoCompletoEmCongresso	2014	http://dx.doi.org/10.5151/designpro-ped-00717	A SINTAXE VISUAL NO DESIGN DE INTERFACE DO BOOK APP INFANTIL TREASURE KAI AND THE LOST GOLD SHARK ISLAND	11º Congresso Brasileiro de Pesquisa e Desenvolvimento em Design	TEIXEIRA, DEGLAUCY JORGE ; NUNES, JULIANE VARGAS ; GONÇALVES, BERENICE S. ; SOUSA, RICHARD PERASSI LUIZ DE		
trabalhoCompletoEmCongresso	2014		Análise dos Artigos Quantitativos Empíricos sobre Difusão e Adoção de Métodos, Técnicas e Ferramentas Para Inovação	VI Congresso Internacional de Conhecimento e Inovação	TEZA, P. ; BUCHELE, G. T. ; SOUZA, João Artur de ; DANDOLINI, G. A.		
trabalhoCompletoEmCongresso	2014		Práticas da inovação de marketing: uma revisão integrativa	12º. Congresso Brasileiro de Gestão do Conhecimento - KM Brasil 2014	NUNES, C. S. ; TORRES, M. K. L. ; DANDOLINI, G. A. ; SOUZA, João Artur de ; NAKAYAMA, M. K.		
trabalhoCompletoEmCongresso	2014		A importância do conhecimento organizacional para o processo de inovação no modelo de negócio	IV Congresso Internacional de Conocimiento y Innovación	TRIERVEILER, H. J. ; SELL, D. ; PACHECO, Roberto Carlos dos Santos		
trabalhoCompletoEmCongresso	2014		METODOS DE PESQUISA UTILIZADOS EM ESTUDOS SOBRE A IMPLANTAÇÃO DE MODELOS DE GESTÃO DO CONHECIMENTO PARA EMPRESAS DE PEQUENO E MÉDIO PORTE'	Congresso Internacional do Conhecimento e Inovação (CIKI)	TRINDADE, E. P. ; GAUTHIER, F. A. O. ; BASTOS, Rogerio Cid ; MACEDO, M.		
trabalhoCompletoEmCongresso	2014		ANÁLISE DO PROCESSO DE GESTÃO DO CONHECIMENTO EM UMA EMPRESA DE BASE TECNOLÓGICA DA CIDADE DE JOINVILLE-SC'	Congresso Internacional de Conhecimento e Inovação - ciKi	TRINDADE, E. P. ; OSINSKI, M. ; GAUTHIER, F. A. O. ; SELIG, P. M.		
trabalhoCompletoEmCongresso	2014		CRITICAL SUCCESS FACTORS FOR THE IMPLEMENTATION OF REVERSE LOGISTICS IN FIRMS	The 23rd International Conference for Management of Technology	VAZ, C. R. ; GRABOT, B. ; URIONA MALDONADO, M. ; SELIG, P. M. ; RODRIGUEZ, C. T.		
trabalhoCompletoEmCongresso	2014		Knowledge Management and Intellectual Capital: An Analysis of Maturity Models	The Fifth Asian Conference on Literature Librarianship (LibrAsia2015)	VAZ, C. R. ; INOMATA, D. O. ; URIONA MALDONADO, M. ; SELIG, P. M.		
trabalhoCompletoEmCongresso	2014		Análise do estado da arte do capital intelectual no contexto brasileiro	Congresso Internacional de Conhecimento e Inovação - ciKi	VAZ, C. R. ; INOMATA, D. O. ; URIONA MALDONADO, M. ; VARVAKIS, G. ; SOUZA, F. C. B.		
trabalhoCompletoEmCongresso	2014		A relação da Logística Reversa e o Fluxo de Informação: uma análise bibliométrica	Encontro Mineiro de Engenharia de Produção	VAZ, C. R. ; INOMATA, D. O. ; Varvakis, G. ; RODRIGUEZ, C. M. T. ; URIONA MALDONADO, M.		
trabalhoCompletoEmCongresso	2014		Capital Intelectual: Classificação, Formas de Mensuração e Questionamento sobre Usos Futuros	IV Congresso Internacional de Conhecimento e Inovação - ciKi	VAZ, C. R. ; Inomata, Danielly Oliveira ; VIEGAS, C. V. ; SELIG, P. M. ; VARVAKIS, G.		
trabalhoCompletoEmCongresso	2014		O ergodesign e a engenharia de usabilidade de interfaces como facilitadores para os usuários na busca de informações	11º Congresso Brasileiro de Pesquisa e Desenvolvimento em Design	VELA, J. C. ; SCHULENBURG, H. R. W. ; TRISKA, R. ; FIALHO, F. A. P.		
trabalhoCompletoEmCongresso	2014		Classificação de Objetos de Ensino e Aprendizagem Quanto ao Nível de Atenção do Estudante Baseada em Eletroencefalografia	IX Conferência Latino-Americana de Objetos eTecnologias de Aprendizagem- LACLO 2014	VELOSO, B. P. ; Pereira, Alice T. Cybis		
trabalhoCompletoEmCongresso	2014		Rumo a uma Plataforma Semântica de Conteúdos Educacionais Digitais: o Modelo Ontológico	25º Simpósio Brasileiro de Informática na Educação (SBIE)	VICARI, ROSA MARIA; GLUZ, João Carlos		
trabalhoCompletoEmCongresso	2014		Liderança Autêntica: Um Estudo Bibliométrico da Produção Científica	IV Congresso Internacional de Conhecimento e Inovação	VICENTINI, L. C. ; CUNHA, C. J. C. A.		
trabalhoCompletoEmCongresso	2014		Reflexões Sobre a Percepção do Capital Humano nas últimas Cinco Décadas	Knowledge Management Brasil 2014 - 12º Congresso Brasileiro de Gestão do Conhecimento (KM-Brasil 2014)	VIDOTTO, J. D. F. ; BENTANCOURT, Silvia M. P. ; BASTOS, Rogerio Cid		
trabalhoCompletoEmCongresso	2014		Between visions and images: re-reading MLP framework on Sustainability Transitions (ST)	Joint International Conference CIO-ICIEOM-IIIEC 2014	VIEGAS, C. V ; VAZ, C. R. ; GUSBERTI, T. ; WERUSTKY, V. D. G ; RADOS, Gregório Jean Varvakis ; GIUGLIANI, E. ; SELIG, P. M.		
trabalhoCompletoEmCongresso	2014		Proposta de explicitação do Capital Relacional na Gestão da Cadeia de Suprimentos Verde	Encontro Nacional de Engenharia de Produção	VIEGAS, C. V ; VAZ, C. R. ; SELIG, P. M. ; RADOS, G. J. V.		
trabalhoCompletoEmCongresso	2014		Análise da Influência da Legislação Trabalhista Brasileira sobre a Gestão das Empresas Privadas	14ª Mostra de Iniciação Científica	VIEIRA, A. C. P. ; MAGNUS, R.Q. ; FREIRE, P. S. ; TOPANOTTI, A.P.		
trabalhoCompletoEmCongresso	2014		Comunidades de inovação (CoIs): inoversidade em comunidades de prática (CoPs	IV Congresso Internacional do Conhecimento e Inovação	WILBERT, J. K. W. ; DANDOLINI, Gertrudes Aparecida ; SOUZA, João Artur de		
trabalhoCompletoEmCongresso	2014		Compartilhamento do Conhecimento em uma Empresa Pública Brasileira: Os Correios	12º. Congresso Brasileiro de Gestão do Conhecimento - KM Brasil 2014	WILBERT, J. K. W. ; DUARTE, K. B. ; KRAUSE, M. G. ; Mallmann, M. L. ; DANDOLINI, G. A. ; SOUZA, João Artur de ; LAPOLLI, Édis Mafra		
trabalhoCompletoEmCongresso	2014		GESTÃO DA INOVAÇÃO: análise em uma organização na área da construção civil de Santa Catarina	Convibra 2014	WILLERDING, I. A. V. ; TORQUATO, M. ; LAPOLLI, É. M.		
trabalhoCompletoEmCongresso	2014		INDICAÇÃO GEOGRÁFICA NO PROCESSO DE CRIAÇÃO DE CONHECIMENTO PARA O DESENVOLVIMENTO DE NOVAS COMPETÊNCIAS	4to. Congresso Internacional do Conhecimento e Inovação (CIKI 2014)	YAMAGUCHI, C. K. ; WATANABE, M. ; FREIRE, P. S. ; VIEIRA, A. C. P.		
trabalhoCompletoEmCongresso	2014		Análise de patentes mundiais sobre produtos amazônicos: o caso do Guaraná	III Seminário Hispano-Brasileño de Investigación en Informacion	YANAI, A. E. ; INOMATA, D. O. ; VARVAKIS, GREGÓRIO ; FARIA, L. I. L.		
trabalhoCompletoEmCongresso	2014		Uma proposta de requisitos para repositórios de recursos educacionais abertos com foco na disseminação do conhecimento	III Congresso internacional TIC e educação - ticEDUCA 2014	ZANCANARO, A. ; TODESCO, J. L. ; DANDOLINI, G. A. ; RAMOS, F.		
resumoExpandidoEmCongresso	2014	Sound Design in Interactive Environments	HCI International, 2014, Heraklion, Crete, Greece. HCI International 2014 ? Posters? Extended Abstracts. Heidelberg, Switzerland: Springer International Publishing	Carvalho, Luiz Roberto ; PEREIRA, A. T. C.		
resumoExpandidoEmCongresso	2014	New Roles of the Teacher and Students in the Digital Technology Era	Ed-Media 2014 - World Conference on Educational Media and Technology, 2014, Tampere. Ed-Meida 2014. Tampere	CATAPAN, A. H.; Rose Maria Belim Motter		
resumoExpandidoEmCongresso	2014	A inovação organizacional para o desenvolvimento socioeconômico: um estudo bibliométrico	IV Seminário de Ciências Sociais Aplicadas, 2014, Criciuúma. IV Seminário de Ciências Sociais Aplicadas. Criciuma: UNESC	DAGOSTIN N.T. ; FREIRE, P. S.		
resumoExpandidoEmCongresso	2014	Características bloqueadoras e potencializadoras da inovação em empresa familiar	III Congreso Internacional de Posgrados e Investigaciones Latinos en Administración y Estudios Organizacionales, 2014, Porto Alegre e São Leopoldo. III Congreso Internacional de Posgrados e Investigaciones Latinos en Administración y Estudios Organizacionales. Porto Alegre: UFRGS	ESTEVAM, Vanessa ; FREIRE, P. S. ; MACCARI, G.M.		
resumoExpandidoEmCongresso	2014	Inventário de características da liderança para inovação em empresas familiares	III Congreso Internacional de Posgrados e Investigaciones Latinos en Administración y Estudios Organizacionales, 2014, Porto Alegre e São Leopoldo. III Congreso Internacional de Posgrados e Investigaciones Latinos en Administración y Estudios Organizacionales. Porto Alegre: UFRGS	ESTEVAM, Vanessa ; FREIRE, P. S. ; TOPANOTTI, A.P.		
resumoExpandidoEmCongresso	2014	Programa de Extensão Universitária para a inovação como prática geradora de desenvolvimento socioeconômico regional: o estudo de caso da Universidade do Extremo Sul Catarinense	IV Seminário de Ciências Sociais Aplicadas, 2014, Criciúma. IV Seminário de Ciências Sociais Aplicadas. UNESC: UNESC	FREIRE, P. S.; VIEIRA, A. C. P. ; JEREMIAS, R.V.		
resumoExpandidoEmCongresso	2014	PROGRAMA DE EXTENSÃO UNIVERSITÁRIA PARA A INOVAÇÃO COMO PRÁTICA GERADORA DE DESENVOLVIMENTO SOCIOECONÔMICO REGIONAL: O ESTUDO DE CASO DA UNIVERSIDADE DO EXTREMO SUL CATARINENSE	V Semana de Ciências Tecnologia para o Desenvolvimento Social, 2014, Criciúma. V Semana de Ciências Tecnologia para o Desenvolvimento Social. Criciuma: UNESC/SC	JEREMIAS, R.V. ; VIEIRA, A. C. P. ; FREIRE, P. S.		
resumoExpandidoEmCongresso	2014	Revisão por pares na aprendizagem: 17 anos de prática e pesquisa no Projeto Par	Colóquio Internacional Tendências Contemporâneas da Comunicação Científica, II, 2014, Florianópolis. Anais	KERN, Vinícius Medina		
resumoExpandidoEmCongresso	2014	Botucatu-SP: ABEC Associação Brasileira de Editores Científicos)		KERN, Vinícius Medina. Atores, fatores, relações e mecanismos da revisão por pares editorial. In: Workshop de Editoração Científica (WEC), VIII, 2014, Campos do Jordão-SP. Anais..		
resumoExpandidoEmCongresso	2014	Análise da influência negativa da legislação trabalhista brasileira nas organizações privadas	IV Seminário de Ciências Sociais Aplicadas, 2014, Criciúma. IV Seminário de Ciências Sociais Aplicadas. Criciuma: UNESC	MAGNUS, R.Q. ; FREIRE, P. S.		
resumoExpandidoEmCongresso	2014	Compartilhamento, integração e institucionalização do conhecimento em rede: um estudo de multi casos no setor de confecção do vale de Araranguá/SC	IV Seminário de Ciências Sociais Aplicadas, 2014, Criciúma. IV Seminário de Ciências Sociais Aplicadas. Criciúma: UNESC	OLIVEIRA, E.S. ; VIEIRA, A. C. P. ; FREIRE, P. S.		
resumoExpandidoEmCongresso	2014	APRENDIZAGEM ORGANIZACIONAL COMO FATOR DE INOVAÇÃO	V Semana de Ciências Tecnologia para o Desenvolvimento Social, 2014, Criciuma. V Semana de Ciências Tecnologia para o Desenvolvimento Social	OLIVEIRA, E.S. ; VIEIRA, A. C. P. ; FREIRE, P. S.		
resumoExpandidoEmCongresso	2014	Influência dos processos de recompensar e desenvolver pessoas na motivação dos funcionários: estudo de caso do setor metalúrgico	IV Seminário de Ciências Sociais Aplicadas, 2014, Criciúma. IV Seminário de Ciências Sociais Aplicadas. UNESC: unesc	PERRARO, J. ; FREIRE, P. S.		
resumoExpandidoEmCongresso	2014	Vantagens e desafios da implantação do modelo de gestão industrial flexível em pequenas e médias empresas brasileiras	IV Seminário de Ciências Sociais Aplicadas, 2014, Criciúma. IV Seminário de Ciências Sociais Aplicadas. Criciúma: UNESC	SIMON, R.M. ; FREIRE, P. S.		
resumoExpandidoEmCongresso	2014	Inventário de características da liderança para inovação em empresas familiares	IV Seminário de Ciências Sociais Aplicadas, 2014, Criciúma. IV Seminário de Ciências Sociais Aplicadas. Criciúma: UNESC	TOPANOTTI, A.P. ; FREIRE, P. S.		
